03   08  30  00 1.52115
06   13  45  00 0.68447
06   16  15  00 0.54625
06   16  45  00 0.48968
10   08  30  00 0.74132
10   11  30  00 0.86677
10   11  45  00 0.87823
10   12  00  00 0.87125
10   12  15  00 0.87798
10   12  30  00 0.88323
10   12  45  00 0.89898
10   13  00  00 0.91311
11   08  45  00 1.33535
11   09  00  00 1.17624
11   09  15  00 1.17533
11   09  30  00 1.1958
11   09  45  00 1.21366
11   10  00  00 1.24515
11   10  15  00 1.27354
11   10  30  00 1.29668
11   10  45  00 1.32372
11   11  00  00 1.30092
12   07  30  00 0.97606
12   07  45  00 0.99625
12   08  00  00 1.00543
12   08  15  00 1.01832
12   08  30  00 1.0366
12   08  45  00 1.03043
12   09  00  00 1.08681
12   09  15  00 1.04626
12   09  30  00 1.00146
12   09  45  00 1.01191
12   10  00  00 1.01402
12   10  15  00 1.03422
12   10  30  00 1.07834
12   10  45  00 1.10021
12   11  00  00 1.08362
12   11  15  00 1.04427
12   11  30  00 1.06655
13   09  00  00 0.71839
13   09  15  00 0.73116
13   09  30  00 0.75793
13   09  45  00 0.77646
13   10  00  00 0.79903
13   11  30  00 0.86812
13   12  30  00 0.88838
13   12  45  00 0.88877
15   14  15  00 0.85189
16   13  15  00 0.67373
16   13  30  00 0.67053
16   14  15  00 0.63305
16   15  15  00 0.58711
17   08  00  00 0.73986
17   09  00  00 0.69776
17   09  30  00 0.69974
17   10  45  00 0.71114
18   08  45  00 0.62475
18   09  15  00 0.63829
18   10  30  00 0.63823
18   11  45  00 0.60674
19   08  30  00 0.57831
20   08  15  00 0.53622
20   09  30  00 0.60706
20   10  15  00 0.6149