%!PS-Adobe-3.0 EPSF-3.0
%%Title: new_alg/02/02_RAW_tau.eps
%%Creator: matplotlib version 3.0.2, http://matplotlib.org/
%%CreationDate: Wed Apr 10 12:47:21 2019
%%Orientation: portrait
%%BoundingBox: 75 223 536 568
%%EndComments
%%BeginProlog
/mpldict 9 dict def
mpldict begin
/m { moveto } bind def
/l { lineto } bind def
/r { rlineto } bind def
/c { curveto } bind def
/cl { closepath } bind def
/box {
m
1 index 0 r
0 exch r
neg 0 r
cl
} bind def
/clipbox {
box
clip
newpath
} bind def
%!PS-Adobe-3.0 Resource-Font
%%Title: DejaVu Sans
%%Copyright: Copyright (c) 2003 by Bitstream, Inc. All Rights Reserved. Copyright (c) 2006 by Tavmjong Bah. All Rights Reserved. DejaVu changes are in public domain 
%%Creator: Converted from TrueType to type 3 by PPR
25 dict begin
/_d{bind def}bind def
/_m{moveto}_d
/_l{lineto}_d
/_cl{closepath eofill}_d
/_c{curveto}_d
/_sc{7 -1 roll{setcachedevice}{pop pop pop pop pop pop}ifelse}_d
/_e{exec}_d
/FontName /DejaVuSans def
/PaintType 0 def
/FontMatrix[.001 0 0 .001 0 0]def
/FontBBox[-1021 -463 1793 1232]def
/FontType 3 def
/Encoding [ /space /comma /period /zero /one /two /three /four /five /six /eight /a /d /e /i /m /s /t /y ] def
/FontInfo 10 dict dup begin
/FamilyName (DejaVu Sans) def
/FullName (DejaVu Sans) def
/Notice (Copyright (c) 2003 by Bitstream, Inc. All Rights Reserved. Copyright (c) 2006 by Tavmjong Bah. All Rights Reserved. DejaVu changes are in public domain ) def
/Weight (Book) def
/Version (Version 2.35) def
/ItalicAngle 0.0 def
/isFixedPitch false def
/UnderlinePosition -130 def
/UnderlineThickness 90 def
end readonly def
/CharStrings 20 dict dup begin
/.notdef 0 def
/space{318 0 0 0 0 0 _sc
}_d
/comma{318 0 77 -115 220 124 _sc
117 124 _m
220 124 _l
220 40 _l
140 -115 _l
77 -115 _l
117 40 _l
117 124 _l
_cl}_d
/period{318 0 107 0 210 124 _sc
107 124 _m
210 124 _l
210 0 _l
107 0 _l
107 124 _l
_cl}_d
/zero{636 0 66 -13 570 742 _sc
318 664 _m
267 664 229 639 203 589 _c
177 539 165 464 165 364 _c
165 264 177 189 203 139 _c
229 89 267 64 318 64 _c
369 64 407 89 433 139 _c
458 189 471 264 471 364 _c
471 464 458 539 433 589 _c
407 639 369 664 318 664 _c
318 742 _m
399 742 461 709 505 645 _c
548 580 570 486 570 364 _c
570 241 548 147 505 83 _c
461 19 399 -13 318 -13 _c
236 -13 173 19 130 83 _c
87 147 66 241 66 364 _c
66 486 87 580 130 645 _c
173 709 236 742 318 742 _c
_cl}_d
/one{636 0 110 0 544 729 _sc
124 83 _m
285 83 _l
285 639 _l
110 604 _l
110 694 _l
284 729 _l
383 729 _l
383 83 _l
544 83 _l
544 0 _l
124 0 _l
124 83 _l
_cl}_d
/two{{636 0 73 0 536 742 _sc
192 83 _m
536 83 _l
536 0 _l
73 0 _l
73 83 _l
110 121 161 173 226 239 _c
290 304 331 346 348 365 _c
380 400 402 430 414 455 _c
426 479 433 504 433 528 _c
433 566 419 598 392 622 _c
365 646 330 659 286 659 _c
255 659 222 653 188 643 _c
154 632 117 616 78 594 _c
78 694 _l
118 710 155 722 189 730 _c
223 738 255 742 284 742 _c
}_e{359 742 419 723 464 685 _c
509 647 532 597 532 534 _c
532 504 526 475 515 449 _c
504 422 484 390 454 354 _c
446 344 420 317 376 272 _c
332 227 271 164 192 83 _c
_cl}_e}_d
/three{{636 0 76 -13 556 742 _sc
406 393 _m
453 383 490 362 516 330 _c
542 298 556 258 556 212 _c
556 140 531 84 482 45 _c
432 6 362 -13 271 -13 _c
240 -13 208 -10 176 -4 _c
144 1 110 10 76 22 _c
76 117 _l
103 101 133 89 166 81 _c
198 73 232 69 268 69 _c
330 69 377 81 409 105 _c
441 129 458 165 458 212 _c
458 254 443 288 413 312 _c
383 336 341 349 287 349 _c
}_e{202 349 _l
202 430 _l
291 430 _l
339 430 376 439 402 459 _c
428 478 441 506 441 543 _c
441 580 427 609 401 629 _c
374 649 336 659 287 659 _c
260 659 231 656 200 650 _c
169 644 135 635 98 623 _c
98 711 _l
135 721 170 729 203 734 _c
235 739 266 742 296 742 _c
370 742 429 725 473 691 _c
517 657 539 611 539 553 _c
539 513 527 479 504 451 _c
481 423 448 403 406 393 _c
_cl}_e}_d
/four{636 0 49 0 580 729 _sc
378 643 _m
129 254 _l
378 254 _l
378 643 _l
352 729 _m
476 729 _l
476 254 _l
580 254 _l
580 172 _l
476 172 _l
476 0 _l
378 0 _l
378 172 _l
49 172 _l
49 267 _l
352 729 _l
_cl}_d
/five{{636 0 77 -13 549 729 _sc
108 729 _m
495 729 _l
495 646 _l
198 646 _l
198 467 _l
212 472 227 476 241 478 _c
255 480 270 482 284 482 _c
365 482 429 459 477 415 _c
525 370 549 310 549 234 _c
549 155 524 94 475 51 _c
426 8 357 -13 269 -13 _c
238 -13 207 -10 175 -6 _c
143 -1 111 6 77 17 _c
77 116 _l
106 100 136 88 168 80 _c
199 72 232 69 267 69 _c
}_e{323 69 368 83 401 113 _c
433 143 450 183 450 234 _c
450 284 433 324 401 354 _c
368 384 323 399 267 399 _c
241 399 214 396 188 390 _c
162 384 135 375 108 363 _c
108 729 _l
_cl}_e}_d
/six{{636 0 70 -13 573 742 _sc
330 404 _m
286 404 251 388 225 358 _c
199 328 186 286 186 234 _c
186 181 199 139 225 109 _c
251 79 286 64 330 64 _c
374 64 409 79 435 109 _c
461 139 474 181 474 234 _c
474 286 461 328 435 358 _c
409 388 374 404 330 404 _c
526 713 _m
526 623 _l
501 635 476 644 451 650 _c
425 656 400 659 376 659 _c
310 659 260 637 226 593 _c
}_e{192 549 172 482 168 394 _c
187 422 211 444 240 459 _c
269 474 301 482 336 482 _c
409 482 467 459 509 415 _c
551 371 573 310 573 234 _c
573 159 550 99 506 54 _c
462 9 403 -13 330 -13 _c
246 -13 181 19 137 83 _c
92 147 70 241 70 364 _c
70 479 97 571 152 639 _c
206 707 280 742 372 742 _c
396 742 421 739 447 735 _c
472 730 498 723 526 713 _c
_cl}_e}_d
/eight{{636 0 68 -13 568 742 _sc
318 346 _m
271 346 234 333 207 308 _c
180 283 167 249 167 205 _c
167 161 180 126 207 101 _c
234 76 271 64 318 64 _c
364 64 401 76 428 102 _c
455 127 469 161 469 205 _c
469 249 455 283 429 308 _c
402 333 365 346 318 346 _c
219 388 _m
177 398 144 418 120 447 _c
96 476 85 511 85 553 _c
85 611 105 657 147 691 _c
188 725 245 742 318 742 _c
}_e{390 742 447 725 489 691 _c
530 657 551 611 551 553 _c
551 511 539 476 515 447 _c
491 418 459 398 417 388 _c
464 377 501 355 528 323 _c
554 291 568 251 568 205 _c
568 134 546 80 503 43 _c
459 5 398 -13 318 -13 _c
237 -13 175 5 132 43 _c
89 80 68 134 68 205 _c
68 251 81 291 108 323 _c
134 355 171 377 219 388 _c
183 544 _m
183 506 194 476 218 455 _c
}_e{242 434 275 424 318 424 _c
360 424 393 434 417 455 _c
441 476 453 506 453 544 _c
453 582 441 611 417 632 _c
393 653 360 664 318 664 _c
275 664 242 653 218 632 _c
194 611 183 582 183 544 _c
_cl}_e}_d
/a{{613 0 60 -13 522 560 _sc
343 275 _m
270 275 220 266 192 250 _c
164 233 150 205 150 165 _c
150 133 160 107 181 89 _c
202 70 231 61 267 61 _c
317 61 357 78 387 114 _c
417 149 432 196 432 255 _c
432 275 _l
343 275 _l
522 312 _m
522 0 _l
432 0 _l
432 83 _l
411 49 385 25 355 10 _c
325 -5 287 -13 243 -13 _c
187 -13 142 2 109 33 _c
76 64 60 106 60 159 _c
}_e{60 220 80 266 122 298 _c
163 329 224 345 306 345 _c
432 345 _l
432 354 _l
432 395 418 427 391 450 _c
364 472 326 484 277 484 _c
245 484 215 480 185 472 _c
155 464 127 453 100 439 _c
100 522 _l
132 534 164 544 195 550 _c
226 556 256 560 286 560 _c
365 560 424 539 463 498 _c
502 457 522 395 522 312 _c
_cl}_e}_d
/d{{635 0 55 -13 544 760 _sc
454 464 _m
454 760 _l
544 760 _l
544 0 _l
454 0 _l
454 82 _l
435 49 411 25 382 10 _c
353 -5 319 -13 279 -13 _c
213 -13 159 13 117 65 _c
75 117 55 187 55 273 _c
55 359 75 428 117 481 _c
159 533 213 560 279 560 _c
319 560 353 552 382 536 _c
411 520 435 496 454 464 _c
148 273 _m
148 207 161 155 188 117 _c
215 79 253 61 301 61 _c
}_e{348 61 385 79 413 117 _c
440 155 454 207 454 273 _c
454 339 440 390 413 428 _c
385 466 348 485 301 485 _c
253 485 215 466 188 428 _c
161 390 148 339 148 273 _c
_cl}_e}_d
/e{{615 0 55 -13 562 560 _sc
562 296 _m
562 252 _l
149 252 _l
153 190 171 142 205 110 _c
238 78 284 62 344 62 _c
378 62 412 66 444 74 _c
476 82 509 95 541 113 _c
541 28 _l
509 14 476 3 442 -3 _c
408 -9 373 -13 339 -13 _c
251 -13 182 12 131 62 _c
80 112 55 181 55 268 _c
55 357 79 428 127 481 _c
175 533 241 560 323 560 _c
397 560 455 536 498 489 _c
}_e{540 441 562 377 562 296 _c
472 322 _m
471 371 457 410 431 440 _c
404 469 368 484 324 484 _c
274 484 234 469 204 441 _c
174 413 156 373 152 322 _c
472 322 _l
_cl}_e}_d
/i{278 0 94 0 184 760 _sc
94 547 _m
184 547 _l
184 0 _l
94 0 _l
94 547 _l
94 760 _m
184 760 _l
184 646 _l
94 646 _l
94 760 _l
_cl}_d
/m{{974 0 91 0 889 560 _sc
520 442 _m
542 482 569 511 600 531 _c
631 550 668 560 711 560 _c
767 560 811 540 842 500 _c
873 460 889 403 889 330 _c
889 0 _l
799 0 _l
799 327 _l
799 379 789 418 771 444 _c
752 469 724 482 686 482 _c
639 482 602 466 575 435 _c
548 404 535 362 535 309 _c
535 0 _l
445 0 _l
445 327 _l
445 379 435 418 417 444 _c
398 469 369 482 331 482 _c
}_e{285 482 248 466 221 435 _c
194 404 181 362 181 309 _c
181 0 _l
91 0 _l
91 547 _l
181 547 _l
181 462 _l
201 495 226 520 255 536 _c
283 552 317 560 357 560 _c
397 560 430 550 458 530 _c
486 510 506 480 520 442 _c
_cl}_e}_d
/s{{521 0 54 -13 472 560 _sc
443 531 _m
443 446 _l
417 458 391 468 364 475 _c
336 481 308 485 279 485 _c
234 485 200 478 178 464 _c
156 450 145 430 145 403 _c
145 382 153 366 169 354 _c
185 342 217 330 265 320 _c
296 313 _l
360 299 405 279 432 255 _c
458 230 472 195 472 151 _c
472 100 452 60 412 31 _c
372 1 316 -13 246 -13 _c
216 -13 186 -10 154 -5 _c
}_e{122 0 89 8 54 20 _c
54 113 _l
87 95 120 82 152 74 _c
184 65 216 61 248 61 _c
290 61 323 68 346 82 _c
368 96 380 117 380 144 _c
380 168 371 187 355 200 _c
339 213 303 226 247 238 _c
216 245 _l
160 257 119 275 95 299 _c
70 323 58 356 58 399 _c
58 450 76 490 112 518 _c
148 546 200 560 268 560 _c
301 560 332 557 362 552 _c
391 547 418 540 443 531 _c
}_e{_cl}_e}_d
/t{392 0 27 0 368 702 _sc
183 702 _m
183 547 _l
368 547 _l
368 477 _l
183 477 _l
183 180 _l
183 135 189 106 201 94 _c
213 81 238 75 276 75 _c
368 75 _l
368 0 _l
276 0 _l
206 0 158 13 132 39 _c
106 65 93 112 93 180 _c
93 477 _l
27 477 _l
27 547 _l
93 547 _l
93 702 _l
183 702 _l
_cl}_d
/y{592 0 30 -207 562 547 _sc
322 -50 _m
296 -114 271 -157 247 -177 _c
223 -197 191 -207 151 -207 _c
79 -207 _l
79 -132 _l
132 -132 _l
156 -132 175 -126 189 -114 _c
203 -102 218 -75 235 -31 _c
251 9 _l
30 547 _l
125 547 _l
296 119 _l
467 547 _l
562 547 _l
322 -50 _l
_cl}_d
end readonly def

/BuildGlyph
 {exch begin
 CharStrings exch
 2 copy known not{pop /.notdef}if
 true 3 1 roll get exec
 end}_d

/BuildChar {
 1 index /Encoding get exch get
 1 index /BuildGlyph get exec
}_d

FontName currentdict end definefont pop
%!PS-Adobe-3.0 Resource-Font
%%Title: DejaVu Sans Oblique
%%Copyright: Copyright (c) 2003 by Bitstream, Inc. All Rights Reserved. Copyright (c) 2006 by Tavmjong Bah. All Rights Reserved. DejaVu changes are in public domain 
%%Creator: Converted from TrueType to type 3 by PPR
25 dict begin
/_d{bind def}bind def
/_m{moveto}_d
/_l{lineto}_d
/_cl{closepath eofill}_d
/_c{curveto}_d
/_sc{7 -1 roll{setcachedevice}{pop pop pop pop pop pop}ifelse}_d
/_e{exec}_d
/FontName /DejaVuSans-Oblique def
/PaintType 0 def
/FontMatrix[.001 0 0 .001 0 0]def
/FontBBox[-1016 -350 1659 1068]def
/FontType 3 def
/Encoding [ /tau ] def
/FontInfo 10 dict dup begin
/FamilyName (DejaVu Sans) def
/FullName (DejaVu Sans Oblique) def
/Notice (Copyright (c) 2003 by Bitstream, Inc. All Rights Reserved. Copyright (c) 2006 by Tavmjong Bah. All Rights Reserved. DejaVu changes are in public domain ) def
/Weight (Oblique) def
/Version (Version 2.35) def
/ItalicAngle -11.0 def
/isFixedPitch false def
/UnderlinePosition -130 def
/UnderlineThickness 90 def
end readonly def
/CharStrings 2 dict dup begin
/.notdef 0 def
/tau{602 0 84 0 606 547 _sc
329 100 _m
337 84 359 76 395 76 _c
438 76 _l
423 0 _l
369 0 _l
310 0 270 15 250 47 _c
229 79 226 129 240 198 _c
290 457 _l
84 457 _l
102 547 _l
606 547 _l
589 457 _l
382 457 _l
330 193 _l
320 145 320 114 329 100 _c
_cl}_d
end readonly def

/BuildGlyph
 {exch begin
 CharStrings exch
 2 copy known not{pop /.notdef}if
 true 3 1 roll get exec
 end}_d

/BuildChar {
 1 index /Encoding get exch get
 1 index /BuildGlyph get exec
}_d

FontName currentdict end definefont pop
end
%%EndProlog
mpldict begin
75.6 223.2 translate
460.8 345.6 0 0 clipbox
gsave
0 0 m
460.8 0 l
460.8 345.6 l
0 345.6 l
cl
1.000 setgray
fill
grestore
gsave
57.6 38.016 m
414.72 38.016 l
414.72 304.128 l
57.6 304.128 l
cl
1.000 setgray
fill
grestore
0.800 setlinewidth
1 setlinejoin
0 setlinecap
[] 0 setdash
0.000 setgray
gsave
/o {
gsave
newpath
translate
0.8 setlinewidth
1 setlinejoin
0 setlinecap
0 0 m
0 -3.5 l

gsave
0.000 setgray
fill
grestore
stroke
grestore
} bind def
62.1915 38.016 o
grestore
/DejaVuSans findfont
10.000 scalefont
setfont
gsave
59.011832 23.422250 translate
0.000000 rotate
0.000000 0.000000 m /zero glyphshow
grestore
gsave
/o {
gsave
newpath
translate
0.8 setlinewidth
1 setlinejoin
0 setlinecap
0 0 m
0 -3.5 l

gsave
0.000 setgray
fill
grestore
stroke
grestore
} bind def
120.182 38.016 o
grestore
gsave
117.002421 23.422250 translate
0.000000 rotate
0.000000 0.000000 m /five glyphshow
grestore
gsave
/o {
gsave
newpath
translate
0.8 setlinewidth
1 setlinejoin
0 setlinecap
0 0 m
0 -3.5 l

gsave
0.000 setgray
fill
grestore
stroke
grestore
} bind def
178.173 38.016 o
grestore
gsave
171.813324 23.422250 translate
0.000000 rotate
0.000000 0.000000 m /one glyphshow
6.362305 0.000000 m /zero glyphshow
grestore
gsave
/o {
gsave
newpath
translate
0.8 setlinewidth
1 setlinejoin
0 setlinecap
0 0 m
0 -3.5 l

gsave
0.000 setgray
fill
grestore
stroke
grestore
} bind def
236.163 38.016 o
grestore
gsave
229.803914 23.422250 translate
0.000000 rotate
0.000000 0.000000 m /one glyphshow
6.362305 0.000000 m /five glyphshow
grestore
gsave
/o {
gsave
newpath
translate
0.8 setlinewidth
1 setlinejoin
0 setlinecap
0 0 m
0 -3.5 l

gsave
0.000 setgray
fill
grestore
stroke
grestore
} bind def
294.154 38.016 o
grestore
gsave
287.794504 23.422250 translate
0.000000 rotate
0.000000 0.000000 m /two glyphshow
6.362305 0.000000 m /zero glyphshow
grestore
gsave
/o {
gsave
newpath
translate
0.8 setlinewidth
1 setlinejoin
0 setlinecap
0 0 m
0 -3.5 l

gsave
0.000 setgray
fill
grestore
stroke
grestore
} bind def
352.144 38.016 o
grestore
gsave
345.785094 23.422250 translate
0.000000 rotate
0.000000 0.000000 m /two glyphshow
6.362305 0.000000 m /five glyphshow
grestore
gsave
/o {
gsave
newpath
translate
0.8 setlinewidth
1 setlinejoin
0 setlinecap
0 0 m
0 -3.5 l

gsave
0.000 setgray
fill
grestore
stroke
grestore
} bind def
410.135 38.016 o
grestore
gsave
403.775684 23.422250 translate
0.000000 rotate
0.000000 0.000000 m /three glyphshow
6.362305 0.000000 m /zero glyphshow
grestore
gsave
209.863125 9.750375 translate
0.000000 rotate
0.000000 0.000000 m /t glyphshow
3.920898 0.000000 m /i glyphshow
6.699219 0.000000 m /m glyphshow
16.440430 0.000000 m /e glyphshow
22.592773 0.000000 m /comma glyphshow
25.771484 0.000000 m /space glyphshow
28.950195 0.000000 m /d glyphshow
35.297852 0.000000 m /a glyphshow
41.425781 0.000000 m /y glyphshow
47.343750 0.000000 m /s glyphshow
grestore
gsave
/o {
gsave
newpath
translate
0.8 setlinewidth
1 setlinejoin
0 setlinecap
0 0 m
-3.5 0 l

gsave
0.000 setgray
fill
grestore
stroke
grestore
} bind def
57.6 73.3672 o
grestore
gsave
34.693750 69.570343 translate
0.000000 rotate
0.000000 0.000000 m /zero glyphshow
6.362305 0.000000 m /period glyphshow
9.541016 0.000000 m /two glyphshow
grestore
gsave
/o {
gsave
newpath
translate
0.8 setlinewidth
1 setlinejoin
0 setlinecap
0 0 m
-3.5 0 l

gsave
0.000 setgray
fill
grestore
stroke
grestore
} bind def
57.6 114.778 o
grestore
gsave
34.693750 110.981211 translate
0.000000 rotate
0.000000 0.000000 m /zero glyphshow
6.362305 0.000000 m /period glyphshow
9.541016 0.000000 m /four glyphshow
grestore
gsave
/o {
gsave
newpath
translate
0.8 setlinewidth
1 setlinejoin
0 setlinecap
0 0 m
-3.5 0 l

gsave
0.000 setgray
fill
grestore
stroke
grestore
} bind def
57.6 156.189 o
grestore
gsave
34.693750 152.392079 translate
0.000000 rotate
0.000000 0.000000 m /zero glyphshow
6.362305 0.000000 m /period glyphshow
9.541016 0.000000 m /six glyphshow
grestore
gsave
/o {
gsave
newpath
translate
0.8 setlinewidth
1 setlinejoin
0 setlinecap
0 0 m
-3.5 0 l

gsave
0.000 setgray
fill
grestore
stroke
grestore
} bind def
57.6 197.6 o
grestore
gsave
34.693750 193.802947 translate
0.000000 rotate
0.000000 0.000000 m /zero glyphshow
6.362305 0.000000 m /period glyphshow
9.541016 0.000000 m /eight glyphshow
grestore
gsave
/o {
gsave
newpath
translate
0.8 setlinewidth
1 setlinejoin
0 setlinecap
0 0 m
-3.5 0 l

gsave
0.000 setgray
fill
grestore
stroke
grestore
} bind def
57.6 239.011 o
grestore
gsave
34.693750 235.213815 translate
0.000000 rotate
0.000000 0.000000 m /one glyphshow
6.362305 0.000000 m /period glyphshow
9.541016 0.000000 m /zero glyphshow
grestore
gsave
/o {
gsave
newpath
translate
0.8 setlinewidth
1 setlinejoin
0 setlinecap
0 0 m
-3.5 0 l

gsave
0.000 setgray
fill
grestore
stroke
grestore
} bind def
57.6 280.422 o
grestore
gsave
34.693750 276.624684 translate
0.000000 rotate
0.000000 0.000000 m /one glyphshow
6.362305 0.000000 m /period glyphshow
9.541016 0.000000 m /two glyphshow
grestore
gsave
28.615625 167.572000 translate
90.000000 rotate
/DejaVuSans-Oblique findfont
10.0 scalefont
setfont
0.000000 0.531250 moveto
/tau glyphshow


grestore
1.500 setlinewidth
2 setlinecap
0.000 0.750 0.750 setrgbcolor
gsave
357.1 266.1 57.6 38.02 clipbox
73.832727 61.600902 m
73.91327 61.816712 l
74.235305 66.134182 l
74.476933 61.456978 l
74.638018 59.771532 l
74.879645 60.863135 l
75.121273 60.62401 l
75.201815 60.696864 l
75.604662 62.911889 l
75.846155 64.287025 l
76.00724 63.600118 l
76.571172 60.849776 l
77.215512 62.049254 l
77.537547 63.534877 l
77.779175 63.791065 l
78.020937 62.712498 l
78.584734 60.096923 l
79.067989 58.727288 l
79.309616 58.635675 l
79.551244 58.844656 l
79.873414 59.411879 l
80.115041 59.881673 l
80.195584 59.896418 l
80.276126 59.77743 l
80.356669 59.90647 l
80.678839 65.60043 l
80.759515 64.912316 l
81.001143 61.344545 l
81.081685 61.373587 l
81.323313 61.728325 l
81.645348 59.698504 l
82.289957 64.902022 l
82.611992 59.808383 l
82.934162 55.501227 l
83.014705 55.506008 l
83.417283 57.497647 l
83.739453 58.958592 l
83.981215 59.424536 l
84.303385 59.442459 l
84.62542 59.720606 l
84.867182 59.636502 l
85.350437 57.951609 l
85.592064 57.433234 l
86.23627 58.334817 l
86.800202 60.22165 l
87.444407 53.62662 l
87.685901 56.151825 l
88.008205 61.901447 l
88.088747 63.642769 l
88.330375 60.242157 l
88.49146 60.625572 l
88.572002 60.065111 l
88.652545 65.181195 l
88.894306 55.982346 l
89.055391 66.725961 l
89.1358 58.659029 l
89.216476 61.954337 l
89.458104 59.15039 l
89.538646 58.699842 l
89.78014 64.1345 l
89.941359 59.80477 l
90.102309 58.901624 l
90.182852 58.981172 l
90.343937 58.546171 l
90.505022 59.380869 l
90.666241 58.64038 l
90.746784 58.906519 l
90.907869 58.576163 l
90.988411 58.45123 l
91.310581 57.142941 l
91.552208 57.875473 l
91.632751 58.096709 l
91.713293 58.029797 l
91.79397 57.828958 l
92.116006 55.853087 l
92.277225 57.514565 l
92.357768 57.198822 l
92.518852 58.404013 l
92.679937 56.879776 l
92.76048 57.705314 l
93.08265 56.402307 l
93.163192 56.116058 l
93.405088 59.102971 l
93.485631 57.517014 l
93.646716 63.729129 l
93.727258 62.998057 l
93.807801 63.902665 l
93.968886 67.507613 l
94.129836 68.550071 l
94.210379 70.229603 l
94.371732 66.583575 l
94.532817 67.924539 l
95.096749 63.316434 l
95.257834 61.580261 l
95.338511 61.480308 l
95.499461 63.741488 l
95.580272 58.715201 l
95.660815 60.917489 l
95.741357 59.521153 l
96.063527 61.574639 l
96.224612 60.997867 l
96.305155 64.297207 l
96.546916 60.948273 l
96.627459 63.138233 l
96.708001 60.950893 l
96.788544 62.190079 l
97.030171 61.109005 l
97.191256 60.662525 l
97.513561 59.717191 l
97.755188 59.754969 l
98.318985 61.360047 l
98.641155 62.528665 l
98.882917 65.317257 l
99.044002 67.680214 l
99.12441 67.586485 l
99.366172 66.645137 l
99.607799 70.85319 l
100.252274 87.745031 l
100.332816 87.570425 l
100.816071 63.030531 l
101.138241 58.161488 l
101.460411 56.803893 l
101.621496 56.585018 l
102.104885 54.852933 l
102.427055 54.571328 l
102.829767 54.734577 l
102.910176 54.866222 l
103.393699 57.639507 l
103.554784 58.513468 l
103.715869 57.77603 l
104.199124 55.046412 l
104.360209 55.918459 l
105.08536 62.198087 l
105.246445 63.598449 l
105.488072 63.841528 l
105.649157 63.715971 l
105.971327 62.958861 l
106.132412 62.525801 l
106.696209 57.512993 l
106.776752 57.235422 l
107.018514 55.344314 l
107.098922 55.563336 l
107.179464 55.067619 l
107.260007 55.121077 l
107.501634 68.897497 l
107.582311 66.158889 l
107.743396 68.261091 l
107.985023 67.076081 l
108.065566 65.39114 l
108.146108 66.466355 l
108.709906 83.88972 l
109.031941 74.148682 l
109.193026 70.941896 l
109.354111 59.958649 l
109.434788 59.029968 l
109.837501 66.33193 l
109.918043 66.157897 l
109.998586 72.477779 l
110.079128 70.987856 l
110.15967 69.100721 l
110.240079 70.660094 l
110.401164 67.406213 l
110.48184 67.091846 l
110.642925 65.768515 l
110.723334 66.71694 l
110.884419 72.518696 l
110.964961 71.809313 l
111.045504 71.904211 l
111.12618 71.868975 l
111.367808 76.021384 l
111.44835 73.851881 l
111.529027 75.528985 l
111.609569 73.016694 l
111.851331 79.35591 l
111.931874 79.541892 l
112.012416 78.844188 l
112.254044 73.743464 l
112.656756 81.513706 l
112.737299 80.546336 l
112.898518 81.240122 l
113.30123 75.321936 l
113.381773 73.264869 l
113.784619 81.588108 l
113.865162 81.457299 l
114.428959 66.588645 l
114.751263 69.425871 l
114.831806 70.722955 l
114.912348 70.58292 l
115.153976 69.113459 l
115.234518 69.294048 l
115.717907 70.922988 l
115.79845 71.033984 l
116.120754 65.555916 l
116.201297 65.786939 l
116.442924 66.57076 l
116.76496 64.045998 l
116.845636 64.132223 l
116.926179 62.993161 l
117.006721 63.30767 l
117.248483 61.929606 l
117.731738 60.136079 l
118.054042 59.774189 l
118.376212 60.055676 l
118.456755 59.896218 l
118.778925 59.330935 l
118.94001 59.198301 l
119.020686 59.389121 l
119.262314 63.278319 l
120.228824 82.092839 l
120.309366 82.41731 l
120.550994 84.267355 l
120.631536 83.85441 l
121.195468 67.12641 l
121.678991 58.452532 l
122.081704 56.909425 l
122.484416 56.208459 l
122.645635 56.120154 l
122.967805 56.083403 l
123.934315 54.690883 l
124.256485 54.268845 l
124.578655 54.464533 l
124.981501 54.941059 l
125.545299 55.994488 l
125.787061 57.137147 l
126.109231 55.724773 l
126.511943 62.107085 l
126.75357 57.251682 l
126.834113 57.241295 l
127.075875 57.920913 l
127.559264 56.173998 l
128.123061 54.425342 l
128.445231 54.476151 l
129.492418 54.750472 l
130.056081 54.552004 l
130.781097 53.781368 l
132.069777 53.385786 l
133.036556 53.083998 l
133.358725 53.138607 l
134.244827 53.722507 l
135.211337 54.316277 l
135.855811 54.491479 l
135.936353 54.22357 l
136.016896 55.771898 l
136.097438 54.52018 l
136.178115 54.876981 l
136.258658 54.963911 l
136.419743 54.701083 l
136.580828 55.449873 l
136.66137 55.284908 l
136.741913 55.06578 l
137.064217 55.460607 l
137.386521 54.746736 l
137.869776 53.755808 l
138.353299 53.341941 l
138.514518 52.949272 l
139.078316 52.720374 l
139.803332 52.648994 l
140.608892 52.194088 l
140.931062 52.125177 l
141.333774 52.481685 l
142.300284 53.65568 l
142.86435 54.951179 l
143.589232 56.442809 l
143.911402 56.305249 l
145.764416 55.240281 l
146.247805 55.09337 l
146.40889 55.100464 l
146.569975 55.70259 l
146.892145 55.700004 l
147.536619 58.529109 m
147.778247 58.329072 l
147.939332 55.498255 l
148.180959 55.452301 l
148.342044 55.083611 l
148.825433 55.167316 l
150.597771 55.916372 l
151.242245 55.110074 l
151.40333 55.657248 l
151.483872 55.559844 l
151.564415 55.643246 l
151.725634 58.425791 l
151.806176 57.677967 l
151.886719 57.857927 l
152.450651 54.943154 l
152.61187 54.626578 l
152.93404 54.965663 l
153.25621 55.312999 l
153.900684 55.08253 l
155.109224 54.97725 l
156.237221 55.138078 l
157.284542 55.50719 l
158.009693 55.819382 l
158.251455 55.471126 l
158.332131 55.212207 l
158.412674 56.408962 l
158.493216 56.073009 l
158.654301 57.113459 l
158.815386 56.667581 l
158.976605 56.128897 l
159.13769 56.4786 l
159.298775 58.528721 l
159.45986 55.858682 l
159.62108 58.225963 l
159.94325 61.725412 l
160.104335 60.054203 l
160.26542 60.775371 l
160.6684 58.13199 l
161.071113 55.876459 l
161.31274 55.666523 l
161.47396 55.807164 l
161.876806 56.737757 l
162.038025 57.846733 l
162.118568 57.671482 l
162.19911 57.876644 l
162.360195 66.195488 l
162.440872 65.47769 l
162.521415 60.142147 l
162.601957 65.547425 l
162.6825 62.869288 l
162.843584 54.201235 l
162.924261 54.113795 l
163.004938 56.502168 l
163.085615 56.166925 l
163.166157 57.015669 l
163.488461 55.656208 l
163.810766 54.934874 l
163.97185 55.011322 l
164.132935 55.236313 l
164.213478 54.798253 l
164.696733 56.720776 l
164.777275 56.868695 l
164.857818 56.805952 l
165.422018 54.935753 l
165.663645 54.886444 l
166.066626 54.890594 l
166.791643 54.060114 l
167.355709 54.417892 l
168.322353 55.009812 l
169.127912 55.127552 l
169.289131 54.967197 l
169.450216 55.747687 l
169.530759 55.585764 l
169.611301 55.358424 l
169.691844 55.451938 l
169.852929 55.573203 l
169.933471 55.61983 l
170.175233 57.054138 l
170.255909 57.634997 l
170.417129 54.991991 l
170.578214 57.315276 l
170.658756 56.929704 l
170.819841 56.169976 l
171.706345 54.282632 l
171.86743 53.975136 l
171.947973 52.608506 l
172.028515 52.652679 l
172.35082 53.032743 l
172.511905 54.27726 l
173.39814 54.695107 l
177.507149 54.373346 l
181.535482 54.548917 l
182.260633 54.565065 l
183.146869 54.000151 l
185.080559 52.681805 l
186.530593 52.385898 l
187.577645 52.172629 l
188.624295 51.427854 l
189.10755 51.513016 l
189.590939 51.754334 l
189.993785 51.928076 l
190.718936 51.499222 l
190.799479 51.717647 l
190.880021 51.516926 l
190.960564 51.572318 l
191.202325 51.694909 l
191.524495 52.499335 l
191.766123 53.406569 l
191.927342 54.43317 l
192.410865 55.563678 l
192.491408 55.907198 l
192.813846 59.722288 l
193.136285 66.043343 l
193.458455 59.529158 l
193.538997 59.957556 l
193.941844 66.324663 l
194.183605 70.310066 l
194.264148 70.568518 l
194.425233 75.548277 l
194.505775 74.365147 l
194.586318 77.692602 l
194.827945 71.243585 l
194.908488 68.786401 l
195.069573 75.188148 l
195.230792 63.102955 l
195.311334 72.766616 l
195.391877 69.178331 l
195.472419 74.35581 l
195.552962 70.582378 l
195.633504 71.913794 l
195.794589 75.98448 l
195.875266 73.401575 l
195.955809 78.841111 l
196.19757 73.913813 l
196.358655 85.795163 l
196.439198 83.920645 l
196.680825 77.959815 l
196.761502 80.247866 l
196.842044 76.050205 l
196.922721 76.816838 l
197.003264 75.154698 l
197.08394 76.945483 l
197.164483 75.838541 l
197.245025 84.60536 l
197.325568 75.300498 l
197.40611 77.427986 l
197.486653 74.859394 l
197.728549 80.66917 l
197.809091 79.092899 l
197.889768 84.161618 l
197.97031 78.32097 l
198.050853 79.296641 l
198.131395 79.115303 l
198.212072 80.027741 l
198.292615 76.781371 l
198.453834 61.221764 l
198.534376 61.243514 l
198.695461 63.262433 l
198.776138 63.963484 l
198.937223 70.340244 l
199.098308 64.384008 l
199.178985 65.604287 l
199.34007 67.485025 l
199.501155 59.487352 l
199.581697 57.942953 l
199.742916 63.489687 l
199.823459 62.147648 l
199.904001 57.540163 l
199.984544 57.908639 l
200.145629 56.241224 l
200.226171 56.356716 l
200.387659 55.956032 l
200.468201 56.038396 l
201.112944 58.511595 l
201.274029 58.897851 l
201.515791 59.542323 l
201.676876 59.43538 l
201.918637 59.187119 l
202.160399 59.092477 l
202.805007 57.323004 l
203.046635 60.464552 l
203.288397 63.124373 l
203.610701 65.586294 l
203.852328 63.693817 l
203.932871 63.673624 l
204.09409 63.314226 l
204.335717 61.393264 l
204.41626 61.378726 l
204.819106 70.154733 l
204.899649 69.981848 l
205.141411 69.820574 l
205.222087 69.909681 l
205.383172 70.874949 l
205.786019 64.067571 l
206.188866 58.618238 l
206.430627 57.227371 l
206.51117 58.249687 l
206.591847 58.15121 l
206.672523 58.022305 l
207.156047 56.071969 l
207.317266 55.998679 l
207.558893 55.348712 l
207.639436 55.396095 l
207.881063 57.765045 l
208.122825 62.164139 l
208.284044 67.459554 l
208.364587 66.927852 l
208.606348 61.856235 l
208.686891 62.479887 l
208.767568 63.172499 l
208.928653 57.90064 l
209.009195 58.46626 l
209.412176 56.484198 l
209.573261 56.709102 l
209.815157 57.300684 l
210.056919 57.82662 l
210.137595 57.831745 l
210.218272 57.694466 l
210.298815 58.72637 l
210.379357 57.787752 l
210.540576 58.787446 l
210.621119 58.465493 l
210.782204 59.092191 l
210.86288 58.705235 l
210.943557 58.840232 l
211.265861 59.263504 l
211.346404 59.750482 l
211.426946 59.466182 l
211.507489 60.510188 l
211.588031 60.290178 l
211.668708 60.168228 l
211.829927 61.271708 l
211.91047 61.190831 l
212.152231 61.660658 l
212.474536 61.995877 l
212.635621 61.854584 l
212.957925 61.345927 l
213.763752 55.852583 l
213.844295 55.87378 l
214.166599 56.917788 l
214.489037 57.952877 l
215.133511 59.047683 l
215.375139 59.198414 l
215.616901 59.069498 l
215.858662 59.157297 l
216.019747 58.845929 l
216.10029 59.642856 l
216.180832 58.757449 l
216.261509 58.906105 l
216.342051 58.908478 l
216.906117 57.9613 l
217.067337 57.188109 l
217.470049 55.019631 l
217.711811 54.536282 l
217.953438 54.823897 l
218.598047 56.253555 l
218.678723 56.159461 l
218.920351 55.884242 l
219.242655 59.284353 l
219.323197 59.228109 l
219.726044 57.718341 l
219.967806 56.954712 l
220.854176 52.293957 l
220.934853 52.494083 l
221.257157 54.39611 l
221.418376 55.348897 l
221.498918 55.359237 l
222.224069 59.452241 l
222.304612 59.322329 l
222.546373 58.686388 l
222.707593 58.406999 l
222.788269 58.404037 l
222.949489 56.183909 l
223.110708 58.771941 l
223.19125 58.651018 l
223.352335 57.19012 l
223.433012 56.197648 l
223.513554 56.240098 l
223.674639 56.525899 l
223.755316 56.557814 l
224.077486 56.158587 l
224.39979 57.023349 l
224.722094 57.871935 l
224.883314 57.781363 l
225.527922 56.843901 l
225.689007 55.816227 l
225.769684 55.838507 l
225.85036 55.94623 l
226.011445 56.710733 l
226.17253 53.735605 l
226.253207 54.252059 l
226.414292 55.175429 l
226.494835 55.312278 l
226.65592 57.110538 l
226.897681 55.811362 l
226.978358 56.489017 l
227.139577 65.38295 l
227.381339 93.420891 l
227.623101 81.702444 l
228.187166 61.533786 l
228.428794 57.275116 l
228.670556 54.629755 l
228.912317 54.272283 l
229.154079 55.398741 l
229.234621 55.842304 l
229.315298 55.790749 l
229.395841 55.650913 l
229.476383 55.713474 l
229.637602 55.863163 l
229.879364 59.015708 l
229.959907 61.793676 l
230.040449 61.302113 l
230.201668 51.51562 l
230.282345 52.583287 l
230.523972 66.119691 l
230.846142 53.825498 l
230.926685 54.337626 l
231.007362 56.564054 l
231.087904 63.439962 l
231.168447 62.574357 l
231.410208 68.715472 l
231.490751 63.426124 l
231.571293 64.412911 l
231.812921 69.01203 l
231.893597 68.997577 l
231.97414 67.722387 l
232.135225 68.422919 l
232.296444 74.414518 l
232.377121 66.069482 l
232.457663 73.011127 l
232.779967 61.565187 l
233.102272 53.143042 l
233.182814 53.385768 l
233.747014 60.641913 l
233.827557 60.314002 l
234.149861 57.932354 l
234.31108 57.834404 l
234.391623 57.696867 l
234.794469 55.629536 l
234.955688 55.427307 l
235.036231 55.594885 l
235.358535 60.622044 l
235.680839 69.998316 l
235.922467 58.326071 l
236.244771 69.558001 l
236.405856 74.750523 l
236.486533 75.297043 l
236.647752 73.564789 l
236.97019 77.844719 l
237.534256 94.35843 l
237.614799 94.599759 l
237.776018 91.712124 l
238.420626 69.829321 l
238.581845 68.342136 l
238.662388 69.610905 l
238.823607 67.01401 l
238.984826 64.705637 l
239.146046 63.695677 l
239.790654 58.898369 l
241.321632 51.544646 l
241.482717 51.337718 l
241.724479 51.984659 l
242.771934 56.466259 l
243.255457 62.202738 l
244.141827 74.152364 l
244.222504 74.101127 l
244.383589 73.685139 l
244.706028 75.075252 l
244.786704 75.007098 l
245.35077 73.897526 l
245.592532 74.142917 l
245.914836 74.427958 l
246.639987 75.035239 l
247.042834 72.346918 l
247.284595 70.29614 l
247.526223 73.006781 l
247.606899 72.906788 l
247.768119 74.45786 l
247.848661 74.386223 l
248.090423 72.975538 l
248.735031 68.009019 l
249.218555 65.921853 l
249.299097 66.210671 l
249.863029 70.20258 l
250.185467 76.938737 l
250.507906 86.55171 l
250.668991 82.429724 l
251.394141 57.09248 l
251.635903 53.497767 l
251.716446 53.484664 l
251.877665 52.727764 l
252.038884 51.851056 l
252.280646 51.885344 l
252.60295 52.341501 l
252.764169 53.294863 l
253.167016 54.419181 l
253.48932 54.312191 l
254.134197 54.615026 l
254.778805 54.768159 l
254.859348 54.120414 l
254.940024 54.224369 l
255.020567 54.247472 l
255.343005 52.98446 l
255.745852 51.565366 l
256.471271 51.769792 l
257.116148 51.457081 l
258.405499 51.022061 l
259.775527 50.786013 l
261.387182 50.784455 l
261.628944 50.750318 l
261.790163 50.55921 l
261.951382 51.214601 l
262.112601 50.584936 l
262.193144 50.671463 l
262.354363 50.830612 l
263.804933 50.961404 l
265.416588 51.039089 l
268.479485 51.012104 l
268.560027 51.254032 l
268.640704 50.400198 l
268.721246 51.230152 l
268.801789 51.003267 l
268.962874 50.943144 l
269.849244 50.957926 l
273.233773 51.206509 l
277.827514 51.455982 l
280.809331 51.529755 l
281.776378 51.655046 l
282.259901 51.572268 l
282.823967 51.454442 l
283.468576 52.344842 l
284.032641 52.152114 l
284.113318 52.006771 l
284.193861 53.063161 l
284.274537 53.052045 l
284.35508 53.102898 l
284.677518 52.630085 l
284.838738 52.917682 l
284.999822 52.327591 l
285.161042 52.135175 l
285.241584 52.707499 l
285.322127 52.28064 l
285.402803 52.428381 l
285.725108 52.88758 l
285.80565 52.832704 l
285.886193 52.058172 l
285.966869 52.423539 l
286.047412 52.393321 l
286.611478 51.604585 l
287.094867 51.658192 l
287.336628 51.588611 l
287.981371 51.059496 l
290.238037 50.94756 l
290.399122 50.452669 l
290.640884 50.46227 l
290.802103 51.01876 l
291.688742 51.404097 l
292.091588 51.483281 l
293.058635 51.762513 l
293.622701 52.499129 l
294.83151 54.155865 l
295.073271 54.164191 l
295.39571 54.38456 l
295.556929 54.811511 l
295.637471 54.843329 l
295.718148 54.713168 l
295.879367 53.928665 l
296.927091 51.738785 l
297.168718 52.23286 l
297.813595 53.862218 l
297.894138 53.997859 l
298.216442 55.799669 l
298.377527 55.265179 l
299.022404 52.774876 l
299.828231 53.106154 l
300.15067 54.256363 l
300.473108 52.795249 l
300.876223 58.139151 l
300.9569 57.858954 l
301.198662 54.572173 l
301.279204 54.47223 l
301.5211 53.427684 l
301.601642 53.442894 l
301.843538 52.296833 l
302.085166 52.127367 l
302.246385 52.829754 l
302.488147 55.63741 l
302.729908 60.959719 l
302.810451 59.897591 l
303.052347 56.057771 l
303.294243 67.600519 l
303.536004 76.241157 l
303.616681 78.150295 l
303.697224 76.28522 l
303.777766 81.411931 l
304.10007 69.288584 l
304.180747 69.484238 l
304.341966 64.459672 l
304.422509 62.950197 l
304.503185 63.584643 l
304.66427 77.811455 l
304.744947 77.470247 l
304.906032 66.772321 l
304.986575 71.406699 l
305.067386 70.395361 l
305.147928 70.975995 l
305.228605 68.331734 l
305.309147 71.158456 l
305.389824 70.41786 l
305.470366 70.580692 l
305.873347 79.081582 l
305.95389 78.915091 l
306.115109 79.648064 l
306.195652 78.355368 l
306.276194 73.875454 l
306.356871 74.564226 l
306.759717 61.19993 l
307.243241 56.433419 l
307.40446 56.147435 l
307.565545 56.261602 l
307.807575 56.80459 l
308.291099 58.869217 l
308.53286 60.307844 l
308.774622 59.081382 l
308.855164 58.676475 l
308.935841 58.78699 l
309.096926 59.466597 l
309.177603 60.927835 l
309.338688 58.677612 l
309.58045 60.877562 l
309.661126 59.277964 l
309.741669 60.641143 l
309.903022 59.929445 l
309.983565 59.983661 l
310.225326 59.727855 l
310.467088 60.018956 l
310.789527 62.987258 l
311.111831 71.052226 l
311.192373 69.457553 l
311.434135 62.771413 l
311.514677 64.070589 l
311.59522 67.804284 l
311.675897 67.480627 l
311.917658 97.248855 l
312.078877 73.579221 l
312.15942 73.968585 l
312.240097 75.360174 l
312.320639 73.445143 l
312.562535 90.074404 l
312.804297 100.224074 l
312.884839 105.250487 l
313.046058 98.558386 l
313.207278 127.565499 l
313.368497 104.435444 l
313.610259 116.106931 l
313.771478 120.306795 l
313.85202 117.847627 l
314.01324 79.367526 l
314.093782 78.053941 l
314.174324 62.852033 l
314.496897 88.173009 l
314.577574 85.798044 l
314.658116 86.982452 l
314.980421 73.727132 l
315.061097 74.284886 l
315.14164 76.559398 l
315.222316 69.711053 l
315.302859 72.00378 l
315.625163 99.027895 l
315.70584 95.817694 l
315.786382 94.970642 l
315.947467 65.289258 l
316.028278 70.905608 l
316.189497 95.115162 l
316.350717 73.942582 l
316.431393 70.556161 l
316.592613 151.333192 l
316.673155 81.196721 l
316.753698 83.823361 l
316.834374 92.240125 l
316.914917 125.626982 l
316.995459 99.126648 l
317.076136 179.43781 l
317.237221 94.472614 l
317.317898 102.303261 l
317.559794 84.040613 l
317.640336 172.896316 l
317.720879 161.489147 l
317.801421 187.642963 l
317.881964 141.41179 l
318.043317 195.270166 l
318.12386 129.5594 l
318.204402 138.104344 l
318.285079 223.950316 l
318.365621 175.253441 l
318.446298 248.8266 l
318.607383 81.859873 l
319.010498 74.396099 l
319.25226 76.106358 l
319.332802 74.522553 l
319.574564 76.839875 l
319.81646 77.72851 l
320.138898 68.239217 l
320.219441 66.915604 l
320.300117 69.975795 l
320.38066 69.378377 l
320.461337 70.517971 l
320.541879 70.159223 l
320.622422 70.358198 l
321.025403 74.562262 l
321.105945 75.757195 l
321.186622 74.978378 l
321.267164 78.775968 l
321.347841 74.207629 l
321.428518 75.707949 l
321.50906 75.671057 l
321.589603 75.275327 l
321.912041 84.254079 l
322.153803 81.882129 l
322.395699 78.652572 l
322.717466 74.377489 l
322.798143 74.481296 l
323.2818 77.662616 l
323.523562 81.351859 l
323.684781 108.631132 l
323.765324 104.681768 l
324.00722 86.216872 l
324.087762 87.570741 l
324.490877 109.074002 l
324.732639 132.072075 l
324.974401 135.906135 l
325.13562 152.908325 l
325.296839 153.61082 l
325.538601 164.916927 l
325.619143 163.843225 l
325.69982 165.557432 l
325.941582 117.371048 l
326.022124 134.031937 l
326.26402 94.842615 l
326.667001 90.707592 m
326.828086 129.579742 l
326.908763 126.702774 l
327.069982 139.64673 l
327.150524 140.97829 l
327.231201 146.346653 l
327.553505 257.859241 l
328.037163 249.791803 m
328.278925 112.210165 l
328.359601 122.244499 l
328.520821 81.720352 l
328.601363 86.33393 l
328.681906 87.852893 l
328.843125 67.257058 l
328.923667 142.847302 l
329.00421 63.809416 l
329.084886 64.780919 l
329.165429 71.667102 l
329.246106 61.321078 l
329.488002 80.241565 l
329.568544 137.040452 l
329.649221 67.329192 l
329.729898 72.742854 l
329.81044 91.037376 l
330.132878 65.342729 l
330.535994 57.77655 l
330.616536 57.665259 l
330.697213 57.771429 l
331.019651 59.078607 l
331.34209 63.394205 l
331.422632 65.308872 l
331.583851 89.416032 l
331.745071 144.092581 l
331.825747 197.409741 l
332.067509 76.579749 l
332.148051 81.936394 l
332.228728 181.282888 l
332.389947 55.510619 l
332.47049 56.559016 l
332.551032 66.142259 l
332.631709 63.550893 l
332.873471 79.993777 l
333.03469 115.107148 l
333.115232 93.235813 l
333.195909 123.706003 l
333.356994 101.059844 l
333.437671 108.877358 l
333.59889 96.548808 l
333.759975 85.794456 l
333.840652 98.330146 l
334.082413 77.79994 l
334.243633 100.208399 l
334.404718 85.997051 l
334.646614 67.852701 l
334.807699 81.727435 l
335.04946 120.88691 l
335.130137 107.201003 l
335.210679 108.093829 l
335.291222 106.407725 l
335.371899 109.442594 l
335.452575 109.107954 l
335.533252 110.19049 l
335.613929 109.406009 l
335.694471 113.491258 l
335.855691 97.70389 l
336.01691 86.534166 l
336.097452 88.028665 l
336.177995 97.654383 l
336.419756 69.011608 l
336.580976 53.707661 l
336.661518 53.312788 l
336.822737 56.451422 l
336.90328 58.76346 l
336.983957 58.204722 l
337.064499 57.870435 l
337.145176 54.747917 l
337.386803 62.14371 l
337.870461 75.593687 l
337.951003 74.488501 l
338.03168 73.493738 l
338.112223 70.379316 l
338.192899 73.757411 l
338.273576 72.961988 l
338.354253 73.119728 l
338.596014 79.046106 l
338.837776 80.740788 l
338.998995 84.464214 l
339.160214 82.268205 l
339.321434 91.424438 l
339.40211 89.874457 l
339.482787 86.248959 l
339.56333 86.458172 l
339.643872 85.510731 l
339.724549 89.347066 l
339.805091 88.404341 l
339.885768 88.19707 l
340.12753 86.708211 l
340.208072 89.395176 l
340.288615 85.509497 l
340.369426 86.253703 l
341.094845 97.780594 l
341.256064 92.761657 l
341.739722 74.069165 l
341.901075 78.944365 l
342.06216 85.385203 l
342.303922 79.026577 l
342.62636 71.831023 l
342.707037 71.420132 l
342.78758 71.787539 l
342.868122 71.721047 l
343.029341 62.46735 l
343.109884 62.841062 l
343.19056 64.226801 l
343.271237 63.318576 l
343.432322 64.545544 l
343.512999 64.811408 l
343.674218 62.892878 l
343.835303 64.536699 l
343.91598 64.440067 l
343.996522 64.160188 l
344.157742 64.309581 l
344.318961 61.676245 l
344.399637 61.74081 l
344.560857 62.155037 l
344.641533 62.100238 l
345.04438 57.76978 l
345.125057 57.803208 l
345.28641 62.13693 l
345.366953 61.59265 l
345.447629 60.651126 l
345.528172 61.435421 l
345.931287 55.508099 l
346.011964 55.77472 l
346.334268 59.645604 l
346.495487 62.583553 l
346.57603 61.022139 l
346.656706 61.091065 l
346.737383 61.857084 l
347.301449 55.194641 l
347.462668 54.981363 l
347.543345 54.987045 l
347.785107 53.897128 l
347.865649 53.948557 l
348.107411 58.353989 l
348.429849 68.28961 l
348.510526 65.088433 l
348.591068 66.907918 l
348.832964 56.956009 l
349.074726 60.854356 l
349.155269 60.694844 l
349.235811 67.592959 l
349.316488 63.728914 l
349.39703 69.983837 l
349.477573 69.528545 l
349.558115 69.854353 l
349.638792 71.295495 l
349.719334 66.634826 l
349.799877 67.67473 l
350.122315 72.600048 l
350.2834 71.651857 l
350.363943 71.773622 l
350.444619 71.133979 l
351.089362 53.096767 l
351.331124 52.372699 l
351.492209 52.668113 l
351.653562 52.555724 l
351.734373 52.944791 l
351.895592 52.343146 l
352.782365 51.413193 l
352.862908 51.4973 l
352.943584 51.292704 l
353.024127 51.551564 l
353.104669 51.484292 l
353.346431 51.411143 l
353.50765 51.612519 l
353.668869 50.112 l
353.991174 57.952898 l
354.07185 57.010203 l
354.313612 52.250444 l
354.394289 52.43923 l
354.958355 56.630933 l
355.039031 56.625048 l
355.200251 55.970428 l
355.280793 55.870573 l
355.603231 56.244836 l
355.92567 55.488855 l
356.006212 55.639384 l
356.167432 57.372143 l
356.247974 57.678236 l
356.328517 56.455015 l
356.409193 56.718096 l
356.570413 55.796826 l
356.651089 55.833296 l
356.812174 55.887097 l
357.940709 55.059311 l
358.90789 54.156924 l
359.310871 54.537163 l
359.633309 54.820035 l
359.875071 54.999145 l
360.197643 55.458387 l
360.439271 55.494307 l
360.922928 58.026381 l
361.16469 58.382495 l
361.729024 60.381884 l
362.69634 63.744852 l
362.857425 63.820978 l
363.099186 63.796578 l
363.341082 63.894379 l
363.985959 60.508476 l
364.630836 70.707725 l
364.711379 70.595949 l
364.953274 68.660483 l
365.436798 63.477379 l
365.598017 63.195709 l
365.920321 69.019702 l
366.000998 68.503204 l
366.323302 65.044946 l
366.565064 64.127318 l
366.726283 65.674716 l
367.129264 74.571691 l
367.209941 76.678153 l
367.290483 76.21234 l
367.693464 68.321909 l
367.93536 61.573314 l
368.177256 62.102941 l
368.580237 59.978148 l
368.902675 57.778062 l
369.225114 58.555062 l
369.305656 58.843957 l
369.386333 58.821075 l
369.466875 58.86586 l
369.789448 61.760966 l
370.192429 55.832208 l
370.273106 53.80718 l
371.079067 78.083128 l
371.159744 78.027272 l
371.320829 74.811824 l
371.401506 79.733277 l
371.723944 70.409167 l
371.804621 70.791501 l
371.885164 72.446385 l
372.207602 56.91978 l
372.368687 53.906273 l
372.53004 59.276692 l
372.771936 72.908874 l
372.852479 73.982592 l
373.09424 64.153145 l
373.174783 64.306701 l
373.25546 63.255176 l
373.49749 65.451123 l
373.658709 68.552711 l
373.819928 68.414466 l
373.981147 68.742348 l
374.303452 72.44357 l
374.948328 61.763594 l
375.109413 62.269329 l
375.270633 63.697686 l
375.431852 67.131692 l
375.593205 73.831471 l
375.673748 73.379267 l
375.915644 68.49604 l
376.076729 71.228873 l
376.399301 66.498504 l
376.560655 67.078654 l
376.72174 63.991303 l
376.802282 64.257401 l
377.124721 68.487838 l
377.689055 80.082206 l
378.414609 68.646771 l
378.736913 58.725807 l
378.81759 58.825488 l
379.059485 57.141926 l
379.220705 56.975536 l
379.301381 56.996267 l
379.462601 58.326881 l
379.785039 55.05808 l
380.107477 51.461716 l
380.268562 52.820055 l
380.671543 57.0704 l
380.75222 56.894819 l
380.993982 57.246953 l
381.074658 57.129063 l
381.397097 53.563643 l
381.477639 53.867191 l
381.719401 55.552043 l
381.961297 60.600282 l
382.203059 61.271969 l
382.525497 60.275562 l
382.84807 59.269037 l
383.170508 58.059899 l
383.331727 57.662951 l
383.573489 60.880565 l
383.895927 65.006859 l
383.97647 65.683698 l
384.057147 69.253187 l
384.137689 68.2314 l
384.379585 60.150115 l
384.460128 59.892031 l
384.782566 57.058462 l
385.024328 56.326631 l
385.185547 56.484279 l
385.266089 56.608789 l
385.588662 56.308635 l
385.749881 56.753232 l
385.830558 57.406689 l
385.9111 57.38562 l
386.233405 58.278323 l
386.394624 58.11872 l
386.717062 57.715056 l
386.878282 57.718776 l
387.120043 57.308129 l
387.200854 57.387241 l
387.523427 61.27585 l
387.845865 66.143385 l
388.087627 62.097946 l
388.490876 55.508643 l
388.652096 55.106214 l
389.539137 55.073505 l
389.781033 55.174304 l
390.022794 54.469804 l
390.103337 53.601626 l
390.184014 53.853508 l
390.66794 52.160027 l
391.312817 51.500348 l
391.957693 51.209055 l
392.521894 51.173408 l
393.16677 51.42432 l
394.214897 52.204522 l
394.94045 52.978013 l
395.666004 54.398123 l
395.827223 55.237163 l
396.310881 56.172292 l
396.875215 58.813695 l
396.955757 58.775869 l
397.520092 57.702281 l
397.761853 59.643569 l
398.164834 65.154569 l
398.487273 59.624515 l
398.487273 59.624515 l
stroke
grestore
0.627 0.314 0.314 setrgbcolor
gsave
357.1 266.1 57.6 38.02 clipbox
73.832727 68.510435 m
73.91327 68.363128 l
74.154897 71.924696 l
74.235305 72.548818 l
74.396525 71.333927 l
74.557475 69.584819 l
74.638018 69.614269 l
74.879645 70.166319 l
75.201815 68.899048 l
75.523985 69.962666 l
75.846155 70.955757 l
76.087917 69.314929 l
76.490629 66.321733 l
76.571172 66.29977 l
76.732257 66.679049 l
76.893342 70.979898 l
77.296054 73.428335 l
77.376462 69.583637 l
77.457005 70.253166 l
77.779175 72.29114 l
77.940394 71.628845 l
78.987312 65.80785 l
79.309616 65.062886 l
79.470701 64.97163 l
79.712329 65.162267 l
79.953956 65.494082 l
80.356669 66.444599 l
80.678839 72.241516 l
80.759515 71.766436 l
81.081685 68.692244 l
81.323313 69.010965 l
81.645348 66.968648 l
82.289957 70.66614 l
82.85362 64.138908 l
82.934162 65.768401 l
83.014705 65.570176 l
83.17579 65.723143 l
83.256332 65.936291 l
83.336741 63.75488 l
83.417283 63.989646 l
83.658911 64.600241 l
83.981215 64.600523 l
84.383927 64.957656 l
84.867182 65.482997 l
85.189352 64.015805 l
85.592064 62.497633 l
86.155862 63.437405 l
86.558574 65.598484 l
86.800202 67.272431 l
87.444407 58.781114 l
87.685901 61.54475 l
87.84712 64.723581 l
88.088747 72.451507 l
88.249967 66.629278 l
88.330375 66.373608 l
88.49146 67.461622 l
88.572002 66.892364 l
88.652545 87.187134 l
88.813764 65.802823 l
88.894306 61.622342 l
88.974849 66.490206 l
89.055391 78.168395 l
89.1358 64.697385 l
89.216476 70.92652 l
89.377561 67.669126 l
89.538646 66.496606 l
89.699597 71.764413 l
89.78014 76.531201 l
89.941359 67.029541 l
90.102309 65.868215 l
90.182852 65.978982 l
90.343937 65.564515 l
90.505022 66.87808 l
90.666241 65.333427 l
90.746784 65.781906 l
90.907869 65.134218 l
91.068954 64.326341 l
91.230038 63.184794 l
91.310581 64.824185 l
91.391123 63.306546 l
91.632751 65.877659 l
92.116006 61.159462 l
92.357768 62.986717 l
92.599395 63.718175 l
92.679937 63.032245 l
92.76048 63.168209 l
93.002107 62.059402 l
93.08265 63.834423 l
93.163192 63.690442 l
93.243869 63.744339 l
93.324412 65.201238 l
93.405088 65.13334 l
93.485631 63.305899 l
93.646716 69.559117 l
93.807801 71.710745 l
93.968886 75.353329 l
94.049294 75.325807 l
94.210379 77.545677 l
94.371732 72.190823 l
94.532817 74.668973 l
95.016072 69.996176 l
95.096749 71.101141 l
95.177291 68.853135 l
95.257834 69.510258 l
95.418919 71.656552 l
95.499461 73.556627 l
95.660815 70.180065 l
95.741357 70.897506 l
95.902442 77.087361 l
96.224612 71.173095 l
96.305155 79.315142 l
96.546916 71.987802 l
96.627459 75.489278 l
96.708001 69.514927 l
96.788544 71.826306 l
96.949629 69.564142 l
97.271933 68.027196 l
97.513561 67.483022 l
97.67478 67.47293 l
97.83573 67.66517 l
98.238443 68.716131 l
98.721698 72.41269 l
99.12441 77.14136 l
99.285629 77.484671 l
99.366172 78.093432 l
100.091054 95.605679 l
100.171731 95.921622 l
100.252274 98.694458 l
100.413359 92.913372 l
100.735528 72.497089 l
101.057698 65.466619 l
101.299326 64.332016 l
101.540953 64.060189 l
101.621496 64.008598 l
102.26597 60.331295 l
102.427055 60.271138 l
102.910176 60.852988 l
103.393699 63.875142 l
103.554784 64.843945 l
103.796411 63.292003 l
104.199124 60.485859 l
104.360209 61.589003 l
105.326987 71.951611 l
105.568615 73.419223 l
105.7297 72.791307 l
106.212954 69.136375 l
106.615667 63.554472 l
107.018514 61.127062 l
107.260007 62.154354 l
107.421092 81.824303 l
107.501634 79.635071 l
107.582311 74.877666 l
107.662719 75.669511 l
107.743396 76.426268 l
107.823804 76.243021 l
107.904347 75.961156 l
107.985023 76.031502 l
108.065566 74.944531 l
108.226651 78.312107 l
108.548821 94.472856 l
108.709906 95.752566 l
108.951399 87.527549 l
109.031941 101.447787 l
109.193026 78.056657 l
109.434788 67.224697 l
109.756958 72.498814 l
109.918043 77.845846 l
109.998586 91.042523 l
110.079128 87.121805 l
110.15967 81.971398 l
110.240079 85.470037 l
110.401164 77.311601 l
110.642925 73.794464 l
110.723334 76.750985 l
110.803876 90.071831 l
110.884419 87.675057 l
111.045504 82.733071 l
111.12618 83.527072 l
111.367808 88.691695 l
111.44835 82.980599 l
111.529027 88.440268 l
111.609569 81.205476 l
111.851331 89.64758 l
111.931874 88.90141 l
112.012416 89.754304 l
112.254044 81.405977 l
112.495671 89.552543 l
112.576214 89.255109 l
112.656756 92.062088 l
112.737299 91.031964 l
112.898518 91.714096 l
113.059603 90.398064 l
113.140145 90.686784 l
113.220688 90.881815 l
113.381773 84.475916 l
113.704077 92.676924 l
113.784619 93.633393 l
113.865162 93.478678 l
114.348417 76.531274 l
114.428959 76.264986 l
114.509502 76.491824 l
114.670587 77.992725 l
114.831806 80.897541 l
114.912348 80.836643 l
115.153976 79.278299 l
115.234518 79.618631 l
115.717907 83.982206 l
115.79845 84.755141 l
116.362382 78.736452 l
116.442924 78.585034 l
116.684552 77.004345 l
116.76496 76.872345 l
116.926179 75.8614 l
117.006721 76.504949 l
117.167941 75.131342 l
117.812281 72.385789 l
118.134585 71.751416 l
118.376212 71.726898 l
118.859467 70.399451 l
118.94001 70.325884 l
119.020686 70.532219 l
119.262314 74.887472 l
120.309366 99.441024 l
120.389909 99.65482 l
120.550994 98.708582 l
120.631536 97.170748 l
121.195468 75.052157 l
121.598449 65.844677 l
121.920484 63.81928 l
122.323331 62.401274 l
122.645635 61.915016 l
122.887263 61.744614 l
123.048348 61.094901 l
123.12889 61.865105 l
124.175942 57.300297 l
124.256485 57.341007 l
124.578655 58.215637 l
125.303671 60.821786 l
125.384214 60.004882 l
125.464756 60.28509 l
125.948146 63.128503 l
126.109231 62.497277 l
126.189773 62.598244 l
126.511943 69.768927 l
126.592485 68.314878 l
126.75357 62.586942 l
126.834113 62.482067 l
126.995198 62.787837 l
127.075875 62.772119 l
127.23696 61.613542 l
127.317502 62.66635 l
127.398045 62.265211 l
128.123061 59.494486 l
128.445231 59.486511 l
129.411741 59.552034 l
129.975538 59.108819 l
131.18381 57.514122 l
132.230862 56.443708 l
133.117098 55.634427 l
133.278183 55.664776 l
133.761572 56.294042 l
135.211337 58.417911 l
135.775269 59.140906 l
135.855811 59.039578 l
135.936353 58.681862 l
136.016896 60.180469 l
136.097438 58.805833 l
136.178115 59.16676 l
136.258658 59.269514 l
136.419743 58.876281 l
136.580828 59.915639 l
136.741913 58.909288 l
136.822455 59.030641 l
136.98354 59.213324 l
137.144759 59.057439 l
138.756146 56.226096 l
139.319943 55.938768 l
139.722656 55.749944 l
140.528349 54.837438 l
140.931062 54.610186 l
141.172689 55.130934 l
143.18652 61.126365 l
143.589232 62.183175 l
143.911402 62.147034 l
144.394791 61.822174 l
145.522654 61.046355 l
145.844959 61.062761 l
146.08672 61.370116 l
146.247805 60.489 l
146.40889 58.774474 l
146.489433 61.403277 l
146.569975 59.016605 l
146.73106 61.378783 l
146.972688 60.519206 l
147.133907 60.184552 l
147.375534 60.097269 l
148.583806 59.428443 l
148.744891 59.462792 l
149.308822 60.052759 l
150.356143 61.178174 l
150.597771 61.388942 l
151.000617 60.822673 l
151.242245 60.584546 l
151.564415 61.676472 l
151.725634 68.004846 l
151.806176 64.097207 l
151.886719 64.685022 l
152.61187 59.994526 l
153.014582 60.815594 l
153.25621 61.210426 l
153.820141 60.946505 l
155.431528 60.652399 l
156.881695 60.665158 l
157.365085 60.787103 l
157.767931 60.916143 l
158.09037 60.653022 l
158.251455 59.996065 l
158.332131 59.589211 l
158.493216 61.367927 l
158.654301 62.385527 l
158.895929 60.620337 l
158.976605 60.01559 l
159.13769 60.95603 l
159.298775 63.747808 l
159.45986 58.342313 l
159.701622 63.42177 l
159.782165 62.222398 l
159.94325 65.019219 l
160.104335 64.164975 l
160.184877 64.244868 l
160.26542 64.284189 l
160.748943 60.962736 l
161.071113 59.129397 l
161.31274 58.827027 l
161.47396 59.066503 l
161.635179 59.286197 l
161.715721 59.333172 l
161.876806 59.891983 l
162.038025 61.228929 l
162.118568 61.047979 l
162.19911 61.345886 l
162.440872 73.333227 l
162.521415 67.721971 l
162.601957 75.598156 l
162.924261 57.187232 l
163.004938 61.213303 l
163.085615 60.596885 l
163.166157 61.44584 l
163.488461 59.495532 l
163.730089 58.88142 l
163.891308 58.883831 l
164.132935 59.415825 l
164.535648 61.208847 l
164.777275 62.568443 l
164.93836 61.768297 l
165.50256 58.560257 l
166.066626 59.269808 l
166.147169 59.192869 l
166.7111 58.440091 l
167.033405 58.476067 l
167.677879 58.673022 l
168.161268 58.808865 l
169.289131 58.654499 l
169.933471 59.270438 l
170.09469 59.726501 l
170.255909 61.041676 l
170.417129 57.81226 l
170.578214 61.333984 l
170.658756 60.81459 l
170.819841 59.712032 l
171.303365 58.631722 l
171.947973 57.537853 l
172.35082 57.707054 l
173.237055 58.254739 l
175.81522 58.333603 l
178.071081 58.446073 l
181.616024 58.281875 l
182.260633 58.137969 l
183.146869 57.516927 l
185.322187 55.562015 l
186.691678 54.31392 l
187.818601 53.437399 l
188.624295 52.815168 l
188.946465 52.967638 l
189.349177 53.271775 l
189.993785 53.930937 l
190.638259 53.436789 l
190.960564 53.418978 l
191.202325 53.590823 l
191.524495 54.948816 l
192.24978 58.51461 l
192.491408 59.773197 l
192.813846 65.678488 l
193.136285 74.156357 l
193.458455 67.995326 l
193.61954 71.498636 l
193.861301 78.408525 l
193.941844 74.762432 l
194.183605 78.309056 l
194.264148 78.053845 l
194.425233 80.514568 l
194.505775 79.02046 l
194.586318 85.34559 l
194.66686 78.582721 l
194.747403 79.872021 l
194.908488 74.630678 l
195.069573 78.22271 l
195.230792 69.822451 l
195.311334 76.96183 l
195.391877 74.990396 l
195.472419 80.62386 l
195.552962 77.005299 l
195.714047 85.59223 l
195.794589 84.869349 l
195.875266 82.688885 l
195.955809 87.365696 l
196.036351 85.765124 l
196.19757 79.793729 l
196.358655 90.748109 l
196.439198 89.400023 l
196.680825 85.265499 l
196.761502 86.558708 l
196.842044 84.018843 l
196.922721 84.532517 l
197.003264 83.962041 l
197.164483 86.321188 l
197.245025 95.104674 l
197.325568 84.639836 l
197.40611 86.704463 l
197.56733 78.850253 l
197.728549 92.64351 l
197.809091 90.043736 l
197.889768 96.717267 l
197.97031 85.795592 l
198.050853 85.925776 l
198.131395 84.875644 l
198.212072 85.748882 l
198.292615 84.137204 l
198.534376 68.372111 l
198.614919 68.632126 l
198.776138 72.137963 l
198.937223 78.848472 l
199.581697 64.779579 l
199.742916 69.839257 l
200.145629 62.792348 l
200.306982 62.631613 l
200.387659 62.700675 l
200.871048 65.235029 l
201.596333 69.306296 l
201.757418 69.030392 l
201.838095 67.258884 l
201.918637 67.302776 l
202.079857 67.325028 l
202.160399 67.272407 l
202.643788 65.915737 l
202.805007 65.588452 l
203.127177 69.213128 l
203.530024 73.157803 l
203.610701 73.448772 l
203.852328 69.385635 l
204.013547 68.940546 l
204.09409 70.583127 l
204.335717 67.383574 l
204.41626 67.401709 l
204.658022 74.496153 l
204.819106 77.899237 l
205.060868 77.027118 l
205.222087 77.365271 l
205.383172 78.420606 l
206.269408 61.627118 l
206.591847 60.248182 l
206.753066 59.659194 l
207.075504 58.407149 l
207.236589 58.356624 l
207.558893 58.606265 l
207.719978 59.677183 l
208.042283 64.441998 l
208.284044 71.955888 l
208.364587 71.862234 l
208.84811 65.267383 l
209.089738 61.513727 l
209.331499 59.611976 l
209.492718 59.877688 l
210.137595 62.058762 l
210.218272 61.993365 l
210.298815 63.168169 l
210.379357 62.612948 l
210.540576 63.550216 l
210.621119 63.37785 l
210.701661 63.431043 l
210.782204 63.570838 l
210.943557 63.312982 l
211.185319 63.179076 l
211.507489 65.440834 l
211.588031 65.22064 l
211.668708 65.131481 l
211.91047 66.890484 l
212.071689 66.774201 l
212.393859 66.579317 l
212.957925 65.953406 l
213.11901 62.728618 l
213.199686 64.47591 l
213.763752 58.115645 l
213.844295 58.025788 l
214.086056 58.521549 l
215.214054 62.158712 l
215.375139 62.779221 l
215.536358 62.501519 l
215.77812 63.379299 l
215.939205 63.235272 l
216.019747 63.005613 l
216.10029 63.702827 l
216.180832 62.820948 l
216.261509 62.852536 l
216.664356 62.284148 l
216.98666 60.627372 l
217.470049 56.392778 l
217.711811 55.852457 l
217.872896 55.900418 l
218.033981 56.24079 l
218.678723 58.042025 l
218.920351 58.181584 l
219.242655 62.994694 l
219.323197 62.942832 l
219.726044 61.386295 l
219.967806 60.399591 l
220.854176 55.139969 l
221.095937 56.573043 l
222.143393 64.699637 l
222.224069 64.613039 l
222.626916 62.799466 l
222.707593 62.9158 l
222.788269 62.964502 l
222.949489 59.621037 l
223.110708 62.575876 l
223.19125 62.519016 l
223.271793 62.081074 l
223.513554 59.714999 l
223.594097 59.91431 l
223.674639 59.872543 l
223.755316 59.82645 l
224.077486 59.169329 l
224.39979 61.158189 l
224.722094 63.223183 l
224.802771 63.193732 l
225.205618 62.022105 l
225.366837 61.22734 l
225.44738 61.315396 l
225.527922 61.397504 l
225.769684 59.873291 l
225.85036 59.910869 l
226.011445 60.582694 l
226.17253 57.34118 l
226.253207 58.310204 l
226.414292 59.810168 l
226.494835 60.080721 l
226.65592 62.44292 l
226.736596 62.278916 l
226.897681 61.952899 l
226.978358 62.744151 l
227.22012 82.332246 l
227.381339 103.433035 l
227.623101 88.262682 l
227.784186 84.355513 l
227.945405 76.680507 l
228.025947 76.141787 l
228.187166 67.587341 l
228.348251 64.367117 l
228.670556 59.668173 l
228.912317 57.686356 l
229.154079 59.844641 l
229.315298 60.680588 l
229.395841 60.497136 l
229.556926 61.311815 l
229.718145 60.043907 l
229.879364 62.713435 l
230.040449 69.378312 l
230.201668 53.366836 l
230.362887 60.665015 l
230.523972 71.017431 l
230.604515 66.895111 l
230.846142 58.426359 l
230.926685 58.803619 l
231.007362 61.444462 l
231.087904 71.24006 l
231.168447 70.692927 l
231.249123 69.75735 l
231.329666 70.563994 l
231.410208 75.108247 l
231.490751 68.06487 l
231.571293 70.004374 l
231.651836 70.798491 l
231.812921 75.06401 l
231.893597 82.574728 l
231.97414 72.955891 l
232.054682 73.57698 l
232.135225 73.862566 l
232.215902 76.695149 l
232.296444 89.919423 l
232.377121 77.190603 l
232.457663 90.376608 l
232.779967 69.496951 l
233.102272 56.835391 l
233.182814 57.219428 l
233.747014 67.898554 l
233.827557 67.248423 l
234.149861 62.989263 l
234.391623 62.042136 l
234.713927 60.407343 l
234.794469 60.436135 l
235.116773 61.218222 l
235.439078 67.726348 l
235.680839 78.783939 l
235.922467 65.304428 l
236.486533 82.894225 l
236.567209 82.005744 l
236.647752 80.942199 l
237.050867 90.683321 l
237.534256 103.7512 l
237.614799 104.506275 l
237.776018 101.653731 l
238.01778 87.709198 l
238.098322 89.584507 l
238.340084 77.871449 l
239.065369 67.740437 l
239.146046 68.348898 l
239.710111 62.591354 l
240.757566 55.854606 l
241.402175 53.182074 l
241.482717 53.085103 l
241.643937 53.61424 l
242.046783 55.924029 l
242.933019 62.555848 l
243.336 68.211168 l
243.416542 67.388108 l
244.141827 79.474151 l
244.222504 79.34651 l
244.383589 78.867382 l
244.706028 80.762193 l
244.786704 80.717715 l
245.270228 79.756071 l
245.35077 79.651022 l
245.592532 80.213949 l
246.076055 81.35151 l
246.639987 82.623785 l
247.042834 79.378718 l
247.203919 77.605745 l
247.284595 82.508985 l
247.365138 78.287599 l
247.526223 80.081908 l
247.606899 79.957937 l
247.929204 83.136835 l
248.251508 78.495734 l
248.815574 72.681689 l
249.057335 70.85064 l
249.138012 73.177699 l
249.218555 73.083904 l
249.460316 76.106408 l
249.540859 73.436013 l
249.621401 74.296115 l
249.863029 77.58266 l
250.507906 94.457091 l
250.588448 92.56383 l
251.635903 57.468163 l
251.877665 55.201456 l
252.119426 54.909311 l
252.280646 54.97011 l
252.844712 56.054214 l
253.086339 56.878883 l
253.247558 56.597009 l
253.48932 56.228879 l
253.731216 56.411313 l
253.892435 56.292614 l
254.053654 55.817908 l
254.375958 55.527827 l
254.778805 55.977158 l
255.020567 56.167315 l
255.343005 54.695081 l
255.50409 53.863413 l
255.665309 52.080222 l
255.826394 52.033511 l
256.390595 52.363898 l
257.921976 50.778246 l
258.002518 50.706282 l
264.288456 50.841988 m
265.013607 51.012192 l
273.072554 51.314631 l
277.585618 51.624954 l
280.567569 51.813655 l
284.274537 51.396271 l
284.91928 50.959704 l
285.161042 50.503305 l
285.241584 50.31033 l
285.402803 50.591035 m
285.725108 52.043818 l
286.289173 51.99614 l
286.772563 51.574684 l
287.336628 51.497554 l
287.658933 51.237973 l
287.739609 51.752895 l
287.820152 51.679518 l
288.061914 51.643314 l
291.446846 52.851867 l
292.091588 53.147069 l
293.058635 53.321637 l
293.461616 54.210057 l
293.945005 55.574402 l
294.428663 56.851991 l
294.992729 56.05097 l
295.073271 56.203281 l
295.637471 57.640417 l
295.879367 56.901863 l
296.443433 55.064955 l
296.927091 53.908399 l
297.168718 54.587884 l
298.055223 58.37093 l
298.216442 59.312302 l
298.458338 57.726438 l
298.861184 54.920271 l
298.941727 54.994475 l
299.666878 57.120962 l
299.828231 57.171638 l
300.15067 58.244473 l
300.473108 56.43415 l
300.876223 60.227401 l
300.9569 59.960139 l
301.198662 57.382213 l
301.279204 57.308448 l
302.085166 54.549876 l
302.326928 56.965394 l
302.488147 60.122433 l
302.729908 68.634565 l
302.810451 67.199581 l
303.052347 62.282458 l
303.294243 72.359027 l
303.536004 81.985912 l
303.616681 82.739114 l
303.697224 99.981292 l
303.858443 84.25174 l
303.938985 81.213406 l
304.019528 86.764476 l
304.180747 75.152744 l
304.26129 72.336843 l
304.341966 72.671318 l
304.422509 74.964986 l
304.503185 71.938889 l
304.66427 86.571787 l
304.744947 84.089541 l
304.906032 76.698551 l
304.986575 78.932489 l
305.067386 77.938894 l
305.147928 84.632122 l
305.228605 79.672498 l
305.309147 86.149898 l
305.389824 83.88479 l
305.550909 89.041146 l
305.631451 93.248939 l
305.712128 84.199953 l
305.792805 86.282977 l
305.873347 85.88082 l
305.95389 105.568584 l
306.115109 84.58296 l
306.84026 64.829555 l
307.001479 63.187039 l
307.323783 60.2718 l
307.565545 60.654884 l
307.807575 61.168963 l
308.291099 62.814905 l
308.53286 64.942855 l
308.694079 64.260996 l
308.855164 63.28587 l
309.177603 66.287659 l
309.338688 63.077069 l
309.499907 64.996331 l
309.661126 62.798215 l
309.822345 65.525952 l
309.903022 65.638139 l
309.983565 64.806595 l
310.064241 64.919586 l
310.386546 65.531581 l
310.547631 66.83281 l
310.870069 72.816219 l
311.111831 81.754034 l
311.434135 72.456108 l
311.59522 81.749158 l
311.675897 77.555788 l
311.837116 101.649409 l
311.917658 97.834156 l
311.998201 99.635242 l
312.078877 84.385038 l
312.15942 87.961192 l
312.562535 115.938775 l
312.643078 115.146411 l
312.804297 117.905034 l
312.884839 127.924888 l
313.046058 113.620191 l
313.207278 172.192396 l
313.368497 121.511557 l
313.610259 155.721033 l
313.690801 156.183105 l
313.771478 161.715893 l
314.01324 97.703741 l
314.093782 111.024623 l
314.174324 73.556919 l
314.255001 82.118473 l
314.335544 102.381446 l
314.41622 93.620701 l
314.496897 102.206852 l
314.577574 97.713557 l
314.658116 108.712412 l
314.819336 95.602845 l
314.899878 96.83728 l
314.980421 89.065545 l
315.061097 89.999349 l
315.14164 93.857924 l
315.222316 85.238089 l
315.383401 94.722946 l
315.544621 106.344692 l
315.625163 112.748133 l
315.70584 59.191975 l
315.786382 130.274277 l
315.947467 82.286237 l
316.108821 141.164373 l
316.27004 79.927188 l
316.350717 81.852833 l
316.431393 88.388335 l
316.511936 113.7454 l
316.592613 175.305557 l
316.673155 160.557605 l
316.753698 121.59211 l
316.834374 126.732984 l
316.914917 162.140253 l
316.995459 122.947464 l
317.076136 228.728088 l
317.317898 111.486851 l
317.398574 124.238169 l
317.559794 101.895167 l
317.640336 226.199902 l
317.720879 207.14953 l
317.801421 247.868417 l
317.881964 175.268218 l
318.043317 244.446784 l
318.12386 156.680801 l
318.204402 165.2749 l
318.285079 264.302627 l
318.365621 230.823214 l
318.446298 292.032 l
318.68806 111.839294 l
318.768736 111.115452 l
318.849279 129.286203 l
319.010498 106.807827 l
319.091041 120.166236 l
319.171583 116.027365 l
319.25226 104.993163 l
319.332802 135.102745 l
319.413345 111.840785 l
319.494021 154.162512 l
319.655241 102.236805 l
319.735917 109.904799 l
320.219441 91.721444 l
320.300117 99.486082 l
320.38066 90.245856 l
320.461337 98.693226 l
320.541879 96.759617 l
320.622422 96.236111 l
320.783641 99.0218 l
320.864183 95.379282 l
320.94486 98.667912 l
321.186622 94.469474 l
321.267164 108.801606 l
321.428518 86.359348 l
321.670279 115.646605 l
321.750822 106.99777 l
321.912041 112.889859 l
321.992584 103.725091 l
322.07326 107.18372 l
322.234345 104.617292 l
322.395699 103.627642 l
322.717466 97.944727 l
323.362477 103.910396 l
323.523562 109.961922 l
323.684781 136.989696 l
324.00722 109.200885 l
324.087762 112.311449 l
324.57142 149.464585 l
324.893858 186.69836 l
324.974401 190.49901 l
325.055077 189.560094 l
325.216297 178.162818 l
325.861039 96.128209 l
326.022124 154.894785 m
326.183343 206.937141 l
326.344563 134.515165 l
326.505782 123.908973 m
326.667001 144.595876 l
326.747543 170.929258 l
326.828086 131.756556 l
326.989305 196.536689 l
327.069982 182.442798 l
327.231201 200.70544 l
327.392286 181.097641 l
327.553505 141.98907 l
327.714859 215.519363 l
327.956486 120.272115 l
328.037163 121.641938 l
328.198382 95.713415 l
328.520821 127.961954 l
328.681906 98.326716 l
328.843125 88.891677 l
328.923667 162.176649 l
329.00421 73.207993 l
329.084886 81.537514 l
329.165429 96.970415 l
329.246106 81.931365 l
329.326648 84.200833 l
329.488002 97.922953 l
329.568544 166.772233 l
329.649221 84.367283 l
329.729898 107.163105 l
329.81044 128.363 l
329.971659 90.73353 l
330.052202 87.032739 l
330.213421 74.194451 l
330.697213 66.683487 l
330.777755 66.830653 l
330.939109 66.327026 l
331.019651 66.492397 l
331.100194 67.146985 l
331.34209 74.802021 l
331.422632 78.736559 l
331.664394 122.712956 l
331.825747 201.578078 l
332.067509 81.667079 l
332.148051 82.401329 l
332.228728 170.215702 l
332.389947 58.302123 l
332.47049 62.476792 l
332.551032 78.277177 l
332.631709 72.176254 l
332.792794 99.144902 l
332.873471 94.112626 l
333.03469 136.836867 l
333.115232 113.531327 l
333.195909 145.817819 l
333.276452 103.679114 l
333.356994 105.460657 l
333.437671 119.387854 l
333.518213 103.466206 l
333.59889 114.838992 l
333.679433 149.593544 l
333.759975 101.964543 l
333.840652 106.636432 l
333.921194 99.6191 l
334.001737 103.88061 l
334.082413 87.797727 l
334.16309 104.258252 l
334.243633 102.173105 l
334.324175 109.259112 l
334.565937 77.974806 l
334.646614 81.103115 l
334.727156 78.418581 l
334.968918 109.213832 l
335.04946 139.487084 l
335.130137 116.238383 l
335.210679 120.282361 l
335.291222 123.208793 l
335.371899 122.860395 l
335.452575 122.652267 l
335.533252 124.208207 l
335.613929 123.009106 l
335.694471 129.346784 l
335.936233 106.668431 l
336.01691 106.462396 l
336.097452 103.436919 l
336.177995 107.336967 l
336.580976 60.694609 l
336.661518 59.674046 l
336.90328 66.71194 l
336.983957 66.176626 l
337.064499 65.612689 l
337.145176 62.04273 l
337.548022 80.688882 l
337.628565 76.518784 l
337.870461 89.395042 l
338.03168 87.155789 l
338.112223 78.865625 l
338.192899 83.280724 l
338.273576 81.523685 l
338.354253 81.818147 l
338.596014 90.206096 l
338.837776 92.733754 l
338.998995 97.073177 l
339.160214 89.043666 l
339.321434 104.105441 l
339.482787 93.534571 l
339.56333 94.544961 l
339.805091 99.735226 l
339.966311 95.422908 l
340.046853 96.175756 l
340.12753 96.13213 l
340.208072 105.284959 l
340.369426 95.745445 l
340.449968 130.226013 l
340.530645 96.484934 l
340.611187 99.307342 l
341.094845 110.582309 l
341.175522 109.543903 l
341.256064 108.101257 l
341.659179 85.982494 l
341.739722 82.808068 l
341.901075 90.533814 l
342.06216 101.98247 l
342.384599 87.332066 l
342.62636 78.741029 l
342.707037 78.718539 l
342.78758 78.37137 l
342.868122 77.529253 l
343.029341 68.474438 l
343.19056 73.788424 l
343.271237 73.11816 l
343.35178 74.447343 l
343.432322 74.295792 l
343.512999 74.291314 l
343.593676 72.170192 l
343.674218 72.372879 l
343.835303 73.312524 l
343.91598 72.957568 l
344.077065 72.340765 l
344.157742 72.154943 l
344.318961 69.594595 l
344.399637 69.656374 l
344.560857 70.139511 l
344.641533 70.004061 l
344.963838 62.106672 l
345.04438 62.106214 l
345.125057 62.89969 l
345.28641 69.079092 l
345.366953 68.641691 l
345.931287 59.405926 l
346.011964 59.838659 l
346.334268 65.695644 l
346.495487 70.400464 l
346.656706 68.360413 l
346.737383 69.273574 l
347.220906 59.501791 l
347.462668 58.057305 l
347.543345 57.839404 l
347.785107 55.956475 l
347.865649 55.948633 l
348.188088 64.524055 l
348.510526 77.55669 l
348.832964 60.773069 l
348.913507 62.192983 l
349.074726 66.714838 l
349.155269 66.722902 l
349.235811 75.294592 l
349.316488 67.558164 l
349.39703 74.628134 l
349.477573 73.081579 l
349.638792 76.462039 l
349.719334 69.872056 l
349.799877 70.452402 l
350.202858 77.319338 l
350.444619 80.060405 l
351.169905 54.77512 l
351.331124 55.173778 l
351.411666 55.457338 l
351.492209 55.355834 l
351.976269 53.922353 l
352.459927 52.135774 l
352.621146 52.218501 l
353.346431 53.492725 l
353.668869 52.619889 l
353.991174 59.487804 l
354.07185 58.773716 l
354.313612 54.927421 l
354.474831 56.37569 l
354.877812 59.399164 l
355.039031 59.939238 l
355.603231 60.148316 l
355.92567 59.630731 l
356.006212 59.722016 l
356.167432 58.377256 l
356.328517 58.209699 l
356.489736 58.234425 l
356.570413 59.476858 l
356.651089 59.357602 l
357.295832 58.30658 l
357.779489 57.659256 l
358.666128 56.979042 l
359.069109 56.700675 l
359.230328 56.248611 l
359.713986 56.076398 l
359.955747 56.149166 l
360.197643 56.430838 l
360.439271 56.953065 l
360.842252 58.716953 l
361.084148 60.101048 l
361.648482 62.813961 l
362.69634 68.442304 l
362.857425 68.509231 l
363.099186 68.359579 l
363.260406 68.35601 l
363.341082 68.24799 l
363.985959 64.611034 l
364.227721 69.010412 l
364.630836 78.081618 l
364.711379 77.784157 l
365.517475 69.152089 l
365.598017 69.12549 l
365.839779 73.864775 l
365.920321 75.670031 l
366.000998 75.057425 l
366.323302 71.251006 l
366.565064 70.131814 l
366.806826 74.248303 l
366.887368 76.245779 l
366.968045 74.663323 l
367.209941 82.240648 l
367.37116 78.872658 l
367.451702 76.973665 l
367.532379 79.956812 l
367.93536 68.868643 l
368.177256 68.184753 l
368.660914 63.979182 l
368.902675 63.206831 l
369.063894 63.448175 l
369.466875 64.434222 l
369.789448 67.449768 l
370.192429 61.19128 l
370.273106 59.055662 l
370.756763 77.79563 l
370.837306 81.85614 l
370.917982 79.624599 l
371.159744 86.514744 l
371.240287 86.563101 l
371.320829 84.928542 l
371.401506 86.648638 l
371.562725 84.871622 l
372.368687 59.626681 l
372.53004 66.404089 l
372.69126 78.235393 l
372.771936 75.760238 l
372.852479 77.26993 l
373.013698 70.016684 l
373.09424 69.384698 l
373.174783 69.496671 l
373.25546 69.952834 l
373.336136 73.458791 l
373.416813 72.176615 l
373.739386 76.902438 l
373.819928 73.801416 l
373.900471 74.181323 l
373.981147 74.619806 l
374.303452 79.056313 l
374.62589 74.252107 l
374.948328 68.361958 l
375.028871 68.393139 l
375.270633 70.128598 l
375.673748 78.094321 l
375.834967 77.120944 l
375.915644 76.400464 l
376.076729 79.011875 l
376.238082 76.659465 l
376.479844 72.839968 l
376.560655 76.457828 l
376.641197 75.838017 l
376.802282 71.542204 l
376.882959 71.776444 l
377.124721 75.959443 l
377.689055 89.431185 l
378.172713 79.964794 l
378.253255 81.714697 l
378.333932 80.849063 l
378.736913 63.628649 l
378.81759 63.533329 l
379.059485 60.906109 l
379.220705 62.089424 l
379.462601 62.747343 l
380.107477 54.603127 l
380.18802 55.104952 l
380.832763 61.541691 l
381.074658 60.826861 l
381.397097 55.697483 l
381.558182 57.342886 l
381.719401 59.327535 l
382.041839 66.491763 l
382.122516 66.697498 l
382.203059 66.418501 l
382.364278 64.313607 l
382.606174 64.118213 l
383.009289 63.170538 l
383.251051 62.334538 l
383.331727 62.381065 l
383.654166 67.51872 l
384.057147 74.72311 l
384.137689 75.249796 l
384.379585 64.592779 l
384.460128 64.092557 l
384.540804 62.782173 l
384.621347 62.893813 l
384.943785 61.118256 l
385.105004 61.184259 l
386.07232 63.052393 l
386.314081 63.086456 l
386.555843 63.202047 l
386.958958 62.542507 l
387.200854 62.135698 l
387.603969 66.709669 l
387.845865 70.793397 l
388.087627 67.612882 l
388.571553 59.872491 l
389.377783 58.158462 l
389.619679 58.175868 l
389.781033 58.148104 l
390.184014 56.157103 l
390.506452 54.821133 l
390.990378 53.508756 l
391.23214 53.23133 l
391.554712 53.19521 l
392.360674 53.561572 l
393.005551 54.401137 l
393.731105 55.627018 l
393.811781 55.59947 l
393.892324 55.252584 l
394.053677 53.813725 l
394.94045 53.489489 l
395.021127 53.599878 l
395.182346 55.103323 l
395.504784 55.600549 l
395.74668 56.354697 l
396.955757 58.804563 l
397.520092 60.777011 l
397.84253 62.57864 l
398.164834 69.000997 l
398.487273 63.783037 l
398.487273 63.783037 l
stroke
grestore
0.800 setlinewidth
0 setlinejoin
[] 0 setdash
0.000 setgray
gsave
57.6 38.016 m
57.6 304.128 l
stroke
grestore
gsave
414.72 38.016 m
414.72 304.128 l
stroke
grestore
gsave
57.6 38.016 m
414.72 38.016 l
stroke
grestore
gsave
57.6 304.128 m
414.72 304.128 l
stroke
grestore
1.000 setlinewidth
0 setlinecap
0.800 setgray
gsave
349.860625 266.78425 m
407.72 266.78425 l
409.053333 266.78425 409.72 267.450917 409.72 268.78425 c
409.72 297.128 l
409.72 298.461333 409.053333 299.128 407.72 299.128 c
349.860625 299.128 l
348.527292 299.128 347.860625 298.461333 347.860625 297.128 c
347.860625 268.78425 l
347.860625 267.450917 348.527292 266.78425 349.860625 266.78425 c
cl
gsave
1.000 setgray
fill
grestore
stroke
grestore
1.500 setlinewidth
1 setlinejoin
2 setlinecap
[] 0 setdash
0.000 0.750 0.750 setrgbcolor
gsave
351.860625 291.03425 m
371.860625 291.03425 l
stroke
grestore
0.000 setgray
gsave
379.860625 287.534250 translate
0.000000 rotate
0.000000 0.000000 m /three glyphshow
6.362305 0.000000 m /m glyphshow
16.103516 0.000000 m /m glyphshow
grestore
0.627 0.314 0.314 setrgbcolor
gsave
351.860625 276.362375 m
371.860625 276.362375 l
stroke
grestore
0.000 setgray
gsave
379.860625 272.862375 translate
0.000000 rotate
0.000000 0.000000 m /two glyphshow
6.362305 0.000000 m /m glyphshow
16.103516 0.000000 m /m glyphshow
grestore

end
showpage
