%!PS-Adobe-3.0 EPSF-3.0
%%Title: new_alg/11/11_RAW_tau.eps
%%Creator: matplotlib version 3.0.2, http://matplotlib.org/
%%CreationDate: Wed Apr 10 12:52:38 2019
%%Orientation: portrait
%%BoundingBox: 75 223 536 568
%%EndComments
%%BeginProlog
/mpldict 9 dict def
mpldict begin
/m { moveto } bind def
/l { lineto } bind def
/r { rlineto } bind def
/c { curveto } bind def
/cl { closepath } bind def
/box {
m
1 index 0 r
0 exch r
neg 0 r
cl
} bind def
/clipbox {
box
clip
newpath
} bind def
%!PS-Adobe-3.0 Resource-Font
%%Title: DejaVu Sans
%%Copyright: Copyright (c) 2003 by Bitstream, Inc. All Rights Reserved. Copyright (c) 2006 by Tavmjong Bah. All Rights Reserved. DejaVu changes are in public domain 
%%Creator: Converted from TrueType to type 3 by PPR
25 dict begin
/_d{bind def}bind def
/_m{moveto}_d
/_l{lineto}_d
/_cl{closepath eofill}_d
/_c{curveto}_d
/_sc{7 -1 roll{setcachedevice}{pop pop pop pop pop pop}ifelse}_d
/_e{exec}_d
/FontName /DejaVuSans def
/PaintType 0 def
/FontMatrix[.001 0 0 .001 0 0]def
/FontBBox[-1021 -463 1793 1232]def
/FontType 3 def
/Encoding [ /space /comma /period /zero /one /two /three /four /five /six /eight /a /d /e /i /m /s /t /y ] def
/FontInfo 10 dict dup begin
/FamilyName (DejaVu Sans) def
/FullName (DejaVu Sans) def
/Notice (Copyright (c) 2003 by Bitstream, Inc. All Rights Reserved. Copyright (c) 2006 by Tavmjong Bah. All Rights Reserved. DejaVu changes are in public domain ) def
/Weight (Book) def
/Version (Version 2.35) def
/ItalicAngle 0.0 def
/isFixedPitch false def
/UnderlinePosition -130 def
/UnderlineThickness 90 def
end readonly def
/CharStrings 20 dict dup begin
/.notdef 0 def
/space{318 0 0 0 0 0 _sc
}_d
/comma{318 0 77 -115 220 124 _sc
117 124 _m
220 124 _l
220 40 _l
140 -115 _l
77 -115 _l
117 40 _l
117 124 _l
_cl}_d
/period{318 0 107 0 210 124 _sc
107 124 _m
210 124 _l
210 0 _l
107 0 _l
107 124 _l
_cl}_d
/zero{636 0 66 -13 570 742 _sc
318 664 _m
267 664 229 639 203 589 _c
177 539 165 464 165 364 _c
165 264 177 189 203 139 _c
229 89 267 64 318 64 _c
369 64 407 89 433 139 _c
458 189 471 264 471 364 _c
471 464 458 539 433 589 _c
407 639 369 664 318 664 _c
318 742 _m
399 742 461 709 505 645 _c
548 580 570 486 570 364 _c
570 241 548 147 505 83 _c
461 19 399 -13 318 -13 _c
236 -13 173 19 130 83 _c
87 147 66 241 66 364 _c
66 486 87 580 130 645 _c
173 709 236 742 318 742 _c
_cl}_d
/one{636 0 110 0 544 729 _sc
124 83 _m
285 83 _l
285 639 _l
110 604 _l
110 694 _l
284 729 _l
383 729 _l
383 83 _l
544 83 _l
544 0 _l
124 0 _l
124 83 _l
_cl}_d
/two{{636 0 73 0 536 742 _sc
192 83 _m
536 83 _l
536 0 _l
73 0 _l
73 83 _l
110 121 161 173 226 239 _c
290 304 331 346 348 365 _c
380 400 402 430 414 455 _c
426 479 433 504 433 528 _c
433 566 419 598 392 622 _c
365 646 330 659 286 659 _c
255 659 222 653 188 643 _c
154 632 117 616 78 594 _c
78 694 _l
118 710 155 722 189 730 _c
223 738 255 742 284 742 _c
}_e{359 742 419 723 464 685 _c
509 647 532 597 532 534 _c
532 504 526 475 515 449 _c
504 422 484 390 454 354 _c
446 344 420 317 376 272 _c
332 227 271 164 192 83 _c
_cl}_e}_d
/three{{636 0 76 -13 556 742 _sc
406 393 _m
453 383 490 362 516 330 _c
542 298 556 258 556 212 _c
556 140 531 84 482 45 _c
432 6 362 -13 271 -13 _c
240 -13 208 -10 176 -4 _c
144 1 110 10 76 22 _c
76 117 _l
103 101 133 89 166 81 _c
198 73 232 69 268 69 _c
330 69 377 81 409 105 _c
441 129 458 165 458 212 _c
458 254 443 288 413 312 _c
383 336 341 349 287 349 _c
}_e{202 349 _l
202 430 _l
291 430 _l
339 430 376 439 402 459 _c
428 478 441 506 441 543 _c
441 580 427 609 401 629 _c
374 649 336 659 287 659 _c
260 659 231 656 200 650 _c
169 644 135 635 98 623 _c
98 711 _l
135 721 170 729 203 734 _c
235 739 266 742 296 742 _c
370 742 429 725 473 691 _c
517 657 539 611 539 553 _c
539 513 527 479 504 451 _c
481 423 448 403 406 393 _c
_cl}_e}_d
/four{636 0 49 0 580 729 _sc
378 643 _m
129 254 _l
378 254 _l
378 643 _l
352 729 _m
476 729 _l
476 254 _l
580 254 _l
580 172 _l
476 172 _l
476 0 _l
378 0 _l
378 172 _l
49 172 _l
49 267 _l
352 729 _l
_cl}_d
/five{{636 0 77 -13 549 729 _sc
108 729 _m
495 729 _l
495 646 _l
198 646 _l
198 467 _l
212 472 227 476 241 478 _c
255 480 270 482 284 482 _c
365 482 429 459 477 415 _c
525 370 549 310 549 234 _c
549 155 524 94 475 51 _c
426 8 357 -13 269 -13 _c
238 -13 207 -10 175 -6 _c
143 -1 111 6 77 17 _c
77 116 _l
106 100 136 88 168 80 _c
199 72 232 69 267 69 _c
}_e{323 69 368 83 401 113 _c
433 143 450 183 450 234 _c
450 284 433 324 401 354 _c
368 384 323 399 267 399 _c
241 399 214 396 188 390 _c
162 384 135 375 108 363 _c
108 729 _l
_cl}_e}_d
/six{{636 0 70 -13 573 742 _sc
330 404 _m
286 404 251 388 225 358 _c
199 328 186 286 186 234 _c
186 181 199 139 225 109 _c
251 79 286 64 330 64 _c
374 64 409 79 435 109 _c
461 139 474 181 474 234 _c
474 286 461 328 435 358 _c
409 388 374 404 330 404 _c
526 713 _m
526 623 _l
501 635 476 644 451 650 _c
425 656 400 659 376 659 _c
310 659 260 637 226 593 _c
}_e{192 549 172 482 168 394 _c
187 422 211 444 240 459 _c
269 474 301 482 336 482 _c
409 482 467 459 509 415 _c
551 371 573 310 573 234 _c
573 159 550 99 506 54 _c
462 9 403 -13 330 -13 _c
246 -13 181 19 137 83 _c
92 147 70 241 70 364 _c
70 479 97 571 152 639 _c
206 707 280 742 372 742 _c
396 742 421 739 447 735 _c
472 730 498 723 526 713 _c
_cl}_e}_d
/eight{{636 0 68 -13 568 742 _sc
318 346 _m
271 346 234 333 207 308 _c
180 283 167 249 167 205 _c
167 161 180 126 207 101 _c
234 76 271 64 318 64 _c
364 64 401 76 428 102 _c
455 127 469 161 469 205 _c
469 249 455 283 429 308 _c
402 333 365 346 318 346 _c
219 388 _m
177 398 144 418 120 447 _c
96 476 85 511 85 553 _c
85 611 105 657 147 691 _c
188 725 245 742 318 742 _c
}_e{390 742 447 725 489 691 _c
530 657 551 611 551 553 _c
551 511 539 476 515 447 _c
491 418 459 398 417 388 _c
464 377 501 355 528 323 _c
554 291 568 251 568 205 _c
568 134 546 80 503 43 _c
459 5 398 -13 318 -13 _c
237 -13 175 5 132 43 _c
89 80 68 134 68 205 _c
68 251 81 291 108 323 _c
134 355 171 377 219 388 _c
183 544 _m
183 506 194 476 218 455 _c
}_e{242 434 275 424 318 424 _c
360 424 393 434 417 455 _c
441 476 453 506 453 544 _c
453 582 441 611 417 632 _c
393 653 360 664 318 664 _c
275 664 242 653 218 632 _c
194 611 183 582 183 544 _c
_cl}_e}_d
/a{{613 0 60 -13 522 560 _sc
343 275 _m
270 275 220 266 192 250 _c
164 233 150 205 150 165 _c
150 133 160 107 181 89 _c
202 70 231 61 267 61 _c
317 61 357 78 387 114 _c
417 149 432 196 432 255 _c
432 275 _l
343 275 _l
522 312 _m
522 0 _l
432 0 _l
432 83 _l
411 49 385 25 355 10 _c
325 -5 287 -13 243 -13 _c
187 -13 142 2 109 33 _c
76 64 60 106 60 159 _c
}_e{60 220 80 266 122 298 _c
163 329 224 345 306 345 _c
432 345 _l
432 354 _l
432 395 418 427 391 450 _c
364 472 326 484 277 484 _c
245 484 215 480 185 472 _c
155 464 127 453 100 439 _c
100 522 _l
132 534 164 544 195 550 _c
226 556 256 560 286 560 _c
365 560 424 539 463 498 _c
502 457 522 395 522 312 _c
_cl}_e}_d
/d{{635 0 55 -13 544 760 _sc
454 464 _m
454 760 _l
544 760 _l
544 0 _l
454 0 _l
454 82 _l
435 49 411 25 382 10 _c
353 -5 319 -13 279 -13 _c
213 -13 159 13 117 65 _c
75 117 55 187 55 273 _c
55 359 75 428 117 481 _c
159 533 213 560 279 560 _c
319 560 353 552 382 536 _c
411 520 435 496 454 464 _c
148 273 _m
148 207 161 155 188 117 _c
215 79 253 61 301 61 _c
}_e{348 61 385 79 413 117 _c
440 155 454 207 454 273 _c
454 339 440 390 413 428 _c
385 466 348 485 301 485 _c
253 485 215 466 188 428 _c
161 390 148 339 148 273 _c
_cl}_e}_d
/e{{615 0 55 -13 562 560 _sc
562 296 _m
562 252 _l
149 252 _l
153 190 171 142 205 110 _c
238 78 284 62 344 62 _c
378 62 412 66 444 74 _c
476 82 509 95 541 113 _c
541 28 _l
509 14 476 3 442 -3 _c
408 -9 373 -13 339 -13 _c
251 -13 182 12 131 62 _c
80 112 55 181 55 268 _c
55 357 79 428 127 481 _c
175 533 241 560 323 560 _c
397 560 455 536 498 489 _c
}_e{540 441 562 377 562 296 _c
472 322 _m
471 371 457 410 431 440 _c
404 469 368 484 324 484 _c
274 484 234 469 204 441 _c
174 413 156 373 152 322 _c
472 322 _l
_cl}_e}_d
/i{278 0 94 0 184 760 _sc
94 547 _m
184 547 _l
184 0 _l
94 0 _l
94 547 _l
94 760 _m
184 760 _l
184 646 _l
94 646 _l
94 760 _l
_cl}_d
/m{{974 0 91 0 889 560 _sc
520 442 _m
542 482 569 511 600 531 _c
631 550 668 560 711 560 _c
767 560 811 540 842 500 _c
873 460 889 403 889 330 _c
889 0 _l
799 0 _l
799 327 _l
799 379 789 418 771 444 _c
752 469 724 482 686 482 _c
639 482 602 466 575 435 _c
548 404 535 362 535 309 _c
535 0 _l
445 0 _l
445 327 _l
445 379 435 418 417 444 _c
398 469 369 482 331 482 _c
}_e{285 482 248 466 221 435 _c
194 404 181 362 181 309 _c
181 0 _l
91 0 _l
91 547 _l
181 547 _l
181 462 _l
201 495 226 520 255 536 _c
283 552 317 560 357 560 _c
397 560 430 550 458 530 _c
486 510 506 480 520 442 _c
_cl}_e}_d
/s{{521 0 54 -13 472 560 _sc
443 531 _m
443 446 _l
417 458 391 468 364 475 _c
336 481 308 485 279 485 _c
234 485 200 478 178 464 _c
156 450 145 430 145 403 _c
145 382 153 366 169 354 _c
185 342 217 330 265 320 _c
296 313 _l
360 299 405 279 432 255 _c
458 230 472 195 472 151 _c
472 100 452 60 412 31 _c
372 1 316 -13 246 -13 _c
216 -13 186 -10 154 -5 _c
}_e{122 0 89 8 54 20 _c
54 113 _l
87 95 120 82 152 74 _c
184 65 216 61 248 61 _c
290 61 323 68 346 82 _c
368 96 380 117 380 144 _c
380 168 371 187 355 200 _c
339 213 303 226 247 238 _c
216 245 _l
160 257 119 275 95 299 _c
70 323 58 356 58 399 _c
58 450 76 490 112 518 _c
148 546 200 560 268 560 _c
301 560 332 557 362 552 _c
391 547 418 540 443 531 _c
}_e{_cl}_e}_d
/t{392 0 27 0 368 702 _sc
183 702 _m
183 547 _l
368 547 _l
368 477 _l
183 477 _l
183 180 _l
183 135 189 106 201 94 _c
213 81 238 75 276 75 _c
368 75 _l
368 0 _l
276 0 _l
206 0 158 13 132 39 _c
106 65 93 112 93 180 _c
93 477 _l
27 477 _l
27 547 _l
93 547 _l
93 702 _l
183 702 _l
_cl}_d
/y{592 0 30 -207 562 547 _sc
322 -50 _m
296 -114 271 -157 247 -177 _c
223 -197 191 -207 151 -207 _c
79 -207 _l
79 -132 _l
132 -132 _l
156 -132 175 -126 189 -114 _c
203 -102 218 -75 235 -31 _c
251 9 _l
30 547 _l
125 547 _l
296 119 _l
467 547 _l
562 547 _l
322 -50 _l
_cl}_d
end readonly def

/BuildGlyph
 {exch begin
 CharStrings exch
 2 copy known not{pop /.notdef}if
 true 3 1 roll get exec
 end}_d

/BuildChar {
 1 index /Encoding get exch get
 1 index /BuildGlyph get exec
}_d

FontName currentdict end definefont pop
%!PS-Adobe-3.0 Resource-Font
%%Title: DejaVu Sans Oblique
%%Copyright: Copyright (c) 2003 by Bitstream, Inc. All Rights Reserved. Copyright (c) 2006 by Tavmjong Bah. All Rights Reserved. DejaVu changes are in public domain 
%%Creator: Converted from TrueType to type 3 by PPR
25 dict begin
/_d{bind def}bind def
/_m{moveto}_d
/_l{lineto}_d
/_cl{closepath eofill}_d
/_c{curveto}_d
/_sc{7 -1 roll{setcachedevice}{pop pop pop pop pop pop}ifelse}_d
/_e{exec}_d
/FontName /DejaVuSans-Oblique def
/PaintType 0 def
/FontMatrix[.001 0 0 .001 0 0]def
/FontBBox[-1016 -350 1659 1068]def
/FontType 3 def
/Encoding [ /tau ] def
/FontInfo 10 dict dup begin
/FamilyName (DejaVu Sans) def
/FullName (DejaVu Sans Oblique) def
/Notice (Copyright (c) 2003 by Bitstream, Inc. All Rights Reserved. Copyright (c) 2006 by Tavmjong Bah. All Rights Reserved. DejaVu changes are in public domain ) def
/Weight (Oblique) def
/Version (Version 2.35) def
/ItalicAngle -11.0 def
/isFixedPitch false def
/UnderlinePosition -130 def
/UnderlineThickness 90 def
end readonly def
/CharStrings 2 dict dup begin
/.notdef 0 def
/tau{602 0 84 0 606 547 _sc
329 100 _m
337 84 359 76 395 76 _c
438 76 _l
423 0 _l
369 0 _l
310 0 270 15 250 47 _c
229 79 226 129 240 198 _c
290 457 _l
84 457 _l
102 547 _l
606 547 _l
589 457 _l
382 457 _l
330 193 _l
320 145 320 114 329 100 _c
_cl}_d
end readonly def

/BuildGlyph
 {exch begin
 CharStrings exch
 2 copy known not{pop /.notdef}if
 true 3 1 roll get exec
 end}_d

/BuildChar {
 1 index /Encoding get exch get
 1 index /BuildGlyph get exec
}_d

FontName currentdict end definefont pop
end
%%EndProlog
mpldict begin
75.6 223.2 translate
460.8 345.6 0 0 clipbox
gsave
0 0 m
460.8 0 l
460.8 345.6 l
0 345.6 l
cl
1.000 setgray
fill
grestore
gsave
57.6 38.016 m
414.72 38.016 l
414.72 304.128 l
57.6 304.128 l
cl
1.000 setgray
fill
grestore
0.800 setlinewidth
1 setlinejoin
0 setlinecap
[] 0 setdash
0.000 setgray
gsave
/o {
gsave
newpath
translate
0.8 setlinewidth
1 setlinejoin
0 setlinecap
0 0 m
0 -3.5 l

gsave
0.000 setgray
fill
grestore
stroke
grestore
} bind def
62.9644 38.016 o
grestore
/DejaVuSans findfont
10.000 scalefont
setfont
gsave
59.784714 23.422250 translate
0.000000 rotate
0.000000 0.000000 m /zero glyphshow
grestore
gsave
/o {
gsave
newpath
translate
0.8 setlinewidth
1 setlinejoin
0 setlinecap
0 0 m
0 -3.5 l

gsave
0.000 setgray
fill
grestore
stroke
grestore
} bind def
117.085 38.016 o
grestore
gsave
113.905226 23.422250 translate
0.000000 rotate
0.000000 0.000000 m /five glyphshow
grestore
gsave
/o {
gsave
newpath
translate
0.8 setlinewidth
1 setlinejoin
0 setlinecap
0 0 m
0 -3.5 l

gsave
0.000 setgray
fill
grestore
stroke
grestore
} bind def
171.205 38.016 o
grestore
gsave
164.846051 23.422250 translate
0.000000 rotate
0.000000 0.000000 m /one glyphshow
6.362305 0.000000 m /zero glyphshow
grestore
gsave
/o {
gsave
newpath
translate
0.8 setlinewidth
1 setlinejoin
0 setlinecap
0 0 m
0 -3.5 l

gsave
0.000 setgray
fill
grestore
stroke
grestore
} bind def
225.326 38.016 o
grestore
gsave
218.966563 23.422250 translate
0.000000 rotate
0.000000 0.000000 m /one glyphshow
6.362305 0.000000 m /five glyphshow
grestore
gsave
/o {
gsave
newpath
translate
0.8 setlinewidth
1 setlinejoin
0 setlinecap
0 0 m
0 -3.5 l

gsave
0.000 setgray
fill
grestore
stroke
grestore
} bind def
279.446 38.016 o
grestore
gsave
273.087075 23.422250 translate
0.000000 rotate
0.000000 0.000000 m /two glyphshow
6.362305 0.000000 m /zero glyphshow
grestore
gsave
/o {
gsave
newpath
translate
0.8 setlinewidth
1 setlinejoin
0 setlinecap
0 0 m
0 -3.5 l

gsave
0.000 setgray
fill
grestore
stroke
grestore
} bind def
333.567 38.016 o
grestore
gsave
327.207587 23.422250 translate
0.000000 rotate
0.000000 0.000000 m /two glyphshow
6.362305 0.000000 m /five glyphshow
grestore
gsave
/o {
gsave
newpath
translate
0.8 setlinewidth
1 setlinejoin
0 setlinecap
0 0 m
0 -3.5 l

gsave
0.000 setgray
fill
grestore
stroke
grestore
} bind def
387.687 38.016 o
grestore
gsave
381.328099 23.422250 translate
0.000000 rotate
0.000000 0.000000 m /three glyphshow
6.362305 0.000000 m /zero glyphshow
grestore
gsave
209.863125 9.750375 translate
0.000000 rotate
0.000000 0.000000 m /t glyphshow
3.920898 0.000000 m /i glyphshow
6.699219 0.000000 m /m glyphshow
16.440430 0.000000 m /e glyphshow
22.592773 0.000000 m /comma glyphshow
25.771484 0.000000 m /space glyphshow
28.950195 0.000000 m /d glyphshow
35.297852 0.000000 m /a glyphshow
41.425781 0.000000 m /y glyphshow
47.343750 0.000000 m /s glyphshow
grestore
gsave
/o {
gsave
newpath
translate
0.8 setlinewidth
1 setlinejoin
0 setlinecap
0 0 m
-3.5 0 l

gsave
0.000 setgray
fill
grestore
stroke
grestore
} bind def
57.6 70.1447 o
grestore
gsave
34.693750 66.347795 translate
0.000000 rotate
0.000000 0.000000 m /zero glyphshow
6.362305 0.000000 m /period glyphshow
9.541016 0.000000 m /two glyphshow
grestore
gsave
/o {
gsave
newpath
translate
0.8 setlinewidth
1 setlinejoin
0 setlinecap
0 0 m
-3.5 0 l

gsave
0.000 setgray
fill
grestore
stroke
grestore
} bind def
57.6 105.845 o
grestore
gsave
34.693750 102.048363 translate
0.000000 rotate
0.000000 0.000000 m /zero glyphshow
6.362305 0.000000 m /period glyphshow
9.541016 0.000000 m /four glyphshow
grestore
gsave
/o {
gsave
newpath
translate
0.8 setlinewidth
1 setlinejoin
0 setlinecap
0 0 m
-3.5 0 l

gsave
0.000 setgray
fill
grestore
stroke
grestore
} bind def
57.6 141.546 o
grestore
gsave
34.693750 137.748932 translate
0.000000 rotate
0.000000 0.000000 m /zero glyphshow
6.362305 0.000000 m /period glyphshow
9.541016 0.000000 m /six glyphshow
grestore
gsave
/o {
gsave
newpath
translate
0.8 setlinewidth
1 setlinejoin
0 setlinecap
0 0 m
-3.5 0 l

gsave
0.000 setgray
fill
grestore
stroke
grestore
} bind def
57.6 177.246 o
grestore
gsave
34.693750 173.449501 translate
0.000000 rotate
0.000000 0.000000 m /zero glyphshow
6.362305 0.000000 m /period glyphshow
9.541016 0.000000 m /eight glyphshow
grestore
gsave
/o {
gsave
newpath
translate
0.8 setlinewidth
1 setlinejoin
0 setlinecap
0 0 m
-3.5 0 l

gsave
0.000 setgray
fill
grestore
stroke
grestore
} bind def
57.6 212.947 o
grestore
gsave
34.693750 209.150069 translate
0.000000 rotate
0.000000 0.000000 m /one glyphshow
6.362305 0.000000 m /period glyphshow
9.541016 0.000000 m /zero glyphshow
grestore
gsave
/o {
gsave
newpath
translate
0.8 setlinewidth
1 setlinejoin
0 setlinecap
0 0 m
-3.5 0 l

gsave
0.000 setgray
fill
grestore
stroke
grestore
} bind def
57.6 248.648 o
grestore
gsave
34.693750 244.850638 translate
0.000000 rotate
0.000000 0.000000 m /one glyphshow
6.362305 0.000000 m /period glyphshow
9.541016 0.000000 m /two glyphshow
grestore
gsave
/o {
gsave
newpath
translate
0.8 setlinewidth
1 setlinejoin
0 setlinecap
0 0 m
-3.5 0 l

gsave
0.000 setgray
fill
grestore
stroke
grestore
} bind def
57.6 284.348 o
grestore
gsave
34.693750 280.551206 translate
0.000000 rotate
0.000000 0.000000 m /one glyphshow
6.362305 0.000000 m /period glyphshow
9.541016 0.000000 m /four glyphshow
grestore
gsave
28.615625 167.572000 translate
90.000000 rotate
/DejaVuSans-Oblique findfont
10.0 scalefont
setfont
0.000000 0.531250 moveto
/tau glyphshow


grestore
1.500 setlinewidth
2 setlinecap
0.000 0.750 0.750 setrgbcolor
gsave
357.1 266.1 57.6 38.02 clipbox
73.832727 66.147061 m
73.908396 65.275964 l
73.983814 67.52045 l
74.059482 66.670122 l
74.210443 65.549273 l
74.512616 69.085946 l
74.588159 68.881192 l
74.739121 67.126586 l
75.116711 62.286686 l
75.343466 64.997916 l
75.721182 69.229674 l
76.023355 70.205047 l
76.099024 70.12933 l
76.325653 69.823644 l
76.552158 71.080625 l
76.778913 71.996749 l
76.854456 71.029018 l
77.156629 77.194071 l
77.30759 90.219065 l
77.383133 89.555697 l
77.534094 99.62502 l
77.609637 99.332467 l
77.760599 93.708949 l
77.836142 90.077029 l
78.213858 73.681392 m
78.289276 73.119276 l
78.440237 65.764327 l
78.591323 69.99068 l
78.817828 70.869098 l
78.893371 71.062608 l
78.968914 70.001245 l
79.195544 64.256973 l
79.346756 61.386375 l
79.497717 62.948319 l
79.648928 64.918844 l
79.875558 74.597487 l
79.951101 70.158411 l
80.026645 71.227702 l
80.102313 75.476467 l
80.253399 71.086864 l
80.328817 72.521269 l
80.479904 71.07571 l
80.555447 68.552943 l
80.63099 68.761479 l
80.782202 71.552182 l
80.933163 74.659389 l
81.008706 74.706053 l
81.461966 63.959507 l
81.537509 64.028502 l
81.613177 64.257737 l
81.838429 67.063088 l
82.140602 73.033186 l
82.59361 91.736257 l
82.744697 76.73221 l
83.349043 59.646339 l
83.575672 78.204399 l
83.726759 63.562361 l
83.802427 65.268252 l
83.878096 64.65018 l
84.029307 65.734645 l
84.104976 71.133985 l
84.180394 69.313807 l
84.331355 65.040788 l
84.482441 74.376355 l
84.633653 70.508931 l
84.78474 74.093869 l
84.860283 71.90062 l
84.935701 64.514038 l
85.011244 67.96197 l
85.237748 59.646452 l
85.313291 60.630609 l
85.464378 78.577958 l
85.539921 97.672634 l
85.615464 81.336712 l
85.690882 133.003267 l
85.766551 68.645577 l
85.842219 71.345935 l
85.917762 60.106423 l
85.993431 62.798716 l
86.144392 59.897177 l
86.219935 60.107431 l
86.295479 60.501074 l
86.371022 60.403949 l
86.9002 59.624792 l
87.202373 57.995741 l
87.353334 59.687876 l
87.428752 59.356004 l
87.504295 58.998498 l
87.73105 61.275059 l
87.806593 61.259122 l
87.95768 62.41805 l
88.033098 62.101012 l
88.108641 62.615306 l
88.184184 62.426296 l
88.335145 63.070624 l
88.486357 65.011059 l
88.788405 72.805063 l
88.939616 77.060724 l
89.01516 76.846951 l
89.090703 77.004386 l
89.166121 76.840063 l
89.317207 72.88003 l
89.694798 66.800168 l
89.770341 64.51126 l
89.84601 66.289535 l
89.921553 63.419159 l
90.072514 68.021928 l
90.2236 70.37597 l
90.601317 57.52206 l
90.67686 57.00744 l
90.827946 53.254708 l
90.979033 55.676793 l
91.205537 62.945588 l
91.432292 67.597061 l
91.734214 60.969084 l
91.809883 61.432125 l
92.036387 63.904856 l
92.187599 89.993999 l
92.33856 60.81761 l
92.489646 73.091079 l
92.56519 65.591359 l
92.716151 75.254085 l
92.791694 77.368063 l
92.942906 64.971227 l
93.245204 82.901736 l
93.320622 78.846852 l
93.39629 79.378788 l
93.774006 66.926029 l
93.849424 65.394574 l
94.076304 69.8007 l
94.302934 73.612474 l
94.378352 73.311066 l
94.45402 72.396783 l
94.604982 81.948793 l
94.907154 61.868166 l
95.133784 56.721641 l
95.209327 56.364322 l
95.435957 58.641621 l
95.511625 58.04334 l
95.73838 59.821424 l
95.813798 59.454757 l
95.889342 70.887792 l
95.964885 66.658815 l
96.040303 65.233002 l
96.267058 55.553365 l
96.644648 61.143658 l
96.720192 60.985037 l
96.871403 61.294012 l
97.098158 59.542274 l
97.475874 55.423335 l
97.551418 55.607915 l
97.777922 56.68722 l
98.155763 51.758576 l
98.458061 52.633624 l
98.609148 52.700839 l
98.835652 52.787051 l
99.062532 52.814181 l
99.364705 52.904058 l
100.119887 52.444311 l
101.102074 52.369352 l
101.932799 52.53397 l
102.990028 53.045429 l
104.1228 53.783886 l
105.180906 54.810635 l
106.011631 55.558535 l
106.691771 56.282392 l
107.447203 57.565164 l
107.900587 58.338211 l
108.580978 59.063016 l
108.959069 59.675209 l
109.336911 62.556449 l
109.639084 65.614536 l
109.790045 62.717365 l
109.865588 63.2268 l
110.016549 66.669594 l
110.167636 72.521593 l
110.243304 72.46596 l
110.621145 68.003109 l
110.696814 68.429178 l
110.923444 66.452323 l
111.225491 65.452045 l
111.376828 65.554425 l
111.603708 65.986638 l
111.754669 68.695053 l
111.98155 75.241036 l
112.057218 72.117322 l
112.132761 95.928157 l
112.208305 90.877212 l
112.283848 91.152239 l
112.359391 79.981122 l
112.510352 92.70496 l
112.585895 89.880674 l
112.737107 92.469544 l
112.888194 78.637943 l
112.963737 74.998506 l
113.039405 87.631603 l
113.190366 75.859839 l
113.26591 75.764632 l
113.492665 64.504763 l
113.794963 58.598566 l
113.946049 59.907773 l
114.172679 62.030976 l
114.625938 60.918292 l
115.079448 58.885514 l
115.381495 59.633007 l
116.061259 60.697073 l
116.363181 60.933142 l
117.118238 61.051198 l
117.193781 60.706402 l
117.344867 61.257954 l
117.420285 61.290485 l
117.949213 60.501614 l
118.478016 60.642875 l
118.70452 60.722687 l
119.459827 60.578723 l
120.366345 60.775963 l
121.499869 61.059752 l
122.406764 61.030769 l
123.464494 60.402281 l
124.899941 59.571103 l
126.713354 59.286904 l
127.544454 59.309648 l
130.490765 59.683085 l
131.775125 59.520605 l
132.304178 59.527384 l
133.135529 59.485664 l
133.966504 59.080466 l
134.948691 58.634575 l
135.628831 58.459747 l
136.687313 57.235594 l
136.762856 57.226665 l
136.989361 57.80228 l
138.04659 61.144235 l
138.348763 60.795076 l
138.877314 59.84796 l
139.632621 58.557242 l
139.934794 58.368968 l
140.388054 58.491577 l
140.765895 60.872055 l
140.992525 62.409225 l
141.143611 61.642326 l
141.597121 59.091963 l
141.82375 58.433296 l
141.899168 58.350522 l
142.125798 57.164502 l
142.201341 57.253824 l
142.427971 64.262175 l
142.578932 68.5861 l
142.654475 69.101499 l
142.805687 71.887169 l
143.032191 81.198504 l
143.107735 66.365992 l
143.183278 67.236346 l
143.259072 68.024867 l
143.410033 64.565393 l
143.636788 68.095573 l
143.712456 69.243989 l
144.014754 63.309434 l
144.090423 63.349103 l
144.316927 64.424643 l
144.39247 64.393685 l
144.694894 64.089898 l
145.299365 63.095761 l
146.507931 60.008655 l
147.036859 59.568537 l
147.716622 59.196465 l
148.321219 59.040478 l
149.001358 59.07558 l
149.983169 58.529303 l
150.058713 58.569068 l
150.360885 59.804297 l
150.889312 62.421348 l
151.267404 64.284247 l
151.493783 63.13765 l
152.476095 57.349832 l
152.627057 57.605626 l
153.080566 59.480665 l
153.911667 67.453275 l
153.98721 67.836945 l
154.364926 59.581522 l
154.44047 59.596938 l
154.591556 59.500976 l
155.044565 57.002107 l
155.195651 57.037827 l
155.422281 57.341816 l
156.026251 58.248593 l
156.177337 58.271192 l
156.70614 57.703602 l
156.857351 57.288509 l
157.537115 57.018497 l
157.688201 57.328714 l
158.594971 57.339215 l
159.199567 58.896492 l
159.728369 60.555008 l
159.879456 60.359821 l
160.181629 59.455324 l
160.559094 58.364578 l
160.937186 57.651044 l
161.012729 57.717711 l
161.315027 58.400461 l
161.995167 60.767985 l
162.448677 63.506224 l
162.901936 72.353348 l
162.977479 71.254622 l
163.204109 67.431054 l
163.279527 67.714968 l
163.355195 68.978953 l
163.506282 82.122875 l
163.657368 94.109197 l
163.733037 98.252233 l
163.80858 90.583631 l
163.959666 112.415197 l
164.03521 111.128257 l
164.110753 107.891754 l
164.337633 85.715228 l
164.564388 78.258158 l
164.639931 78.897474 l
164.715349 80.024656 l
165.017522 77.199273 l
165.093065 79.507712 l
165.168734 78.853405 l
165.244277 78.563598 l
165.470781 75.717795 l
165.621742 77.828785 l
166.37755 66.247769 l
166.528637 68.418179 l
166.83081 76.084919 l
166.981896 80.402611 l
167.132982 77.597357 l
167.435281 71.55864 l
167.66191 69.085638 l
167.737328 70.286108 l
167.813122 69.997641 l
167.88854 70.02583 l
168.190713 71.558614 l
168.493011 67.678814 l
168.568554 67.970142 l
168.946145 70.110663 l
169.097106 70.57254 l
169.701828 67.032488 l
170.155212 64.265587 l
170.306299 64.080284 l
170.68414 61.817369 l
171.212817 62.789525 l
171.666076 64.794729 l
171.817038 63.847301 l
172.044168 69.326684 l
172.270923 60.791104 l
172.573096 68.48473 l
172.648639 68.45492 l
172.875269 66.49109 l
173.026481 64.360773 l
173.177442 67.656322 l
173.328654 74.89651 l
173.630576 67.574962 l
173.781662 70.587036 l
173.857206 69.403766 l
174.008292 75.050634 l
174.235047 81.085697 l
174.310715 80.243999 l
174.53747 75.178248 l
174.839518 87.971611 l
174.915312 87.217986 l
175.141941 86.224258 l
175.368571 87.586559 l
175.444114 87.339704 l
175.595201 81.929749 l
175.670869 84.363402 l
175.746412 83.433288 l
175.82183 83.485604 l
175.973167 81.425617 l
176.048585 81.713161 l
176.275215 84.91628 l
176.426427 90.690232 l
176.577513 100.338915 l
177.10619 70.81412 m
177.181733 77.182319 l
177.937166 77.969222 m
178.16392 67.91694 l
178.239464 86.246201 l
178.390675 88.439902 m
178.466344 73.370003 l
178.541887 76.637565 l
179.070815 117.564096 l
179.297445 87.876884 l
179.372988 102.779 l
179.448531 92.423396 l
179.599743 135.421471 l
179.675411 87.776098 l
180.053127 118.934548 m
180.128796 127.032919 l
180.204339 125.542751 l
180.280007 128.915099 l
180.355676 105.722555 l
180.431219 137.641421 l
180.506762 129.13281 l
180.582431 136.061518 l
180.657974 134.278443 l
180.733517 130.198915 l
180.80906 135.069791 l
180.884729 109.805015 l
180.960397 147.467012 l
181.111609 71.411882 m
181.187027 65.995002 l
182.093671 87.189983 m
182.244757 99.223471 l
182.395844 109.348712 m
182.622599 71.023656 l
182.698267 70.346223 l
182.77381 63.010213 l
183.00044 78.809282 m
183.151652 85.954781 l
183.605036 149.829496 m
183.982878 93.092108 l
184.058421 92.568666 l
184.209507 103.430729 l
184.285176 82.609932 l
184.436262 88.19147 m
184.511806 88.137729 l
184.587349 87.02133 l
184.662892 93.509294 l
184.738435 91.498452 l
184.813978 88.63692 l
184.889396 103.270463 l
184.965065 97.476486 l
185.116151 101.288058 l
185.191694 98.88953 l
185.267238 86.739545 l
185.342781 86.787217 l
185.418199 87.606295 l
185.569411 113.161339 l
185.644954 91.547939 l
185.79604 169.689324 l
186.02292 135.9579 m
186.24955 171.361294 l
186.400636 191.635177 m
186.476305 191.675507 l
186.627141 228.689382 l
186.702684 227.078805 l
186.929188 194.557592 l
187.30703 72.854431 l
187.382573 68.076533 l
187.609328 83.696506 l
187.986919 108.639004 l
188.062587 107.494086 l
188.138005 108.624092 l
188.213548 129.007058 l
188.289092 94.727583 l
188.364635 107.457522 l
188.515721 127.38125 l
188.591264 121.376283 l
188.742727 135.309515 l
188.893813 98.079336 l
188.969356 102.727579 l
189.045025 115.130204 l
189.120568 85.430767 l
189.196111 106.365092 l
189.271654 96.72531 l
189.498159 80.018068 l
189.573827 97.694452 l
189.649371 70.814112 l
189.724914 91.269322 l
189.800582 90.666899 l
189.876125 85.153844 l
190.027337 120.738301 l
190.178298 75.869609 l
190.253842 74.073272 l
190.404928 79.992501 l
190.480346 88.020074 l
190.555889 109.980282 l
190.631432 84.747061 l
190.706976 120.687651 l
190.782519 116.9841 l
190.93373 119.237885 l
191.009399 117.763451 l
191.538201 71.769651 l
191.613745 75.309159 l
191.764956 71.458246 l
191.916293 73.919362 l
192.143048 64.923901 l
192.218592 69.612956 l
192.29426 69.142902 l
192.369929 68.720815 l
192.747895 61.423566 l
192.823313 57.43768 l
192.974525 61.022112 l
193.427784 57.015943 l
193.578871 56.059964 l
193.8055 55.895243 l
194.107798 56.072581 l
194.334553 56.543173 l
194.787812 57.737541 l
194.863356 57.595606 l
195.996754 54.212309 l
196.072423 54.124552 l
196.147966 54.519506 l
196.223509 54.466469 l
196.676894 54.290188 l
197.205947 54.559968 l
197.28149 54.325465 l
197.357159 54.396939 l
197.810543 53.458481 l
197.96163 54.113446 l
198.112716 53.282033 l
198.188134 53.390669 l
198.41539 53.651137 l
198.717688 52.963373 l
198.793106 53.017531 l
199.095279 53.728048 l
199.624332 55.958384 l
199.699875 55.616135 l
200.228803 52.273908 l
200.37989 52.770222 l
200.531101 53.739531 l
200.682188 54.688854 l
200.908943 55.611142 l
201.513414 54.716192 l
202.193678 54.882061 l
203.478414 55.451712 l
203.629501 55.926407 l
204.309515 56.32297 l
204.385058 56.061091 l
204.460476 56.79459 l
204.611813 56.086423 l
205.291827 56.005068 l
205.442788 55.129103 l
205.669543 55.101996 l
206.122928 54.274125 l
206.198596 55.013975 l
206.27414 54.920995 l
206.425226 55.251348 l
206.65173 56.668614 l
206.87836 57.556609 l
207.029572 56.859341 l
207.256327 54.866222 l
207.407664 54.291517 l
207.483207 54.368144 l
207.558875 54.588661 l
207.785254 59.070869 l
208.011884 75.136093 l
208.087427 78.377282 l
208.16297 77.557874 l
208.389725 72.18602 l
208.540812 75.365713 l
208.692024 74.082117 l
209.06974 54.234363 l
209.296369 51.057498 l
209.522999 55.433961 l
209.598542 57.12434 l
209.674211 56.956718 l
209.90084 55.713396 l
210.505437 65.973268 l
210.807735 67.741761 l
210.958821 67.054277 l
211.185576 68.428074 l
211.487874 68.241805 l
211.714629 68.996948 l
212.016802 81.662104 l
212.092345 80.835715 l
212.167888 78.849032 l
212.243432 86.337695 l
212.318975 85.813705 l
212.394518 83.905355 l
212.470061 79.080423 l
212.545604 83.358492 l
212.772485 69.740694 l
212.847903 70.848191 l
212.998989 68.020696 l
213.074658 70.073593 l
213.150075 69.991445 l
213.376956 61.505156 l
213.452499 61.572062 l
213.603961 59.030835 l
213.679504 59.586873 l
213.830465 63.610676 l
213.906259 63.596617 l
213.981802 61.705087 l
214.133014 64.995867 l
214.208557 64.928445 l
214.283975 65.091408 l
214.359644 63.666106 l
214.586524 65.799419 l
214.662067 65.140213 l
214.73761 67.126644 l
214.964491 62.602387 l
215.040034 62.829864 l
215.115577 62.996857 l
215.266664 68.749378 l
215.342332 70.599124 l
215.493418 90.670315 l
215.569087 86.88371 l
215.64463 71.392273 l
215.720048 78.730198 l
215.795717 70.106174 l
215.871135 71.610234 l
215.946803 70.686643 l
216.09814 76.776992 l
216.173558 75.438523 l
216.400438 65.194992 l
216.627193 59.347243 l
216.702736 59.02585 l
216.853823 59.389376 l
217.15587 55.881954 l
217.533712 66.571369 l
217.685049 66.170448 l
217.760592 65.280727 l
217.987096 71.161883 l
218.062639 70.940759 l
218.28952 66.256348 l
218.440606 64.410787 l
218.516149 64.865576 l
218.667236 67.891544 l
219.044952 63.896323 l
219.120495 69.133769 l
219.196038 60.834818 l
219.347125 70.060256 l
219.422668 72.12327 l
219.498211 77.346274 l
219.573754 77.167247 l
219.724841 60.044772 l
219.876052 71.495053 l
219.951596 68.262018 l
220.102557 61.647252 l
220.1781 60.331383 l
220.253768 60.83442 l
220.631485 65.622161 l
220.707028 65.489584 l
220.782571 65.970792 l
221.009201 82.498088 l
221.084869 92.55931 l
221.160538 77.565592 l
221.236081 81.134935 l
221.311749 80.993062 l
221.387293 63.766205 l
221.462836 70.164337 l
221.538379 75.496625 l
221.613922 89.681191 l
221.840802 72.310676 l
221.916346 74.687224 l
221.991889 64.105746 l
222.067557 64.76279 l
222.143101 66.3051 l
222.218769 65.370085 l
222.294312 65.679387 l
222.445649 73.16752 l
222.521318 146.34372 l
222.596736 66.872045 l
222.672279 143.398647 l
222.823491 57.665225 l
222.899034 55.151134 l
223.201332 63.269915 l
223.50363 56.920311 l
223.579173 57.633073 l
223.654842 59.372407 l
223.730385 57.564367 l
223.805803 59.111233 l
223.881346 68.141755 l
223.957015 101.196793 l
224.107976 72.184181 l
224.259062 68.870539 l
224.485692 58.756379 l
224.56136 58.640886 l
224.712447 57.755837 l
224.863533 58.100567 l
225.090038 54.159157 l
225.165581 54.611728 l
225.241124 54.56191 l
225.39221 54.636101 l
225.61884 54.961263 l
225.694509 54.863175 l
225.770177 54.691674 l
225.845595 55.342321 l
226.07235 54.469669 l
226.223562 54.913291 l
226.29898 54.839493 l
226.601278 54.432265 l
226.903451 54.539813 l
227.13008 54.831231 l
227.508172 56.777777 l
227.583715 56.665143 l
227.734927 54.704512 l
228.037225 58.225121 l
228.339398 81.570726 l
228.566278 66.387446 l
228.641947 61.495448 l
228.71749 61.670984 l
228.94437 65.179778 l
229.246543 60.721619 l
229.322086 61.049006 l
229.624384 63.052605 l
229.700053 63.118628 l
229.926557 61.643049 l
230.0021 61.636047 l
230.077644 61.435053 l
230.153437 61.552202 l
230.304649 61.090489 l
230.758034 60.536084 l
230.909245 60.030825 l
231.060457 61.186829 l
231.58926 56.694734 l
231.664803 56.492451 l
231.815764 57.319715 l
232.344817 61.722017 l
232.571697 71.292891 l
232.647241 71.179438 l
233.705347 58.527757 l
234.083063 59.015573 l
234.687659 54.757198 l
234.763453 54.932788 l
235.065751 56.734106 l
235.292381 60.129211 l
235.368049 60.238087 l
235.51901 59.909445 l
235.594553 60.018855 l
235.896977 59.281374 l
236.123732 59.779727 l
236.350236 60.17204 l
236.652409 60.392468 l
236.727952 59.934967 l
236.803621 60.05966 l
237.03025 60.450639 l
237.105794 60.358281 l
237.48351 56.479515 l
237.936894 52.724578 l
238.465822 50.689726 l
238.767995 50.397965 l
238.99475 50.434614 l
239.297048 50.76011 l
239.674764 51.190721 l
239.901268 51.321522 l
240.430572 51.876867 l
240.581658 52.036412 l
240.732745 52.480481 l
240.959374 55.404748 l
241.035043 57.176606 l
241.110711 56.844076 l
241.186129 55.803646 l
241.261673 65.040123 l
241.337216 58.733606 l
241.412759 60.160094 l
241.563845 60.814859 l
241.639514 67.485605 l
241.715057 65.576215 l
241.790726 67.17508 l
241.866144 66.396384 l
241.941812 66.667683 l
242.092899 65.874419 l
243.226297 55.665568 l
243.377384 55.760539 l
243.452927 55.748668 l
243.604013 56.715098 l
243.679557 56.486343 l
243.7551 55.787858 l
243.830643 56.078206 l
244.133192 57.738391 l
244.359821 60.56913 l
244.586451 59.66048 l
244.661994 59.808833 l
244.813081 56.254618 l
244.888624 56.967597 l
244.964167 58.055859 l
245.03971 57.658173 l
245.190797 57.157365 l
245.568513 57.323464 l
246.021897 56.328139 l
246.248527 55.893778 l
246.399739 54.875808 l
246.852998 54.84759 l
247.457594 54.480541 l
247.835811 54.572754 l
248.591369 55.143538 l
248.969461 58.100107 l
249.196216 59.297557 l
249.271759 59.646331 l
249.422971 61.874729 l
249.6496 56.864976 l
249.725144 57.077413 l
249.951898 58.75174 l
250.102985 57.58212 l
250.329364 78.701814 l
250.405032 78.779915 l
250.631662 59.447111 l
250.707456 59.286633 l
250.934211 76.384255 l
251.236634 151.775527 l
251.312303 104.132276 l
251.539183 232.834528 l
251.614726 255.685322 l
251.841356 55.158005 l
251.992693 55.586908 l
252.14403 52.395185 l
252.446453 63.25 l
252.59754 69.413155 l
252.673208 93.046902 l
252.82442 66.752222 l
252.975631 75.216857 l
253.126593 71.342201 l
253.202261 71.671512 l
253.428766 74.266034 l
253.504434 76.996166 l
253.65552 86.262825 l
253.731189 86.210494 l
253.882526 81.902309 l
253.958069 82.476529 l
254.033738 83.6658 l
254.260493 67.694133 l
254.638334 52.892709 l
254.78942 62.163358 l
254.864964 61.372016 l
255.016426 92.01862 l
255.092094 93.827625 l
255.243181 87.878116 l
255.394518 111.115932 l
255.470186 159.184218 l
255.621273 64.391313 l
255.696816 81.770648 l
255.772359 77.353038 l
255.847902 78.70761 l
255.998989 66.767093 l
256.225744 100.894339 l
256.377081 112.756668 l
256.528292 93.806437 l
256.603961 101.583213 l
256.755298 80.794031 l
256.906384 103.597057 l
256.981927 73.939957 l
257.057471 81.116816 l
257.133139 97.116429 l
257.208682 73.602766 l
257.284351 76.419778 l
257.359894 75.03243 l
257.511106 78.862536 l
257.586774 97.033344 l
257.662192 83.210162 l
257.889072 98.344037 l
257.964741 96.687142 l
258.040409 72.593073 l
258.115953 74.399889 l
258.191371 74.199081 l
258.64488 86.207338 l
258.720424 85.739611 l
258.795967 95.115565 l
258.947179 87.919715 l
259.098265 82.037879 l
259.173933 89.175447 l
259.249602 88.584053 l
259.476482 85.305592 l
259.552151 85.333982 l
259.627694 85.748986 l
259.703362 85.56503 l
259.778906 85.512217 l
259.854449 88.549345 l
260.23229 88.84886 m
260.383377 93.540732 l
260.45892 92.706816 l
260.534463 93.501736 l
260.610132 96.27373 l
260.6858 93.60645 l
260.761343 95.468821 l
262.197291 129.50565 m
262.272834 154.881239 l
262.348377 149.126944 l
262.499338 137.372395 l
262.574882 140.820708 l
262.650425 148.321407 l
267.561611 72.149684 m
267.637154 73.437192 l
267.712572 80.121241 l
268.014995 82.017001 m
268.166207 113.296339 l
268.241625 94.954308 l
268.317293 101.289733 l
268.392837 98.427805 l
268.468505 120.467959 l
268.544174 111.451227 l
268.695135 114.545976 m
268.770803 79.503307 l
269.148519 158.19967 l
269.224062 149.232002 l
269.299731 182.47333 l
270.735428 218.584728 m
270.811096 151.121718 l
270.88664 199.271666 l
271.037726 114.833034 l
271.113269 102.610386 l
271.188812 252.319506 l
271.264356 106.188484 l
271.340024 137.351665 l
271.415567 140.134417 l
271.566779 85.036888 l
271.642197 90.968886 l
271.71774 86.546786 l
271.793409 88.29649 l
271.868827 88.792166 l
272.171375 77.361346 l
272.322587 84.785623 l
272.473799 83.155828 l
272.549467 85.74648 l
272.625136 81.566757 l
272.776473 88.693176 l
272.852016 84.044749 l
272.927559 85.017616 l
273.003228 83.868644 l
273.154439 110.542576 l
273.229983 140.665227 l
273.381194 76.243447 l
273.683492 60.862831 l
273.759036 60.822077 l
273.985791 67.990971 l
274.061334 69.004345 l
274.137002 67.827948 l
274.288089 69.844658 l
274.363757 63.855937 l
274.4393 73.172042 l
274.515094 68.910464 l
274.590763 67.708235 l
274.666431 70.75351 l
274.741974 69.282626 l
274.817643 63.162733 l
275.044398 103.100442 l
275.119941 80.728473 l
275.195484 101.63247 l
275.346696 67.924682 l
275.573451 96.325273 l
275.648994 86.578279 l
275.724412 100.710202 l
275.800081 78.693187 l
276.026835 111.256771 l
276.253465 54.858726 l
276.404677 59.447638 l
276.48022 57.619374 l
276.631557 55.741553 l
276.93398 56.671427 l
277.085192 57.020166 l
277.387365 56.727598 l
277.765332 55.929065 l
277.991961 55.682046 l
278.369677 55.197066 l
278.445221 55.155146 l
278.520764 54.073928 l
278.596307 54.102185 l
278.974399 54.123677 l
279.730332 53.585836 l
280.939525 52.566245 l
282.30018 51.801629 l
283.131405 51.129861 l
283.736628 51.838833 l
284.265932 52.722212 l
284.492812 52.106181 l
285.02199 50.643701 l
285.400082 50.112 l
285.475625 50.117565 l
285.70238 50.814598 l
286.458314 54.382807 l
286.760612 57.574758 l
287.214247 64.464353 l
287.441002 69.761624 l
287.894261 88.404565 l
287.969804 87.406003 l
288.272228 75.484192 l
288.498983 84.896611 l
288.649944 58.272638 l
288.801156 72.257992 l
288.876573 72.100838 l
289.103203 69.102643 l
289.254415 68.515982 l
289.632507 65.541129 l
289.707925 65.682392 l
289.93468 74.92104 l
290.38844 103.011564 l
290.61507 105.575658 l
290.84195 101.649401 l
290.917493 100.211635 l
290.993162 100.431717 l
291.74897 108.196184 l
291.824638 107.950854 l
291.900181 110.411916 l
291.97585 107.721582 l
292.127061 112.904517 l
292.20273 111.657607 l
292.278273 95.530495 l
292.353816 99.545131 l
292.42936 112.388086 l
292.504778 88.899415 l
292.580321 94.953179 l
292.731282 90.63819 l
292.807076 91.289516 l
292.882494 90.756735 l
293.033831 92.845801 l
293.109499 90.37472 l
293.185168 93.98636 l
293.336254 77.782577 l
293.48734 75.562432 l
293.562884 75.956091 l
293.638427 80.123716 l
293.71397 79.083257 l
293.865057 77.772679 l
293.9406 77.481318 l
294.318566 71.285112 l
294.394235 72.617729 l
294.545447 67.818653 l
295.301004 61.764176 l
295.754764 62.123348 l
296.057188 58.075619 l
296.132856 58.655446 l
296.359486 61.293742 l
296.435029 61.170904 l
296.963957 58.462321 l
297.0395 58.570352 l
297.568679 60.029223 l
297.795433 59.266568 l
298.40003 57.015572 l
299.155587 55.127201 l
299.760183 54.28063 l
300.213568 53.72501 l
300.59166 53.267193 l
300.81829 53.499961 l
301.044919 53.982402 l
301.196131 54.366545 l
301.574098 53.940109 l
301.725435 54.240638 l
302.027983 55.642376 l
302.103526 56.340135 l
302.481493 66.17359 l
302.557036 66.115947 l
302.632705 65.163544 l
302.708373 65.278546 l
303.010546 66.408233 l
303.237426 73.464715 l
303.464432 78.440951 l
304.220616 85.346543 l
304.522914 78.591109 l
304.749418 90.808644 l
304.825087 90.374838 l
304.976173 91.262076 l
305.203053 88.69863 l
305.278722 88.72389 l
305.429933 88.439706 l
305.58102 89.569118 l
305.732232 90.949908 l
305.807775 90.728751 l
305.959112 90.008356 l
306.034655 90.059361 l
306.336953 101.539716 l
306.412747 101.301699 l
306.639377 94.568519 l
306.790588 88.085351 l
306.9418 94.588791 l
307.017594 93.920318 l
307.168805 91.894752 l
307.244474 93.908983 l
307.320142 93.390506 l
307.395686 93.337768 l
307.773402 103.467866 l
307.924613 105.429243 l
308.000157 104.718549 l
308.227037 95.521858 l
308.453792 88.879424 l
308.755965 95.407617 l
308.831633 94.134653 l
309.360811 79.09709 l
309.436355 79.165441 l
309.663235 89.044063 l
309.738653 87.071908 l
309.814321 86.430064 l
310.041202 79.346714 l
310.116745 80.728684 l
310.267956 78.862957 l
310.419168 79.35671 l
310.646048 69.009049 l
310.721592 81.367715 l
310.797135 79.031918 l
310.948221 74.302926 l
311.02389 74.942025 l
311.175101 73.263611 l
311.25077 73.429801 l
311.4774 74.772862 l
311.628486 78.838953 l
311.704029 72.462331 l
311.779823 80.329132 l
311.855366 75.211327 l
311.930909 87.927954 l
312.006453 84.179004 l
312.081996 80.206365 l
312.157664 80.622516 l
312.686717 68.907741 l
312.837929 72.990727 l
312.913472 66.784606 l
312.989016 66.894736 l
313.21577 65.529875 l
313.366732 63.825641 l
313.820367 59.260384 l
313.89591 58.856993 l
314.047122 59.866707 l
314.576551 64.73115 l
314.652094 64.468287 l
314.80318 62.684137 l
314.878723 65.126558 l
314.954267 62.081013 l
315.02981 62.303063 l
315.105478 62.220523 l
315.332108 62.975308 l
315.709949 64.823833 l
315.861161 64.541519 l
316.087916 63.837103 l
316.314671 62.880201 l
316.616969 66.045688 l
316.919267 62.797165 l
317.070354 62.781873 l
317.372526 63.37967 l
317.675075 63.656861 l
317.826287 64.109916 l
318.128585 61.09455 l
318.355591 72.007377 l
318.431134 77.111295 l
318.8091 60.706019 l
318.884644 61.643413 l
319.03573 63.139121 l
319.48924 72.788287 l
319.791789 79.099247 l
319.943126 82.452141 l
320.245549 75.414096 l
320.396761 79.78359 l
320.472304 79.152237 l
320.547972 79.964983 l
320.774727 72.88199 l
320.850271 76.259035 l
321.303655 64.957912 l
321.75729 57.332373 l
321.833084 57.950658 l
322.059839 61.055332 l
322.210925 59.492766 l
322.362137 57.548109 l
322.437806 57.635034 l
322.66456 58.433256 l
322.891441 58.509275 l
322.966984 58.460492 l
323.57158 55.726727 l
323.798085 58.278462 l
324.327388 64.953882 l
324.478475 64.551511 l
324.705229 66.154741 l
324.780773 66.040522 l
325.083071 59.969215 l
325.234157 62.135787 l
325.460912 66.414273 l
325.687792 81.113009 l
325.838879 74.291779 l
325.989965 59.35384 l
326.065634 63.878567 l
326.141177 62.617828 l
326.292514 66.527198 l
326.595063 53.705757 l
326.746149 54.185368 l
327.124116 57.711962 l
327.199659 58.250946 l
327.426539 56.846058 l
327.728837 55.429766 l
328.107054 54.463197 l
328.258141 54.5536 l
328.484771 54.736894 l
328.7114 54.706178 l
329.996387 55.751663 l
330.223392 55.910336 l
330.450272 55.418155 l
331.432835 52.938071 l
331.65959 52.937185 l
332.642403 53.549975 l
333.474131 54.633368 l
333.852222 55.102955 l
334.078852 54.846161 l
335.137334 53.239361 l
335.590593 53.457582 l
335.893142 53.529372 l
336.346902 53.660785 l
336.87583 54.155347 l
337.178254 53.979386 l
337.480426 53.4821 l
337.55597 53.558905 l
337.78285 53.823306 l
337.934062 53.577592 l
338.387571 51.901864 l
338.46324 50.117928 l
338.538783 52.670538 l
338.614326 52.15492 l
338.765538 52.031797 l
338.841081 52.098687 l
338.992168 53.42689 l
339.143379 50.480274 l
339.218923 52.432022 l
339.294716 51.982447 l
339.370385 52.338222 l
339.445928 52.271064 l
339.597015 52.180614 l
339.974981 53.792975 l
340.201861 53.685444 l
340.806583 52.825686 l
341.184675 52.319495 l
342.545204 52.735436 l
344.812879 54.242555 l
345.720024 54.182961 l
347.00501 53.829612 l
347.685024 53.447878 l
348.214078 53.099949 l
348.365289 52.39636 l
349.045679 51.895748 l
349.121348 52.543777 l
349.197016 52.500764 l
350.179704 52.074481 l
351.162017 51.941869 l
351.842282 52.055479 l
352.295917 52.362664 l
352.824844 52.983972 l
353.656572 54.055333 l
353.807658 54.275421 l
354.109956 55.825691 l
354.412254 59.045419 l
354.638759 56.700154 l
354.78997 55.770383 l
355.092394 56.114936 l
355.24348 56.178105 l
355.394692 56.515585 l
355.772408 58.082112 l
356.074831 60.060634 l
356.301586 61.730839 l
356.830639 67.385757 l
356.906308 66.292646 l
356.981851 67.631389 l
357.05752 67.17945 l
357.133063 66.92498 l
357.208731 67.028697 l
357.435611 67.470791 l
357.662617 65.514568 l
357.73816 65.526876 l
357.964915 69.464976 l
358.040584 71.158091 l
358.267464 67.079142 l
358.569762 62.788463 l
358.64543 62.073462 l
358.721099 62.177004 l
359.174734 65.145526 l
359.325946 67.205105 l
359.703912 78.039985 l
359.854874 86.18967 l
359.930542 84.286607 l
360.00596 84.528586 l
360.535138 71.310522 l
361.291197 61.739578 l
361.593871 59.774511 l
361.669414 59.68425 l
361.820626 59.134678 l
362.047381 59.439276 l
362.123049 59.773959 l
362.198843 59.581767 l
362.425598 65.147665 l
362.803564 81.587971 l
363.408411 63.439704 l
363.483955 54.742662 l
363.559623 67.510211 l
363.635166 53.377374 l
363.710835 54.447038 l
363.786503 57.676304 l
364.013258 51.342195 l
364.088927 51.454356 l
364.164595 51.376623 l
364.240138 51.475196 l
364.39135 52.906316 l
364.84511 50.364755 l
364.996447 51.384125 l
365.071991 51.345628 l
365.223202 51.246416 l
365.449957 51.257979 l
365.903467 51.18545 l
366.659776 51.600715 l
367.718008 50.915922 l
368.096225 51.04578 l
370.515988 52.322282 l
371.423008 52.93286 l
372.632576 53.050048 l
373.312716 51.910241 l
373.539721 51.905463 l
374.144443 52.533454 l
374.295529 53.018012 l
374.446741 54.203102 l
374.522409 55.232463 l
374.597952 54.61798 l
374.673496 55.105296 l
374.749039 59.934936 l
374.824707 72.007102 l
374.975794 59.720584 l
375.127006 63.46263 l
375.202799 63.050972 l
375.505223 56.387545 l
375.580766 51.949173 l
375.656309 52.599763 l
375.731978 54.110853 l
375.958983 52.224633 l
376.034652 52.255508 l
376.185863 52.63341 l
376.3372 50.96496 l
376.563955 52.601162 l
376.639749 52.529619 l
376.866379 53.050348 l
377.698231 52.943086 l
377.849317 53.702225 l
377.924861 53.611302 l
378.076072 53.403117 l
378.227409 53.24216 l
378.303078 53.155583 l
378.454415 53.586805 l
378.605752 54.368168 l
378.756838 53.691767 l
378.832381 53.807046 l
378.983593 55.070974 l
379.210348 64.995111 l
379.285891 74.763134 l
379.361435 64.12145 l
379.436978 65.856566 l
379.512646 65.931559 l
379.588189 67.446804 l
379.815195 82.788975 l
380.344248 58.175897 l
380.419791 55.523639 l
380.49546 56.326164 l
380.94897 64.414008 l
381.024513 64.678991 l
381.326811 70.898892 l
381.402479 69.849066 l
381.478148 68.648985 l
381.62936 72.601231 l
381.855989 65.396195 l
382.007076 83.126102 l
382.234081 56.080161 l
382.309624 55.593694 l
382.460961 58.101344 l
382.53663 53.586791 l
382.612173 68.956906 l
382.763385 55.441004 l
382.839179 53.883131 l
382.914722 57.389317 l
382.99039 71.119384 l
383.141602 52.326789 l
383.217145 52.827308 l
383.292814 55.034388 l
383.368482 54.077025 l
383.519694 53.059047 l
383.595237 53.0576 l
384.804931 55.633689 l
384.956268 55.701202 l
385.258566 54.852233 l
385.409778 56.663285 l
385.636533 60.386678 l
385.712201 58.196086 l
385.787744 58.599874 l
385.863413 58.536415 l
386.090168 54.711817 l
386.165711 54.83023 l
386.392716 53.810048 l
386.46826 53.79208 l
386.846101 52.533051 l
387.148524 52.481753 l
387.375154 52.552926 l
387.677577 53.817565 l
387.980001 52.157819 l
388.055544 52.542056 l
388.131338 52.431517 l
388.357967 54.703098 l
388.584722 53.916255 l
388.660391 53.973019 l
388.887146 54.18318 l
389.264987 54.124243 l
389.34053 53.553544 l
389.416199 54.029999 l
389.491867 53.9983 l
389.869709 54.282653 l
390.096338 54.508169 l
390.398762 54.248247 l
390.701185 53.440551 l
391.230614 56.986467 l
391.306157 56.969406 l
391.608205 53.826555 l
391.835085 57.038467 l
391.910628 60.040151 l
392.06184 57.515153 l
392.137383 56.836681 l
392.364138 57.829691 l
392.590768 56.911142 l
392.893066 56.335452 l
393.044152 56.529127 l
393.119821 56.662708 l
393.271033 55.959314 l
393.422244 56.655673 l
393.497787 56.632278 l
393.648874 56.618033 l
393.79996 56.600922 l
394.329139 56.080381 l
394.48035 56.603147 l
394.556019 56.469312 l
394.631813 56.405191 l
394.707231 58.313266 l
394.782774 57.223496 l
394.858442 58.825729 l
394.933985 57.617162 l
395.009654 57.648422 l
395.085322 57.723471 l
395.689793 54.834298 l
396.218972 54.784104 l
396.748401 54.500564 l
397.428665 54.1364 l
397.806757 54.505898 l
397.957969 54.715124 l
398.260267 54.091723 l
398.41173 54.626568 l
398.487273 53.945918 l
398.487273 53.945918 l
stroke
grestore
0.627 0.314 0.314 setrgbcolor
gsave
357.1 266.1 57.6 38.02 clipbox
73.832727 75.598196 m
73.908396 74.406671 l
73.983814 78.395502 l
74.059482 77.124836 l
74.210443 74.46188 l
74.285987 76.234656 l
74.36153 81.362988 l
74.96575 71.250938 m
75.116711 69.21346 l
75.494553 75.143113 l
76.023355 74.988458 m
76.099024 73.352884 l
76.174567 73.386066 l
76.25011 73.356847 l
76.325653 73.52403 l
76.401197 74.422817 l
76.552158 80.905005 m
76.778913 79.353352 l
76.930124 80.868002 l
77.081086 77.228682 l
77.156629 84.255161 l
78.51578 68.852913 m
78.666867 70.61885 l
78.74241 69.322845 l
78.968914 73.175171 l
79.120001 67.141708 l
79.422299 65.044014 l
79.648928 70.352884 l
79.951101 65.067334 l
80.177731 67.386665 l
80.253399 68.689408 l
80.328817 68.359247 l
80.404361 68.39354 l
80.479904 68.259421 l
80.555447 68.660513 l
81.159667 78.1509 l
81.386422 69.830188 l
81.461966 69.036738 l
81.537509 69.184505 l
81.989515 73.602133 l
82.064933 73.464826 l
82.291688 82.723922 l
82.442649 94.997594 l
82.518067 95.389103 l
82.59361 94.926549 l
82.82024 81.091378 l
83.122288 69.505369 l
83.197831 72.524574 l
83.349043 66.02335 l
83.424586 67.324189 l
83.575672 85.252298 l
83.802427 68.526667 l
83.878096 67.834477 l
84.029307 71.70144 l
84.104976 77.412129 l
84.180394 77.190245 l
84.331355 70.000904 l
84.482441 80.313453 l
84.557985 80.284847 l
84.633653 76.869496 l
84.78474 81.459606 l
84.860283 79.274021 l
84.935701 72.897943 l
85.011244 74.310184 l
85.237748 67.886415 l
85.313291 69.855862 l
85.464378 85.262379 l
85.539921 100.585967 l
85.615464 92.38001 l
85.690882 127.920937 l
85.842219 72.615396 m
85.917762 66.459055 l
85.993431 72.553167 l
86.068974 69.723608 l
86.144392 66.657307 l
86.219935 66.698667 l
86.295479 66.938026 l
87.202373 62.887848 l
87.353334 64.58171 l
87.428752 64.433711 l
87.504295 64.227429 l
87.882137 68.498811 l
87.95768 67.577743 l
88.033098 65.134989 l
88.108641 69.421223 l
88.184184 68.817314 l
88.259727 69.027394 l
88.486357 72.215742 l
89.01516 85.987634 l
89.090703 84.73399 l
89.694798 70.691788 l
89.770341 68.832128 l
89.84601 71.114848 l
89.921553 68.406667 l
90.072514 73.284274 l
90.148057 73.323857 l
90.2236 74.940829 l
90.525648 61.074114 l
90.827946 57.335178 l
90.903364 58.081164 l
91.054576 63.430929 l
91.28108 68.593338 l
91.356749 67.776036 l
91.507835 70.144877 l
91.734214 64.95889 l
92.036387 71.471526 l
92.187599 85.477209 l
92.33856 65.822683 l
92.489646 84.42687 l
92.56519 72.504614 l
92.640607 80.29229 l
92.716151 80.174964 l
92.791694 82.501729 l
92.942906 71.982988 l
93.018449 74.446639 l
93.245204 93.376762 l
93.320622 82.833664 l
93.39629 84.177359 l
93.698588 72.971086 l
93.849424 69.428567 l
94.076304 74.359727 l
94.302934 77.876695 l
94.45402 73.923951 l
94.604982 89.0693 l
94.831611 65.281038 l
95.209327 58.990091 l
95.284745 59.269584 l
95.360289 59.77122 l
95.435957 59.6826 l
95.511625 59.444529 l
95.662712 60.745252 l
95.73838 60.633815 l
95.889342 73.217614 l
96.115971 61.978512 l
96.191514 63.636545 l
96.267058 56.537239 l
96.342726 57.498263 l
96.493687 60.511508 l
96.644648 62.934671 l
96.720192 62.797517 l
96.871403 63.388938 l
97.173701 59.918597 l
97.475874 55.488739 l
97.626961 56.415136 l
97.777922 57.540647 l
98.155763 51.342736 l
98.458061 52.44323 l
98.609148 52.497841 l
98.835652 52.578723 l
99.062532 52.606307 l
99.364705 52.768481 l
99.968926 52.718825 l
100.346391 52.917701 l
100.497352 54.04975 l
101.404122 55.494084 l
101.857381 56.016738 l
102.990028 56.69263 l
103.820753 58.235587 l
104.954152 60.786617 l
105.785127 62.581148 l
106.918526 64.834405 l
107.749626 66.811027 l
108.203136 69.057844 l
109.034613 74.505904 l
109.56354 78.916073 l
109.639084 78.025117 l
109.714502 78.326161 l
109.941131 83.583579 l
110.016549 83.490471 l
110.772357 87.695218 l
110.8479 86.971046 l
110.923444 87.007246 l
111.149948 87.428966 l
111.754669 100.116873 l
111.98155 107.990975 l
112.057218 86.905881 l
112.132761 136.896637 l
112.283848 96.401018 l
112.510352 137.852626 l
112.585895 113.320583 l
112.661439 117.779653 l
112.737107 120.444555 l
112.963737 97.136848 l
113.114823 113.925323 l
113.568208 79.822899 l
113.794963 72.767464 l
113.870506 73.628119 l
114.097261 79.029217 l
114.172679 78.183975 l
114.474852 74.456537 l
114.701607 73.935452 l
115.003905 72.080159 l
115.154991 72.410813 l
115.683543 74.732402 l
116.363181 77.422395 l
116.514268 77.404895 l
116.81619 76.991699 l
117.042695 77.553352 l
117.118238 77.450311 l
117.193781 78.675282 l
117.269324 77.489791 l
117.344867 77.743043 l
117.420285 77.717772 l
117.949213 75.248811 l
118.175968 75.020197 l
118.402598 75.051289 l
118.70452 75.15138 l
119.233197 74.676855 l
119.686582 74.677052 l
119.988629 74.842388 l
121.197697 75.953112 l
121.802168 75.585756 l
123.237739 74.52145 l
124.069216 73.64867 l
126.335262 71.22399 l
127.166488 70.559338 l
127.771084 70.693896 l
129.659789 71.333993 l
129.810751 71.559079 l
130.26401 71.264672 l
130.641726 71.340464 l
130.943899 71.177355 l
132.153091 70.317773 l
132.68227 70.289891 l
133.588914 69.690212 l
135.628831 67.933139 l
136.687313 65.894412 l
136.762856 65.866042 l
136.989361 66.6518 l
137.971046 71.755942 l
138.122133 71.519762 l
139.330574 68.248004 l
139.632621 68.109872 l
139.859251 68.059364 l
140.312385 67.713703 l
140.388054 67.795364 l
140.690352 70.509818 l
140.992525 73.783907 l
141.068068 73.55519 l
141.748207 69.266804 l
141.899168 68.771522 l
142.201341 66.990855 l
142.352428 71.949245 l
142.654475 81.747694 l
142.805687 86.845656 l
142.956773 102.446768 l
143.107735 79.690633 l
143.183278 81.898438 l
143.259072 83.3473 l
143.410033 78.758926 l
143.561244 82.451421 l
143.712456 88.074254 l
143.863668 83.746228 l
144.090423 80.44348 l
144.316927 80.786136 l
144.770437 78.705367 l
145.223822 78.272576 l
145.828292 74.993031 l
146.507931 72.290813 l
147.112402 71.117095 l
148.170007 69.572338 l
148.623391 69.176488 l
149.076901 69.012058 l
149.378949 69.103647 l
149.530161 69.107936 l
149.832083 69.038116 l
150.058713 69.162565 l
150.436303 71.009266 l
150.813769 73.226508 l
151.267404 75.586333 l
151.569326 73.948326 l
152.022711 69.834978 l
152.476095 66.579192 l
152.627057 67.066283 l
153.231778 70.638022 l
153.382739 71.80449 l
153.533826 71.011196 l
153.685037 71.82729 l
153.98721 75.029734 l
154.364926 67.791172 l
154.44047 67.879059 l
154.591556 67.919857 l
154.969147 66.042706 l
155.27132 66.051692 l
156.177337 66.565709 l
157.008312 66.025597 l
157.537115 65.981817 l
158.368216 66.248953 l
158.594971 66.480906 l
159.274985 68.054786 l
159.728369 69.113483 l
159.954999 69.110452 l
160.030667 69.020686 l
160.483551 67.633845 l
160.937186 67.6209 l
161.239484 69.447266 l
161.84408 74.603796 l
162.448677 81.668015 l
162.901936 89.770782 l
163.053022 95.935536 l
163.355195 88.926947 l
163.733037 116.877646 l
163.80858 103.626823 l
163.884123 142.878003 l
163.959666 139.593378 l
164.110753 131.766475 l
164.261964 103.464033 l
164.337633 104.263013 l
164.488845 110.152752 l
164.564388 109.415018 l
164.941979 101.605433 l
165.244277 97.880986 l
165.31982 96.994073 l
165.470781 93.479194 l
165.621742 100.301926 l
165.92404 92.553592 l
166.37755 82.775128 l
166.528637 85.443216 l
166.981896 101.244531 l
167.057439 100.948456 l
167.359737 94.124353 l
167.586367 87.043899 l
167.66191 87.130334 l
168.190713 91.965643 l
168.719515 86.633994 l
168.795184 86.475226 l
169.097106 89.944912 l
169.550616 83.622915 l
169.852914 81.402565 l
170.230755 79.072613 l
170.608597 77.853163 l
170.759683 77.874112 l
171.061731 78.32947 l
171.439447 79.444737 l
171.666076 80.10125 l
171.817038 79.903227 l
172.119837 84.934791 l
172.270923 75.390471 l
172.497553 84.671553 l
172.573096 84.558735 l
172.648639 84.530718 l
172.799726 83.03286 l
173.026481 80.118808 l
173.177442 84.959066 l
173.328654 102.55296 l
173.630576 81.226758 l
173.706119 82.320596 l
174.386259 107.205872 l
174.53747 97.527615 l
174.990855 113.737316 l
175.21761 115.206146 l
175.444114 120.40272 l
175.670869 117.796744 l
175.973167 102.763714 l
176.124128 94.070755 l
177.786079 107.957504 m
177.861622 108.874802 l
178.088377 101.915629 m
178.16392 95.418435 l
178.239464 97.940511 l
178.390675 106.584997 m
178.466344 89.981394 l
178.541887 96.42954 l
178.768642 118.75252 l
178.844311 119.027335 l
178.919854 120.836929 l
179.070815 147.339381 l
179.146358 118.94423 l
179.221901 127.669458 l
179.372988 120.490509 l
179.448531 125.965183 l
179.524199 164.538406 l
179.675411 120.004517 m
179.750954 116.222191 l
179.826372 143.649605 l
180.355676 150.974297 m
180.431219 188.412657 l
180.506762 181.287252 l
180.657974 184.589504 l
180.733517 184.217511 l
180.80906 178.886597 l
180.884729 164.168804 l
182.547181 110.611623 m
182.622599 110.954365 l
182.77381 94.195738 l
182.849354 101.558928 l
183.076109 153.969788 l
183.605036 178.913975 m
183.756123 167.765202 l
183.907335 126.15016 l
183.982878 134.682673 l
184.209507 199.995917 l
184.436262 115.921569 l
184.662892 91.037772 l
184.738435 95.263049 l
185.191694 119.76538 l
185.493867 156.640903 l
185.569411 183.92657 l
185.644954 140.296218 l
185.79604 246.597816 l
185.947377 231.943661 m
186.02292 204.942909 l
186.098464 245.986845 l
186.551723 292.032 m
186.627141 280.716568 l
186.702684 284.657219 l
186.853645 280.970092 l
186.929188 269.077541 l
187.231487 148.336806 l
187.382573 89.091828 l
187.458116 90.759093 l
187.684871 112.762192 l
187.911375 166.141711 l
188.062587 188.884236 l
188.138005 196.883638 l
188.289092 147.452321 l
188.364635 149.470524 l
188.440178 151.702999 l
188.515721 165.275065 l
188.591264 149.600507 l
188.742727 164.618385 l
188.893813 141.462064 l
188.969356 143.385115 l
189.045025 148.378727 l
189.120568 132.693211 l
189.196111 147.741155 l
189.271654 143.373551 l
189.422741 137.479594 l
189.498159 123.23916 l
189.573827 139.596004 l
189.649371 115.466341 l
189.724914 141.839858 l
189.800582 132.095649 l
189.876125 113.817541 l
190.027337 174.961936 l
190.102755 112.481757 l
190.178298 113.562388 l
190.253842 101.031353 l
190.555889 150.224798 l
190.631432 141.881726 l
190.706976 147.779609 l
190.858187 135.524193 l
191.084942 149.938979 l
191.311447 141.948691 l
191.462658 136.462833 l
191.689288 111.600248 l
191.764956 113.044881 l
191.916293 87.069687 l
192.143048 68.155242 l
192.218592 75.876572 l
192.29426 74.703102 l
192.445346 71.249767 l
192.596558 65.033269 l
192.672227 63.963148 l
192.823313 55.672328 l
192.974525 60.536293 l
193.050068 59.645339 l
193.20128 55.463902 l
193.352241 54.30602 l
193.427784 54.830389 l
193.654414 54.141702 l
193.8055 54.098338 l
194.107798 54.461433 l
194.25901 54.875139 l
194.334553 54.474652 l
194.787812 56.386211 l
194.863356 56.222853 l
195.921337 52.255613 l
195.996754 52.076199 l
196.147966 50.225344 l
196.601225 50.263824 l
197.054735 51.633736 l
197.205947 52.942627 l
197.28149 50.888094 l
197.357159 52.80365 l
197.432827 52.201821 l
197.583788 51.734503 l
197.734875 51.359746 l
197.810543 51.13722 l
197.96163 51.997836 l
198.112716 51.124877 l
198.188134 51.267759 l
198.41539 51.61859 l
198.793106 51.398626 l
199.019736 51.792482 l
199.322034 53.70158 l
199.624332 55.630894 l
199.775419 54.936726 l
200.304346 52.302504 l
200.37989 52.101969 l
200.455433 52.556597 l
200.531101 53.944947 l
200.606645 52.27198 l
200.682188 54.806308 l
200.757606 54.118057 l
200.984361 54.321916 l
201.211116 54.225299 l
201.588957 54.761053 l
202.118135 55.804644 l
202.647063 55.738986 l
203.327202 55.654559 l
204.687356 56.501628 l
205.291827 56.514267 l
205.745086 56.685406 l
206.27414 56.201385 l
206.576312 57.61165 l
206.87836 59.662126 l
207.180783 57.056048 l
207.407664 55.415302 l
207.483207 55.3842 l
207.860798 69.025183 l
208.087427 82.349952 l
208.16297 81.175846 l
208.238639 81.412277 l
208.314182 79.280308 l
208.389725 80.136354 l
208.540812 82.354657 l
208.692024 80.322873 l
208.767567 74.873711 l
208.84311 79.068314 l
209.06974 59.698976 l
209.296369 56.165498 l
209.522999 62.964912 l
209.598542 65.709488 l
209.674211 65.30489 l
209.90084 62.483037 l
210.505437 80.20079 l
210.581105 78.295596 l
210.656774 72.67276 l
210.732191 72.928433 l
210.958821 73.959056 l
211.109908 75.25164 l
211.412206 73.463263 l
211.487874 73.480439 l
211.714629 74.807085 l
212.016802 88.941546 l
212.092345 88.429931 l
212.167888 86.560994 l
212.318975 93.175925 l
212.470061 85.663822 l
212.545604 89.552796 l
212.696816 79.953858 l
212.847903 85.188832 l
212.923446 84.088746 l
212.998989 73.130079 l
213.074658 78.081468 l
213.150075 80.945481 l
213.603961 64.107557 l
213.679504 64.598691 l
213.830465 71.624009 l
213.906259 70.943336 l
213.981802 70.45099 l
214.283975 73.29962 l
214.359644 70.846246 l
214.510856 73.408797 l
214.586524 74.507112 l
214.662067 72.622103 l
214.73761 76.076731 l
214.888947 72.827319 l
214.964491 73.179013 l
215.040034 74.902589 l
215.115577 70.814837 l
215.266664 79.418368 l
215.342332 80.994132 l
215.569087 98.4151 l
215.720048 89.64656 l
215.795717 79.02652 l
215.871135 80.291744 l
215.946803 78.535887 l
216.09814 87.753638 l
216.173558 87.732369 l
216.55165 68.145566 l
216.702736 66.467638 l
216.853823 66.630895 l
217.15587 62.99188 l
217.60938 76.183259 l
217.685049 76.241255 l
217.760592 74.082255 l
217.911553 79.791491 l
217.987096 79.750469 l
218.213851 78.012436 l
218.365063 74.15031 l
218.440606 74.198619 l
218.667236 76.192055 l
218.742779 75.616449 l
218.969409 73.553478 l
219.044952 74.947737 l
219.120495 78.588104 l
219.196038 70.582656 l
219.271456 80.135086 l
219.347125 77.608067 l
219.573754 85.173105 l
219.724841 69.533127 l
219.876052 80.830124 l
219.951596 79.105235 l
220.102557 71.588306 l
220.1781 70.603233 l
220.329312 72.29005 l
220.631485 76.208605 l
220.782571 77.101929 l
221.009201 96.127416 l
221.084869 89.052022 l
221.160538 92.033413 l
221.236081 92.28225 l
221.311749 94.814943 l
221.387293 78.994453 l
221.462836 85.143906 l
221.613922 102.831898 l
221.689591 87.874345 l
221.765259 95.235726 l
221.840802 81.867378 l
221.916346 118.465422 l
221.991889 74.10661 l
222.067557 76.095824 l
222.143101 77.857322 l
222.218769 76.575638 l
222.445649 85.453747 l
222.521318 156.970804 l
222.596736 78.370092 l
222.672279 164.575621 l
222.823491 69.618539 l
222.899034 65.270335 l
222.974577 66.92051 l
223.05012 67.276008 l
223.201332 70.55907 l
223.50363 64.886166 l
223.730385 69.3145 l
223.805803 69.180243 l
223.957015 113.858654 l
224.032433 92.989159 l
224.107976 93.898631 l
224.485692 69.088971 l
224.939076 65.254624 l
225.090038 64.027399 l
225.165581 65.076518 l
225.241124 64.765008 l
225.39221 64.535166 l
225.543422 64.551475 l
225.61884 64.36315 l
225.845595 61.206996 l
225.996807 59.635202 l
226.07235 59.506521 l
226.223562 60.38799 l
226.525609 60.255293 l
226.827907 61.602805 l
227.13008 62.982491 l
227.432754 66.825837 l
227.508172 66.496889 l
227.734927 64.74984 l
227.961557 67.14699 l
228.037225 69.317709 l
228.339398 91.714222 l
228.641947 69.862722 l
228.71749 70.229729 l
228.94437 74.641467 l
229.246543 69.370823 l
229.322086 69.836059 l
229.700053 73.432554 l
229.851139 70.660808 l
229.926557 70.715 l
230.0021 70.987573 l
230.153437 70.585878 l
230.455861 70.957298 l
230.682491 69.522042 l
230.833702 67.524033 l
230.909245 66.295728 l
231.060457 68.582212 l
231.287087 66.075376 l
231.438173 63.770018 l
231.664803 63.474339 l
231.891433 65.583363 l
232.193605 68.584965 l
232.344817 70.981017 l
232.571697 82.838521 l
232.722909 80.593285 l
232.949539 75.593869 l
233.025082 76.026121 l
233.100625 78.859089 l
233.554135 67.253979 l
233.781015 67.062803 l
234.083063 67.094597 l
234.687659 60.297298 l
234.839121 61.060588 l
235.065751 63.116483 l
235.141294 62.4073 l
235.292381 64.753395 l
235.368049 64.59973 l
235.51901 63.851142 l
235.594553 64.347401 l
235.896977 63.037642 l
236.048189 63.456304 l
236.19915 64.364546 l
236.274693 63.926466 l
236.425779 64.753892 l
237.03025 65.612025 l
237.105794 65.413543 l
237.559053 59.773108 l
238.088106 54.240144 l
238.465822 52.582226 l
238.692577 52.273191 l
238.919332 52.308949 l
239.221379 52.618856 l
240.732745 55.411981 l
241.035043 65.212378 l
241.110711 62.961129 l
241.186129 60.977112 l
241.261673 74.038948 l
241.337216 62.479816 l
241.412759 65.513038 l
241.488177 67.416506 l
241.563845 66.183516 l
241.715057 76.489767 l
241.790726 75.141134 l
241.866144 71.196565 l
241.941812 71.59509 l
242.092899 70.661039 l
242.168442 69.777575 l
242.243985 71.578028 l
243.150754 60.734629 l
243.226297 60.774776 l
243.301841 61.056902 l
243.377384 61.016736 l
243.452927 61.001315 l
243.604013 63.27717 l
243.679557 63.231113 l
243.7551 61.608917 l
243.830643 62.018116 l
243.906312 62.532063 l
243.98198 62.459945 l
244.057648 62.521009 l
244.435365 66.345412 l
244.510908 66.108111 l
244.661994 64.124833 l
244.813081 60.625514 l
244.888624 61.424191 l
244.964167 62.654941 l
245.03971 62.274058 l
245.115253 61.764135 l
245.190797 61.790804 l
245.26634 61.860642 l
245.341883 61.245302 l
245.568513 62.164914 l
245.644056 62.079919 l
246.172984 60.940886 l
246.399739 61.077891 l
246.777455 61.299257 l
247.835811 60.191946 l
247.987023 60.250773 l
248.213653 60.754095 l
248.591369 61.949286 l
248.893667 64.693817 l
249.120547 67.546738 l
249.196216 66.148542 l
249.422971 69.816806 l
249.498514 68.881865 l
249.6496 63.921057 l
249.725144 63.867032 l
249.800812 66.42314 l
249.876355 65.839717 l
250.102985 68.155989 l
250.405032 89.82695 l
250.707456 68.414892 l
250.783124 71.60001 l
251.161091 132.783257 l
251.312303 102.527851 m
251.463514 227.132005 l
251.765938 59.392773 m
251.841356 56.780364 l
251.917024 56.873123 l
252.14403 60.784655 l
252.219698 58.86766 l
252.295241 59.731284 l
252.521996 74.346469 l
252.59754 67.642305 l
252.673208 108.58707 l
252.748751 92.864367 l
252.82442 75.252923 l
252.975631 87.27312 l
253.051175 85.997301 l
253.126593 81.01784 l
253.202261 81.266251 l
253.277679 81.93603 l
253.428766 86.396939 l
253.504434 85.859126 l
253.65552 97.880985 l
253.731189 97.505888 l
253.806857 96.526576 l
253.882526 92.645973 l
254.033738 112.924647 l
254.260493 79.123971 l
254.638334 58.215981 l
254.78942 68.651838 l
254.864964 66.708771 l
255.016426 116.243946 l
255.092094 110.665298 l
255.167638 112.08188 l
255.243181 113.858851 l
255.394518 143.220808 l
255.470186 200.276418 l
255.621273 74.330774 l
255.696816 105.954749 l
255.772359 98.409562 l
255.847902 100.804673 l
255.998989 75.19904 l
256.1502 107.551886 l
256.225744 167.504211 l
256.301412 130.774518 l
256.452749 163.326029 l
256.528292 112.693531 l
256.603961 132.303144 l
256.755298 95.100889 l
256.830841 156.673005 l
256.981927 96.636912 l
257.133139 113.90337 l
257.208682 100.362662 l
257.284351 104.215241 l
257.359894 103.962733 l
257.435563 100.394598 l
257.511106 101.013504 l
257.586774 137.147603 l
257.662192 97.717655 l
257.737986 110.791053 l
257.964741 152.552337 l
258.040409 92.032895 l
258.115953 102.319202 l
258.191371 104.848493 l
258.266914 113.079759 l
258.342457 109.985663 l
258.418126 109.134499 l
258.493669 116.458996 l
258.64488 135.548436 l
258.720424 120.152817 l
258.795967 180.486174 l
258.871635 136.425315 l
258.947179 141.306332 l
259.022722 140.701787 l
259.249602 117.553861 l
259.400939 123.264129 l
259.476482 126.663058 l
259.627694 108.821789 l
259.703362 111.008363 l
259.854449 114.887125 l
259.929992 114.185573 l
260.23229 102.47777 l
268.241625 92.385907 m
268.544174 165.166031 l
268.695135 122.39919 l
268.770803 110.825341 l
269.299731 244.285228 l
270.811096 183.229172 m
270.88664 243.685626 l
271.037726 134.007492 l
271.113269 128.031865 l
271.264356 100.827337 m
271.415567 149.987823 l
271.491111 152.926082 l
271.566779 98.325551 l
271.642197 122.389029 l
271.71774 113.601515 l
271.793409 114.655949 l
271.944495 105.039899 l
272.020164 94.015854 l
272.095707 97.471688 l
272.247044 94.545132 l
272.322587 98.695905 l
272.473799 90.805946 l
272.549467 101.994587 l
272.625136 98.791802 l
272.700804 99.954897 l
272.776473 109.017377 l
273.003228 92.86267 l
273.154439 118.966277 l
273.229983 177.159556 l
273.381194 93.220661 l
273.532531 87.58617 l
273.607949 89.022163 l
273.683492 77.896976 l
273.759036 79.958001 l
273.985791 91.77764 l
274.137002 85.608269 l
274.288089 90.137671 l
274.363757 73.892502 l
274.4393 101.71499 l
274.515094 93.901614 l
274.590763 85.198737 l
274.741974 94.495906 l
274.817643 84.597041 l
274.893186 87.439436 l
274.968729 85.893828 l
275.044398 148.372681 l
275.195484 123.60199 m
275.346696 81.826807 l
275.573451 116.026907 l
275.648994 96.061611 l
275.724412 127.866389 l
275.800081 91.048002 l
276.026835 132.971875 l
276.177797 65.76055 m
276.329008 59.251405 l
276.404677 60.276957 l
276.555889 58.969943 l
276.631557 59.144172 l
276.858312 60.750506 l
277.236279 63.444607 l
277.311822 63.717027 l
277.387365 63.67209 l
277.840875 62.928805 l
277.991961 62.626864 l
278.369677 61.657131 l
278.823062 60.871424 l
280.183842 56.857144 l
281.997631 54.038543 l
282.829233 53.143746 l
283.055862 53.007957 l
283.282868 53.270009 l
283.88784 54.435879 l
284.265932 55.37316 l
284.492812 54.729498 l
285.02199 53.162209 l
285.400082 52.609032 l
285.475625 52.659196 l
285.778049 54.377378 l
286.458314 59.81525 l
286.987492 67.181561 l
287.592088 85.447396 l
287.894261 104.405733 l
287.969804 103.463472 l
288.272228 89.353797 l
288.423314 98.11264 l
288.498983 98.592912 l
288.649944 68.181408 l
288.801156 80.004506 l
288.876573 79.935749 l
289.481295 77.317622 l
289.632507 77.37669 l
289.707925 77.978003 l
289.859136 84.251773 l
290.237103 124.14768 l
290.38844 138.199957 l
290.539401 136.053733 l
290.766281 130.975415 l
290.84195 131.521681 l
290.917493 127.674684 l
290.993162 128.059185 l
291.220042 129.607195 l
291.824638 148.176872 l
291.97585 139.002281 l
292.20273 163.32965 l
292.278273 127.463598 l
292.353816 135.101083 l
292.42936 142.426134 l
292.504778 121.649457 l
292.580321 129.350567 l
292.882494 112.738595 l
293.033831 131.232473 l
293.109499 101.081416 l
293.185168 134.073647 l
293.260711 96.386465 l
293.336254 102.391981 l
293.48734 95.118163 l
293.638427 101.480351 l
293.71397 100.448629 l
294.091811 94.117341 l
294.243023 92.24438 l
294.469778 84.203279 l
294.545447 84.485716 l
294.998831 74.540448 l
295.301004 73.663092 l
295.452341 73.782769 l
295.830308 71.682058 l
296.132856 69.946019 l
296.359486 70.215115 l
297.0395 68.212534 l
297.493135 67.738056 l
297.644222 67.280931 l
298.928957 61.526112 l
299.608846 59.502401 l
299.986938 58.804323 l
300.213568 58.71509 l
300.516117 58.844049 l
300.667328 59.114512 l
301.044919 60.4472 l
301.271799 61.236144 l
301.423011 61.396926 l
301.725435 62.060749 l
301.876646 63.402643 l
302.17907 69.247342 l
302.557036 77.757491 l
303.010546 81.299835 l
303.237426 92.418406 l
303.388638 97.498169 l
303.615644 97.726659 l
304.220616 108.227392 l
304.522914 100.761488 l
304.825087 114.989843 l
304.900755 115.342951 l
305.051842 109.332626 l
305.12751 112.808509 l
305.203053 112.709705 l
305.354265 105.750374 l
305.429933 105.362564 l
305.58102 107.174429 l
305.883443 113.785256 l
305.959112 113.162062 l
306.034655 113.311042 l
306.110198 116.075352 l
306.336953 136.853797 l
306.412747 134.816024 l
306.790588 112.041335 l
306.866257 114.734312 l
306.9418 119.202149 l
307.017594 118.271027 l
307.093262 117.021793 l
307.244474 121.751592 l
307.320142 120.893153 l
307.395686 120.184583 l
307.84907 139.838192 l
307.924613 139.109897 l
308.227037 129.810368 l
308.453792 119.202254 l
308.529335 120.260204 l
308.755965 123.884837 l
308.98272 119.012928 l
309.360811 95.832353 l
309.436355 98.554211 l
309.663235 114.529205 l
309.88999 103.988624 l
309.965533 100.717476 l
310.041202 101.432293 l
310.116745 104.484438 l
310.192288 103.264272 l
310.343625 101.493964 l
310.419168 101.268553 l
310.646048 92.931948 l
310.721592 132.126509 l
310.872678 97.098942 l
311.02389 99.176818 l
311.099433 98.648049 l
311.175101 96.838908 l
311.4774 102.101492 l
311.552943 101.448022 l
311.628486 109.276898 l
311.704029 88.705181 l
311.779823 102.069168 l
311.855366 101.268935 l
311.930909 107.850586 l
312.006453 105.693742 l
312.081996 96.818336 l
312.157664 99.711418 l
312.384419 90.749542 l
312.459837 93.050961 l
312.611049 90.730438 l
312.686717 90.556907 l
312.837929 97.068485 l
313.064559 85.367077 l
313.140227 85.993593 l
313.291314 84.7739 l
313.744573 77.044918 l
313.89591 75.776009 l
314.047122 76.724339 l
314.425339 81.113097 l
314.652094 82.686281 l
314.727637 82.465988 l
314.80318 81.58887 l
314.878723 85.451533 l
314.954267 81.897385 l
315.02981 82.674266 l
315.105478 82.996736 l
315.332108 86.53616 l
315.407651 85.641859 l
315.558738 88.064798 l
315.709949 92.162816 l
315.861161 89.976086 l
316.012247 86.260081 l
316.087916 86.35209 l
316.314671 87.019968 l
316.465757 86.403797 l
316.616969 87.758279 l
316.768055 76.903147 l
316.843599 84.7294 l
316.919267 84.652181 l
316.99481 83.923182 l
317.22144 80.1808 l
317.523863 78.757439 l
317.675075 78.591884 l
317.826287 79.171838 l
318.128585 74.503064 l
318.279797 86.629863 l
318.431134 104.04556 l
318.506802 102.176148 l
318.8091 83.442798 l
318.960187 81.981324 l
319.03573 82.002667 l
319.262485 90.669986 l
319.564783 103.904403 l
319.867457 108.498804 l
319.943126 108.312894 l
320.320967 96.451493 l
320.472304 95.033971 l
320.547972 92.841538 l
320.699184 101.28395 l
320.925939 89.340428 l
321.001482 88.925874 l
321.833084 72.312118 l
322.059839 72.849664 l
322.210925 72.335104 l
322.437806 70.246476 l
322.513349 70.403 l
322.589017 70.335772 l
322.966984 70.103244 l
323.57158 65.083436 l
323.798085 68.237454 l
324.327388 77.220211 l
324.478475 78.297324 l
324.554143 77.039983 l
324.705229 81.014001 l
324.780773 80.914671 l
325.158739 71.361652 l
325.234157 71.379449 l
325.309826 71.24481 l
325.460912 73.588669 l
325.687792 88.511982 l
325.838879 83.175976 l
326.065634 74.319387 l
326.141177 78.200325 l
326.216971 72.858061 l
326.292514 85.499713 l
326.368182 84.418038 l
326.595063 62.913313 l
326.670606 62.810526 l
326.897236 68.204973 l
327.124116 64.656483 l
327.653169 62.760481 l
327.804506 62.394107 l
327.8803 62.437214 l
328.107054 62.651269 l
328.635857 60.469789 l
328.862487 59.924874 l
328.93803 59.601301 l
329.013573 59.648633 l
329.769506 59.77178 l
330.223392 60.065003 l
330.525815 59.163283 l
331.508504 56.44036 l
331.810802 56.77774 l
333.020495 58.301575 l
334.003309 58.725351 l
334.834911 57.581798 l
335.137334 57.237391 l
336.346902 57.21209 l
336.87583 57.617573 l
337.178254 57.273033 l
337.480426 56.57556 l
337.858393 57.177724 l
338.009605 56.806103 l
338.387571 55.077071 l
338.46324 52.796493 l
338.538783 54.903742 l
338.614326 54.64513 l
338.68987 55.066178 l
338.916625 54.280303 l
338.992168 55.091257 l
339.143379 51.264879 l
339.370385 56.500389 l
339.597015 56.208283 l
339.974981 57.483547 l
340.201861 57.349618 l
340.50441 56.726102 l
341.260218 55.133776 l
343.527767 56.215945 l
343.981277 56.978179 l
344.812879 58.696346 l
344.964216 58.42375 l
345.115428 58.386558 l
345.190971 58.419498 l
345.493269 58.15226 l
347.156097 57.295448 l
348.289746 56.252371 l
349.574983 55.170095 l
350.179704 55.019028 l
350.78405 55.084038 l
351.388646 55.3127 l
351.993619 55.833042 l
352.598215 56.680525 l
353.127268 57.606651 l
353.50536 58.774864 l
353.95887 60.495143 l
354.336711 62.771229 l
354.412254 63.20685 l
354.487797 63.162212 l
354.714427 62.647936 l
354.865514 62.939779 l
355.016725 63.397168 l
355.319023 65.779764 l
355.848076 70.133429 l
356.150375 71.269756 l
356.225918 69.74605 l
356.679428 73.996701 l
356.906308 74.866908 l
357.05752 74.889162 l
357.133063 74.862944 l
357.435611 75.687067 l
357.73816 73.273122 l
357.964915 77.856662 l
358.040584 79.761177 l
358.116252 78.141821 l
358.191921 79.270046 l
358.41855 76.841427 l
358.494219 76.946748 l
358.64543 76.866073 l
358.872311 78.187655 l
359.401364 83.211971 l
359.703912 96.990487 l
360.00596 110.384855 l
360.23284 107.435568 l
360.308509 107.059733 l
360.535138 102.318331 l
360.761893 83.194044 l
361.064191 73.796456 l
361.13986 79.760195 l
361.215528 77.37431 l
361.593871 70.055322 l
361.669414 69.299372 l
361.745083 69.916788 l
362.198843 64.396838 l
362.274386 65.166469 l
362.57681 75.940461 l
362.803564 91.172708 l
362.879233 91.786813 l
363.105988 84.100928 l
363.483955 59.860812 l
363.559623 71.766 l
363.635166 53.95758 l
363.710835 57.492463 l
363.786503 59.518846 l
364.013258 54.386054 l
364.164595 53.82396 l
364.240138 54.054782 l
364.466893 56.012088 l
364.693899 52.932894 l
364.769442 52.955855 l
365.071991 53.815916 l
365.223202 53.851835 l
365.374414 53.856793 l
365.979136 53.573335 l
366.508314 53.850465 l
366.886531 53.459204 l
367.718008 52.712919 l
368.171768 52.708865 l
369.003746 53.007963 l
369.684261 53.914025 l
370.289108 54.680681 l
370.667074 54.673956 l
370.818286 54.87239 l
371.498676 56.301738 l
371.876643 56.219211 l
372.027855 56.274149 l
372.481364 56.729702 l
372.557033 56.738881 l
373.161629 55.324994 l
373.61539 54.007389 l
373.766601 53.940572 l
373.993356 55.939417 l
374.673496 63.97407 l
374.824707 73.098556 l
374.900251 71.760403 l
374.975794 70.361129 l
375.127006 72.293828 l
375.202799 71.743796 l
375.42968 65.080301 l
375.580766 56.785067 l
375.656309 56.905917 l
375.731978 57.766986 l
375.807646 57.657913 l
375.88344 57.487733 l
376.261532 54.976309 l
376.3372 55.066214 l
376.639749 56.681259 l
377.01759 57.663011 l
377.093259 57.632064 l
377.395933 54.001679 l
377.471476 54.126324 l
377.924861 56.518395 l
378.000404 56.464305 l
378.151741 56.527648 l
378.303078 56.355076 l
378.530083 57.523228 l
378.681295 58.140653 l
378.832381 58.566288 l
378.907925 59.265587 l
379.210348 69.447411 l
379.285891 77.717199 l
379.436978 71.904962 l
379.588189 74.105605 l
379.663858 111.787525 l
379.739526 110.736292 l
380.041825 79.767882 l
380.193162 73.929971 l
380.419791 62.734489 l
380.49546 63.013147 l
380.94897 67.897216 l
381.100056 69.03679 l
381.175724 68.880083 l
381.251268 72.980256 l
381.326811 69.814004 l
381.402479 70.603646 l
381.478148 69.795831 l
381.553691 70.787171 l
381.62936 74.428251 l
381.780446 69.04427 l
381.855989 70.892829 l
382.007076 88.945118 l
382.309624 59.481848 l
382.460961 64.735998 l
382.53663 60.198322 l
382.612173 73.188359 l
382.763385 60.988788 l
382.839179 58.591053 l
382.99039 68.333641 l
383.141602 57.616242 l
383.217145 58.558926 l
383.292814 61.34606 l
383.519694 58.589448 l
383.595237 58.598935 l
383.897535 59.098735 l
384.124541 59.297747 l
384.426964 59.295573 l
384.729388 59.755477 l
384.804931 59.663165 l
384.956268 59.982019 l
385.183023 59.252043 l
385.334109 59.87426 l
385.560989 64.302985 l
385.636533 65.014168 l
385.787744 63.649828 l
385.863413 63.338777 l
386.014499 60.175801 l
386.090168 60.260865 l
386.241254 58.607484 l
386.694889 56.508283 l
386.921769 55.978225 l
387.072981 55.913662 l
387.299611 56.154077 l
387.375154 56.299042 l
387.677577 58.164495 l
387.828914 56.918192 l
387.980001 54.927736 l
388.282424 59.675655 l
388.357967 60.059313 l
388.433636 59.903822 l
388.584722 59.368614 l
388.660391 59.415791 l
388.811477 59.527958 l
389.34053 59.448192 l
389.567536 59.404122 l
389.945252 59.994313 l
390.096338 60.273223 l
390.398762 60.025643 l
390.701185 58.475391 l
390.928191 62.773773 l
391.003859 59.898033 l
391.079402 69.568712 l
391.230614 61.22841 l
391.306157 66.734842 l
391.3817 64.74196 l
391.608205 57.946783 l
391.759417 63.321704 l
391.910628 74.307824 l
392.28847 63.570744 l
392.364138 65.828083 l
392.439681 64.150374 l
392.515225 64.820599 l
392.666311 63.158454 l
392.817523 61.590829 l
393.119821 63.267041 l
393.271033 61.789538 l
393.497787 64.074298 l
393.573331 63.77718 l
394.026715 65.532018 l
394.102384 65.618393 l
394.329139 65.468775 l
394.404682 66.801665 l
394.48035 66.390053 l
394.707231 68.326345 l
394.782774 65.819795 l
394.858442 66.511729 l
395.009654 64.308543 l
395.085322 64.773593 l
395.236409 63.97463 l
395.311952 64.727804 l
395.463039 62.378735 l
395.61425 61.522006 l
395.689793 61.88262 l
396.143303 60.479227 l
396.294515 60.500022 l
396.370184 60.008383 l
396.445852 60.243314 l
396.823944 61.217866 l
397.277454 61.091572 l
397.428665 60.807635 l
397.504209 60.556843 l
397.579877 60.740316 l
397.655546 60.670314 l
397.957969 60.595899 l
398.260267 60.070614 l
398.41173 59.087888 l
398.487273 60.345494 l
398.487273 60.345494 l
stroke
grestore
0.800 setlinewidth
0 setlinejoin
[] 0 setdash
0.000 setgray
gsave
57.6 38.016 m
57.6 304.128 l
stroke
grestore
gsave
414.72 38.016 m
414.72 304.128 l
stroke
grestore
gsave
57.6 38.016 m
414.72 38.016 l
stroke
grestore
gsave
57.6 304.128 m
414.72 304.128 l
stroke
grestore
1.000 setlinewidth
0 setlinecap
0.800 setgray
gsave
349.860625 266.78425 m
407.72 266.78425 l
409.053333 266.78425 409.72 267.450917 409.72 268.78425 c
409.72 297.128 l
409.72 298.461333 409.053333 299.128 407.72 299.128 c
349.860625 299.128 l
348.527292 299.128 347.860625 298.461333 347.860625 297.128 c
347.860625 268.78425 l
347.860625 267.450917 348.527292 266.78425 349.860625 266.78425 c
cl
gsave
1.000 setgray
fill
grestore
stroke
grestore
1.500 setlinewidth
1 setlinejoin
2 setlinecap
[] 0 setdash
0.000 0.750 0.750 setrgbcolor
gsave
351.860625 291.03425 m
371.860625 291.03425 l
stroke
grestore
0.000 setgray
gsave
379.860625 287.534250 translate
0.000000 rotate
0.000000 0.000000 m /three glyphshow
6.362305 0.000000 m /m glyphshow
16.103516 0.000000 m /m glyphshow
grestore
0.627 0.314 0.314 setrgbcolor
gsave
351.860625 276.362375 m
371.860625 276.362375 l
stroke
grestore
0.000 setgray
gsave
379.860625 272.862375 translate
0.000000 rotate
0.000000 0.000000 m /two glyphshow
6.362305 0.000000 m /m glyphshow
16.103516 0.000000 m /m glyphshow
grestore

end
showpage
