%!PS-Adobe-3.0 EPSF-3.0
%%Title: new_alg/03/03_RAW_tau.eps
%%Creator: matplotlib version 3.0.2, http://matplotlib.org/
%%CreationDate: Wed Apr 10 12:50:37 2019
%%Orientation: portrait
%%BoundingBox: 75 223 536 568
%%EndComments
%%BeginProlog
/mpldict 9 dict def
mpldict begin
/m { moveto } bind def
/l { lineto } bind def
/r { rlineto } bind def
/c { curveto } bind def
/cl { closepath } bind def
/box {
m
1 index 0 r
0 exch r
neg 0 r
cl
} bind def
/clipbox {
box
clip
newpath
} bind def
%!PS-Adobe-3.0 Resource-Font
%%Title: DejaVu Sans
%%Copyright: Copyright (c) 2003 by Bitstream, Inc. All Rights Reserved. Copyright (c) 2006 by Tavmjong Bah. All Rights Reserved. DejaVu changes are in public domain 
%%Creator: Converted from TrueType to type 3 by PPR
25 dict begin
/_d{bind def}bind def
/_m{moveto}_d
/_l{lineto}_d
/_cl{closepath eofill}_d
/_c{curveto}_d
/_sc{7 -1 roll{setcachedevice}{pop pop pop pop pop pop}ifelse}_d
/_e{exec}_d
/FontName /DejaVuSans def
/PaintType 0 def
/FontMatrix[.001 0 0 .001 0 0]def
/FontBBox[-1021 -463 1793 1232]def
/FontType 3 def
/Encoding [ /space /comma /period /zero /one /two /three /four /five /six /eight /a /d /e /i /m /s /t /y ] def
/FontInfo 10 dict dup begin
/FamilyName (DejaVu Sans) def
/FullName (DejaVu Sans) def
/Notice (Copyright (c) 2003 by Bitstream, Inc. All Rights Reserved. Copyright (c) 2006 by Tavmjong Bah. All Rights Reserved. DejaVu changes are in public domain ) def
/Weight (Book) def
/Version (Version 2.35) def
/ItalicAngle 0.0 def
/isFixedPitch false def
/UnderlinePosition -130 def
/UnderlineThickness 90 def
end readonly def
/CharStrings 20 dict dup begin
/.notdef 0 def
/space{318 0 0 0 0 0 _sc
}_d
/comma{318 0 77 -115 220 124 _sc
117 124 _m
220 124 _l
220 40 _l
140 -115 _l
77 -115 _l
117 40 _l
117 124 _l
_cl}_d
/period{318 0 107 0 210 124 _sc
107 124 _m
210 124 _l
210 0 _l
107 0 _l
107 124 _l
_cl}_d
/zero{636 0 66 -13 570 742 _sc
318 664 _m
267 664 229 639 203 589 _c
177 539 165 464 165 364 _c
165 264 177 189 203 139 _c
229 89 267 64 318 64 _c
369 64 407 89 433 139 _c
458 189 471 264 471 364 _c
471 464 458 539 433 589 _c
407 639 369 664 318 664 _c
318 742 _m
399 742 461 709 505 645 _c
548 580 570 486 570 364 _c
570 241 548 147 505 83 _c
461 19 399 -13 318 -13 _c
236 -13 173 19 130 83 _c
87 147 66 241 66 364 _c
66 486 87 580 130 645 _c
173 709 236 742 318 742 _c
_cl}_d
/one{636 0 110 0 544 729 _sc
124 83 _m
285 83 _l
285 639 _l
110 604 _l
110 694 _l
284 729 _l
383 729 _l
383 83 _l
544 83 _l
544 0 _l
124 0 _l
124 83 _l
_cl}_d
/two{{636 0 73 0 536 742 _sc
192 83 _m
536 83 _l
536 0 _l
73 0 _l
73 83 _l
110 121 161 173 226 239 _c
290 304 331 346 348 365 _c
380 400 402 430 414 455 _c
426 479 433 504 433 528 _c
433 566 419 598 392 622 _c
365 646 330 659 286 659 _c
255 659 222 653 188 643 _c
154 632 117 616 78 594 _c
78 694 _l
118 710 155 722 189 730 _c
223 738 255 742 284 742 _c
}_e{359 742 419 723 464 685 _c
509 647 532 597 532 534 _c
532 504 526 475 515 449 _c
504 422 484 390 454 354 _c
446 344 420 317 376 272 _c
332 227 271 164 192 83 _c
_cl}_e}_d
/three{{636 0 76 -13 556 742 _sc
406 393 _m
453 383 490 362 516 330 _c
542 298 556 258 556 212 _c
556 140 531 84 482 45 _c
432 6 362 -13 271 -13 _c
240 -13 208 -10 176 -4 _c
144 1 110 10 76 22 _c
76 117 _l
103 101 133 89 166 81 _c
198 73 232 69 268 69 _c
330 69 377 81 409 105 _c
441 129 458 165 458 212 _c
458 254 443 288 413 312 _c
383 336 341 349 287 349 _c
}_e{202 349 _l
202 430 _l
291 430 _l
339 430 376 439 402 459 _c
428 478 441 506 441 543 _c
441 580 427 609 401 629 _c
374 649 336 659 287 659 _c
260 659 231 656 200 650 _c
169 644 135 635 98 623 _c
98 711 _l
135 721 170 729 203 734 _c
235 739 266 742 296 742 _c
370 742 429 725 473 691 _c
517 657 539 611 539 553 _c
539 513 527 479 504 451 _c
481 423 448 403 406 393 _c
_cl}_e}_d
/four{636 0 49 0 580 729 _sc
378 643 _m
129 254 _l
378 254 _l
378 643 _l
352 729 _m
476 729 _l
476 254 _l
580 254 _l
580 172 _l
476 172 _l
476 0 _l
378 0 _l
378 172 _l
49 172 _l
49 267 _l
352 729 _l
_cl}_d
/five{{636 0 77 -13 549 729 _sc
108 729 _m
495 729 _l
495 646 _l
198 646 _l
198 467 _l
212 472 227 476 241 478 _c
255 480 270 482 284 482 _c
365 482 429 459 477 415 _c
525 370 549 310 549 234 _c
549 155 524 94 475 51 _c
426 8 357 -13 269 -13 _c
238 -13 207 -10 175 -6 _c
143 -1 111 6 77 17 _c
77 116 _l
106 100 136 88 168 80 _c
199 72 232 69 267 69 _c
}_e{323 69 368 83 401 113 _c
433 143 450 183 450 234 _c
450 284 433 324 401 354 _c
368 384 323 399 267 399 _c
241 399 214 396 188 390 _c
162 384 135 375 108 363 _c
108 729 _l
_cl}_e}_d
/six{{636 0 70 -13 573 742 _sc
330 404 _m
286 404 251 388 225 358 _c
199 328 186 286 186 234 _c
186 181 199 139 225 109 _c
251 79 286 64 330 64 _c
374 64 409 79 435 109 _c
461 139 474 181 474 234 _c
474 286 461 328 435 358 _c
409 388 374 404 330 404 _c
526 713 _m
526 623 _l
501 635 476 644 451 650 _c
425 656 400 659 376 659 _c
310 659 260 637 226 593 _c
}_e{192 549 172 482 168 394 _c
187 422 211 444 240 459 _c
269 474 301 482 336 482 _c
409 482 467 459 509 415 _c
551 371 573 310 573 234 _c
573 159 550 99 506 54 _c
462 9 403 -13 330 -13 _c
246 -13 181 19 137 83 _c
92 147 70 241 70 364 _c
70 479 97 571 152 639 _c
206 707 280 742 372 742 _c
396 742 421 739 447 735 _c
472 730 498 723 526 713 _c
_cl}_e}_d
/eight{{636 0 68 -13 568 742 _sc
318 346 _m
271 346 234 333 207 308 _c
180 283 167 249 167 205 _c
167 161 180 126 207 101 _c
234 76 271 64 318 64 _c
364 64 401 76 428 102 _c
455 127 469 161 469 205 _c
469 249 455 283 429 308 _c
402 333 365 346 318 346 _c
219 388 _m
177 398 144 418 120 447 _c
96 476 85 511 85 553 _c
85 611 105 657 147 691 _c
188 725 245 742 318 742 _c
}_e{390 742 447 725 489 691 _c
530 657 551 611 551 553 _c
551 511 539 476 515 447 _c
491 418 459 398 417 388 _c
464 377 501 355 528 323 _c
554 291 568 251 568 205 _c
568 134 546 80 503 43 _c
459 5 398 -13 318 -13 _c
237 -13 175 5 132 43 _c
89 80 68 134 68 205 _c
68 251 81 291 108 323 _c
134 355 171 377 219 388 _c
183 544 _m
183 506 194 476 218 455 _c
}_e{242 434 275 424 318 424 _c
360 424 393 434 417 455 _c
441 476 453 506 453 544 _c
453 582 441 611 417 632 _c
393 653 360 664 318 664 _c
275 664 242 653 218 632 _c
194 611 183 582 183 544 _c
_cl}_e}_d
/a{{613 0 60 -13 522 560 _sc
343 275 _m
270 275 220 266 192 250 _c
164 233 150 205 150 165 _c
150 133 160 107 181 89 _c
202 70 231 61 267 61 _c
317 61 357 78 387 114 _c
417 149 432 196 432 255 _c
432 275 _l
343 275 _l
522 312 _m
522 0 _l
432 0 _l
432 83 _l
411 49 385 25 355 10 _c
325 -5 287 -13 243 -13 _c
187 -13 142 2 109 33 _c
76 64 60 106 60 159 _c
}_e{60 220 80 266 122 298 _c
163 329 224 345 306 345 _c
432 345 _l
432 354 _l
432 395 418 427 391 450 _c
364 472 326 484 277 484 _c
245 484 215 480 185 472 _c
155 464 127 453 100 439 _c
100 522 _l
132 534 164 544 195 550 _c
226 556 256 560 286 560 _c
365 560 424 539 463 498 _c
502 457 522 395 522 312 _c
_cl}_e}_d
/d{{635 0 55 -13 544 760 _sc
454 464 _m
454 760 _l
544 760 _l
544 0 _l
454 0 _l
454 82 _l
435 49 411 25 382 10 _c
353 -5 319 -13 279 -13 _c
213 -13 159 13 117 65 _c
75 117 55 187 55 273 _c
55 359 75 428 117 481 _c
159 533 213 560 279 560 _c
319 560 353 552 382 536 _c
411 520 435 496 454 464 _c
148 273 _m
148 207 161 155 188 117 _c
215 79 253 61 301 61 _c
}_e{348 61 385 79 413 117 _c
440 155 454 207 454 273 _c
454 339 440 390 413 428 _c
385 466 348 485 301 485 _c
253 485 215 466 188 428 _c
161 390 148 339 148 273 _c
_cl}_e}_d
/e{{615 0 55 -13 562 560 _sc
562 296 _m
562 252 _l
149 252 _l
153 190 171 142 205 110 _c
238 78 284 62 344 62 _c
378 62 412 66 444 74 _c
476 82 509 95 541 113 _c
541 28 _l
509 14 476 3 442 -3 _c
408 -9 373 -13 339 -13 _c
251 -13 182 12 131 62 _c
80 112 55 181 55 268 _c
55 357 79 428 127 481 _c
175 533 241 560 323 560 _c
397 560 455 536 498 489 _c
}_e{540 441 562 377 562 296 _c
472 322 _m
471 371 457 410 431 440 _c
404 469 368 484 324 484 _c
274 484 234 469 204 441 _c
174 413 156 373 152 322 _c
472 322 _l
_cl}_e}_d
/i{278 0 94 0 184 760 _sc
94 547 _m
184 547 _l
184 0 _l
94 0 _l
94 547 _l
94 760 _m
184 760 _l
184 646 _l
94 646 _l
94 760 _l
_cl}_d
/m{{974 0 91 0 889 560 _sc
520 442 _m
542 482 569 511 600 531 _c
631 550 668 560 711 560 _c
767 560 811 540 842 500 _c
873 460 889 403 889 330 _c
889 0 _l
799 0 _l
799 327 _l
799 379 789 418 771 444 _c
752 469 724 482 686 482 _c
639 482 602 466 575 435 _c
548 404 535 362 535 309 _c
535 0 _l
445 0 _l
445 327 _l
445 379 435 418 417 444 _c
398 469 369 482 331 482 _c
}_e{285 482 248 466 221 435 _c
194 404 181 362 181 309 _c
181 0 _l
91 0 _l
91 547 _l
181 547 _l
181 462 _l
201 495 226 520 255 536 _c
283 552 317 560 357 560 _c
397 560 430 550 458 530 _c
486 510 506 480 520 442 _c
_cl}_e}_d
/s{{521 0 54 -13 472 560 _sc
443 531 _m
443 446 _l
417 458 391 468 364 475 _c
336 481 308 485 279 485 _c
234 485 200 478 178 464 _c
156 450 145 430 145 403 _c
145 382 153 366 169 354 _c
185 342 217 330 265 320 _c
296 313 _l
360 299 405 279 432 255 _c
458 230 472 195 472 151 _c
472 100 452 60 412 31 _c
372 1 316 -13 246 -13 _c
216 -13 186 -10 154 -5 _c
}_e{122 0 89 8 54 20 _c
54 113 _l
87 95 120 82 152 74 _c
184 65 216 61 248 61 _c
290 61 323 68 346 82 _c
368 96 380 117 380 144 _c
380 168 371 187 355 200 _c
339 213 303 226 247 238 _c
216 245 _l
160 257 119 275 95 299 _c
70 323 58 356 58 399 _c
58 450 76 490 112 518 _c
148 546 200 560 268 560 _c
301 560 332 557 362 552 _c
391 547 418 540 443 531 _c
}_e{_cl}_e}_d
/t{392 0 27 0 368 702 _sc
183 702 _m
183 547 _l
368 547 _l
368 477 _l
183 477 _l
183 180 _l
183 135 189 106 201 94 _c
213 81 238 75 276 75 _c
368 75 _l
368 0 _l
276 0 _l
206 0 158 13 132 39 _c
106 65 93 112 93 180 _c
93 477 _l
27 477 _l
27 547 _l
93 547 _l
93 702 _l
183 702 _l
_cl}_d
/y{592 0 30 -207 562 547 _sc
322 -50 _m
296 -114 271 -157 247 -177 _c
223 -197 191 -207 151 -207 _c
79 -207 _l
79 -132 _l
132 -132 _l
156 -132 175 -126 189 -114 _c
203 -102 218 -75 235 -31 _c
251 9 _l
30 547 _l
125 547 _l
296 119 _l
467 547 _l
562 547 _l
322 -50 _l
_cl}_d
end readonly def

/BuildGlyph
 {exch begin
 CharStrings exch
 2 copy known not{pop /.notdef}if
 true 3 1 roll get exec
 end}_d

/BuildChar {
 1 index /Encoding get exch get
 1 index /BuildGlyph get exec
}_d

FontName currentdict end definefont pop
%!PS-Adobe-3.0 Resource-Font
%%Title: DejaVu Sans Oblique
%%Copyright: Copyright (c) 2003 by Bitstream, Inc. All Rights Reserved. Copyright (c) 2006 by Tavmjong Bah. All Rights Reserved. DejaVu changes are in public domain 
%%Creator: Converted from TrueType to type 3 by PPR
25 dict begin
/_d{bind def}bind def
/_m{moveto}_d
/_l{lineto}_d
/_cl{closepath eofill}_d
/_c{curveto}_d
/_sc{7 -1 roll{setcachedevice}{pop pop pop pop pop pop}ifelse}_d
/_e{exec}_d
/FontName /DejaVuSans-Oblique def
/PaintType 0 def
/FontMatrix[.001 0 0 .001 0 0]def
/FontBBox[-1016 -350 1659 1068]def
/FontType 3 def
/Encoding [ /tau ] def
/FontInfo 10 dict dup begin
/FamilyName (DejaVu Sans) def
/FullName (DejaVu Sans Oblique) def
/Notice (Copyright (c) 2003 by Bitstream, Inc. All Rights Reserved. Copyright (c) 2006 by Tavmjong Bah. All Rights Reserved. DejaVu changes are in public domain ) def
/Weight (Oblique) def
/Version (Version 2.35) def
/ItalicAngle -11.0 def
/isFixedPitch false def
/UnderlinePosition -130 def
/UnderlineThickness 90 def
end readonly def
/CharStrings 2 dict dup begin
/.notdef 0 def
/tau{602 0 84 0 606 547 _sc
329 100 _m
337 84 359 76 395 76 _c
438 76 _l
423 0 _l
369 0 _l
310 0 270 15 250 47 _c
229 79 226 129 240 198 _c
290 457 _l
84 457 _l
102 547 _l
606 547 _l
589 457 _l
382 457 _l
330 193 _l
320 145 320 114 329 100 _c
_cl}_d
end readonly def

/BuildGlyph
 {exch begin
 CharStrings exch
 2 copy known not{pop /.notdef}if
 true 3 1 roll get exec
 end}_d

/BuildChar {
 1 index /Encoding get exch get
 1 index /BuildGlyph get exec
}_d

FontName currentdict end definefont pop
end
%%EndProlog
mpldict begin
75.6 223.2 translate
460.8 345.6 0 0 clipbox
gsave
0 0 m
460.8 0 l
460.8 345.6 l
0 345.6 l
cl
1.000 setgray
fill
grestore
gsave
57.6 38.016 m
414.72 38.016 l
414.72 304.128 l
57.6 304.128 l
cl
1.000 setgray
fill
grestore
0.800 setlinewidth
1 setlinejoin
0 setlinecap
[] 0 setdash
0.000 setgray
gsave
/o {
gsave
newpath
translate
0.8 setlinewidth
1 setlinejoin
0 setlinecap
0 0 m
0 -3.5 l

gsave
0.000 setgray
fill
grestore
stroke
grestore
} bind def
63.3304 38.016 o
grestore
/DejaVuSans findfont
10.000 scalefont
setfont
gsave
60.150705 23.422250 translate
0.000000 rotate
0.000000 0.000000 m /zero glyphshow
grestore
gsave
/o {
gsave
newpath
translate
0.8 setlinewidth
1 setlinejoin
0 setlinecap
0 0 m
0 -3.5 l

gsave
0.000 setgray
fill
grestore
stroke
grestore
} bind def
115.702 38.016 o
grestore
gsave
112.522358 23.422250 translate
0.000000 rotate
0.000000 0.000000 m /five glyphshow
grestore
gsave
/o {
gsave
newpath
translate
0.8 setlinewidth
1 setlinejoin
0 setlinecap
0 0 m
0 -3.5 l

gsave
0.000 setgray
fill
grestore
stroke
grestore
} bind def
168.074 38.016 o
grestore
gsave
161.714324 23.422250 translate
0.000000 rotate
0.000000 0.000000 m /one glyphshow
6.362305 0.000000 m /zero glyphshow
grestore
gsave
/o {
gsave
newpath
translate
0.8 setlinewidth
1 setlinejoin
0 setlinecap
0 0 m
0 -3.5 l

gsave
0.000 setgray
fill
grestore
stroke
grestore
} bind def
220.445 38.016 o
grestore
gsave
214.085977 23.422250 translate
0.000000 rotate
0.000000 0.000000 m /one glyphshow
6.362305 0.000000 m /five glyphshow
grestore
gsave
/o {
gsave
newpath
translate
0.8 setlinewidth
1 setlinejoin
0 setlinecap
0 0 m
0 -3.5 l

gsave
0.000 setgray
fill
grestore
stroke
grestore
} bind def
272.817 38.016 o
grestore
gsave
266.457630 23.422250 translate
0.000000 rotate
0.000000 0.000000 m /two glyphshow
6.362305 0.000000 m /zero glyphshow
grestore
gsave
/o {
gsave
newpath
translate
0.8 setlinewidth
1 setlinejoin
0 setlinecap
0 0 m
0 -3.5 l

gsave
0.000 setgray
fill
grestore
stroke
grestore
} bind def
325.189 38.016 o
grestore
gsave
318.829283 23.422250 translate
0.000000 rotate
0.000000 0.000000 m /two glyphshow
6.362305 0.000000 m /five glyphshow
grestore
gsave
/o {
gsave
newpath
translate
0.8 setlinewidth
1 setlinejoin
0 setlinecap
0 0 m
0 -3.5 l

gsave
0.000 setgray
fill
grestore
stroke
grestore
} bind def
377.56 38.016 o
grestore
gsave
371.200937 23.422250 translate
0.000000 rotate
0.000000 0.000000 m /three glyphshow
6.362305 0.000000 m /zero glyphshow
grestore
gsave
209.863125 9.750375 translate
0.000000 rotate
0.000000 0.000000 m /t glyphshow
3.920898 0.000000 m /i glyphshow
6.699219 0.000000 m /m glyphshow
16.440430 0.000000 m /e glyphshow
22.592773 0.000000 m /comma glyphshow
25.771484 0.000000 m /space glyphshow
28.950195 0.000000 m /d glyphshow
35.297852 0.000000 m /a glyphshow
41.425781 0.000000 m /y glyphshow
47.343750 0.000000 m /s glyphshow
grestore
gsave
/o {
gsave
newpath
translate
0.8 setlinewidth
1 setlinejoin
0 setlinecap
0 0 m
-3.5 0 l

gsave
0.000 setgray
fill
grestore
stroke
grestore
} bind def
57.6 81.1492 o
grestore
gsave
34.693750 77.352322 translate
0.000000 rotate
0.000000 0.000000 m /zero glyphshow
6.362305 0.000000 m /period glyphshow
9.541016 0.000000 m /two glyphshow
grestore
gsave
/o {
gsave
newpath
translate
0.8 setlinewidth
1 setlinejoin
0 setlinecap
0 0 m
-3.5 0 l

gsave
0.000 setgray
fill
grestore
stroke
grestore
} bind def
57.6 133.015 o
grestore
gsave
34.693750 129.218026 translate
0.000000 rotate
0.000000 0.000000 m /zero glyphshow
6.362305 0.000000 m /period glyphshow
9.541016 0.000000 m /four glyphshow
grestore
gsave
/o {
gsave
newpath
translate
0.8 setlinewidth
1 setlinejoin
0 setlinecap
0 0 m
-3.5 0 l

gsave
0.000 setgray
fill
grestore
stroke
grestore
} bind def
57.6 184.881 o
grestore
gsave
34.693750 181.083730 translate
0.000000 rotate
0.000000 0.000000 m /zero glyphshow
6.362305 0.000000 m /period glyphshow
9.541016 0.000000 m /six glyphshow
grestore
gsave
/o {
gsave
newpath
translate
0.8 setlinewidth
1 setlinejoin
0 setlinecap
0 0 m
-3.5 0 l

gsave
0.000 setgray
fill
grestore
stroke
grestore
} bind def
57.6 236.746 o
grestore
gsave
34.693750 232.949434 translate
0.000000 rotate
0.000000 0.000000 m /zero glyphshow
6.362305 0.000000 m /period glyphshow
9.541016 0.000000 m /eight glyphshow
grestore
gsave
/o {
gsave
newpath
translate
0.8 setlinewidth
1 setlinejoin
0 setlinecap
0 0 m
-3.5 0 l

gsave
0.000 setgray
fill
grestore
stroke
grestore
} bind def
57.6 288.612 o
grestore
gsave
34.693750 284.815139 translate
0.000000 rotate
0.000000 0.000000 m /one glyphshow
6.362305 0.000000 m /period glyphshow
9.541016 0.000000 m /zero glyphshow
grestore
gsave
28.615625 167.572000 translate
90.000000 rotate
/DejaVuSans-Oblique findfont
10.0 scalefont
setfont
0.000000 0.531250 moveto
/tau glyphshow


grestore
1.500 setlinewidth
2 setlinecap
0.000 0.750 0.750 setrgbcolor
gsave
357.1 266.1 57.6 38.02 clipbox
73.832727 59.161292 m
73.905466 59.355182 l
74.196662 57.465764 l
74.415119 60.334517 l
74.487979 61.464139 l
74.560839 61.217847 l
74.633577 60.922623 l
74.997633 66.153448 l
75.361567 70.135457 l
75.507165 68.616912 l
75.580025 68.945101 l
75.725744 69.271097 l
75.798483 69.348403 l
75.944081 69.731196 l
76.235398 67.815072 l
76.380996 68.757731 l
76.453735 70.512931 l
76.526594 70.448423 l
76.672192 69.507708 l
76.817669 69.583313 l
76.890529 69.985806 l
76.963388 69.418402 l
77.036127 69.594228 l
77.108986 69.670142 l
77.254584 69.134739 l
77.327444 69.209584 l
77.400304 69.257139 l
77.837219 66.577599 l
77.982696 65.602293 l
78.055556 65.714729 l
78.274013 66.309724 l
78.419611 65.817543 l
78.638069 64.010931 l
78.783667 64.393764 l
78.856527 64.666205 l
78.929265 64.615171 l
79.147723 64.421417 l
79.43904 65.288381 l
79.730236 61.966836 l
79.802975 62.201952 l
80.094292 63.795146 l
80.31275 63.808299 l
80.531207 63.832001 l
80.895263 63.525662 l
81.914328 57.604213 l
82.132664 56.981878 l
82.351001 56.984179 l
82.642197 57.147075 l
83.297449 57.667425 l
84.462233 56.423237 l
85.190345 56.644646 l
85.699877 56.704001 l
86.791923 56.16827 l
87.374437 56.392462 l
87.956829 56.846383 l
88.393623 56.578765 l
88.466483 56.540868 l
88.976015 55.428457 l
89.048753 55.504781 l
89.340071 58.61213 l
89.849603 63.519766 l
90.213659 65.135366 l
90.432117 63.270954 l
91.01463 58.040207 l
91.742742 55.818165 l
92.033938 55.304466 l
92.689311 55.461538 l
93.271945 55.232958 l
93.781478 55.299658 l
94.436851 56.106404 l
94.655187 56.056293 l
94.946505 55.92349 l
95.529018 56.129751 l
97.349418 55.7309 l
98.368604 54.375737 l
99.388154 52.430699 l
99.460893 52.820423 l
99.533752 52.789477 l
99.679472 52.571804 l
99.752331 52.053975 l
99.82507 53.783046 l
99.897929 53.297645 l
100.116266 52.976059 l
100.189125 52.074582 l
100.261864 52.717055 l
100.480322 52.025866 l
100.771518 54.231614 l
100.844377 53.999863 l
100.917237 54.209409 l
100.989975 54.060528 l
101.135573 54.313992 l
101.208312 54.247273 l
101.281171 54.182461 l
101.718087 54.754043 l
102.155002 54.7716 l
102.591675 54.564205 l
103.829198 53.724595 l
104.411832 53.481715 l
106.450569 53.492432 l
107.542494 53.678585 l
109.581109 54.248347 l
111.619845 54.819739 l
114.896225 54.784133 l
115.697196 55.60336 l
115.915654 55.69073 l
116.643887 54.960926 l
116.935204 54.992759 l
117.15354 55.230399 l
117.517717 56.078739 l
117.736175 57.203418 l
118.318689 61.913942 l
118.537267 64.441048 l
118.610127 57.909183 l
118.682866 64.295875 l
118.755725 58.129194 l
118.828464 58.219241 l
118.901323 65.333183 l
118.974183 64.227834 l
119.33836 61.051346 l
119.411098 61.181755 l
119.993733 63.853169 l
120.139331 62.710264 l
120.212069 63.333071 l
120.284929 63.123015 l
120.576125 62.835569 l
120.648985 61.322177 l
120.721844 61.487824 l
120.867442 61.536429 l
121.086021 59.615977 l
121.231619 59.604569 l
121.450198 58.676507 l
121.522937 58.838727 l
122.178188 55.902484 l
122.906421 53.426278 l
123.197617 53.348455 l
123.488935 53.536102 l
123.780252 53.891472 l
124.071569 54.360377 l
124.290027 54.286606 l
124.726821 55.689176 l
124.799559 56.099792 l
124.872419 54.809942 l
124.945157 55.855576 l
125.163615 54.996089 l
125.454811 58.182331 l
125.746007 61.113755 l
125.818867 60.959439 l
126.110063 58.624358 l
126.401259 56.117636 l
126.910913 57.376761 l
126.983651 57.245881 l
127.274847 56.685516 l
127.347828 56.775694 l
127.493426 56.504067 l
128.003201 62.172202 l
128.367378 67.198116 l
128.658574 70.857744 l
128.804294 69.928182 l
128.949892 68.638933 l
129.241209 64.707841 l
130.114919 58.787806 l
130.405993 58.287403 l
130.624451 58.865014 l
130.770049 59.696053 l
131.134226 61.885759 l
131.425422 60.015985 l
131.64388 59.210051 l
132.080795 58.720592 l
133.464158 56.819474 l
133.537018 57.005287 l
133.682737 56.625609 l
134.192391 56.044608 l
134.702166 55.604025 l
135.867193 55.103345 l
137.396639 54.457614 l
138.998581 53.649963 l
139.508235 53.564779 l
141.03756 53.616386 l
142.785464 53.832399 l
142.931062 54.094978 l
143.586556 54.142595 l
143.732276 53.973389 l
144.24193 53.883466 l
147.592139 53.048761 l
148.611811 52.938296 l
149.77708 53.256479 l
151.524499 53.890326 l
151.888676 53.958814 l
151.961414 53.94218 l
152.107133 54.329316 l
152.179872 54.223037 l
152.252732 54.089654 l
152.32547 54.164276 l
152.616787 54.382589 l
153.345141 54.638249 l
153.927776 54.55446 l
154.292316 54.353402 l
154.656493 55.116835 l
154.874951 55.558326 l
155.093409 55.226236 l
155.530445 54.578028 l
156.331538 55.311595 l
158.152301 56.334879 l
158.370759 56.897179 l
158.662076 54.911972 l
158.734936 55.298441 l
158.953394 56.99367 l
159.026132 56.929412 l
159.317449 56.347932 l
160.628195 57.204516 l
161.793101 58.67219 l
161.938699 59.059604 l
162.448474 61.300796 l
163.031109 58.997398 l
163.103968 58.930216 l
163.249566 59.083097 l
163.322426 59.520701 l
163.613743 67.053546 l
163.686482 78.841856 l
163.904939 59.194396 l
163.977799 59.643595 l
164.196136 57.248372 l
164.268995 57.86925 l
164.85163 68.174897 l
164.924489 69.731222 l
165.142947 65.419459 l
165.215807 65.459358 l
165.434264 61.851677 l
165.507003 61.93053 l
165.579863 61.710791 l
165.652601 61.826484 l
165.943918 68.76415 l
166.089638 67.827178 l
166.380955 66.005531 l
166.526795 65.570185 l
166.599655 65.610969 l
166.818113 66.160836 l
167.10943 67.180712 l
167.400747 64.315875 l
167.837663 60.710958 l
169.075549 55.786408 l
169.366866 55.444008 l
169.512586 55.525225 l
169.731165 56.027881 l
170.022482 57.301897 l
170.313799 59.411219 l
170.969172 65.940923 l
171.26049 68.243419 l
171.478947 68.741026 l
171.770265 69.858554 l
172.061582 77.906399 l
172.13432 76.991815 l
172.352899 71.820064 l
172.425638 72.783225 l
172.498497 74.247326 l
172.571357 74.032243 l
172.716955 73.603859 l
172.789815 73.527358 l
173.008272 72.118221 l
174.24628 61.150038 l
174.610578 61.398232 l
174.756176 61.790437 l
175.120353 62.841695 l
175.265951 62.956418 l
175.411671 62.588556 l
175.557269 63.023857 l
175.702988 61.086252 l
175.775848 61.3645 l
175.848586 61.901283 l
175.921446 61.880901 l
176.067044 61.734258 l
176.139782 61.62963 l
176.285501 63.516587 l
176.431221 60.143743 l
176.503959 60.689871 l
176.722538 62.597232 l
176.940996 62.707956 l
177.013855 62.994909 l
177.669107 72.673997 l
177.814705 67.239023 l
178.179003 62.526979 l
178.397461 62.127383 l
178.688778 62.434728 l
178.834376 62.51471 l
179.562609 61.813069 l
179.926786 61.578275 l
180.582159 60.689501 l
181.164794 59.810558 l
181.820409 59.956939 l
182.985678 58.9788 l
183.276996 58.285265 l
183.422594 57.989686 l
184.00535 60.784234 l
184.150948 60.822067 l
184.442386 60.544192 l
185.17074 59.379862 l
185.462058 60.765003 l
185.607656 60.18696 l
185.680394 60.235726 l
185.753254 60.478088 l
185.899094 64.38061 l
186.044692 59.911278 l
186.117431 64.065793 l
186.19029 61.346145 l
186.26315 62.230169 l
186.408748 62.991838 l
186.481608 62.886574 l
186.554346 66.139017 l
186.772925 57.143221 l
186.918523 64.532739 l
186.991383 63.692978 l
187.064242 62.22151 l
187.137102 62.305039 l
187.209961 62.445161 l
187.42854 61.424508 l
187.574138 60.987644 l
187.646998 60.971687 l
187.792717 61.199108 l
187.938437 59.434713 l
188.011296 60.132689 l
188.084156 60.91451 l
188.157016 60.647893 l
188.302614 60.231807 l
188.375473 60.192753 l
188.666791 59.294912 l
188.958108 62.884719 l
189.030846 62.235884 l
189.249425 59.541261 l
189.322285 59.738717 l
189.613602 61.148124 l
189.977779 61.331978 l
190.560535 60.91168 l
190.706133 60.912975 l
190.99745 57.919714 l
191.215787 63.723837 l
191.434366 61.527927 l
191.579964 58.874551 l
191.652823 59.042396 l
191.944141 60.546625 l
192.089739 60.525914 l
192.308318 60.496395 l
193.983362 59.345473 l
194.20182 59.439151 l
194.638856 58.787654 l
195.148752 58.87725 l
195.512929 59.668929 l
195.804247 60.192292 l
196.022704 60.460641 l
196.168424 61.028164 l
196.241162 61.445304 l
196.314022 61.248669 l
196.386881 61.172369 l
196.532479 62.360758 l
196.678199 70.006354 l
196.750937 63.223127 l
196.823797 71.544275 l
196.896656 67.859431 l
197.115114 62.101219 l
197.187974 62.195117 l
197.406431 64.167379 l
197.770608 75.621701 l
197.916206 68.799777 l
198.061926 63.994143 l
198.134664 64.44467 l
198.280383 63.581961 l
198.571822 65.036965 l
198.790401 75.99029 l
198.86326 80.731874 l
198.93612 80.452502 l
199.00898 77.154633 l
199.154578 60.008274 l
199.227437 60.079862 l
199.445895 63.005324 l
199.664353 65.073153 l
199.737212 66.114601 l
199.88281 63.346542 l
199.95567 63.560636 l
200.101389 64.049594 l
200.174249 64.057115 l
200.538426 63.160134 l
200.611286 62.795094 l
200.684145 66.073017 l
200.757005 63.963581 l
200.829865 67.700969 l
200.902724 66.400972 l
200.975584 65.408782 l
201.121303 60.544433 l
201.194163 60.359973 l
201.485359 58.165449 l
201.703816 61.50885 l
201.776676 62.698096 l
201.995134 59.586695 l
202.067993 59.576072 l
202.140853 60.552409 l
202.286451 59.054302 l
202.359311 59.644701 l
202.432049 59.533639 l
202.504909 59.147822 l
202.577647 61.488527 l
202.796105 56.615402 l
202.868965 56.691263 l
202.941824 57.079744 l
203.014563 56.942723 l
203.087422 56.832593 l
203.233141 57.320987 l
203.961374 55.089688 l
204.471513 54.262013 l
204.835811 54.394204 l
205.345707 54.831677 l
205.637025 54.995341 l
206.656575 54.179783 l
206.802294 54.238951 l
207.31219 55.088985 l
208.259002 56.761447 l
208.4046 57.225554 l
208.477459 57.293758 l
209.060337 59.00263 l
209.206056 58.282399 l
209.278915 58.537732 l
209.424513 58.44378 l
209.643092 58.173673 l
209.86155 58.359782 l
210.517044 59.300857 l
210.808362 59.932868 l
211.536958 58.667652 l
211.609696 59.331373 l
211.682677 58.794208 l
211.755416 59.012353 l
212.046733 59.311878 l
212.629489 59.634632 l
212.847947 59.385272 l
213.139264 57.163353 l
213.430581 65.023692 l
213.503441 63.392502 l
213.72202 57.421514 l
213.794879 57.634042 l
214.086197 59.545299 l
214.304654 59.309345 l
215.032887 58.500548 l
215.76112 59.004816 l
216.343754 59.601581 l
216.416614 59.264134 l
216.489474 59.335613 l
216.635072 59.507784 l
216.78067 60.162911 l
216.926389 60.36288 l
217.217706 61.35935 l
217.509024 59.507331 l
217.581883 59.949335 l
217.800462 61.801163 l
217.873322 61.652791 l
218.310359 60.19288 l
218.455957 60.079279 l
219.25717 60.368838 l
219.621226 60.336636 l
220.058384 59.920558 l
220.204103 59.90788 l
220.422682 60.172561 l
220.71412 59.41114 l
220.786859 59.448466 l
221.151036 59.798868 l
221.296755 59.784703 l
221.515334 60.259602 l
221.588194 60.24319 l
221.733913 59.687489 l
221.952249 60.415902 l
222.025109 60.387126 l
222.680603 58.667036 l
222.899061 58.581155 l
222.971799 59.699163 l
223.044659 59.664845 l
223.336098 59.605149 l
223.481817 58.526557 l
223.845873 58.474722 l
223.918732 59.144392 l
223.991592 59.119566 l
224.137311 59.074891 l
224.282909 59.444995 l
225.011142 59.458396 l
225.375319 59.696496 l
225.739496 58.49747 l
225.812355 58.785856 l
225.885215 56.942717 l
225.957953 58.461847 l
226.030813 58.11108 l
226.103673 58.091505 l
226.249392 58.574305 l
226.395111 58.131417 l
226.540831 58.824496 l
226.61369 58.68325 l
226.905008 58.10261 l
227.269184 57.771833 l
227.560502 57.859616 l
227.997538 58.092633 l
228.216117 58.261199 l
228.361837 58.893183 l
228.798752 63.231898 l
228.871612 64.008656 l
228.944471 63.928546 l
229.162929 63.1522 l
229.818423 68.163212 l
230.037002 68.454801 l
230.401179 66.523394 l
231.421335 59.977287 l
232.440885 56.71141 l
232.805183 56.593664 l
233.460799 56.810097 l
234.699049 57.438233 l
235.063347 57.16654 l
235.864561 56.471917 l
235.93742 56.101208 l
236.01028 56.366053 l
236.08314 56.22106 l
237.030315 55.57825 l
238.050229 55.094964 l
238.341546 54.912163 l
239.215619 54.237574 l
239.434077 54.221633 l
240.016954 54.822235 l
241.328306 56.309126 l
241.473904 56.697688 l
241.692483 57.477783 l
241.983801 54.997188 l
242.05666 55.499993 l
242.275239 57.59055 l
242.566556 55.209885 l
242.639416 55.36995 l
242.857995 56.283209 l
243.222172 55.432672 l
243.295153 55.514476 l
243.513611 55.591537 l
243.950647 55.336525 l
244.387805 55.020702 l
244.970803 54.698696 l
245.917615 54.487659 l
246.209053 54.542616 l
246.354773 54.693608 l
246.64609 55.684149 l
246.937529 57.1641 l
247.301706 59.394356 l
247.374444 60.661077 l
247.447304 59.737919 l
247.520163 60.530993 l
247.593023 60.219237 l
248.102919 58.468546 l
248.321377 59.92234 l
248.758413 64.557393 l
248.97675 68.588461 l
249.049609 75.977175 l
249.122469 75.154457 l
249.195329 70.771221 l
249.268067 74.276395 l
249.340927 91.796052 l
249.413786 91.722471 l
249.559506 67.465764 l
249.705104 72.649649 l
249.850823 71.170213 l
249.996421 78.289081 l
250.069281 74.174146 l
250.28786 82.048184 l
250.360719 80.839423 l
250.433458 84.344249 l
250.870494 66.826363 l
251.234671 64.588147 l
251.38039 64.65023 l
251.52611 65.265893 l
251.671708 67.292878 l
252.181604 78.055628 l
252.254464 77.595752 l
252.327202 80.511789 l
252.400062 80.061482 l
252.472921 79.703301 l
252.909958 81.640301 l
253.128416 84.339836 l
253.201154 85.630935 l
253.346873 83.901631 l
253.419733 91.982534 l
253.492471 86.558223 l
253.565331 88.655344 l
253.638191 88.75877 l
253.711172 97.105491 l
253.784031 92.084898 l
253.929629 97.655713 l
254.075348 96.285544 l
254.220947 93.940378 l
254.293806 99.229026 l
254.366666 85.759895 l
254.439404 88.750067 l
254.658104 92.068549 l
254.803824 93.907066 l
254.876683 105.861705 l
254.949543 97.804813 l
255.095141 133.991386 l
255.168001 163.613929 l
255.240981 132.527686 l
255.31372 140.55415 l
255.605158 86.785947 l
255.750878 78.985126 l
255.969457 78.110303 l
256.042316 79.456692 l
256.115055 83.02366 l
256.187914 76.086934 l
256.260895 88.886142 l
256.333755 87.775165 l
256.406614 88.250163 l
256.625193 103.494312 l
256.770791 131.540054 l
256.916511 117.319191 l
256.98937 122.124649 l
257.06223 78.51326 l
257.134968 107.441145 l
257.207828 95.894247 l
257.280688 117.027254 l
257.353547 70.467111 l
257.499267 110.759058 l
257.572126 95.040809 l
257.644986 105.803092 l
257.717845 71.53084 l
257.790705 89.022519 l
258.154882 136.248059 l
258.300601 183.299268 l
258.519059 99.727312 l
258.664778 90.655141 l
258.737638 90.533659 l
258.883357 91.002974 l
259.101936 82.741492 l
259.247534 89.077322 l
259.393253 79.44513 l
259.538851 95.348003 l
259.611711 83.735562 l
259.684571 91.337676 l
259.83029 86.122631 l
259.90315 86.748223 l
260.194588 83.030847 l
260.267448 87.911984 l
260.340307 82.869332 l
260.413167 83.06368 l
260.486027 83.346517 l
260.558886 73.998062 l
260.631625 79.006856 l
260.704484 77.225432 l
260.777344 77.024938 l
260.923063 82.728113 l
260.995923 73.27218 l
261.068783 78.065994 l
261.141642 82.837637 l
261.214381 72.129943 l
261.28724 72.186067 l
261.3601 72.263746 l
261.505819 66.555319 l
261.65166 74.067593 l
261.724398 70.448712 l
261.797258 79.892481 l
261.870117 76.669721 l
261.942977 78.455758 l
262.088696 69.913935 l
262.161556 70.820327 l
262.234416 68.625989 l
262.307275 69.077417 l
262.380256 70.701399 l
262.452995 68.618785 l
262.598714 77.523832 l
262.671573 79.197991 l
262.744433 89.669051 l
262.890152 74.052351 l
262.962891 77.705348 l
263.03575 76.034535 l
263.10861 83.210833 l
263.18147 73.733217 l
263.400049 91.377816 l
263.618506 82.2687 l
263.982804 94.179036 l
264.055543 89.464409 l
264.128524 184.521356 l
264.274122 100.448674 l
264.419841 81.379063 l
264.56556 95.430631 l
264.711158 69.932243 l
264.784139 72.940611 l
265.002597 104.758818 l
265.148316 70.746862 l
265.294035 115.998943 l
265.366895 102.777661 l
265.439755 85.591887 l
265.512493 86.309177 l
265.731072 91.10697 l
265.876791 89.270009 l
265.949651 89.846032 l
266.022511 91.7218 l
266.095249 91.673873 l
266.16823 91.827734 l
266.532528 98.230551 l
266.678126 98.900421 l
266.750986 98.308312 l
266.896705 94.620803 l
267.115163 87.406989 l
267.188022 86.556308 l
267.843638 57.819553 l
267.989357 56.506712 l
268.062217 56.569542 l
268.207815 57.437736 l
268.790571 64.371591 l
269.300588 72.810522 l
269.519046 73.629612 l
269.664765 73.360333 l
269.883465 74.663962 l
269.956325 74.556983 l
270.393362 63.887586 l
270.61194 62.484684 l
270.903258 60.129073 l
271.121715 59.656444 l
271.267435 60.139727 l
271.413154 61.027458 l
271.704471 59.373411 l
272.141508 69.05609 l
272.578545 60.210399 l
272.651404 60.504027 l
273.452739 68.554578 l
273.744299 69.491321 l
274.035737 75.867939 l
274.181457 82.783253 l
274.254316 80.859253 l
274.327176 79.681118 l
274.837072 92.355805 l
274.909932 92.768567 l
275.20137 89.498647 l
275.492809 86.080467 l
275.711266 92.993676 l
276.002826 107.336451 l
276.075686 98.253485 l
276.221284 117.24423 l
276.367003 119.804908 l
276.80404 103.572521 l
277.022619 99.919648 l
277.823954 82.470402 l
277.969673 83.70154 l
278.552429 90.304987 l
279.208165 80.922394 l
279.281025 83.520441 l
279.353885 78.826806 l
279.499604 81.666018 l
279.572342 78.432255 l
279.645202 80.466079 l
279.718062 79.304623 l
279.863781 83.291589 l
280.009621 77.046743 l
280.155462 86.215689 l
280.30106 70.581218 l
280.37392 82.252527 l
280.446779 76.817508 l
280.519639 79.427714 l
280.665237 73.40102 l
280.738097 73.800402 l
280.883816 76.509869 l
281.029535 82.087267 l
281.102395 82.542135 l
281.175254 80.942652 l
281.247993 81.406042 l
281.320974 82.793864 l
281.466572 95.175452 l
281.539553 93.986068 l
281.612291 93.388001 l
281.685151 83.852824 l
281.75801 88.787964 l
281.90373 102.092312 l
281.976589 100.745771 l
282.195289 78.559709 l
282.486607 65.377669 l
282.777924 78.667331 l
282.850784 78.25294 l
283.36068 64.122497 l
283.652118 74.971312 l
283.724857 74.459686 l
284.234996 66.494759 l
284.453696 72.928804 l
284.526555 75.339732 l
285.036573 65.943396 l
285.255152 63.531964 l
285.838029 58.14058 l
285.983627 57.523756 l
286.275308 61.575459 l
286.566625 66.947515 l
286.858064 60.336575 l
287.222362 55.688962 l
287.513922 57.059627 l
287.80536 58.321848 l
288.09692 58.035684 l
288.388359 58.219355 l
289.699711 60.983803 l
290.064009 61.113431 l
290.428307 59.872437 l
290.646765 59.160454 l
290.792605 59.431632 l
291.812519 62.207904 l
291.958238 61.480265 l
292.103958 63.481381 l
292.176817 63.000672 l
292.395517 61.562605 l
292.613975 62.590441 l
292.832554 63.182881 l
292.978273 62.946142 l
293.123993 64.486704 l
293.34245 62.968017 l
293.415431 63.013166 l
293.633889 62.051302 l
293.925327 60.663396 l
293.998187 60.645766 l
294.143906 60.243979 l
294.289626 62.267987 l
294.362364 61.934331 l
294.508083 61.317021 l
294.580943 61.272756 l
294.726541 60.676047 l
295.309539 62.350202 l
295.600978 60.618919 l
296.256957 57.528589 l
296.402676 57.774608 l
296.621255 58.977956 l
296.766974 61.512467 l
297.058292 58.327098 l
297.204011 75.186347 l
297.276871 253.160714 l
297.349852 88.194654 l
297.422711 169.993109 l
297.56843 79.812592 l
297.64129 83.837473 l
297.787009 80.801399 l
298.22441 94.312075 l
298.880146 71.533755 l
299.025866 71.255766 l
299.098604 71.334514 l
299.244323 72.166385 l
299.390043 74.762319 l
299.535762 67.050781 l
299.608622 68.804244 l
299.68136 71.05539 l
299.972799 64.296344 l
300.337218 72.648063 l
300.409956 72.513564 l
300.555676 67.819599 l
300.628535 67.954497 l
300.847114 68.95579 l
300.992833 69.273545 l
301.138553 70.284604 l
301.357132 77.532438 l
301.575711 85.046085 l
301.648449 85.181614 l
301.721309 87.139938 l
302.085728 64.28141 l
302.304186 61.726275 l
302.522765 75.880434 l
302.595624 81.62722 l
302.741344 144.971321 l
302.887063 58.528676 l
302.959922 61.6554 l
303.032782 63.159018 l
303.178501 57.461846 l
303.251361 58.426641 l
303.615538 65.192088 l
303.834117 74.846609 l
303.906977 74.559016 l
304.125555 68.284366 l
304.198415 68.10622 l
304.271275 71.848782 l
304.489854 67.629563 l
304.635694 65.607745 l
305.51001 80.170273 l
305.582869 78.344805 l
305.801448 71.779128 l
305.947168 78.620693 l
306.238606 63.4415 l
306.311466 62.858404 l
306.384325 63.312265 l
306.529923 66.891946 l
306.96696 92.080737 l
307.404239 61.920238 l
307.549958 56.598564 l
307.768537 63.734893 l
307.841397 66.369296 l
307.914135 66.174925 l
308.424274 58.512692 l
308.642853 65.261242 l
308.861432 69.732656 l
309.080011 73.06141 l
309.444309 83.375623 l
309.881588 103.164284 l
309.954448 102.426867 l
310.245886 90.172084 l
310.464344 77.561444 l
310.537325 78.233292 l
310.755904 84.35948 l
311.047342 54.793107 l
311.120202 55.64358 l
311.4845 72.469493 l
311.630219 82.594805 l
311.921658 61.073959 l
311.994518 62.790835 l
312.140358 67.733478 l
312.286199 64.014142 l
312.359179 66.496657 l
312.577758 63.213528 l
312.723599 62.773512 l
312.796337 62.340105 l
313.306476 55.491619 l
313.452195 54.96167 l
313.597915 55.076216 l
313.816493 55.641331 l
313.962213 56.091274 l
314.180792 55.450106 l
314.54509 54.45638 l
314.763669 54.438572 l
315.783582 54.999845 l
316.293479 55.461081 l
316.584917 55.213733 l
317.896269 53.989123 l
318.770464 53.671368 l
319.426201 54.025137 l
320.810534 55.083916 l
321.903307 55.906644 l
322.413203 56.389181 l
322.995959 56.923705 l
323.360136 57.188644 l
323.870154 58.105651 l
323.943013 58.044166 l
324.453152 57.371481 l
324.81745 57.372634 l
325.036029 57.432492 l
325.400206 56.673124 l
325.545925 55.95104 l
325.618785 55.638449 l
325.764625 58.267574 l
325.837485 58.022604 l
325.910345 57.667109 l
325.983204 57.787874 l
326.056064 58.066827 l
326.201662 61.063717 l
326.347381 57.381577 l
326.493101 59.73805 l
326.56596 59.179275 l
326.71168 58.260095 l
327.003118 57.985476 l
327.513014 57.54166 l
328.023032 56.639282 l
328.67889 56.661082 l
329.334505 56.586513 l
330.208821 56.144702 l
330.572998 56.159023 l
332.030312 56.578459 l
332.540451 56.766989 l
332.68617 56.51726 l
332.977608 56.579601 l
333.123449 56.331009 l
334.289203 56.662686 l
334.434922 56.770925 l
334.580642 56.983514 l
335.090538 56.992908 l
336.475235 56.20443 l
336.693814 56.028088 l
336.985131 56.323691 l
337.276691 56.940299 l
337.786708 56.06572 l
337.859568 56.194443 l
338.078147 57.810292 l
338.296726 61.256379 l
338.515305 64.271481 l
338.661024 64.613459 l
338.734005 64.375832 l
339.098303 59.096616 l
339.171163 59.152686 l
339.316882 59.288789 l
339.60832 58.435406 l
339.826899 59.38562 l
340.045357 60.11995 l
340.191076 60.518997 l
340.482515 66.758358 l
340.555374 66.290203 l
340.773953 64.464236 l
340.846813 64.241687 l
340.919673 64.505596 l
340.992411 62.530137 l
341.13813 66.824057 l
341.356709 78.788841 l
341.429569 78.692965 l
341.866727 65.66839 l
342.085306 63.874303 l
342.303884 63.551381 l
342.522463 63.113533 l
342.668183 63.192333 l
342.886762 63.655787 l
343.688218 66.949333 l
344.344076 71.838293 l
344.416935 71.70115 l
344.562776 70.553265 l
344.708495 72.979018 l
344.999934 69.801784 l
345.072793 69.896887 l
345.145653 68.111489 l
345.291372 70.318707 l
345.437213 67.259095 l
345.509951 67.340556 l
345.65567 69.716477 l
345.80139 77.597599 l
345.87437 82.428369 l
346.092949 70.538254 l
346.165809 71.12251 l
346.311407 66.87205 l
346.457126 80.712911 l
346.602846 69.607346 l
346.675826 70.986255 l
346.748686 73.140973 l
346.821546 72.969031 l
346.967265 72.656024 l
347.040125 72.573508 l
347.185844 71.975905 l
347.331563 72.724693 l
347.477404 76.174602 l
347.623002 68.929598 l
347.768721 77.764696 l
347.841581 76.183465 l
347.987421 73.186782 l
348.13314 72.808546 l
348.206 73.340398 l
348.27886 72.528911 l
348.351719 72.67765 l
348.643158 92.98918 l
348.934596 85.550391 l
349.298895 93.707886 l
349.371754 93.654356 l
349.590333 78.590865 l
349.663193 78.762805 l
349.736052 77.456228 l
349.808912 79.326373 l
350.027491 67.567727 l
350.100351 65.78046 l
350.391789 73.942645 l
350.464649 78.078267 l
350.755966 66.094351 l
350.901807 66.824278 l
350.974545 66.95553 l
351.266105 66.048251 l
351.848982 57.795154 l
352.06744 61.202899 l
352.28614 68.228584 l
352.504719 75.30184 l
352.650438 75.892014 l
352.723298 70.895832 l
352.796036 74.802805 l
352.868896 73.647094 l
353.014736 71.200251 l
353.233315 73.969728 l
353.524754 76.897827 l
353.597613 77.361203 l
353.670473 77.319237 l
354.034892 75.759415 l
354.180733 74.918253 l
354.763731 68.088224 l
354.836712 68.831072 l
354.909572 66.786312 l
354.982431 67.823958 l
355.49257 75.05309 l
355.711149 76.439341 l
355.856868 82.447591 l
355.929728 80.602694 l
356.002588 80.947751 l
356.075447 80.697791 l
356.221166 72.70834 l
356.294026 73.591892 l
356.439745 75.693855 l
356.512605 75.704058 l
356.949763 63.580409 l
357.314303 62.342136 l
357.460023 62.736344 l
357.97004 65.043983 l
358.0429 67.90468 l
358.188619 66.015423 l
358.2616 65.934957 l
358.33446 67.953928 l
358.407319 74.66853 l
358.625898 64.18103 l
358.990318 71.510974 l
359.136158 79.696789 l
359.573316 67.962074 l
360.228931 62.154903 l
360.301912 62.116092 l
360.374651 62.204183 l
360.447632 63.417994 l
360.66621 59.180031 l
360.73907 58.151489 l
360.81193 58.64933 l
360.884789 61.520689 l
360.957649 59.43773 l
361.030509 59.76358 l
361.176228 59.370005 l
361.322068 60.025017 l
361.467667 57.036883 l
361.540526 57.18892 l
361.759105 58.228385 l
362.050544 58.144329 l
362.414963 59.019317 l
362.560804 59.56277 l
362.633663 59.607608 l
362.925102 60.765506 l
363.143681 60.093914 l
363.43524 59.36903 l
364.09122 57.857209 l
364.455518 60.943027 l
364.674097 62.700461 l
364.819816 61.86494 l
365.329833 58.500763 l
365.912832 59.73891 l
366.350111 59.427157 l
366.423092 59.441174 l
366.714652 60.225467 l
367.297529 61.685448 l
367.661948 62.385694 l
368.171844 64.448381 l
368.463404 62.973099 l
368.754843 55.936445 l
369.046281 86.958769 l
369.192 50.405685 l
369.33772 64.399283 l
369.410579 60.795562 l
369.483439 57.42514 l
369.629158 61.530859 l
369.702018 53.639662 l
369.774878 61.777418 l
369.847737 59.900096 l
370.066316 57.184067 l
370.212157 58.632777 l
370.576455 57.783487 l
370.940874 57.553045 l
371.086715 57.572226 l
371.378274 58.194023 l
371.742694 59.21286 l
372.034254 60.211902 l
372.106992 60.224399 l
372.252833 58.268384 l
372.398552 65.772118 l
372.544392 58.068874 l
372.617252 59.845151 l
372.835831 60.835797 l
373.418829 60.35079 l
373.783249 60.598976 l
373.928968 60.677343 l
374.001828 60.609085 l
374.074687 61.104167 l
374.147547 60.687387 l
374.220407 60.833154 l
374.584705 61.029855 l
375.896299 61.279251 l
376.04214 61.229417 l
376.333578 59.460964 l
376.625138 65.213051 l
376.697998 64.0634 l
376.916577 59.797546 l
376.989436 59.884354 l
377.208015 61.0312 l
377.499454 60.379538 l
377.572435 60.422318 l
378.082573 60.990721 l
378.301152 60.561936 l
378.665451 59.468288 l
378.73831 59.683144 l
378.81117 59.889176 l
379.02987 58.58599 l
379.10273 58.555395 l
379.248449 58.303234 l
379.467028 59.182794 l
379.904307 60.956074 l
380.705884 59.779498 l
381.070061 59.389025 l
381.72604 58.223355 l
382.964775 57.461752 l
383.839212 56.512312 l
384.057791 56.441591 l
384.78663 56.57704 l
386.390027 56.96336 l
387.191725 56.52653 l
388.57618 55.772657 l
389.669317 55.506594 l
391.491293 55.038546 l
392.147272 54.711269 l
392.730149 54.963994 l
393.313269 54.586794 l
396.738399 55.422971 l
397.248416 56.121247 l
398.341432 57.862175 l
398.487273 58.793222 l
398.487273 58.793222 l
stroke
grestore
0.627 0.314 0.314 setrgbcolor
gsave
357.1 266.1 57.6 38.02 clipbox
73.832727 61.554826 m
73.978325 59.56831 l
74.196662 59.910763 l
74.487979 65.786146 l
74.633577 64.354606 l
74.924773 70.470068 l
75.216091 74.188173 l
75.434427 74.960991 l
75.507165 74.90547 l
75.652885 75.024832 l
75.944081 74.245164 l
76.235398 72.368798 l
76.380996 73.342132 l
76.526594 74.965683 l
76.599333 74.80785 l
76.744931 74.231515 l
77.108986 74.146652 l
77.473163 73.199516 l
77.982696 69.886336 l
78.055556 70.058664 l
78.274013 71.066735 l
78.565331 69.628291 l
78.710929 69.174468 l
78.783667 69.196383 l
78.856527 69.219594 l
78.929265 68.93216 l
79.147723 71.398814 l
79.220582 71.402706 l
79.366302 71.101256 l
79.43904 66.470495 l
79.511778 68.196618 l
79.730236 65.886638 l
79.802975 66.145036 l
80.021432 67.629685 l
80.094292 67.601631 l
80.385488 67.235748 l
80.531207 67.22604 l
80.822403 66.846624 l
80.968001 66.117143 l
81.186459 64.250945 l
81.259197 65.113511 l
81.914328 59.980654 l
82.132664 59.186202 l
82.351001 59.440142 l
82.642197 60.011296 l
83.22471 61.652512 l
83.297449 61.607376 l
84.535093 59.665658 l
85.481541 59.872045 l
86.063933 59.891727 l
87.01026 59.817291 l
87.447296 59.623235 l
88.029567 59.563485 l
88.248025 59.46417 l
88.466483 59.542055 l
88.976015 58.305367 l
89.048753 58.403419 l
89.340071 62.554461 l
89.776744 68.01551 l
89.849603 68.370013 l
89.922463 65.839787 l
89.995201 66.234065 l
90.213659 66.845472 l
90.359257 65.738799 l
90.432117 67.995656 l
90.504976 67.280301 l
91.451546 58.638801 l
91.815601 58.172782 l
92.543834 57.897489 l
92.907768 58.152866 l
93.271945 58.410125 l
93.56302 58.380733 l
93.70874 58.403288 l
94.145534 60.754148 l
94.291132 61.424788 l
94.509589 60.069379 l
94.946505 57.444152 l
95.601878 58.627761 l
95.965934 58.555108 l
96.111774 58.626939 l
97.20382 59.64194 l
97.422278 59.232503 l
98.368604 56.564973 l
99.388154 53.140129 l
99.533752 54.717213 l
99.679472 50.112 l
99.752331 51.015055 l
99.82507 54.544185 l
99.897929 53.759789 l
100.043527 52.34514 l
100.189125 52.150417 l
100.407462 51.941461 l
100.55306 51.045334 l
100.698658 51.999625 l
100.771518 55.227772 l
100.844377 53.929321 l
100.917237 55.190719 l
100.989975 55.047984 l
101.135573 55.955756 l
101.208312 55.761021 l
101.354031 55.45902 l
101.572367 55.67098 l
101.936544 54.66047 l
102.373339 55.039664 l
102.518815 54.974057 l
103.392525 53.69568 l
104.411832 52.761904 l
105.139823 52.756608 l
105.940915 52.786166 l
106.596167 52.93413 l
107.469634 53.511294 l
108.998595 54.835998 l
111.25591 56.968645 l
111.911162 56.9898 l
114.313833 56.755089 l
114.750506 56.728614 l
115.333262 57.410428 l
115.842794 58.25405 l
116.061373 57.874292 l
116.498289 57.110393 l
116.789485 56.992443 l
117.007942 57.095125 l
117.2264 57.524131 l
117.590577 58.811771 l
118.100352 64.179053 l
118.24595 66.589508 l
118.318689 61.559825 l
118.391548 62.693061 l
118.901323 64.588748 l
118.974183 71.722991 l
119.047042 70.18034 l
119.119781 71.080361 l
119.33836 67.464827 l
119.411098 67.570543 l
119.920873 70.060937 l
120.066471 70.096704 l
120.139331 69.338724 l
120.212069 69.632199 l
120.503387 68.39643 l
120.576125 68.748755 l
120.794704 66.793916 l
121.013162 64.755714 l
121.086021 63.957064 l
121.231619 65.123584 l
121.450198 61.782765 l
121.522937 63.913433 l
121.741394 60.508434 l
121.814254 60.299147 l
122.760823 53.774561 l
122.979281 53.183943 l
123.270477 53.012832 l
123.707392 53.184797 l
124.362765 54.190647 l
124.581223 55.268596 l
124.653961 55.144271 l
125.018017 54.796226 l
125.163615 54.915126 l
125.454811 59.264425 l
125.746007 64.270948 l
125.818867 63.922176 l
126.328399 57.410495 l
126.401259 57.469004 l
127.056511 60.320047 l
127.129249 60.286752 l
127.202109 60.287692 l
127.930342 66.732459 l
128.367378 72.650386 l
128.585836 75.798402 l
128.877153 72.982854 l
128.949892 73.006752 l
129.022751 67.705804 l
129.095611 71.024785 l
129.313947 67.330731 l
129.750863 64.238616 l
129.823601 65.109718 l
130.260395 62.796213 l
130.405993 62.492474 l
130.551713 62.726483 l
130.697189 63.140317 l
130.988507 65.62526 l
131.061366 65.581066 l
131.425422 63.99551 l
131.64388 63.016276 l
131.935197 62.735357 l
132.517711 61.818527 l
133.682737 60.087943 l
134.483587 58.861562 l
134.993483 58.648816 l
135.721595 58.348987 l
136.668407 56.581395 l
137.105322 55.965395 l
139.217039 53.775908 l
139.653833 53.915402 l
140.527906 54.47646 l
141.256018 55.530221 l
141.474476 55.838677 l
141.693054 55.360942 l
142.12997 54.335549 l
142.566885 54.244447 l
142.785464 54.424924 l
143.36822 55.404509 l
143.877874 56.219453 l
144.24193 56.02295 l
144.606106 55.568974 l
145.115881 54.951365 l
145.989833 54.951639 l
146.135553 54.896528 l
146.645328 53.976271 l
147.300822 52.875819 l
147.51928 52.972663 l
148.611811 53.894871 l
149.631361 53.471646 l
150.068276 53.80954 l
150.941985 54.537084 l
152.32547 55.04984 l
153.636458 55.73692 l
153.782057 55.644774 l
154.292316 54.876147 l
154.656493 57.195945 l
154.874951 58.508326 l
155.020549 57.951043 l
155.457586 55.613686 l
155.530445 55.686367 l
156.185818 57.381609 l
156.695715 57.837433 l
158.079442 59.073505 l
158.370759 59.904646 l
158.662076 58.526236 l
158.734936 58.897601 l
159.026132 60.445262 l
159.244711 60.146883 l
159.681505 60.572633 l
160.555457 61.805231 l
161.793101 63.983745 l
161.865961 62.352761 l
161.938699 62.741169 l
162.448474 66.117844 l
162.666932 63.677092 l
162.739791 65.015245 l
162.885511 62.714366 l
163.031109 63.09331 l
163.176828 64.787901 l
163.249566 64.627664 l
163.322426 64.986637 l
163.613743 74.388613 l
163.686482 71.093246 l
163.759341 77.552738 l
164.050537 62.957339 l
164.196136 62.5793 l
164.341855 64.782661 l
164.924489 81.080639 l
165.142947 69.317007 l
165.215807 69.834059 l
165.434264 67.411503 l
165.507003 67.498248 l
165.652601 71.738452 l
165.725461 70.071489 l
165.871059 79.915882 l
165.943918 88.591533 l
166.016778 88.038255 l
166.380955 74.771579 l
166.526795 71.841106 l
166.745374 76.403765 l
167.10943 84.137756 l
167.400747 75.937724 l
167.764803 68.089296 l
167.910401 67.121802 l
167.983261 69.615117 l
168.05612 69.108204 l
169.148409 61.951647 l
169.439726 61.055021 l
169.585445 61.265623 l
169.804024 62.070838 l
170.313799 65.280291 l
170.459397 67.464064 l
170.532257 65.692108 l
170.604995 66.586595 l
171.26049 71.990061 l
171.333349 71.912947 l
171.478947 71.969091 l
171.770265 73.402705 l
172.061582 83.495989 l
172.13432 82.747921 l
172.352899 77.791098 l
172.644095 80.616043 l
172.716955 80.678232 l
172.862674 80.223207 l
173.081132 78.071013 l
174.100682 64.973653 l
174.24628 64.743585 l
174.610578 65.07317 l
174.756176 65.63965 l
175.047494 67.061764 l
175.265951 67.226435 l
175.411671 66.41322 l
175.557269 67.305763 l
175.702988 64.614603 l
175.775848 64.836087 l
175.848586 65.881904 l
175.921446 65.60685 l
176.139782 64.689648 l
176.285501 67.376107 l
176.431221 62.963274 l
176.503959 63.668924 l
176.722538 66.059825 l
176.940996 66.264044 l
177.013855 66.641986 l
177.669107 78.604943 l
177.814705 71.719867 l
178.033405 67.768164 l
178.106144 70.054551 l
178.179003 69.273843 l
178.397461 67.151355 l
178.54318 64.078503 l
178.907236 63.49851 l
179.125694 63.325676 l
179.417011 63.445704 l
179.999524 63.986513 l
180.145244 63.818701 l
180.217982 65.856118 l
180.290842 65.783173 l
181.091934 64.788398 l
181.67469 63.79003 l
181.893148 63.113551 l
182.038867 61.309755 l
182.475782 60.325555 l
182.548642 61.439291 l
182.621501 61.425429 l
182.84008 61.356502 l
183.422594 58.327536 l
184.00535 66.976544 l
184.223807 67.307711 l
184.369527 67.06761 l
184.733704 66.295758 l
184.879302 66.309755 l
185.17074 65.51775 l
185.389198 67.474576 l
185.462058 67.417155 l
185.607656 66.194785 l
185.680394 66.340007 l
185.753254 66.838517 l
185.899094 73.192101 l
186.044692 66.293749 l
186.117431 73.029227 l
186.19029 68.558325 l
186.26315 70.094762 l
186.408748 71.013485 l
186.481608 70.65725 l
186.554346 76.178552 l
186.699944 66.670274 l
186.772925 60.84172 l
186.918523 73.834304 l
186.991383 72.166029 l
187.137102 69.375019 l
187.209961 69.321345 l
187.646998 65.773083 l
187.792717 66.001303 l
187.938437 61.841014 l
188.011296 62.636993 l
188.084156 63.739332 l
188.157016 63.270921 l
188.229875 62.690005 l
188.302614 62.744402 l
188.375473 62.833783 l
188.666791 62.352734 l
188.958108 66.734562 l
189.030846 66.125154 l
189.249425 63.439555 l
189.395144 64.274809 l
189.686462 65.511439 l
190.342077 66.653386 l
190.487675 66.669891 l
190.706133 66.502465 l
190.99745 62.80556 l
191.215787 69.989906 l
191.361506 68.404426 l
191.579964 63.82872 l
191.652823 64.07071 l
191.944141 66.1335 l
192.017 66.117892 l
192.308318 66.381402 l
192.817971 66.235644 l
193.619064 64.078306 l
193.910502 62.789633 l
194.20182 64.537581 l
194.274679 64.1975 l
194.493137 62.859084 l
194.565997 62.953957 l
194.930295 63.759432 l
195.148752 64.181696 l
195.585789 65.802965 l
195.877106 66.639526 l
196.241162 67.910179 l
196.314022 65.848274 l
196.386881 66.360493 l
196.459741 66.397147 l
196.532479 66.627296 l
196.678199 74.1536 l
196.750937 67.54698 l
196.896656 73.826492 l
197.115114 68.838656 l
197.187974 68.774457 l
197.406431 69.832519 l
197.770608 81.683409 l
197.916206 73.394808 l
197.989066 68.448773 l
198.061926 68.55351 l
198.280383 70.367618 l
198.426103 70.501958 l
198.499083 70.671625 l
198.571822 71.376426 l
198.790401 82.963116 l
198.86326 88.090337 l
198.93612 87.912321 l
199.00898 84.67183 l
199.154578 67.099811 l
199.227437 67.200513 l
199.445895 70.136158 l
199.664353 71.243609 l
199.737212 72.344905 l
199.88281 65.981148 l
200.028651 71.096369 l
200.101389 71.231551 l
200.174249 71.136428 l
200.319847 70.728235 l
200.538426 68.760938 l
200.684145 67.950751 l
200.829865 73.014382 l
200.902724 64.093326 l
200.975584 67.383005 l
201.048443 62.457882 l
201.121303 64.158191 l
201.194163 64.000914 l
201.41262 61.273652 l
201.485359 61.121407 l
201.776676 66.519573 l
201.849536 65.112426 l
201.995134 64.590772 l
202.067993 64.300814 l
202.140853 65.736942 l
202.213591 65.383983 l
202.286451 61.933791 l
202.359311 65.236848 l
202.504909 61.424039 l
202.577647 64.339302 l
202.796105 59.899602 l
202.868965 60.118741 l
202.941824 59.086242 l
203.014563 60.550875 l
203.087422 60.450868 l
203.233141 60.912129 l
204.325794 55.642421 l
204.471513 55.489407 l
204.835811 56.14949 l
205.418567 57.750444 l
205.564286 58.061631 l
205.782744 57.404413 l
206.583836 54.49777 l
206.729434 54.132775 l
206.802294 54.189136 l
207.166471 55.091922 l
208.040423 57.688834 l
208.186142 57.742912 l
208.331861 58.492927 l
208.4046 58.308201 l
208.477459 58.102602 l
209.060337 60.243743 l
209.206056 59.705305 l
209.278915 59.849878 l
209.351775 59.74005 l
209.78869 61.357034 l
210.007148 61.618345 l
210.298465 62.259355 l
210.371325 61.553012 l
210.444185 61.667534 l
210.808362 62.282639 l
210.881221 62.226898 l
211.17266 61.923032 l
211.464098 62.007433 l
211.536958 61.87644 l
211.609696 62.721568 l
211.682677 62.071153 l
211.755416 62.363887 l
212.046733 62.81808 l
212.847947 63.649498 l
213.139264 61.178138 l
213.430581 71.279031 l
213.503441 69.294683 l
213.72202 61.615926 l
213.794879 61.858144 l
214.013337 64.145785 l
214.086197 64.116906 l
214.814429 62.168375 l
214.887289 62.050709 l
214.960028 62.122779 l
215.469803 63.385572 l
216.125297 64.863941 l
216.562212 64.199912 l
216.926389 63.801026 l
217.072108 66.006517 l
217.217706 66.560007 l
217.509024 63.104719 l
217.800462 67.203787 l
217.946182 66.544372 l
218.164639 65.52248 l
218.528816 65.424588 l
219.111451 65.891605 l
219.621226 66.154 l
219.694207 64.401479 l
219.767066 64.442212 l
220.204103 64.65777 l
220.495542 65.132444 l
220.71412 64.989089 l
221.296755 66.284673 l
221.588194 67.003462 l
221.733913 66.960026 l
222.025109 67.801964 l
222.826201 69.105839 l
223.044659 69.248939 l
223.263238 68.758683 l
223.773134 67.160873 l
223.845873 69.109568 l
223.918732 68.959294 l
224.282909 67.979278 l
224.646965 66.34288 l
224.792684 64.300977 l
225.666757 62.128369 l
225.739496 62.241089 l
225.812355 65.269417 l
225.885215 60.669799 l
225.957953 65.412007 l
226.103673 61.778306 l
226.249392 62.113644 l
226.467971 63.401797 l
226.540831 63.571277 l
226.61369 63.516128 l
227.196325 62.653442 l
227.560502 62.992602 l
227.779081 63.15164 l
228.143258 63.010137 l
228.288977 63.118881 l
228.580294 65.131728 l
228.653033 64.341152 l
228.871612 66.984267 l
228.944471 66.928426 l
229.162929 66.152485 l
229.745685 70.203886 l
230.037002 71.261885 l
230.255581 69.776974 l
230.838337 64.558986 l
230.911075 65.787358 l
230.984056 65.245812 l
231.639793 61.109107 l
232.440885 57.162 l
232.659464 57.25717 l
232.950781 57.629401 l
233.460799 58.432142 l
233.897714 59.056809 l
234.407489 59.836967 l
234.699049 60.235899 l
234.917628 60.055261 l
235.93742 58.57079 l
236.01028 58.657758 l
236.08314 58.047102 l
236.155999 58.52019 l
236.228859 58.315201 l
236.593036 57.949782 l
239.361217 55.100177 l
239.652777 55.456365 l
240.453991 56.921084 l
241.328306 58.942283 l
241.546885 60.038274 l
241.692483 60.810992 l
241.983801 57.819343 l
242.05666 58.389504 l
242.275239 60.698584 l
242.566556 57.176739 l
242.639416 57.353789 l
242.857995 58.533724 l
243.440751 57.560475 l
244.023507 57.35791 l
244.606384 57.314075 l
245.043542 57.666154 l
245.334859 57.820569 l
245.626298 57.903152 l
245.990475 58.258715 l
246.281913 58.91956 l
246.573352 60.240194 l
247.010388 63.301656 l
247.083127 64.540556 l
247.155986 63.897434 l
247.301706 66.925111 l
247.374444 72.415662 l
247.447304 69.360878 l
247.520163 74.504964 l
247.665882 68.889436 l
247.811481 66.715149 l
247.88434 68.522766 l
247.9572 67.754975 l
248.102919 66.531834 l
248.321377 69.839006 l
248.758413 77.723571 l
248.831152 74.416572 l
248.97675 78.194566 l
249.122469 85.249864 l
249.195329 80.541051 l
249.268067 82.851828 l
249.413786 104.954892 l
249.486646 100.021703 l
249.559506 77.010352 l
249.632244 79.207157 l
249.705104 82.943443 l
249.850823 78.529089 l
249.996421 87.45023 l
250.069281 81.506272 l
250.28786 88.925966 l
250.433458 92.339585 l
250.870494 72.762554 l
251.088952 71.618114 l
251.307531 70.295624 l
251.38039 70.32881 l
251.598969 71.325513 l
252.108744 77.710182 l
252.181604 78.970947 l
252.254464 78.046524 l
252.327202 82.500593 l
252.400062 80.941384 l
252.472921 79.547895 l
252.545781 79.693756 l
252.618641 79.918865 l
252.76436 79.397244 l
253.055556 82.348307 l
253.274014 84.313764 l
253.346873 84.204346 l
253.419733 87.401385 l
253.638191 83.610859 l
253.711172 91.655394 l
253.784031 82.419776 l
253.85677 84.87139 l
253.929629 85.82721 l
254.220947 80.627678 l
254.366666 100.101872 l
254.512385 123.236627 l
254.585245 122.914594 l
254.658104 118.852142 l
254.803824 95.732867 l
254.876683 109.190165 l
254.949543 99.539644 l
255.095141 143.268182 l
255.168001 181.234993 l
255.240981 138.890492 l
255.31372 155.905423 l
255.750878 86.045468 l
256.042316 93.865989 l
256.115055 101.012625 l
256.187914 89.819923 l
256.260895 113.016603 l
256.333755 109.407139 l
256.406614 109.099983 l
256.479353 114.710531 l
256.552334 111.25711 l
256.770791 141.685691 l
256.843651 138.329904 l
256.916511 138.681486 l
256.98937 140.419346 l
257.06223 92.744847 l
257.134968 125.924986 l
257.207828 110.252407 l
257.280688 140.353323 l
257.353547 88.873351 l
257.499267 204.011152 l
257.572126 165.450102 l
257.717845 90.754824 l
257.936424 139.503947 l
258.227742 206.819483 l
258.300601 228.45537 l
258.446199 183.039163 l
258.591919 96.33335 l
258.664778 97.713232 l
258.956217 118.959566 l
259.393253 92.353503 l
259.465992 96.072428 l
259.538851 117.078526 l
259.75743 93.828882 l
259.83029 93.946311 l
259.90315 94.959817 l
260.194588 90.416803 l
260.267448 97.189214 l
260.340307 90.385028 l
260.413167 91.335738 l
260.486027 90.741651 l
260.631625 88.059155 l
260.704484 88.049152 l
260.850204 89.650817 l
260.923063 91.317979 l
260.995923 87.21618 l
261.068783 88.458171 l
261.141642 93.775786 l
261.214381 86.922468 l
261.28724 88.188481 l
261.3601 88.515057 l
261.505819 86.859984 l
261.65166 91.660884 l
261.724398 87.963724 l
261.797258 107.721771 l
261.870117 104.053072 l
261.942977 100.224136 l
262.088696 87.262001 l
262.307275 81.785612 l
262.744433 121.843108 l
262.890152 92.40657 l
262.962891 111.419755 l
263.03575 103.561488 l
263.254208 144.348971 l
263.400049 131.507585 l
263.618506 160.5539 l
263.764226 159.452023 l
263.836964 159.494181 l
263.982804 192.908058 l
264.055543 166.395602 l
264.128524 199.015039 l
264.201383 182.645796 l
264.419841 140.2979 l
264.63842 197.29196 l
264.711158 194.569938 l
264.784139 166.547413 l
264.856878 183.023444 l
265.148316 130.884827 l
265.221176 166.368065 l
265.294035 147.499645 l
265.366895 163.404894 l
265.439755 153.202849 l
265.585353 169.076695 l
265.658212 164.128598 l
265.803932 134.299737 l
266.16823 123.481258 l
266.386809 133.295086 l
266.532528 147.431779 l
266.678126 145.05284 l
266.823845 135.949506 l
267.260882 99.820571 l
267.552199 87.519041 l
267.770778 83.945409 l
267.916498 83.088198 l
268.280674 77.886325 l
268.499253 77.024049 l
268.717711 79.085347 l
269.664765 92.036631 l
269.737746 91.974281 l
269.956325 90.258906 l
270.757538 77.209239 l
270.975996 76.022308 l
271.121715 76.006525 l
271.267435 76.119958 l
271.631612 77.454032 l
271.777331 78.752258 l
271.995789 81.335978 l
272.141508 80.583045 l
272.578545 78.064273 l
272.797123 81.042828 l
273.30702 89.440001 l
273.744299 91.583203 l
274.035737 99.556821 l
274.472895 110.766279 l
274.691353 112.372724 l
274.909932 114.786327 l
275.27423 111.11964 l
275.419949 111.569863 l
275.492809 112.631361 l
275.638407 122.035426 l
275.929967 156.63513 l
276.148546 195.214765 l
276.367003 149.80615 l
277.241076 128.77224 l
278.042654 118.44536 l
278.552429 106.288762 l
278.62541 106.077857 l
278.698269 106.142971 l
278.989708 103.462603 l
279.135427 105.121081 l
279.208165 104.065889 l
279.281025 104.105428 l
279.353885 105.883018 l
279.426744 114.111187 l
279.499604 107.213977 l
279.572342 108.540513 l
279.645202 108.100176 l
279.718062 109.238427 l
279.863781 119.80612 l
280.009621 84.864347 l
280.155462 97.838441 l
280.30106 75.8269 l
280.37392 96.531367 l
280.446779 92.803449 l
280.519639 94.091952 l
280.592499 85.755522 l
280.665237 87.566654 l
280.738097 108.281022 l
280.883816 89.714745 l
281.029535 99.360786 l
281.102395 95.140334 l
281.175254 117.237998 l
281.247993 116.186881 l
281.393712 114.430297 l
281.539553 120.294643 l
281.75801 92.935704 l
281.83087 106.620329 l
281.90373 166.125971 l
282.12243 92.840375 l
282.195289 89.794738 l
282.486607 69.345555 l
282.850784 93.724894 l
283.214961 75.392907 l
283.36068 71.800087 l
283.724857 90.323606 l
283.797838 88.573984 l
283.870697 84.339019 l
283.943557 84.376185 l
284.234996 79.216838 l
284.380836 84.964577 l
284.526555 94.327538 l
285.036573 77.686332 l
285.838029 66.843291 l
285.983627 65.76671 l
286.275308 70.784084 l
286.566625 77.796919 l
287.149502 63.489494 l
287.222362 63.267267 l
287.2951 63.317626 l
287.440941 63.711333 l
287.732379 64.97869 l
287.80536 64.870075 l
288.16978 63.991105 l
288.315499 63.81635 l
288.533957 64.170808 l
289.335291 66.304186 l
289.481011 66.848768 l
289.699711 66.242767 l
289.77257 66.062037 l
290.064009 67.586419 l
290.136869 67.343645 l
290.574026 65.366776 l
290.646765 65.22486 l
290.865344 66.530484 l
291.229763 69.600127 l
291.302623 69.579829 l
291.6668 68.463695 l
291.739659 68.519193 l
291.812519 68.734562 l
291.958238 68.254941 l
292.103958 74.306907 l
292.176817 73.43181 l
292.395517 70.743646 l
292.978273 76.955633 l
293.051133 76.881244 l
293.196731 75.905579 l
293.415431 74.594274 l
293.561029 73.852975 l
293.852468 70.481232 l
293.925327 70.492229 l
293.998187 70.766263 l
294.071047 70.641687 l
294.143906 70.668595 l
294.289626 73.726137 l
294.362364 72.984833 l
294.580943 71.233026 l
294.726541 69.764847 l
294.799522 69.917255 l
295.163941 71.205292 l
295.309539 71.361748 l
296.256957 66.94643 l
296.548274 67.682567 l
296.621255 68.203289 l
296.766974 72.332585 l
296.839713 71.824557 l
296.912573 71.191088 l
297.058292 68.784578 l
297.204011 94.661619 l
297.276871 292.032 l
297.349852 100.039809 l
297.422711 214.903342 l
297.495571 94.337803 l
297.56843 96.741552 l
297.64129 111.269608 l
297.787009 93.769099 l
298.078569 105.868478 l
298.22441 122.294992 l
298.807287 85.870228 l
299.025866 84.914545 l
299.098604 84.979375 l
299.244323 85.571254 l
299.390043 87.818801 l
299.535762 79.83168 l
299.608622 81.05529 l
299.68136 82.697206 l
299.972799 76.218626 l
300.409956 83.860372 l
300.482816 82.389141 l
300.628535 80.206275 l
300.701395 80.175491 l
300.847114 79.373122 l
301.065693 81.782656 l
301.211412 86.047164 l
301.357132 94.660904 l
301.575711 123.239015 l
301.648449 106.995892 l
301.721309 224.848342 l
301.867028 78.070002 l
301.940009 84.141316 l
302.085728 71.833608 l
302.304186 68.007378 l
302.522765 91.011662 l
302.595624 97.633318 l
302.668484 192.182545 l
302.741344 183.236932 l
302.887063 66.858765 l
302.959922 73.666465 l
303.032782 72.849658 l
303.105642 67.183852 l
303.178501 67.259392 l
303.251361 68.211954 l
303.324221 66.730143 l
303.615538 72.060099 l
303.906977 86.736572 l
304.198415 77.971251 l
304.271275 83.182181 l
304.562835 73.390908 l
304.708433 75.420617 l
304.854152 78.225729 l
304.927011 78.721061 l
305.51001 93.19665 l
305.582869 90.900669 l
305.801448 77.988288 l
305.947168 88.67602 l
306.238606 69.159265 l
306.311466 70.056209 l
306.748502 89.747947 l
306.96696 107.399703 l
307.25852 74.050761 l
307.33138 75.211481 l
307.549958 61.277927 l
307.768537 69.767716 l
307.914135 73.048322 l
308.278555 66.113212 l
308.424274 62.23181 l
308.569993 67.692638 l
308.861432 78.185632 l
309.080011 82.92954 l
309.590028 103.49617 l
309.881588 120.843252 l
309.954448 120.251578 l
310.391484 91.92191 l
310.464344 87.713494 l
310.537325 89.319936 l
310.755904 99.318021 l
311.047342 57.051226 l
311.120202 58.573832 l
311.4845 82.643121 l
311.55736 92.013449 l
311.630219 87.16685 l
311.703079 90.951813 l
311.921658 66.109505 l
312.140358 77.727516 l
312.286199 70.528396 l
312.359179 74.663612 l
312.577758 67.991132 l
312.650618 68.306728 l
312.869318 64.485813 l
313.160757 57.887328 l
313.306476 57.013772 l
313.379336 57.67748 l
313.452195 57.585978 l
313.597915 57.652988 l
313.743634 58.139651 l
313.962213 59.209548 l
314.180792 58.366056 l
314.54509 56.953273 l
314.763669 56.86416 l
316.0749 57.285724 l
316.36646 57.375438 l
317.82341 56.356075 l
318.624866 56.291945 l
319.134641 56.573276 l
320.009078 57.345478 l
320.519095 58.038721 l
320.956253 59.178515 l
321.029113 59.067653 l
321.53913 57.879034 l
321.830447 59.763329 l
321.976167 60.831543 l
322.049026 59.869859 l
322.267484 60.696835 l
322.922978 61.608877 l
323.141678 61.862218 l
323.287398 61.989503 l
323.870154 63.90145 l
324.380292 59.467678 l
324.526012 60.753229 l
324.744591 61.045967 l
325.327346 62.552118 l
325.473066 62.509265 l
325.618785 61.562544 l
325.764625 66.238804 l
325.837485 65.187777 l
325.910345 63.88034 l
325.983204 63.989548 l
326.056064 64.377487 l
326.201662 69.227601 l
326.347381 60.767388 l
326.638699 68.701801 l
326.784539 65.141968 l
326.857399 65.495894 l
326.930137 66.104116 l
327.003118 65.861201 l
328.095891 61.256544 l
328.897469 61.087132 l
329.115926 61.027378 l
329.188786 62.498917 l
329.261646 62.358055 l
330.281559 60.552356 l
330.500138 60.568844 l
331.520294 61.150247 l
332.61331 61.968569 l
332.904749 61.413799 l
333.997765 59.309663 l
335.892115 59.049955 l
336.183675 59.093557 l
336.693814 58.84273 l
336.985131 59.242262 l
337.42241 60.070643 l
337.713849 60.384456 l
337.859568 60.908206 l
338.151006 64.808072 l
338.588164 71.421038 l
338.661024 67.94243 l
338.734005 68.052221 l
338.806864 66.980788 l
338.879724 68.777405 l
339.098303 65.31179 l
339.244022 65.130251 l
339.389741 62.489665 l
339.60832 61.862512 l
339.75404 62.461167 l
340.045357 63.887527 l
340.191076 68.473558 l
340.263936 66.253681 l
340.482515 74.180225 l
340.555374 73.46335 l
340.773953 69.667266 l
340.846813 69.622184 l
340.919673 70.135575 l
340.992411 69.166397 l
341.13813 73.40479 l
341.429569 87.289223 l
341.502428 86.355346 l
341.721007 79.335853 l
342.012446 72.084487 l
342.158165 72.497082 l
342.231025 72.867154 l
342.303884 72.810993 l
342.376744 72.730411 l
342.522463 73.048035 l
342.813781 75.312242 l
343.396658 81.015603 l
343.688218 82.941029 l
344.271095 90.705516 l
344.344076 90.600697 l
344.781355 87.605632 l
344.927195 85.743467 l
345.364232 79.174007 l
345.437213 78.572086 l
345.582811 80.90893 l
345.72853 90.651409 l
345.80139 98.111426 l
345.87437 87.053277 l
345.947109 91.286799 l
346.019968 83.251622 l
346.092949 83.344179 l
346.165809 84.567212 l
346.311407 80.010414 l
346.457126 97.67357 l
346.529986 95.510982 l
346.602846 91.201924 l
346.675826 92.22183 l
346.748686 93.171072 l
347.112984 88.007298 l
347.331563 86.857338 l
347.477404 87.890202 l
347.623002 83.5509 l
347.768721 87.9014 l
347.841581 87.435573 l
347.914562 86.037417 l
347.987421 86.080842 l
348.13314 86.686569 l
348.206 87.543473 l
348.27886 87.322782 l
348.351719 87.906123 l
348.643158 105.208969 l
348.861737 97.975085 l
348.934596 96.668299 l
349.226035 106.007809 l
349.298895 104.248377 l
349.444614 95.142883 l
349.590333 88.66864 l
349.736052 87.255584 l
349.881772 82.95738 l
350.100351 73.92503 l
350.31893 80.758316 l
350.391789 87.568964 l
350.464649 84.993893 l
350.755966 74.272468 l
350.828826 74.479136 l
350.901807 74.386981 l
350.974545 74.416369 l
351.266105 73.587182 l
351.848982 65.013963 l
352.06744 70.085534 l
352.358999 82.559979 l
352.504719 86.501396 l
352.723298 85.617198 l
353.014736 83.083547 l
353.233315 86.621243 l
353.597613 92.037722 l
353.816313 92.998212 l
353.889173 93.065413 l
354.107752 93.95501 l
354.690872 78.964423 l
354.763731 77.751529 l
354.836712 78.322624 l
354.982431 80.765583 l
355.055291 86.116107 l
355.128151 83.207101 l
355.20101 84.109612 l
355.41971 86.234158 l
355.49257 86.22597 l
355.638289 85.760269 l
355.711149 85.854465 l
355.784009 85.890873 l
355.856868 84.673024 l
355.929728 89.367275 l
356.221166 76.261017 l
356.294026 77.862291 l
356.439745 85.722503 l
356.512605 85.552141 l
356.876903 74.979474 l
356.949763 73.242861 l
357.022744 73.248398 l
357.095603 73.60871 l
357.314303 72.380929 l
357.387163 72.402192 l
357.678602 74.691997 l
357.97004 76.913981 l
358.115759 87.973024 l
358.188619 77.432955 l
358.2616 77.673265 l
358.33446 78.494587 l
358.407319 89.664709 l
358.480179 84.365832 l
358.698879 76.242104 l
358.771739 74.302255 l
358.917579 86.656242 l
358.990318 80.55745 l
359.136158 93.777959 l
359.354616 79.33012 l
359.427475 74.859737 l
359.500456 75.508453 l
359.646054 73.799885 l
359.719035 73.328608 l
360.010353 68.644358 l
360.083212 68.648457 l
360.301912 69.826275 l
360.374651 71.474631 l
360.447632 69.451974 l
360.520491 70.157911 l
360.593351 70.662292 l
360.73907 65.653373 l
360.81193 66.320582 l
360.884789 67.27627 l
360.957649 66.914066 l
361.030509 66.961554 l
361.103368 66.45842 l
361.322068 67.551346 l
361.613386 62.585408 l
361.686245 63.376297 l
361.759105 65.683496 l
361.831965 62.97998 l
361.904824 63.185488 l
362.050544 63.498993 l
362.269123 64.54968 l
362.342103 64.645075 l
362.487823 67.173245 l
362.560804 67.098073 l
362.633663 66.917581 l
362.925102 69.897331 l
363.070821 69.136214 l
363.36226 67.770342 l
364.09122 66.025865 l
364.455518 68.667911 l
364.674097 70.172711 l
364.892676 68.740145 l
365.329833 65.88873 l
365.767113 67.066346 l
365.839972 67.270044 l
365.912832 67.236376 l
366.204392 66.943359 l
366.423092 67.02062 l
366.714652 69.14633 l
367.370388 73.805539 l
367.661948 74.967298 l
367.734808 75.02776 l
367.880406 74.839308 l
368.171844 76.530169 l
368.754843 66.442378 l
368.900441 76.537906 l
369.046281 105.114797 l
369.192 54.521455 l
369.33772 72.541005 l
369.483439 62.569722 l
369.629158 68.473003 l
369.702018 57.939164 l
369.774878 68.223371 l
369.847737 66.22932 l
370.066316 60.609125 l
370.139176 66.323037 l
370.212157 63.850404 l
370.503595 62.230468 l
370.795034 61.857198 l
371.013734 61.811536 l
371.086715 61.890325 l
371.378274 63.211806 l
371.815554 65.915215 l
372.106992 67.696786 l
372.252833 65.605662 l
372.398552 75.453566 l
372.544392 65.249866 l
372.617252 68.013362 l
372.690112 67.520959 l
372.835831 68.816936 l
372.908691 68.743333 l
372.98155 68.582006 l
373.05441 68.644764 l
373.491689 69.234431 l
373.928968 70.246464 l
374.001828 70.029833 l
374.074687 71.620227 l
374.147547 70.234981 l
374.220407 70.683589 l
374.511845 71.255096 l
374.657686 71.366231 l
375.094843 71.124326 l
375.459142 70.950115 l
375.75058 70.922173 l
376.04214 70.123193 l
376.333578 68.227437 l
376.479298 70.436455 l
376.625138 74.880237 l
376.916577 67.581436 l
376.989436 67.712191 l
377.208015 69.229089 l
377.645294 68.657394 l
377.863873 68.696525 l
378.082573 68.777486 l
378.665451 66.930686 l
378.73831 67.234886 l
378.81117 67.509273 l
379.02987 65.804421 l
379.10273 65.802162 l
379.248449 65.500538 l
379.467028 66.293116 l
379.904307 68.043958 l
380.195745 67.991433 l
380.414324 67.842817 l
380.778744 67.037585 l
381.288761 65.329869 l
381.72604 64.017338 l
382.527496 63.216563 l
382.819056 62.866495 l
383.839212 60.693265 l
383.985053 60.667448 l
384.422211 61.416963 l
385.151049 62.739189 l
385.661188 62.970275 l
386.244308 63.320064 l
386.390027 62.728798 l
386.462887 62.840114 l
386.535746 62.982975 l
387.410304 61.322666 l
388.066162 60.028893 l
388.139022 61.402143 l
388.211882 61.250596 l
388.94072 59.973431 l
390.762575 57.626432 l
391.709993 56.771773 l
392.147272 56.584051 l
392.58443 56.827632 l
393.240409 57.204635 l
394.114967 57.238523 l
394.697965 57.379881 l
395.426804 57.801869 l
395.863962 57.984485 l
396.738399 58.390374 l
397.102697 59.517247 l
398.049994 62.363686 l
398.195834 62.287333 l
398.341432 63.813592 l
398.487273 62.128889 l
398.487273 62.128889 l
stroke
grestore
0.800 setlinewidth
0 setlinejoin
[] 0 setdash
0.000 setgray
gsave
57.6 38.016 m
57.6 304.128 l
stroke
grestore
gsave
414.72 38.016 m
414.72 304.128 l
stroke
grestore
gsave
57.6 38.016 m
414.72 38.016 l
stroke
grestore
gsave
57.6 304.128 m
414.72 304.128 l
stroke
grestore
1.000 setlinewidth
0 setlinecap
0.800 setgray
gsave
349.860625 266.78425 m
407.72 266.78425 l
409.053333 266.78425 409.72 267.450917 409.72 268.78425 c
409.72 297.128 l
409.72 298.461333 409.053333 299.128 407.72 299.128 c
349.860625 299.128 l
348.527292 299.128 347.860625 298.461333 347.860625 297.128 c
347.860625 268.78425 l
347.860625 267.450917 348.527292 266.78425 349.860625 266.78425 c
cl
gsave
1.000 setgray
fill
grestore
stroke
grestore
1.500 setlinewidth
1 setlinejoin
2 setlinecap
[] 0 setdash
0.000 0.750 0.750 setrgbcolor
gsave
351.860625 291.03425 m
371.860625 291.03425 l
stroke
grestore
0.000 setgray
gsave
379.860625 287.534250 translate
0.000000 rotate
0.000000 0.000000 m /three glyphshow
6.362305 0.000000 m /m glyphshow
16.103516 0.000000 m /m glyphshow
grestore
0.627 0.314 0.314 setrgbcolor
gsave
351.860625 276.362375 m
371.860625 276.362375 l
stroke
grestore
0.000 setgray
gsave
379.860625 272.862375 translate
0.000000 rotate
0.000000 0.000000 m /two glyphshow
6.362305 0.000000 m /m glyphshow
16.103516 0.000000 m /m glyphshow
grestore

end
showpage
