%!PS-Adobe-3.0 EPSF-3.0
%%Title: spb/05_RAW_tau.eps
%%Creator: matplotlib version 3.0.3, http://matplotlib.org/
%%CreationDate: Fri Jun  7 15:08:08 2019
%%Orientation: portrait
%%BoundingBox: 75 223 536 568
%%EndComments
%%BeginProlog
/mpldict 9 dict def
mpldict begin
/m { moveto } bind def
/l { lineto } bind def
/r { rlineto } bind def
/c { curveto } bind def
/cl { closepath } bind def
/box {
m
1 index 0 r
0 exch r
neg 0 r
cl
} bind def
/clipbox {
box
clip
newpath
} bind def
%!PS-Adobe-3.0 Resource-Font
%%Title: DejaVu Sans
%%Copyright: Copyright (c) 2003 by Bitstream, Inc. All Rights Reserved. Copyright (c) 2006 by Tavmjong Bah. All Rights Reserved. DejaVu changes are in public domain 
%%Creator: Converted from TrueType to type 3 by PPR
25 dict begin
/_d{bind def}bind def
/_m{moveto}_d
/_l{lineto}_d
/_cl{closepath eofill}_d
/_c{curveto}_d
/_sc{7 -1 roll{setcachedevice}{pop pop pop pop pop pop}ifelse}_d
/_e{exec}_d
/FontName /DejaVuSans def
/PaintType 0 def
/FontMatrix[.001 0 0 .001 0 0]def
/FontBBox[-1021 -463 1793 1232]def
/FontType 3 def
/Encoding [ /space /comma /period /zero /one /two /three /five /a /d /e /i /m /s /t /y ] def
/FontInfo 10 dict dup begin
/FamilyName (DejaVu Sans) def
/FullName (DejaVu Sans) def
/Notice (Copyright (c) 2003 by Bitstream, Inc. All Rights Reserved. Copyright (c) 2006 by Tavmjong Bah. All Rights Reserved. DejaVu changes are in public domain ) def
/Weight (Book) def
/Version (Version 2.35) def
/ItalicAngle 0.0 def
/isFixedPitch false def
/UnderlinePosition -130 def
/UnderlineThickness 90 def
end readonly def
/CharStrings 17 dict dup begin
/.notdef 0 def
/space{318 0 0 0 0 0 _sc
}_d
/comma{318 0 77 -115 220 124 _sc
117 124 _m
220 124 _l
220 40 _l
140 -115 _l
77 -115 _l
117 40 _l
117 124 _l
_cl}_d
/period{318 0 107 0 210 124 _sc
107 124 _m
210 124 _l
210 0 _l
107 0 _l
107 124 _l
_cl}_d
/zero{636 0 66 -13 570 742 _sc
318 664 _m
267 664 229 639 203 589 _c
177 539 165 464 165 364 _c
165 264 177 189 203 139 _c
229 89 267 64 318 64 _c
369 64 407 89 433 139 _c
458 189 471 264 471 364 _c
471 464 458 539 433 589 _c
407 639 369 664 318 664 _c
318 742 _m
399 742 461 709 505 645 _c
548 580 570 486 570 364 _c
570 241 548 147 505 83 _c
461 19 399 -13 318 -13 _c
236 -13 173 19 130 83 _c
87 147 66 241 66 364 _c
66 486 87 580 130 645 _c
173 709 236 742 318 742 _c
_cl}_d
/one{636 0 110 0 544 729 _sc
124 83 _m
285 83 _l
285 639 _l
110 604 _l
110 694 _l
284 729 _l
383 729 _l
383 83 _l
544 83 _l
544 0 _l
124 0 _l
124 83 _l
_cl}_d
/two{{636 0 73 0 536 742 _sc
192 83 _m
536 83 _l
536 0 _l
73 0 _l
73 83 _l
110 121 161 173 226 239 _c
290 304 331 346 348 365 _c
380 400 402 430 414 455 _c
426 479 433 504 433 528 _c
433 566 419 598 392 622 _c
365 646 330 659 286 659 _c
255 659 222 653 188 643 _c
154 632 117 616 78 594 _c
78 694 _l
118 710 155 722 189 730 _c
223 738 255 742 284 742 _c
}_e{359 742 419 723 464 685 _c
509 647 532 597 532 534 _c
532 504 526 475 515 449 _c
504 422 484 390 454 354 _c
446 344 420 317 376 272 _c
332 227 271 164 192 83 _c
_cl}_e}_d
/three{{636 0 76 -13 556 742 _sc
406 393 _m
453 383 490 362 516 330 _c
542 298 556 258 556 212 _c
556 140 531 84 482 45 _c
432 6 362 -13 271 -13 _c
240 -13 208 -10 176 -4 _c
144 1 110 10 76 22 _c
76 117 _l
103 101 133 89 166 81 _c
198 73 232 69 268 69 _c
330 69 377 81 409 105 _c
441 129 458 165 458 212 _c
458 254 443 288 413 312 _c
383 336 341 349 287 349 _c
}_e{202 349 _l
202 430 _l
291 430 _l
339 430 376 439 402 459 _c
428 478 441 506 441 543 _c
441 580 427 609 401 629 _c
374 649 336 659 287 659 _c
260 659 231 656 200 650 _c
169 644 135 635 98 623 _c
98 711 _l
135 721 170 729 203 734 _c
235 739 266 742 296 742 _c
370 742 429 725 473 691 _c
517 657 539 611 539 553 _c
539 513 527 479 504 451 _c
481 423 448 403 406 393 _c
_cl}_e}_d
/five{{636 0 77 -13 549 729 _sc
108 729 _m
495 729 _l
495 646 _l
198 646 _l
198 467 _l
212 472 227 476 241 478 _c
255 480 270 482 284 482 _c
365 482 429 459 477 415 _c
525 370 549 310 549 234 _c
549 155 524 94 475 51 _c
426 8 357 -13 269 -13 _c
238 -13 207 -10 175 -6 _c
143 -1 111 6 77 17 _c
77 116 _l
106 100 136 88 168 80 _c
199 72 232 69 267 69 _c
}_e{323 69 368 83 401 113 _c
433 143 450 183 450 234 _c
450 284 433 324 401 354 _c
368 384 323 399 267 399 _c
241 399 214 396 188 390 _c
162 384 135 375 108 363 _c
108 729 _l
_cl}_e}_d
/a{{613 0 60 -13 522 560 _sc
343 275 _m
270 275 220 266 192 250 _c
164 233 150 205 150 165 _c
150 133 160 107 181 89 _c
202 70 231 61 267 61 _c
317 61 357 78 387 114 _c
417 149 432 196 432 255 _c
432 275 _l
343 275 _l
522 312 _m
522 0 _l
432 0 _l
432 83 _l
411 49 385 25 355 10 _c
325 -5 287 -13 243 -13 _c
187 -13 142 2 109 33 _c
76 64 60 106 60 159 _c
}_e{60 220 80 266 122 298 _c
163 329 224 345 306 345 _c
432 345 _l
432 354 _l
432 395 418 427 391 450 _c
364 472 326 484 277 484 _c
245 484 215 480 185 472 _c
155 464 127 453 100 439 _c
100 522 _l
132 534 164 544 195 550 _c
226 556 256 560 286 560 _c
365 560 424 539 463 498 _c
502 457 522 395 522 312 _c
_cl}_e}_d
/d{{635 0 55 -13 544 760 _sc
454 464 _m
454 760 _l
544 760 _l
544 0 _l
454 0 _l
454 82 _l
435 49 411 25 382 10 _c
353 -5 319 -13 279 -13 _c
213 -13 159 13 117 65 _c
75 117 55 187 55 273 _c
55 359 75 428 117 481 _c
159 533 213 560 279 560 _c
319 560 353 552 382 536 _c
411 520 435 496 454 464 _c
148 273 _m
148 207 161 155 188 117 _c
215 79 253 61 301 61 _c
}_e{348 61 385 79 413 117 _c
440 155 454 207 454 273 _c
454 339 440 390 413 428 _c
385 466 348 485 301 485 _c
253 485 215 466 188 428 _c
161 390 148 339 148 273 _c
_cl}_e}_d
/e{{615 0 55 -13 562 560 _sc
562 296 _m
562 252 _l
149 252 _l
153 190 171 142 205 110 _c
238 78 284 62 344 62 _c
378 62 412 66 444 74 _c
476 82 509 95 541 113 _c
541 28 _l
509 14 476 3 442 -3 _c
408 -9 373 -13 339 -13 _c
251 -13 182 12 131 62 _c
80 112 55 181 55 268 _c
55 357 79 428 127 481 _c
175 533 241 560 323 560 _c
397 560 455 536 498 489 _c
}_e{540 441 562 377 562 296 _c
472 322 _m
471 371 457 410 431 440 _c
404 469 368 484 324 484 _c
274 484 234 469 204 441 _c
174 413 156 373 152 322 _c
472 322 _l
_cl}_e}_d
/i{278 0 94 0 184 760 _sc
94 547 _m
184 547 _l
184 0 _l
94 0 _l
94 547 _l
94 760 _m
184 760 _l
184 646 _l
94 646 _l
94 760 _l
_cl}_d
/m{{974 0 91 0 889 560 _sc
520 442 _m
542 482 569 511 600 531 _c
631 550 668 560 711 560 _c
767 560 811 540 842 500 _c
873 460 889 403 889 330 _c
889 0 _l
799 0 _l
799 327 _l
799 379 789 418 771 444 _c
752 469 724 482 686 482 _c
639 482 602 466 575 435 _c
548 404 535 362 535 309 _c
535 0 _l
445 0 _l
445 327 _l
445 379 435 418 417 444 _c
398 469 369 482 331 482 _c
}_e{285 482 248 466 221 435 _c
194 404 181 362 181 309 _c
181 0 _l
91 0 _l
91 547 _l
181 547 _l
181 462 _l
201 495 226 520 255 536 _c
283 552 317 560 357 560 _c
397 560 430 550 458 530 _c
486 510 506 480 520 442 _c
_cl}_e}_d
/s{{521 0 54 -13 472 560 _sc
443 531 _m
443 446 _l
417 458 391 468 364 475 _c
336 481 308 485 279 485 _c
234 485 200 478 178 464 _c
156 450 145 430 145 403 _c
145 382 153 366 169 354 _c
185 342 217 330 265 320 _c
296 313 _l
360 299 405 279 432 255 _c
458 230 472 195 472 151 _c
472 100 452 60 412 31 _c
372 1 316 -13 246 -13 _c
216 -13 186 -10 154 -5 _c
}_e{122 0 89 8 54 20 _c
54 113 _l
87 95 120 82 152 74 _c
184 65 216 61 248 61 _c
290 61 323 68 346 82 _c
368 96 380 117 380 144 _c
380 168 371 187 355 200 _c
339 213 303 226 247 238 _c
216 245 _l
160 257 119 275 95 299 _c
70 323 58 356 58 399 _c
58 450 76 490 112 518 _c
148 546 200 560 268 560 _c
301 560 332 557 362 552 _c
391 547 418 540 443 531 _c
}_e{_cl}_e}_d
/t{392 0 27 0 368 702 _sc
183 702 _m
183 547 _l
368 547 _l
368 477 _l
183 477 _l
183 180 _l
183 135 189 106 201 94 _c
213 81 238 75 276 75 _c
368 75 _l
368 0 _l
276 0 _l
206 0 158 13 132 39 _c
106 65 93 112 93 180 _c
93 477 _l
27 477 _l
27 547 _l
93 547 _l
93 702 _l
183 702 _l
_cl}_d
/y{592 0 30 -207 562 547 _sc
322 -50 _m
296 -114 271 -157 247 -177 _c
223 -197 191 -207 151 -207 _c
79 -207 _l
79 -132 _l
132 -132 _l
156 -132 175 -126 189 -114 _c
203 -102 218 -75 235 -31 _c
251 9 _l
30 547 _l
125 547 _l
296 119 _l
467 547 _l
562 547 _l
322 -50 _l
_cl}_d
end readonly def

/BuildGlyph
 {exch begin
 CharStrings exch
 2 copy known not{pop /.notdef}if
 true 3 1 roll get exec
 end}_d

/BuildChar {
 1 index /Encoding get exch get
 1 index /BuildGlyph get exec
}_d

FontName currentdict end definefont pop
%!PS-Adobe-3.0 Resource-Font
%%Title: DejaVu Sans Oblique
%%Copyright: Copyright (c) 2003 by Bitstream, Inc. All Rights Reserved. Copyright (c) 2006 by Tavmjong Bah. All Rights Reserved. DejaVu changes are in public domain 
%%Creator: Converted from TrueType to type 3 by PPR
25 dict begin
/_d{bind def}bind def
/_m{moveto}_d
/_l{lineto}_d
/_cl{closepath eofill}_d
/_c{curveto}_d
/_sc{7 -1 roll{setcachedevice}{pop pop pop pop pop pop}ifelse}_d
/_e{exec}_d
/FontName /DejaVuSans-Oblique def
/PaintType 0 def
/FontMatrix[.001 0 0 .001 0 0]def
/FontBBox[-1016 -350 1659 1068]def
/FontType 3 def
/Encoding [ /tau ] def
/FontInfo 10 dict dup begin
/FamilyName (DejaVu Sans) def
/FullName (DejaVu Sans Oblique) def
/Notice (Copyright (c) 2003 by Bitstream, Inc. All Rights Reserved. Copyright (c) 2006 by Tavmjong Bah. All Rights Reserved. DejaVu changes are in public domain ) def
/Weight (Oblique) def
/Version (Version 2.35) def
/ItalicAngle -11.0 def
/isFixedPitch false def
/UnderlinePosition -130 def
/UnderlineThickness 90 def
end readonly def
/CharStrings 2 dict dup begin
/.notdef 0 def
/tau{602 0 84 0 606 547 _sc
329 100 _m
337 84 359 76 395 76 _c
438 76 _l
423 0 _l
369 0 _l
310 0 270 15 250 47 _c
229 79 226 129 240 198 _c
290 457 _l
84 457 _l
102 547 _l
606 547 _l
589 457 _l
382 457 _l
330 193 _l
320 145 320 114 329 100 _c
_cl}_d
end readonly def

/BuildGlyph
 {exch begin
 CharStrings exch
 2 copy known not{pop /.notdef}if
 true 3 1 roll get exec
 end}_d

/BuildChar {
 1 index /Encoding get exch get
 1 index /BuildGlyph get exec
}_d

FontName currentdict end definefont pop
end
%%EndProlog
mpldict begin
75.6 223.2 translate
460.8 345.6 0 0 clipbox
gsave
0 0 m
460.8 0 l
460.8 345.6 l
0 345.6 l
cl
1.000 setgray
fill
grestore
gsave
57.6 38.016 m
414.72 38.016 l
414.72 304.128 l
57.6 304.128 l
cl
1.000 setgray
fill
grestore
0.800 setlinewidth
1 setlinejoin
0 setlinecap
[] 0 setdash
0.000 setgray
gsave
/o {
gsave
newpath
translate
0.8 setlinewidth
1 setlinejoin
0 setlinecap
0 0 m
0 -3.5 l

gsave
0.000 setgray
fill
grestore
stroke
grestore
} bind def
63.3019 38.016 o
grestore
/DejaVuSans findfont
10.000 scalefont
setfont
gsave
60.122214 23.422250 translate
0.000000 rotate
0.000000 0.000000 m /zero glyphshow
grestore
gsave
/o {
gsave
newpath
translate
0.8 setlinewidth
1 setlinejoin
0 setlinecap
0 0 m
0 -3.5 l

gsave
0.000 setgray
fill
grestore
stroke
grestore
} bind def
115.675 38.016 o
grestore
gsave
112.495080 23.422250 translate
0.000000 rotate
0.000000 0.000000 m /five glyphshow
grestore
gsave
/o {
gsave
newpath
translate
0.8 setlinewidth
1 setlinejoin
0 setlinecap
0 0 m
0 -3.5 l

gsave
0.000 setgray
fill
grestore
stroke
grestore
} bind def
168.048 38.016 o
grestore
gsave
161.688258 23.422250 translate
0.000000 rotate
0.000000 0.000000 m /one glyphshow
6.362305 0.000000 m /zero glyphshow
grestore
gsave
/o {
gsave
newpath
translate
0.8 setlinewidth
1 setlinejoin
0 setlinecap
0 0 m
0 -3.5 l

gsave
0.000 setgray
fill
grestore
stroke
grestore
} bind def
220.42 38.016 o
grestore
gsave
214.061124 23.422250 translate
0.000000 rotate
0.000000 0.000000 m /one glyphshow
6.362305 0.000000 m /five glyphshow
grestore
gsave
/o {
gsave
newpath
translate
0.8 setlinewidth
1 setlinejoin
0 setlinecap
0 0 m
0 -3.5 l

gsave
0.000 setgray
fill
grestore
stroke
grestore
} bind def
272.793 38.016 o
grestore
gsave
266.433990 23.422250 translate
0.000000 rotate
0.000000 0.000000 m /two glyphshow
6.362305 0.000000 m /zero glyphshow
grestore
gsave
/o {
gsave
newpath
translate
0.8 setlinewidth
1 setlinejoin
0 setlinecap
0 0 m
0 -3.5 l

gsave
0.000 setgray
fill
grestore
stroke
grestore
} bind def
325.166 38.016 o
grestore
gsave
318.806856 23.422250 translate
0.000000 rotate
0.000000 0.000000 m /two glyphshow
6.362305 0.000000 m /five glyphshow
grestore
gsave
/o {
gsave
newpath
translate
0.8 setlinewidth
1 setlinejoin
0 setlinecap
0 0 m
0 -3.5 l

gsave
0.000 setgray
fill
grestore
stroke
grestore
} bind def
377.539 38.016 o
grestore
gsave
371.179721 23.422250 translate
0.000000 rotate
0.000000 0.000000 m /three glyphshow
6.362305 0.000000 m /zero glyphshow
grestore
gsave
209.863125 9.750375 translate
0.000000 rotate
0.000000 0.000000 m /t glyphshow
3.920898 0.000000 m /i glyphshow
6.699219 0.000000 m /m glyphshow
16.440430 0.000000 m /e glyphshow
22.592773 0.000000 m /comma glyphshow
25.771484 0.000000 m /space glyphshow
28.950195 0.000000 m /d glyphshow
35.297852 0.000000 m /a glyphshow
41.425781 0.000000 m /y glyphshow
47.343750 0.000000 m /s glyphshow
grestore
gsave
/o {
gsave
newpath
translate
0.8 setlinewidth
1 setlinejoin
0 setlinecap
0 0 m
-3.5 0 l

gsave
0.000 setgray
fill
grestore
stroke
grestore
} bind def
57.6 39.7391 o
grestore
gsave
34.693750 35.942191 translate
0.000000 rotate
0.000000 0.000000 m /zero glyphshow
6.362305 0.000000 m /period glyphshow
9.541016 0.000000 m /zero glyphshow
grestore
gsave
/o {
gsave
newpath
translate
0.8 setlinewidth
1 setlinejoin
0 setlinecap
0 0 m
-3.5 0 l

gsave
0.000 setgray
fill
grestore
stroke
grestore
} bind def
57.6 98.0994 o
grestore
gsave
34.693750 94.302543 translate
0.000000 rotate
0.000000 0.000000 m /zero glyphshow
6.362305 0.000000 m /period glyphshow
9.541016 0.000000 m /five glyphshow
grestore
gsave
/o {
gsave
newpath
translate
0.8 setlinewidth
1 setlinejoin
0 setlinecap
0 0 m
-3.5 0 l

gsave
0.000 setgray
fill
grestore
stroke
grestore
} bind def
57.6 156.46 o
grestore
gsave
34.693750 152.662894 translate
0.000000 rotate
0.000000 0.000000 m /one glyphshow
6.362305 0.000000 m /period glyphshow
9.541016 0.000000 m /zero glyphshow
grestore
gsave
/o {
gsave
newpath
translate
0.8 setlinewidth
1 setlinejoin
0 setlinecap
0 0 m
-3.5 0 l

gsave
0.000 setgray
fill
grestore
stroke
grestore
} bind def
57.6 214.82 o
grestore
gsave
34.693750 211.023246 translate
0.000000 rotate
0.000000 0.000000 m /one glyphshow
6.362305 0.000000 m /period glyphshow
9.541016 0.000000 m /five glyphshow
grestore
gsave
/o {
gsave
newpath
translate
0.8 setlinewidth
1 setlinejoin
0 setlinecap
0 0 m
-3.5 0 l

gsave
0.000 setgray
fill
grestore
stroke
grestore
} bind def
57.6 273.18 o
grestore
gsave
34.693750 269.383597 translate
0.000000 rotate
0.000000 0.000000 m /two glyphshow
6.362305 0.000000 m /period glyphshow
9.541016 0.000000 m /zero glyphshow
grestore
gsave
28.615625 167.572000 translate
90.000000 rotate
/DejaVuSans-Oblique findfont
10.0 scalefont
setfont
0.000000 0.531250 moveto
/tau glyphshow


grestore
1.500 setlinewidth
2 setlinecap
0.000 0.750 0.750 setrgbcolor
gsave
357.1 266.1 57.6 38.02 clipbox
73.832727 52.5649 m
73.978692 52.433481 l
74.854604 53.027854 l
75.146535 53.169602 l
75.438586 53.081389 l
75.58443 53.261003 l
75.803378 53.229965 l
75.949343 52.93275 l
76.532961 52.860923 l
76.897873 53.001117 l
77.043839 53.218584 l
77.700803 53.355054 l
78.649455 53.128399 l
80.109591 51.740906 l
80.328539 51.970322 l
80.62059 50.843155 l
80.985503 51.893939 l
81.058485 51.834776 l
81.277433 51.809782 l
81.642467 52.061386 l
82.226206 52.416687 l
82.445033 52.65643 l
82.590998 52.694515 l
82.736963 52.714787 l
82.809946 52.688631 l
83.101755 54.514652 l
83.247841 52.02643 l
83.320824 52.310395 l
83.393806 53.900753 l
83.685858 50.112 l
83.75884 53.150498 l
83.831823 52.147607 l
83.977909 52.843407 l
84.123874 52.93158 l
84.196978 52.124093 l
84.269961 52.526874 l
84.415804 54.201063 l
84.561648 51.788276 l
84.780596 58.955759 l
84.853579 53.600037 l
84.926682 53.936346 l
85.072769 52.896757 l
85.291716 52.813527 l
85.583889 53.806909 l
86.094767 52.162485 l
86.240853 52.122512 l
86.605645 52.504226 l
86.897575 52.794178 l
87.408574 52.895413 l
87.919573 51.991997 l
88.138642 52.105238 l
88.722381 52.537758 l
90.036189 53.09515 l
91.276771 53.742879 l
91.49584 53.787485 l
92.298648 53.145342 l
92.517717 53.51276 l
93.174318 55.176087 l
93.320161 55.08938 l
93.393265 55.120966 l
93.466248 54.672505 l
93.53923 57.349073 l
93.612213 54.15007 l
93.685195 54.569163 l
93.977004 54.695428 l
94.196073 54.816159 l
94.415142 54.81718 l
94.926141 54.543614 l
95.290933 54.939442 l
95.655967 55.438997 l
95.875036 55.715414 l
96.166966 55.747 l
96.604861 56.131922 l
97.40767 56.528681 l
97.918548 56.056258 l
97.99153 55.922008 l
98.064513 56.05239 l
98.210478 55.741235 l
98.794459 55.334918 l
99.67025 54.761783 l
100.837971 52.539294 l
101.202884 52.43253 l
101.348849 52.450573 l
101.932831 51.914517 l
102.151657 53.008326 l
102.297622 53.48109 l
102.370605 53.454255 l
102.516812 55.301355 l
102.662778 53.897144 l
102.735881 56.677721 l
102.808864 64.448752 l
103.027933 54.232079 l
103.100794 54.640489 l
103.319863 53.659617 l
103.684776 53.675222 l
104.049689 53.272358 l
104.34174 52.399416 l
104.487705 52.455407 l
104.63367 52.531294 l
104.925601 52.450987 l
105.50934 52.413053 l
105.582444 52.845209 l
105.655305 52.77974 l
106.166304 52.381866 l
106.750043 52.356317 l
107.772163 51.898153 l
108.209937 52.157267 l
109.012624 52.65503 l
109.815553 52.268709 l
110.61824 51.957929 l
111.567135 51.804573 l
113.39182 52.230369 l
113.829594 52.268056 l
114.048784 52.153348 l
114.194749 52.045989 l
114.486679 52.622908 l
114.559541 52.508326 l
114.851471 52.041197 l
115.143522 52.232811 l
118.501205 52.10044 l
121.27527 52.899235 l
122.224407 52.964023 l
123.173059 53.053997 l
124.122317 52.789923 l
124.633316 52.976849 l
125.436367 53.545978 l
126.458486 55.101577 l
126.969364 55.809356 l
127.042347 55.859618 l
127.188433 56.318202 l
127.334398 57.601426 l
127.407381 55.392092 l
127.480242 55.876547 l
127.626328 54.091849 l
127.772293 56.806671 l
127.918258 60.967573 l
127.991241 60.482187 l
128.210552 56.681522 l
128.283535 56.706327 l
128.356639 57.083359 l
128.429621 56.4342 l
128.502483 57.025247 l
128.867517 53.851493 l
129.45162 55.020391 l
130.035844 54.982977 l
130.181809 54.760975 l
130.619825 53.996195 l
131.34953 53.166829 l
132.225442 52.828154 l
132.66358 52.843568 l
133.539128 53.095356 l
134.853299 53.57202 l
135.729332 53.383874 l
136.16747 53.371208 l
140.328082 53.491874 l
141.058271 53.466793 l
141.861079 53.391601 l
143.029043 53.067884 l
143.613024 53.011106 l
144.051041 53.151617 l
144.489179 53.753886 l
144.708005 53.88513 l
145.1459 54.05175 l
145.291866 54.841121 l
145.583917 57.802576 l
145.729761 56.412106 l
145.875847 60.171192 l
145.94883 59.3506 l
146.021812 59.814691 l
146.313864 57.65466 l
146.386725 58.566569 l
146.459829 56.905969 l
146.532933 56.968288 l
146.75188 56.46391 l
146.897846 54.805948 l
146.970828 59.307007 l
147.043811 55.752567 l
147.116793 57.49977 l
147.189776 59.058545 l
147.26288 58.518927 l
147.335862 58.937587 l
147.481706 58.379599 l
147.627792 58.986124 l
147.773636 57.570149 l
147.91948 58.937037 l
148.138428 56.662696 l
148.21141 56.757553 l
148.430358 56.518198 l
148.503341 56.582846 l
148.649306 58.076602 l
148.722288 57.963968 l
148.795271 57.736208 l
148.941357 58.230998 l
149.160547 57.468326 l
149.306512 56.222326 l
149.525339 53.325187 l
149.598321 53.670466 l
149.744408 54.408696 l
149.81739 54.447142 l
150.036217 53.495276 l
150.255286 52.885658 l
151.058458 51.781181 l
151.423492 52.220663 l
152.883385 54.551714 l
153.02935 54.473369 l
153.175315 54.726999 l
153.467488 54.362461 l
154.124695 53.78388 l
154.56259 53.368307 l
155.219918 54.107553 l
155.730675 54.531731 l
155.949865 54.558381 l
156.752673 53.509061 l
156.825656 53.462038 l
157.11795 53.925264 l
157.337019 54.716996 l
157.410001 54.393614 l
157.482984 54.416981 l
157.775035 53.780543 l
157.993983 53.228404 l
158.213173 57.027897 l
158.286277 54.645378 l
158.359259 55.787472 l
158.578449 57.041187 l
158.651553 57.010132 l
158.724536 60.046868 l
158.79764 59.640057 l
158.870622 58.946102 l
159.016708 54.032466 l
159.235777 54.946728 l
159.30876 54.925865 l
159.746534 55.984276 l
159.965724 55.551275 l
160.111811 54.912929 l
160.403741 53.537415 l
160.768896 53.521352 l
160.914982 53.472307 l
161.572432 52.587454 l
162.083552 52.895435 l
162.521447 53.257891 l
162.740516 53.366933 l
164.054202 53.114338 l
165.222529 53.477225 l
166.390735 53.489867 l
166.755769 53.556038 l
166.828873 53.938675 l
166.901856 53.518367 l
166.974838 53.590684 l
167.558941 53.685971 l
167.997079 54.146247 l
168.581061 54.7708 l
168.80013 54.92645 l
169.091939 54.436348 l
169.529955 57.874104 l
169.749024 55.014672 l
169.822007 55.074755 l
169.968093 54.507457 l
170.113937 54.814542 l
170.405988 55.515191 l
170.552075 55.392865 l
170.698282 57.356181 l
170.771265 56.526082 l
170.844247 57.609051 l
171.136056 54.739734 l
171.282021 54.699865 l
171.428108 54.898859 l
171.793021 54.383798 l
172.011968 54.486961 l
172.377002 55.89077 l
172.669175 56.849629 l
173.107192 56.551972 l
173.326139 56.192771 l
173.983346 54.525053 l
174.421484 53.487102 l
174.786518 53.555765 l
175.516586 53.833408 l
176.173793 53.651557 l
176.903982 53.557367 l
176.977086 53.602347 l
177.123051 53.335788 l
177.196033 53.612202 l
177.269016 53.57058 l
177.415223 53.165505 l
177.56131 53.565754 l
177.853604 53.175755 l
178.145655 53.246051 l
178.802741 53.322122 l
179.167654 53.243939 l
180.992824 52.440509 l
181.430961 52.411667 l
182.015186 52.848571 l
182.745375 53.479166 l
183.548426 53.822499 l
183.694512 53.948095 l
184.132528 55.26284 l
184.935458 57.744151 l
185.227388 57.522838 l
186.176161 56.734075 l
187.34461 57.715668 l
187.636661 57.772747 l
187.709644 58.020478 l
187.782505 58.718678 l
187.855609 58.473842 l
188.001816 58.135661 l
188.658781 57.92447 l
188.950832 56.890677 l
189.242884 61.073652 l
189.315866 60.259703 l
189.534814 57.156176 l
189.607796 57.312289 l
189.899969 58.573089 l
190.045934 58.61422 l
190.337986 58.668184 l
190.630158 58.712005 l
190.922331 58.937816 l
191.579053 59.801232 l
191.870983 60.362501 l
191.943966 60.325829 l
192.455328 59.613086 l
193.039189 62.175835 l
193.112171 61.916524 l
193.33124 60.838828 l
193.404223 60.917636 l
193.623292 61.975362 l
193.915343 68.069864 l
194.134412 77.705662 l
194.280377 82.510478 l
194.35336 81.508023 l
194.426342 82.439333 l
194.499325 82.13195 l
194.791255 67.629926 l
195.083307 66.590866 l
195.229393 66.412784 l
195.375358 66.633664 l
195.66741 62.13588 l
195.813375 65.766233 l
196.032565 72.073018 l
196.251634 70.355348 l
196.543807 71.409182 l
196.616789 71.354317 l
196.835737 71.187876 l
197.127788 72.681861 l
197.41984 74.323014 l
197.492822 74.275196 l
197.711891 73.715001 l
197.784752 73.779963 l
198.076804 74.077095 l
198.295994 74.194739 l
198.734011 70.361713 l
198.879976 69.266139 l
199.025941 72.906894 l
199.099045 72.696876 l
199.24501 69.641349 l
199.464079 66.311686 l
199.683148 65.432952 l
199.756009 65.403979 l
200.048182 64.782681 l
200.194268 64.936225 l
200.413458 65.732037 l
200.632406 67.157119 l
200.997319 74.639074 l
201.070301 74.12726 l
201.216266 73.230656 l
201.362231 76.285447 l
201.508197 81.330557 l
201.581179 77.455292 l
201.654162 80.816653 l
201.800127 76.956058 l
201.873109 78.386946 l
202.092057 93.429927 l
202.165161 87.671651 l
202.238265 93.188767 l
202.311247 110.787623 l
202.457212 93.759719 l
203.041194 65.877649 l
203.114298 65.864848 l
203.18728 65.654184 l
203.260384 65.736782 l
203.406349 66.50177 l
203.552314 70.788876 l
203.844487 67.745291 l
203.990573 68.827033 l
204.35585 73.305424 l
204.574798 78.617451 l
204.865637 84.987855 l
205.157688 85.93682 l
205.303653 86.028891 l
205.815016 90.457285 l
205.88812 91.403548 l
205.961102 91.076886 l
206.034085 90.952711 l
206.18005 95.988245 l
206.253154 94.953178 l
206.326136 92.586503 l
206.399119 98.596779 l
206.545205 92.575875 l
206.618309 91.07244 l
206.764274 93.556033 l
207.056326 69.747311 l
207.129308 110.872301 l
207.202048 78.42011 l
207.275031 87.644846 l
207.348135 93.264741 l
207.420996 91.565837 l
207.494221 92.612522 l
207.567204 100.543267 l
207.640186 78.852126 l
207.71329 80.999245 l
207.786273 83.028301 l
207.859255 82.334209 l
207.932238 82.950119 l
208.00522 85.483089 l
208.224532 107.734114 l
208.370618 91.224614 l
208.443843 92.4317 l
208.516947 96.608073 l
208.663033 89.669522 l
208.736016 99.656676 l
208.955085 82.769109 l
209.174154 95.594444 l
209.320119 85.69175 l
209.393344 85.189164 l
209.758378 99.237433 l
209.831481 99.130957 l
209.977568 119.018594 l
210.269862 98.44942 l
210.561913 78.067031 l
210.708121 85.722256 l
210.781103 85.332407 l
210.854086 84.135678 l
211.146016 91.894893 l
211.218999 103.37482 l
211.292103 102.732546 l
211.51105 85.178281 l
211.584154 86.00403 l
211.73024 93.932709 l
212.241482 78.545949 l
212.679377 72.199563 l
212.971429 70.211129 l
213.117394 70.276487 l
213.482428 71.336522 l
213.774722 76.008212 l
214.139877 82.844239 l
214.212981 82.77683 l
214.358946 83.87581 l
214.651119 82.697782 l
214.94317 85.309028 l
215.089378 88.539994 l
215.16236 87.97188 l
215.454654 81.132047 l
215.673844 73.520531 l
215.820052 70.783174 l
215.966017 71.747754 l
216.039 71.552461 l
216.184965 71.151605 l
216.257947 71.060987 l
216.403912 69.615848 l
216.768825 64.320113 l
217.133859 61.843198 l
217.57224 59.754005 l
217.79143 63.252207 l
217.864412 64.61952 l
217.937395 64.565548 l
218.156464 63.34186 l
218.375411 68.245861 l
218.813428 83.532163 l
219.105479 121.790848 l
219.398016 155.814307 l
219.909136 144.743338 l
220.493118 205.334288 l
220.931619 292.032 l
221.297138 204.558018 l
221.735034 74.341301 l
222.027085 69.095347 l
222.173172 68.697278 l
222.246275 68.831638 l
222.611431 72.012022 l
222.830621 70.944634 l
223.26888 65.549176 l
223.487706 64.530347 l
223.633793 64.43704 l
223.852861 64.651156 l
224.144913 65.032936 l
224.290878 65.091066 l
224.58293 65.711918 l
225.167275 63.961749 l
225.459326 67.73715 l
225.751499 71.870195 l
225.897464 70.243106 l
226.774104 57.886528 l
226.993294 56.583036 l
227.212363 56.840003 l
227.504293 59.059463 l
227.796466 56.564871 l
228.161742 63.006292 l
228.234846 61.712036 l
228.30795 65.745051 l
228.380932 64.125473 l
228.52714 61.888355 l
228.673226 66.231523 l
228.965156 55.675434 l
229.111243 58.902355 l
229.33019 64.205489 l
229.549259 91.781186 l
229.622242 91.182153 l
229.695224 92.770498 l
229.768328 83.561961 l
229.841311 112.375788 l
229.987518 78.310285 l
230.133605 75.382528 l
230.279812 69.097972 l
230.352916 69.983366 l
230.425899 65.101674 l
230.498881 65.370637 l
230.790933 67.248928 l
231.448261 77.360524 l
231.667208 72.280373 l
231.74007 72.405647 l
231.886277 70.066274 l
231.959381 70.382503 l
232.032485 70.213455 l
232.178571 72.052069 l
232.251675 70.111826 l
232.324657 73.165014 l
232.39764 70.51997 l
232.470744 71.645178 l
232.616709 75.577664 l
232.689691 75.060045 l
233.346777 59.429905 l
233.41976 59.366658 l
233.492742 59.491898 l
233.638707 58.98315 l
233.85814 56.70447 l
234.004347 55.819148 l
234.223295 55.917081 l
234.588572 55.624712 l
234.953606 55.608505 l
235.172917 55.607876 l
235.757384 55.258781 l
236.487573 55.53169 l
236.560677 55.58413 l
236.852607 54.663728 l
237.510056 56.918383 l
238.167627 56.225856 l
238.605643 56.258337 l
239.263214 55.526109 l
239.774334 54.862697 l
239.993645 55.014591 l
240.066628 54.460196 l
240.212593 55.487904 l
240.285697 55.126509 l
240.431783 54.967543 l
240.650852 55.440818 l
240.943267 55.307518 l
241.235682 56.330266 l
241.673578 57.765991 l
242.111716 58.012022 l
242.476871 57.875364 l
242.769286 57.578812 l
243.280285 56.69205 l
243.499475 57.00236 l
244.594941 59.057727 l
245.325252 59.201996 l
245.690528 59.277076 l
246.640271 60.096213 l
246.786357 60.124379 l
247.07853 59.659879 l
247.590014 58.580541 l
248.028395 57.668015 l
248.539515 57.815532 l
249.196722 55.929562 l
249.269704 55.977242 l
250.000257 56.411847 l
250.219326 56.32087 l
250.292187 56.428951 l
250.438274 56.354616 l
250.584239 57.469805 l
250.730325 56.22498 l
250.803308 56.512425 l
250.87629 56.349003 l
250.949515 56.408389 l
251.314792 57.318044 l
251.606965 57.579585 l
251.68019 56.926354 l
251.753172 57.004329 l
251.899137 57.168102 l
252.045224 57.870001 l
252.629569 58.290403 l
253.213914 59.434889 l
253.871485 60.661574 l
254.236519 60.423496 l
255.040054 59.765959 l
255.6244 60.174352 l
256.13552 60.737698 l
256.427693 60.277417 l
256.793091 59.842205 l
257.085506 60.161225 l
257.377557 60.613358 l
257.596626 60.595854 l
257.815695 61.666182 l
258.034764 62.429197 l
258.107747 62.544446 l
258.18085 62.958463 l
258.619352 74.56944 l
258.765438 81.66163 l
258.838421 80.44495 l
259.05749 73.64047 l
259.130472 73.903673 l
259.349541 75.563519 l
259.933644 62.880748 l
260.225938 61.594702 l
260.518232 61.176395 l
260.664197 61.151235 l
260.810162 61.789444 l
260.95637 60.428296 l
261.029352 61.829762 l
261.2483 57.784772 l
261.321404 57.205745 l
261.394386 57.560083 l
261.613334 62.444254 l
261.75942 65.871202 l
261.905507 91.624515 l
262.124818 61.838228 l
262.271026 67.437956 l
262.563077 60.642836 l
262.782025 57.472425 l
262.855129 58.289239 l
262.928232 57.035009 l
263.001215 57.283186 l
263.14718 59.275338 l
263.220163 56.763886 l
263.439232 83.375377 l
263.585197 69.966047 l
263.731162 62.106123 l
263.804266 62.378716 l
264.096559 67.724637 l
264.31575 81.238013 l
264.388853 80.612786 l
264.973078 61.839207 l
265.33799 56.557023 l
265.484077 55.126526 l
265.630284 55.953867 l
265.776492 57.233845 l
265.849596 57.07779 l
266.069028 56.361542 l
266.287976 58.067798 l
266.506924 59.550211 l
266.726114 60.231056 l
267.018408 61.128041 l
267.091511 61.079643 l
267.164494 61.207386 l
267.237598 61.573447 l
267.530255 66.559773 l
267.676221 79.092717 l
267.749203 78.727583 l
268.114358 62.026342 l
268.187341 62.196983 l
268.40641 67.749957 l
268.479271 67.684051 l
268.698461 65.852549 l
268.917409 67.166573 l
269.20946 68.583453 l
269.64772 70.864196 l
270.158961 75.214256 l
270.232065 75.192924 l
270.524238 74.050353 l
271.035722 71.470966 l
271.327894 69.734793 l
271.400877 69.797486 l
271.620067 70.457967 l
271.839015 69.906869 l
272.4961 70.138038 l
272.934481 67.350265 l
273.591809 63.754337 l
273.664791 63.552552 l
273.737774 63.644987 l
274.102929 65.052696 l
274.614292 67.154202 l
274.833482 68.026145 l
275.198516 72.14007 l
276.07467 81.911462 l
276.29386 80.880786 l
276.878327 76.310118 l
277.608759 70.54249 l
277.90081 68.347149 l
278.338463 65.559585 l
278.557653 67.222053 l
279.068895 71.788994 l
279.580015 72.7774 l
279.945413 72.998143 l
280.164482 72.916927 l
280.675481 72.394395 l
280.89261 72.697828 l
281.841868 74.714107 l
281.914851 74.500638 l
281.987955 73.827695 l
282.061059 76.805285 l
282.134041 74.059828 l
282.207145 74.830627 l
282.35311 75.145855 l
282.499075 75.330785 l
283.083178 76.452537 l
283.448212 76.202179 l
283.59442 76.06604 l
284.178644 76.52038 l
284.470817 75.649013 l
285.347092 71.265878 l
286.077645 58.1407 l
286.296593 55.071863 l
286.515783 54.325211 l
286.661748 54.307313 l
286.807834 54.543952 l
287.173232 55.702944 l
287.611734 55.287458 l
287.757699 55.342291 l
288.560871 56.382379 l
288.853286 56.585445 l
289.145459 56.363775 l
289.802787 55.804652 l
290.021977 55.832799 l
290.314149 54.764193 l
290.387132 54.901257 l
290.606201 55.586955 l
290.679183 55.540337 l
290.971477 55.232417 l
291.26365 55.199669 l
291.774528 54.818646 l
292.212787 55.53777 l
292.358631 55.2846 l
292.431735 55.969073 l
292.504717 57.799384 l
292.650804 55.247381 l
292.723786 55.489998 l
292.869872 55.919016 l
293.162045 56.01181 l
294.111425 56.482488 l
294.549562 55.858183 l
294.69577 55.716445 l
294.987943 57.14552 l
295.207012 58.747464 l
295.353098 58.469975 l
295.791115 56.028339 l
295.937201 55.405609 l
296.156149 55.406912 l
296.4482 54.738412 l
296.740494 58.807658 l
296.813477 58.735767 l
297.251736 56.623218 l
297.397701 55.84618 l
297.689873 54.18618 l
298.128011 53.956975 l
298.493166 54.016094 l
298.858322 54.470845 l
299.077391 54.4122 l
299.223477 54.447834 l
299.369563 54.728012 l
299.661736 57.993712 l
300.027134 63.465548 l
300.465393 72.336951 l
300.538375 71.997763 l
300.830548 62.898553 l
301.122721 54.486946 l
301.268686 54.007592 l
301.63372 53.980338 l
301.706702 54.020227 l
302.14484 53.602636 l
302.436892 53.680247 l
302.728943 53.822559 l
302.87503 53.376864 l
302.947891 54.284856 l
303.020995 53.426029 l
303.093977 53.7925 l
303.240064 53.465614 l
303.38615 53.72172 l
303.678201 53.555074 l
304.116703 53.386957 l
305.796635 53.772927 l
308.133411 53.777317 l
309.740118 54.101508 l
311.493154 54.684716 l
311.785085 54.736943 l
312.223344 54.678037 l
312.58862 55.747675 l
312.80781 56.401359 l
312.880914 56.337215 l
313.319416 55.488059 l
313.392398 55.004686 l
313.465502 56.694472 l
313.538484 55.140325 l
313.611467 55.603923 l
313.830657 55.923199 l
314.122951 56.107472 l
314.269037 56.111643 l
314.342141 55.923015 l
314.415124 55.964233 l
314.707175 55.97532 l
314.780279 55.946244 l
314.926123 56.028887 l
315.51059 55.880912 l
315.802641 55.748286 l
316.532952 54.956646 l
316.898107 54.823824 l
317.190522 55.451903 l
317.993815 58.035775 l
318.432195 60.423331 l
318.651385 62.28982 l
318.943316 71.028736 l
319.308471 55.413682 l
319.52754 57.546214 l
319.600644 57.35137 l
319.819834 56.566941 l
320.330954 55.429328 l
320.696109 55.134699 l
321.207351 55.071365 l
321.280334 55.079793 l
321.572506 55.612053 l
321.791575 55.094663 l
322.302574 53.92744 l
322.740712 53.387595 l
323.17885 53.145577 l
323.763195 52.927404 l
323.909282 52.730257 l
323.982264 53.131433 l
324.055368 52.760275 l
324.128472 52.869061 l
324.420523 52.957128 l
324.566731 52.88083 l
325.151076 52.208772 l
327.196285 52.527835 l
327.488337 52.584285 l
328.07244 52.155429 l
328.364612 52.245912 l
329.095044 53.077713 l
329.168027 53.304003 l
329.460078 57.521835 l
329.75213 64.843781 l
329.825112 64.511901 l
330.482319 55.869424 l
330.847595 53.802221 l
330.920578 53.656106 l
331.066664 54.053988 l
331.43182 55.970969 l
331.796854 57.396145 l
331.94294 57.103646 l
332.015922 57.176693 l
332.089026 57.353921 l
332.234991 59.850353 l
332.307974 57.106208 l
332.381078 57.379749 l
332.527164 56.195948 l
332.600147 60.573177 l
332.673129 57.225878 l
332.746233 57.34661 l
332.819216 57.344557 l
332.965302 57.723081 l
333.038284 54.793969 l
333.330457 60.844051 l
333.549647 54.066967 l
333.622751 57.130416 l
333.695734 54.566642 l
333.768837 54.937141 l
333.914924 54.38031 l
334.280079 52.950923 l
334.499269 52.739754 l
334.718459 54.614486 l
334.864546 53.807521 l
335.156597 57.621305 l
335.229701 55.903522 l
335.302805 58.582562 l
335.375909 57.439963 l
335.521995 55.351311 l
335.668202 59.962485 l
335.741185 59.909213 l
335.887271 57.167098 l
336.179444 62.502164 l
336.252548 55.449824 l
336.325773 59.540674 l
336.471738 54.447047 l
336.544842 54.539761 l
336.617824 54.890577 l
336.909876 53.27938 l
337.128945 52.244277 l
337.27491 52.566353 l
337.420996 52.825003 l
337.566961 52.83187 l
337.640065 52.996125 l
338.078445 59.082177 l
338.151549 57.863935 l
338.224532 54.216839 l
338.297514 54.637691 l
338.370618 55.608374 l
338.516583 54.469687 l
338.66267 55.375173 l
338.955085 52.805222 l
339.247379 51.574318 l
339.46669 52.915585 l
339.539794 52.897542 l
339.68588 53.048229 l
339.758863 53.494208 l
339.978174 52.928104 l
340.343208 52.832315 l
341.146744 53.466898 l
341.438916 53.163213 l
341.804072 55.703871 l
341.877054 54.55483 l
341.950037 54.915229 l
342.023019 55.132266 l
342.31495 54.24052 l
342.53414 56.390971 l
342.607122 56.88232 l
342.899174 55.019233 l
342.972277 54.926853 l
343.191346 53.652119 l
343.556623 52.929632 l
343.848796 52.486089 l
344.286933 52.331195 l
345.236677 52.238428 l
346.113073 51.736868 l
346.843505 51.704382 l
348.377109 51.57756 l
349.983937 51.566296 l
351.152871 51.644324 l
352.175475 51.850861 l
353.490131 51.615923 l
354.001494 51.722631 l
354.36677 51.777613 l
355.389496 51.193635 l
355.462479 51.228685 l
355.754651 52.184376 l
356.703788 55.444442 l
356.99584 55.151578 l
358.164046 53.757866 l
359.113425 53.354141 l
359.770632 54.079194 l
360.646907 54.98489 l
360.866219 55.303545 l
361.377703 55.987005 l
361.889187 55.508584 l
362.61974 54.986622 l
363.204328 55.082905 l
363.788673 55.25454 l
364.080967 55.167059 l
364.300036 55.116172 l
364.519226 54.969398 l
364.738295 55.414759 l
364.884381 55.623957 l
364.957364 55.640507 l
365.10345 55.531923 l
365.249415 58.954401 l
365.322519 58.572933 l
365.395623 59.037031 l
365.468727 62.506215 l
365.541709 74.780664 l
365.614813 72.54608 l
365.979968 58.064712 l
366.126055 60.656446 l
366.272384 66.560859 l
366.345366 66.470441 l
366.418349 66.392577 l
366.491452 67.081233 l
366.63766 65.206443 l
366.710643 63.243117 l
366.783746 67.450962 l
366.929712 61.881309 l
367.148902 60.734158 l
367.294988 62.936787 l
367.660386 72.861027 l
367.73349 73.694131 l
367.95268 61.049279 l
368.025783 60.96793 l
368.244852 58.659413 l
368.317956 59.01363 l
368.390939 58.9558 l
368.536904 59.460043 l
368.829077 62.073728 l
369.121128 68.296248 l
369.632491 88.531847 l
369.705595 95.497421 l
369.924664 63.376853 l
370.07075 58.298124 l
370.143732 58.419508 l
370.655095 64.090756 l
370.728078 63.618966 l
371.239441 58.656912 l
371.385648 60.95893 l
371.750682 71.693489 l
372.188941 86.011359 l
372.261924 84.783929 l
372.408131 86.312858 l
372.699819 76.89334 l
372.772802 76.765647 l
372.845784 75.283126 l
372.918888 78.624796 l
373.284286 57.830331 l
373.430251 62.629056 l
373.795406 83.42394 l
373.868389 83.256349 l
374.233544 70.749388 l
374.306769 70.565643 l
374.452734 69.426954 l
374.525838 69.515194 l
374.745028 70.836374 l
374.818011 72.007972 l
374.891115 71.176229 l
375.037201 76.265224 l
375.110305 75.281806 l
375.402356 67.610746 l
375.475339 69.74766 l
375.548321 65.401856 l
375.621304 65.695158 l
375.913476 63.995983 l
376.497822 58.028026 l
376.717012 57.537755 l
378.032153 56.10296 l
378.616741 55.503627 l
379.420034 54.71362 l
380.88114 53.384013 l
381.611693 52.971059 l
382.41535 52.76597 l
382.999695 52.951509 l
383.584283 53.316149 l
384.168628 53.041522 l
384.460922 53.119759 l
384.680112 53.334472 l
384.972285 54.091182 l
385.2647 55.127112 l
386.068114 60.764109 l
386.141097 60.717246 l
386.433391 59.862242 l
386.725564 62.39813 l
386.798546 61.994568 l
387.09084 60.247481 l
387.309909 60.518414 l
387.675307 59.961778 l
387.748289 59.811085 l
387.894376 59.045529 l
388.040583 60.54994 l
388.186548 58.615455 l
388.259652 58.621801 l
388.332756 58.835549 l
388.478842 60.117616 l
388.771015 58.115063 l
388.844119 58.3158 l
388.917101 58.847351 l
388.990205 57.878966 l
389.063188 58.943793 l
389.355482 56.717812 l
389.501568 57.099356 l
389.940191 58.764598 l
390.013295 58.543675 l
390.232485 57.383073 l
390.451554 59.540996 l
390.889813 56.377976 l
391.03602 55.516653 l
391.109003 55.551006 l
391.401297 54.615529 l
391.547504 54.671043 l
391.839677 54.855199 l
392.058867 54.97008 l
392.277815 55.196327 l
392.570109 54.84141 l
392.935264 54.462841 l
393.738678 54.686487 l
394.688058 54.590537 l
397.537408 54.123618 l
397.975789 53.358191 l
398.194979 53.044856 l
398.414048 53.072331 l
398.487273 52.920279 l
398.487273 52.920279 l
stroke
grestore
0.627 0.314 0.314 setrgbcolor
gsave
357.1 266.1 57.6 38.02 clipbox
73.832727 56.947706 m
73.978692 56.522925 l
74.051554 56.588418 l
74.927587 55.560926 l
75.219517 55.417789 l
75.803378 55.488345 l
76.314013 55.69415 l
77.481976 56.625666 l
78.357525 57.516708 l
78.576594 57.57591 l
78.868524 56.686472 l
79.890522 53.593699 l
80.036608 53.406868 l
80.328539 54.050208 l
80.62059 51.064945 l
80.693573 51.659934 l
80.91252 54.355296 l
80.985503 54.31333 l
81.204451 53.631708 l
81.277433 53.673543 l
81.642467 54.036101 l
82.080241 54.437184 l
82.445033 54.273696 l
82.518015 54.368279 l
82.663981 55.577654 l
82.736963 53.678738 l
82.809946 54.492619 l
82.882928 53.413906 l
82.955911 53.83152 l
83.028893 54.648394 l
83.101755 53.981056 l
83.174737 54.256444 l
83.247841 54.232559 l
83.320824 53.435115 l
83.393806 54.972343 l
83.466789 52.659933 l
83.539892 53.590572 l
83.685858 53.203578 l
83.75884 52.40197 l
83.831823 52.49633 l
84.123874 54.758849 l
84.196978 53.369833 l
84.269961 53.892802 l
84.415804 55.893467 l
84.488787 55.138504 l
84.561648 53.830109 l
84.634631 54.52397 l
84.780596 53.713118 l
84.853579 54.737007 l
84.926682 54.710577 l
85.072769 54.716906 l
85.145751 54.766418 l
85.291716 54.661146 l
85.364699 54.96844 l
85.510664 53.571103 l
85.65675 53.646509 l
85.729854 54.971482 l
85.802837 54.878536 l
85.875819 54.781068 l
85.948802 55.018502 l
86.167749 54.573052 l
86.240853 54.623647 l
87.04354 55.971411 l
87.33547 56.581063 l
87.919573 52.998224 l
88.065781 53.202528 l
88.722381 54.658486 l
89.817241 55.547236 l
90.620049 56.206242 l
90.911979 56.543474 l
91.422857 57.530588 l
91.641805 56.973589 l
91.78777 56.728615 l
91.860753 56.725653 l
92.225666 55.199413 l
92.298648 54.977085 l
92.809526 58.385829 l
92.882509 58.52083 l
93.247179 60.080655 l
93.320161 60.041791 l
93.612213 57.826078 l
93.758178 58.946575 l
93.904022 58.941864 l
94.415142 59.50205 l
94.926141 59.277845 l
95.21795 59.768605 l
96.312931 61.596715 l
97.042878 62.396609 l
97.334687 62.488989 l
97.772704 62.000933 l
98.867321 60.58415 l
99.597146 59.972836 l
99.889077 58.723672 l
99.962059 59.402991 l
100.035042 59.052262 l
100.472937 57.356244 l
100.910832 56.24502 l
101.202884 56.019337 l
101.348849 55.975014 l
101.932831 55.104901 l
102.151657 56.145112 l
102.516812 59.049146 l
102.662778 56.874949 l
102.735881 59.752796 l
102.881846 56.386423 l
102.954829 56.630727 l
103.100794 59.648725 l
103.173777 58.520304 l
103.319863 56.375924 l
103.392846 56.131353 l
103.611793 56.527394 l
103.684776 56.555306 l
103.976827 55.982924 l
104.34174 54.542389 l
104.852618 54.522623 l
105.363496 54.416027 l
105.655305 54.590184 l
106.677061 55.475137 l
107.480233 53.909257 l
107.772163 53.39311 l
107.990989 53.605114 l
109.012624 55.027924 l
109.45064 54.712053 l
110.107362 54.253429 l
111.348066 53.840897 l
112.589012 54.938052 l
113.829594 54.040798 l
113.97568 53.965299 l
114.194749 53.759367 l
114.413576 54.706489 l
114.486679 55.216916 l
114.77861 54.01371 l
114.924575 54.174248 l
115.216505 54.537725 l
115.946573 54.867838 l
116.457451 54.741892 l
117.625293 54.435159 l
118.428222 54.397251 l
119.450342 55.029952 l
120.837132 55.855452 l
122.005338 55.942033 l
123.027094 56.551587 l
123.903127 55.653853 l
124.195299 55.634225 l
124.560333 56.054862 l
124.706177 56.321374 l
125.144194 58.389725 l
125.217298 58.785532 l
125.29028 58.085462 l
125.363384 58.236473 l
126.239538 59.406743 l
126.531469 60.02707 l
127.334398 62.73752 l
127.626328 61.465809 l
127.918258 65.833264 l
127.991241 65.226761 l
128.283535 62.23739 l
128.429621 62.286768 l
128.502483 62.201591 l
128.867517 59.581816 l
129.305654 59.759472 l
129.45162 59.681905 l
130.473982 57.914826 l
131.203565 56.6755 l
131.787304 56.601778 l
132.298546 56.60912 l
132.809423 55.859155 l
133.028371 55.539068 l
133.101354 55.928189 l
133.174336 55.867709 l
133.539128 55.663214 l
134.63423 56.226629 l
134.853299 56.521373 l
134.926403 55.946833 l
134.999264 56.062531 l
135.291315 56.313543 l
135.510263 56.094693 l
135.583367 56.837614 l
135.656349 56.796416 l
136.16747 56.565756 l
136.678711 56.224518 l
137.116485 55.980702 l
138.065259 56.092252 l
138.284206 56.269992 l
139.379187 57.454119 l
139.817083 57.115612 l
140.76622 56.321568 l
141.788218 55.800591 l
142.591026 56.310751 l
142.883199 56.44295 l
143.904955 56.075186 l
144.124023 56.199873 l
144.416196 56.56387 l
144.635144 56.765267 l
144.999935 56.469593 l
145.1459 56.380665 l
145.291866 57.64777 l
145.437709 59.392663 l
145.510813 58.966978 l
145.6569 59.816426 l
145.729761 59.854577 l
145.94883 62.416998 l
146.021812 61.602881 l
146.094795 62.900902 l
146.167778 62.417814 l
146.459829 61.069134 l
146.75188 60.321431 l
146.897846 58.510205 l
146.970828 63.564651 l
147.043811 60.019134 l
147.116793 62.482764 l
147.189776 61.254595 l
147.26288 61.373734 l
147.335862 64.225317 l
147.408845 63.955709 l
147.773636 61.502866 l
147.846619 61.930914 l
147.91948 64.175001 l
147.992463 64.124543 l
148.284393 62.466506 l
148.430358 60.330231 l
148.503341 60.804361 l
148.649306 61.846904 l
149.087444 60.114467 l
149.160547 61.758625 l
149.23353 61.625318 l
149.525339 57.405405 l
149.598321 57.814143 l
149.81739 59.404481 l
150.693424 55.464744 l
150.985475 54.794437 l
151.131561 54.848561 l
151.423492 55.221527 l
153.394384 58.600502 l
153.75954 58.343578 l
154.197677 57.778582 l
154.56259 57.327872 l
155.219918 57.517559 l
155.803657 57.197313 l
156.533725 57.032712 l
156.898881 56.92104 l
157.263915 57.016544 l
157.337019 57.424028 l
157.482984 57.091712 l
158.066965 56.237362 l
158.140069 55.755062 l
158.213173 58.461852 l
158.286277 56.254508 l
158.359259 57.568906 l
158.432484 56.139974 l
158.505467 56.587222 l
158.651553 56.603447 l
158.724536 56.15435 l
158.79764 56.281095 l
158.870622 57.433478 l
159.089691 56.392279 l
159.235777 56.454025 l
159.30876 56.548943 l
159.381743 56.827181 l
159.60069 58.560867 l
159.746534 59.320717 l
159.819638 59.21432 l
160.476845 57.101273 l
160.914982 56.804766 l
161.572432 55.612331 l
162.010448 56.02417 l
162.740516 56.754807 l
164.054202 56.796179 l
164.565323 57.098204 l
164.638305 56.601859 l
164.711288 56.652094 l
165.295512 56.942173 l
166.317753 57.047152 l
167.33963 56.527971 l
167.631924 56.827385 l
168.508078 58.004518 l
168.654043 59.401026 l
168.946095 59.899429 l
169.091939 60.075016 l
169.456973 62.540532 l
169.529955 63.639646 l
169.749024 61.33037 l
169.822007 61.371724 l
170.186919 60.073486 l
170.259902 59.99948 l
170.552075 60.576107 l
170.698282 61.737549 l
170.771265 59.638832 l
170.844247 60.33012 l
171.136056 57.868995 l
171.282021 57.917198 l
171.428108 58.106457 l
171.866003 57.416651 l
172.011968 57.407644 l
172.30402 58.121687 l
172.742279 59.05467 l
173.180174 59.119555 l
173.545087 58.768762 l
174.640553 57.559681 l
175.224656 57.600668 l
175.589568 57.623664 l
176.977086 56.830592 l
177.123051 56.901673 l
177.269016 56.398703 l
177.34212 57.744742 l
177.415223 56.347869 l
177.488327 56.623634 l
177.634414 56.606548 l
178.291742 55.859003 l
178.364845 55.761386 l
178.437828 56.249249 l
178.51081 56.174284 l
178.656776 55.527892 l
179.31374 55.099185 l
179.386722 55.491699 l
179.459826 55.452417 l
180.116912 55.23391 l
181.138789 55.127331 l
181.577048 55.349165 l
182.161151 55.964956 l
182.307237 56.160913 l
182.38022 55.576261 l
182.453323 55.694411 l
182.89134 56.683081 l
183.767494 59.39913 l
184.42458 63.787638 l
184.935458 67.240126 l
185.154405 66.834593 l
185.519318 65.788491 l
186.030075 64.248445 l
186.103179 64.301252 l
186.468334 65.158782 l
186.979454 66.368301 l
187.563679 67.593469 l
188.658781 69.316742 l
188.950832 68.094761 l
189.242884 70.60935 l
189.315866 70.213291 l
189.534814 68.492266 l
189.607796 68.603307 l
189.899969 69.447586 l
190.410968 69.723069 l
190.776123 70.04477 l
191.50607 71.47262 l
191.870983 72.339511 l
191.943966 72.302639 l
192.455328 71.671957 l
192.674276 71.987711 l
193.404223 73.262607 l
193.550309 73.499512 l
193.623292 73.885046 l
193.915343 79.268397 l
194.134412 92.329064 l
194.280377 106.223261 l
194.35336 106.852623 l
194.572308 93.668557 l
194.864238 81.011133 l
195.156411 79.051057 l
195.521323 76.383278 l
195.594306 76.062767 l
195.66741 76.16452 l
195.886357 83.939215 l
196.032565 86.403197 l
196.251634 84.672879 l
196.543807 88.017619 l
196.616789 87.527405 l
196.835737 85.655564 l
196.981823 86.501794 l
197.054806 83.383263 l
197.127788 84.334913 l
197.41984 84.932686 l
197.711891 88.089345 l
197.784752 87.902927 l
198.076804 85.116788 l
198.295994 80.038754 l
198.588046 93.132394 l
198.734011 88.852684 l
198.879976 79.473506 l
198.952958 80.424608 l
199.172027 87.103987 l
199.24501 87.054984 l
199.537061 86.056751 l
199.975199 83.195586 l
200.048182 82.95982 l
200.121164 83.049202 l
200.340476 83.884611 l
200.632406 85.927226 l
200.705267 81.678867 l
200.77825 82.531618 l
201.362231 89.391632 l
201.508197 103.51612 l
201.581179 81.426368 l
201.654162 106.230434 l
201.727144 100.270321 l
201.800127 99.143995 l
202.019074 109.02959 l
202.092057 115.655647 l
202.165161 111.474635 l
202.238265 118.440893 l
202.311247 145.912556 l
202.603299 99.435207 l
202.968211 79.764463 l
203.114298 81.538993 l
203.479332 92.059322 l
203.552314 96.259256 l
203.625297 96.186517 l
203.844487 93.072833 l
203.917591 92.956672 l
203.990573 93.145466 l
204.063677 92.990498 l
204.136781 93.193359 l
204.35585 99.377462 l
204.865637 115.918533 l
204.93874 116.090656 l
205.011723 115.954449 l
205.157688 116.460344 l
205.303653 115.959981 l
205.595947 112.923015 l
205.88812 106.622093 l
206.472223 126.131017 l
206.764274 109.234523 l
207.056326 90.926472 l
207.129308 96.428505 l
207.202048 94.725539 l
207.640186 113.542316 l
208.078324 125.5799 l
208.224532 132.108421 l
208.370618 122.898005 l
208.443843 123.106461 l
208.516947 123.690017 l
208.736016 118.781841 l
208.808998 118.755119 l
208.955085 110.161799 l
209.174154 124.546233 l
209.320119 110.529529 l
209.393344 109.484536 l
209.612291 126.329464 l
209.685274 132.991862 l
209.758378 130.140331 l
209.831481 126.033951 l
209.977568 152.079202 l
210.415948 104.5112 l
210.561913 83.562351 l
210.708121 107.44683 l
210.781103 105.426871 l
210.854086 101.494498 l
211.146016 111.503555 l
211.292103 143.693945 l
211.584154 101.017578 l
211.73024 115.025871 l
211.803344 111.640966 l
212.022413 104.272639 l
212.825342 87.179129 l
212.898325 86.434648 l
213.044533 87.739592 l
213.336342 92.558601 l
213.55541 96.199293 l
213.628514 96.404749 l
213.701497 98.549797 l
213.774722 97.728685 l
214.067016 95.648235 l
214.285963 100.29109 l
214.870188 112.808461 l
214.94317 113.637849 l
215.089378 122.379275 l
215.235343 113.943475 l
215.527758 127.518214 l
215.820052 72.74861 l
215.892913 74.121148 l
216.184965 109.956219 l
216.257947 118.529078 l
221.516086 153.114722 m
221.735034 100.441489 l
222.100189 88.335139 l
222.319379 84.177199 l
222.465344 84.609095 l
222.684534 86.905628 l
222.830621 94.833276 l
223.049932 95.464262 l
223.122915 89.525996 l
223.195897 89.833129 l
223.414845 90.375308 l
223.633793 88.702526 l
224.290878 83.177824 l
224.58293 81.679116 l
225.167275 75.463773 l
225.386344 77.524847 l
225.751499 81.298943 l
225.897464 80.370477 l
226.774104 72.917115 l
226.92019 67.067589 l
227.066276 71.888411 l
227.212363 72.035829 l
227.504293 73.252167 l
227.577397 72.901537 l
227.796466 71.524224 l
227.942431 72.614445 l
228.015534 79.020369 l
228.088517 71.26413 l
228.161742 72.745127 l
228.234846 72.797828 l
228.30795 77.72547 l
228.380932 73.31769 l
228.454036 75.042335 l
228.52714 76.102558 l
228.673226 81.21462 l
228.965156 66.655672 l
229.038139 67.61635 l
229.111243 70.480243 l
229.184225 70.269792 l
229.257208 71.025275 l
229.403173 84.15329 l
229.476155 131.606661 l
229.549259 124.297386 l
229.768328 96.546936 l
229.841311 138.424218 l
229.914415 96.408109 l
229.987518 97.326659 l
230.279812 77.631439 l
230.352916 83.021692 l
230.425899 72.415947 l
230.498881 73.413263 l
230.790933 77.197808 l
231.010123 83.422273 l
231.083227 81.609102 l
231.156209 79.744878 l
231.229192 79.836685 l
231.302174 80.357854 l
231.448261 86.530967 l
231.594104 80.231518 l
231.667208 80.845781 l
231.813173 81.944105 l
231.886277 81.753247 l
231.959381 82.419386 l
232.105589 81.211901 l
232.178571 81.013806 l
232.470744 82.431708 l
232.762674 89.482859 l
233.127708 71.698019 l
233.200691 71.121619 l
233.273794 71.784818 l
233.492742 68.771776 l
233.785036 65.785603 l
234.004347 63.784686 l
234.953606 61.806459 l
235.46509 61.404581 l
235.757384 61.365796 l
236.268504 61.6561 l
236.560677 61.732222 l
236.706642 60.976766 l
236.852607 62.905646 l
236.925589 63.012277 l
236.998693 61.154443 l
237.071797 61.428626 l
237.510056 63.142101 l
237.58316 63.028887 l
238.167627 62.151773 l
238.605643 61.97079 l
239.774334 60.901412 l
239.920541 61.153524 l
240.066628 59.94608 l
240.13961 60.339463 l
240.212593 61.91881 l
240.285697 61.541984 l
240.358801 61.283379 l
241.089475 63.061289 l
241.673578 65.5193 l
241.965629 65.514848 l
242.769286 64.982654 l
243.280285 64.006217 l
243.499475 64.225691 l
244.594941 65.775813 l
245.252269 65.876365 l
245.690528 65.940476 l
246.275116 67.093803 l
246.567167 67.046706 l
246.786357 66.884991 l
247.224617 65.945952 l
247.662997 64.623271 l
248.028395 63.641641 l
248.539515 63.834429 l
249.123739 61.498998 l
249.196722 61.519438 l
249.561756 62.198787 l
249.854292 62.644606 l
250.073361 62.696599 l
250.219326 62.681673 l
250.365291 63.043972 l
250.511256 64.268345 l
250.584239 63.741479 l
250.730325 62.40743 l
250.87629 63.4142 l
250.949515 63.514475 l
251.387896 65.367449 l
251.826155 66.137272 l
252.921742 68.31309 l
253.871485 70.622621 l
254.163415 70.411575 l
254.74776 69.702912 l
255.040054 69.393986 l
255.697382 69.493307 l
256.208624 69.57781 l
256.793091 68.760984 l
257.085506 68.944965 l
257.596626 69.505679 l
257.888799 71.400631 l
257.961781 71.167575 l
258.107747 70.698629 l
258.18085 70.749659 l
258.400162 73.456426 l
258.473265 72.057336 l
258.692456 86.834378 l
258.765438 93.728927 l
258.838421 92.543597 l
259.05749 83.25798 l
259.276559 89.295912 l
259.349541 89.079177 l
259.495506 80.571063 l
259.714575 70.062743 l
259.787558 75.426021 l
259.860661 74.509917 l
260.298921 70.223717 l
260.664197 70.710118 l
260.810162 71.715866 l
260.95637 68.883544 l
261.029352 71.186605 l
261.2483 64.290733 l
261.321404 63.742055 l
261.394386 64.100902 l
261.540351 66.549747 l
261.686438 71.692781 l
261.75942 71.389777 l
261.905507 114.021114 l
262.124818 66.434958 l
262.197922 72.348909 l
262.271026 102.096184 l
262.416991 72.361351 l
262.489973 72.040295 l
262.63606 68.891234 l
262.709163 68.516056 l
262.782025 66.728275 l
262.855129 67.737377 l
263.074197 64.718783 l
263.14718 65.935989 l
263.220163 64.600244 l
263.439232 89.406689 l
263.512214 67.091871 l
263.585197 78.903608 l
263.658179 75.515029 l
263.804266 71.368338 l
264.023577 72.674885 l
264.169784 81.371142 l
264.31575 93.401025 l
265.192146 63.905332 l
265.484077 60.881841 l
265.630284 61.40178 l
265.849596 62.435395 l
265.995924 62.502861 l
266.069028 62.655539 l
267.45703 72.644293 l
267.530255 72.668892 l
267.676221 93.994487 l
267.749203 90.848813 l
268.114358 70.410661 l
268.260324 72.962411 l
268.40641 76.045925 l
268.479271 76.388567 l
268.625479 76.02746 l
268.698461 76.045268 l
269.20946 82.022574 l
269.282564 82.195175 l
269.355547 81.91682 l
269.64772 83.202675 l
270.232065 88.263738 l
270.524238 87.212751 l
271.035722 84.742716 l
271.400877 83.04291 l
272.423118 82.051195 l
272.569083 81.471224 l
273.664791 74.62323 l
273.810756 74.813085 l
274.248894 76.246795 l
274.979447 80.116974 l
275.709636 90.347584 l
276.07467 95.203346 l
276.220757 95.423957 l
276.440068 94.989134 l
276.659258 94.175569 l
276.805345 91.21085 l
277.170621 87.980463 l
277.754845 82.780251 l
277.827828 82.694756 l
278.338463 77.699927 l
278.557653 79.548115 l
278.995791 82.053939 l
279.068895 81.884124 l
279.653119 83.815022 l
280.748464 84.512649 l
281.768886 87.345419 l
281.841868 87.64829 l
281.914851 87.556719 l
281.987955 86.958228 l
282.280128 89.094596 l
283.083178 90.927944 l
283.156282 90.891763 l
283.448212 90.525101 l
283.740385 89.801686 l
284.10554 88.274481 l
285.273988 82.215366 l
285.420196 80.012412 l
286.077645 64.434505 l
286.515783 59.281274 l
286.588887 59.224894 l
286.807834 59.742435 l
287.246336 60.887438 l
287.465647 60.905503 l
288.268698 61.731663 l
288.853286 62.331641 l
289.145459 61.900386 l
290.387132 59.790165 l
290.679183 59.85913 l
291.044581 59.466602 l
291.774528 59.010443 l
291.84751 59.156553 l
292.212787 59.90531 l
292.358631 59.412841 l
292.431735 60.386272 l
292.504717 59.558624 l
292.577821 61.518848 l
292.650804 59.274449 l
292.723786 59.749716 l
292.869872 60.646528 l
293.454097 61.103175 l
293.965459 61.711661 l
294.111425 61.900526 l
294.184407 61.851233 l
294.69577 61.161343 l
294.987943 63.348829 l
295.133908 65.120479 l
295.207012 65.021883 l
296.4482 59.340313 l
296.959563 63.576429 l
297.032545 63.48577 l
297.324718 60.99712 l
297.689873 57.91237 l
298.055029 58.283357 l
298.34708 58.583253 l
298.493166 58.637911 l
298.931426 59.238055 l
299.29646 59.570166 l
299.369563 59.819597 l
299.661736 63.922193 l
300.027134 70.858328 l
300.538375 88.491418 l
300.611358 87.04771 l
301.049738 61.212241 l
301.195703 58.734061 l
301.34179 58.681918 l
301.414772 58.805427 l
301.487755 58.743325 l
301.63372 58.749719 l
301.706702 58.808441 l
302.14484 58.194131 l
302.290927 58.183455 l
302.728943 58.844416 l
302.87503 57.972217 l
302.947891 59.294366 l
303.020995 57.85854 l
303.093977 58.341407 l
303.240064 57.788397 l
303.313046 58.367693 l
303.38615 58.350992 l
303.532115 58.141692 l
303.897392 57.481306 l
304.116703 57.287155 l
304.554719 57.513628 l
305.285272 57.947135 l
306.746015 58.034277 l
307.841481 58.22561 l
309.813222 58.21997 l
310.616636 58.396284 l
311.200982 58.542877 l
312.004275 58.263307 l
312.223344 58.182047 l
312.515516 59.247787 l
312.880914 60.528712 l
313.100225 60.259669 l
313.246312 60.736976 l
313.392398 59.055803 l
313.465502 59.220721 l
313.538484 59.355076 l
313.684571 60.943075 l
313.830657 61.120358 l
313.976744 61.59754 l
314.122951 60.769882 l
314.269037 62.661015 l
314.342141 61.81062 l
314.415124 62.778051 l
314.56121 61.715731 l
314.853262 61.923652 l
315.364503 61.937414 l
315.802641 61.904369 l
316.313883 62.502298 l
316.386865 62.419611 l
316.898107 61.722479 l
317.117418 62.143658 l
317.993815 64.918538 l
318.213126 66.507128 l
318.50542 70.318975 l
318.724368 74.79727 l
318.943316 80.759374 l
319.235367 64.720388 l
319.308471 64.82755 l
319.600644 67.55084 l
319.965799 66.165381 l
320.476919 62.719332 l
321.280334 59.839416 l
322.010523 57.985569 l
322.083505 58.906759 l
322.156609 58.723023 l
322.229592 58.442248 l
322.375557 57.129052 l
322.521522 56.812769 l
322.594626 57.380275 l
322.66773 57.299887 l
323.470901 56.386457 l
323.982264 55.468004 l
324.055368 55.554938 l
324.274558 56.094645 l
324.420523 56.182758 l
324.493627 55.788694 l
324.566731 56.00478 l
325.151076 54.372232 l
326.684801 54.487989 l
327.050199 54.800297 l
327.488337 55.206015 l
328.145543 55.034047 l
328.437595 55.109481 l
328.58356 55.275832 l
328.948958 56.828187 l
329.241009 57.971144 l
329.606043 66.063739 l
329.75213 70.356628 l
329.825112 69.866458 l
330.336233 61.882221 l
330.774492 58.250662 l
330.847595 58.711945 l
330.993682 57.558383 l
331.066664 57.897706 l
331.504802 60.547838 l
331.796854 62.969807 l
331.94294 63.702438 l
332.089026 67.225038 l
332.234991 62.555317 l
332.307974 62.22685 l
332.45406 64.284754 l
332.527164 64.02465 l
332.600147 65.223589 l
332.673129 62.565744 l
332.746233 63.532043 l
332.819216 63.455186 l
333.038284 61.063214 l
333.257475 62.613233 l
333.330457 61.400033 l
333.403561 62.072774 l
333.476665 60.273066 l
333.549647 60.705855 l
333.622751 60.684466 l
333.84182 58.820914 l
334.426287 54.772102 l
334.718459 57.558991 l
334.791442 57.064801 l
334.864546 56.602557 l
335.156597 61.412002 l
335.229701 60.466479 l
335.302805 62.810358 l
335.521995 58.902553 l
335.595099 65.073991 l
335.668202 64.587079 l
335.741185 64.741231 l
335.887271 60.493858 l
335.960375 62.373634 l
336.033479 60.142088 l
336.106462 60.181351 l
336.179444 60.458585 l
336.252548 57.955363 l
336.325773 62.666929 l
336.398755 60.430975 l
336.617824 58.496913 l
336.763789 56.616002 l
336.836893 56.899924 l
337.27491 55.347474 l
337.493979 55.422692 l
337.566961 55.452542 l
337.640065 55.756465 l
338.078445 64.793342 l
338.297514 57.936763 l
338.370618 57.790938 l
338.516583 56.795595 l
338.66267 57.601234 l
338.881981 55.756388 l
338.955085 55.88797 l
339.247379 54.642187 l
339.46669 56.265896 l
339.539794 56.197846 l
339.758863 56.825048 l
339.832088 56.565401 l
340.051157 56.719198 l
340.416312 56.800263 l
340.927554 56.712448 l
341.438916 55.421196 l
341.657985 58.03654 l
341.731089 59.434818 l
341.877054 56.332871 l
341.950037 56.771826 l
342.023019 58.755344 l
342.096002 58.520524 l
342.168984 58.448028 l
342.241967 56.273252 l
342.461036 59.134113 l
342.607122 60.523906 l
342.899174 57.997945 l
343.045381 57.097524 l
343.337554 55.763791 l
343.848796 54.792013 l
344.140847 54.845335 l
344.506124 55.129154 l
344.944504 55.58495 l
345.017486 55.500464 l
345.820901 54.363582 l
346.332264 53.835861 l
347.427608 53.360091 l
348.231144 53.357157 l
349.983937 53.694601 l
350.93368 54.039325 l
352.686838 54.65457 l
353.19808 54.813545 l
354.512978 53.790647 l
355.02422 53.218485 l
355.316513 53.052182 l
355.754651 54.119908 l
356.703788 61.381837 l
356.849875 61.194912 l
357.360995 59.509448 l
358.164046 57.481911 l
358.821252 56.549093 l
359.040321 56.38631 l
359.405476 56.549779 l
359.697649 56.881175 l
360.500821 57.844131 l
360.720011 58.037759 l
361.012426 60.265058 l
361.304599 63.472826 l
361.377703 63.397999 l
361.816083 61.972891 l
362.18136 61.255664 l
362.327446 60.8683 l
362.40055 61.274946 l
362.473654 62.373841 l
362.546636 60.931606 l
362.61974 61.673542 l
362.83893 59.443001 l
362.912034 62.137819 l
362.985138 61.570673 l
363.058241 61.319003 l
363.350414 62.240473 l
363.642587 62.628656 l
363.788673 61.931643 l
363.934881 63.124258 l
364.007863 63.1051 l
364.080967 63.000159 l
364.665312 63.933266 l
364.811399 64.671192 l
364.884381 64.418669 l
364.957364 64.622212 l
365.10345 63.523049 l
365.249415 71.605241 l
365.322519 70.754379 l
365.395623 68.291643 l
365.541709 86.583653 l
365.614813 77.385402 l
365.687796 90.983576 l
365.760778 87.874106 l
365.906986 68.674466 l
366.272384 82.691319 l
366.345366 79.644055 l
366.418349 81.042992 l
366.63766 76.680944 l
366.710643 73.639855 l
366.783746 79.504764 l
366.929712 71.45084 l
367.148902 68.193619 l
367.222005 68.811235 l
367.587403 75.256852 l
367.73349 80.434405 l
368.025783 69.881083 l
368.244852 67.402426 l
368.317956 67.156015 l
368.463921 67.784986 l
368.829077 71.870628 l
369.194111 79.799118 l
369.340318 86.650881 l
369.559387 101.078084 l
369.778577 120.609211 l
369.997767 71.776637 l
370.143732 69.031798 l
370.655095 74.117098 l
370.728078 73.70781 l
371.093354 71.22219 l
371.166337 70.928475 l
371.239441 70.954929 l
371.458631 75.329554 l
371.6777 81.299583 l
371.750682 70.2636 l
371.823786 70.84997 l
371.969751 79.330957 l
372.261924 96.800807 l
372.408131 99.355043 l
372.554339 90.477169 l
372.626715 91.680739 l
372.772802 94.360649 l
372.991871 89.716143 l
373.138078 70.380301 l
373.211182 70.039693 l
373.430251 77.363869 l
373.722302 96.892409 l
373.795406 94.456833 l
373.868389 83.257462 l
373.941371 90.579703 l
374.014354 89.723997 l
374.160562 84.404001 l
374.306769 87.851164 l
374.452734 84.80174 l
374.525838 85.349803 l
374.818011 87.831338 l
374.891115 84.310832 l
375.037201 91.686376 l
375.110305 91.087699 l
375.183287 90.772403 l
375.25627 85.169739 l
375.329252 90.863251 l
375.402356 84.507535 l
375.475339 89.402818 l
375.548321 81.060401 l
375.621304 82.436207 l
375.694408 82.041341 l
375.76739 82.36588 l
376.059563 73.941314 l
376.497822 68.083126 l
376.86322 66.175045 l
377.739859 63.304432 l
378.470654 61.567983 l
378.981775 60.779229 l
380.077725 59.857794 l
381.173312 57.074746 l
381.684675 56.515325 l
382.488332 56.005546 l
382.999695 56.124239 l
383.584283 56.589252 l
384.095646 56.338275 l
384.38794 56.305655 l
384.60713 56.439667 l
384.753095 56.903552 l
385.118493 59.511904 l
385.337804 62.054489 l
385.702959 69.633525 l
385.921907 73.799822 l
386.068114 73.879861 l
386.506374 72.666125 l
386.579477 72.732833 l
386.725564 72.765494 l
387.017736 72.073779 l
387.821393 69.231944 l
387.967479 69.144476 l
388.040583 69.161165 l
388.332756 68.34329 l
388.405739 68.501772 l
388.624929 67.655113 l
388.698032 67.799027 l
388.771015 66.686327 l
388.844119 66.893434 l
388.917101 67.213326 l
388.990205 66.576651 l
389.063188 67.226382 l
389.355482 65.390961 l
389.501568 65.87319 l
389.940191 67.929764 l
390.013295 67.870346 l
390.086398 67.727703 l
390.232485 66.864014 l
390.37845 69.54012 l
390.451554 69.240371 l
390.81683 64.91699 l
391.109003 61.486923 l
391.401297 59.550123 l
391.547504 59.932411 l
391.693591 60.52157 l
391.766694 60.473912 l
391.985763 60.16737 l
392.496884 60.414222 l
394.103834 60.003269 l
395.345507 59.442796 l
396.660648 58.644755 l
397.099028 58.27604 l
397.683616 57.724817 l
397.902806 57.820605 l
398.048892 57.88604 l
398.121875 57.795439 l
398.194979 57.881833 l
398.267961 58.653347 l
398.341065 56.285106 l
398.414048 57.758683 l
398.487273 57.08699 l
stroke
grestore
0.800 setlinewidth
0 setlinejoin
[] 0 setdash
0.000 setgray
gsave
57.6 38.016 m
57.6 304.128 l
stroke
grestore
gsave
414.72 38.016 m
414.72 304.128 l
stroke
grestore
gsave
57.6 38.016 m
414.72 38.016 l
stroke
grestore
gsave
57.6 304.128 m
414.72 304.128 l
stroke
grestore
1.000 setlinewidth
0 setlinecap
0.800 setgray
gsave
349.860625 266.78425 m
407.72 266.78425 l
409.053333 266.78425 409.72 267.450917 409.72 268.78425 c
409.72 297.128 l
409.72 298.461333 409.053333 299.128 407.72 299.128 c
349.860625 299.128 l
348.527292 299.128 347.860625 298.461333 347.860625 297.128 c
347.860625 268.78425 l
347.860625 267.450917 348.527292 266.78425 349.860625 266.78425 c
cl
gsave
1.000 setgray
fill
grestore
stroke
grestore
1.500 setlinewidth
1 setlinejoin
2 setlinecap
[] 0 setdash
0.000 0.750 0.750 setrgbcolor
gsave
351.860625 291.03425 m
371.860625 291.03425 l
stroke
grestore
0.000 setgray
gsave
379.860625 287.534250 translate
0.000000 rotate
0.000000 0.000000 m /three glyphshow
6.362305 0.000000 m /m glyphshow
16.103516 0.000000 m /m glyphshow
grestore
0.627 0.314 0.314 setrgbcolor
gsave
351.860625 276.362375 m
371.860625 276.362375 l
stroke
grestore
0.000 setgray
gsave
379.860625 272.862375 translate
0.000000 rotate
0.000000 0.000000 m /two glyphshow
6.362305 0.000000 m /m glyphshow
16.103516 0.000000 m /m glyphshow
grestore

end
showpage
