%!PS-Adobe-3.0 EPSF-3.0
%%Title: spb/09_RAW_tau.eps
%%Creator: matplotlib version 2.2.3, http://matplotlib.org/
%%CreationDate: Wed Oct 10 10:41:13 2018
%%Orientation: portrait
%%BoundingBox: 75 223 536 568
%%EndComments
%%BeginProlog
/mpldict 9 dict def
mpldict begin
/m { moveto } bind def
/l { lineto } bind def
/r { rlineto } bind def
/c { curveto } bind def
/cl { closepath } bind def
/box {
m
1 index 0 r
0 exch r
neg 0 r
cl
} bind def
/clipbox {
box
clip
newpath
} bind def
%!PS-Adobe-3.0 Resource-Font
%%Title: DejaVu Sans
%%Copyright: Copyright (c) 2003 by Bitstream, Inc. All Rights Reserved. Copyright (c) 2006 by Tavmjong Bah. All Rights Reserved. DejaVu changes are in public domain 
%%Creator: Converted from TrueType to type 3 by PPR
25 dict begin
/_d{bind def}bind def
/_m{moveto}_d
/_l{lineto}_d
/_cl{closepath eofill}_d
/_c{curveto}_d
/_sc{7 -1 roll{setcachedevice}{pop pop pop pop pop pop}ifelse}_d
/_e{exec}_d
/FontName /DejaVuSans def
/PaintType 0 def
/FontMatrix[.001 0 0 .001 0 0]def
/FontBBox[-1021 -463 1793 1232]def
/FontType 3 def
/Encoding [ /space /comma /period /zero /one /two /three /four /five /six /eight /a /d /e /i /m /s /t /y ] def
/FontInfo 10 dict dup begin
/FamilyName (DejaVu Sans) def
/FullName (DejaVu Sans) def
/Notice (Copyright (c) 2003 by Bitstream, Inc. All Rights Reserved. Copyright (c) 2006 by Tavmjong Bah. All Rights Reserved. DejaVu changes are in public domain ) def
/Weight (Book) def
/Version (Version 2.35) def
/ItalicAngle 0.0 def
/isFixedPitch false def
/UnderlinePosition -130 def
/UnderlineThickness 90 def
end readonly def
/CharStrings 20 dict dup begin
/.notdef 0 def
/space{318 0 0 0 0 0 _sc
}_d
/comma{318 0 77 -115 220 124 _sc
117 124 _m
220 124 _l
220 40 _l
140 -115 _l
77 -115 _l
117 40 _l
117 124 _l
_cl}_d
/period{318 0 107 0 210 124 _sc
107 124 _m
210 124 _l
210 0 _l
107 0 _l
107 124 _l
_cl}_d
/zero{636 0 66 -13 570 742 _sc
318 664 _m
267 664 229 639 203 589 _c
177 539 165 464 165 364 _c
165 264 177 189 203 139 _c
229 89 267 64 318 64 _c
369 64 407 89 433 139 _c
458 189 471 264 471 364 _c
471 464 458 539 433 589 _c
407 639 369 664 318 664 _c
318 742 _m
399 742 461 709 505 645 _c
548 580 570 486 570 364 _c
570 241 548 147 505 83 _c
461 19 399 -13 318 -13 _c
236 -13 173 19 130 83 _c
87 147 66 241 66 364 _c
66 486 87 580 130 645 _c
173 709 236 742 318 742 _c
_cl}_d
/one{636 0 110 0 544 729 _sc
124 83 _m
285 83 _l
285 639 _l
110 604 _l
110 694 _l
284 729 _l
383 729 _l
383 83 _l
544 83 _l
544 0 _l
124 0 _l
124 83 _l
_cl}_d
/two{{636 0 73 0 536 742 _sc
192 83 _m
536 83 _l
536 0 _l
73 0 _l
73 83 _l
110 121 161 173 226 239 _c
290 304 331 346 348 365 _c
380 400 402 430 414 455 _c
426 479 433 504 433 528 _c
433 566 419 598 392 622 _c
365 646 330 659 286 659 _c
255 659 222 653 188 643 _c
154 632 117 616 78 594 _c
78 694 _l
118 710 155 722 189 730 _c
223 738 255 742 284 742 _c
}_e{359 742 419 723 464 685 _c
509 647 532 597 532 534 _c
532 504 526 475 515 449 _c
504 422 484 390 454 354 _c
446 344 420 317 376 272 _c
332 227 271 164 192 83 _c
_cl}_e}_d
/three{{636 0 76 -13 556 742 _sc
406 393 _m
453 383 490 362 516 330 _c
542 298 556 258 556 212 _c
556 140 531 84 482 45 _c
432 6 362 -13 271 -13 _c
240 -13 208 -10 176 -4 _c
144 1 110 10 76 22 _c
76 117 _l
103 101 133 89 166 81 _c
198 73 232 69 268 69 _c
330 69 377 81 409 105 _c
441 129 458 165 458 212 _c
458 254 443 288 413 312 _c
383 336 341 349 287 349 _c
}_e{202 349 _l
202 430 _l
291 430 _l
339 430 376 439 402 459 _c
428 478 441 506 441 543 _c
441 580 427 609 401 629 _c
374 649 336 659 287 659 _c
260 659 231 656 200 650 _c
169 644 135 635 98 623 _c
98 711 _l
135 721 170 729 203 734 _c
235 739 266 742 296 742 _c
370 742 429 725 473 691 _c
517 657 539 611 539 553 _c
539 513 527 479 504 451 _c
481 423 448 403 406 393 _c
_cl}_e}_d
/four{636 0 49 0 580 729 _sc
378 643 _m
129 254 _l
378 254 _l
378 643 _l
352 729 _m
476 729 _l
476 254 _l
580 254 _l
580 172 _l
476 172 _l
476 0 _l
378 0 _l
378 172 _l
49 172 _l
49 267 _l
352 729 _l
_cl}_d
/five{{636 0 77 -13 549 729 _sc
108 729 _m
495 729 _l
495 646 _l
198 646 _l
198 467 _l
212 472 227 476 241 478 _c
255 480 270 482 284 482 _c
365 482 429 459 477 415 _c
525 370 549 310 549 234 _c
549 155 524 94 475 51 _c
426 8 357 -13 269 -13 _c
238 -13 207 -10 175 -6 _c
143 -1 111 6 77 17 _c
77 116 _l
106 100 136 88 168 80 _c
199 72 232 69 267 69 _c
}_e{323 69 368 83 401 113 _c
433 143 450 183 450 234 _c
450 284 433 324 401 354 _c
368 384 323 399 267 399 _c
241 399 214 396 188 390 _c
162 384 135 375 108 363 _c
108 729 _l
_cl}_e}_d
/six{{636 0 70 -13 573 742 _sc
330 404 _m
286 404 251 388 225 358 _c
199 328 186 286 186 234 _c
186 181 199 139 225 109 _c
251 79 286 64 330 64 _c
374 64 409 79 435 109 _c
461 139 474 181 474 234 _c
474 286 461 328 435 358 _c
409 388 374 404 330 404 _c
526 713 _m
526 623 _l
501 635 476 644 451 650 _c
425 656 400 659 376 659 _c
310 659 260 637 226 593 _c
}_e{192 549 172 482 168 394 _c
187 422 211 444 240 459 _c
269 474 301 482 336 482 _c
409 482 467 459 509 415 _c
551 371 573 310 573 234 _c
573 159 550 99 506 54 _c
462 9 403 -13 330 -13 _c
246 -13 181 19 137 83 _c
92 147 70 241 70 364 _c
70 479 97 571 152 639 _c
206 707 280 742 372 742 _c
396 742 421 739 447 735 _c
472 730 498 723 526 713 _c
_cl}_e}_d
/eight{{636 0 68 -13 568 742 _sc
318 346 _m
271 346 234 333 207 308 _c
180 283 167 249 167 205 _c
167 161 180 126 207 101 _c
234 76 271 64 318 64 _c
364 64 401 76 428 102 _c
455 127 469 161 469 205 _c
469 249 455 283 429 308 _c
402 333 365 346 318 346 _c
219 388 _m
177 398 144 418 120 447 _c
96 476 85 511 85 553 _c
85 611 105 657 147 691 _c
188 725 245 742 318 742 _c
}_e{390 742 447 725 489 691 _c
530 657 551 611 551 553 _c
551 511 539 476 515 447 _c
491 418 459 398 417 388 _c
464 377 501 355 528 323 _c
554 291 568 251 568 205 _c
568 134 546 80 503 43 _c
459 5 398 -13 318 -13 _c
237 -13 175 5 132 43 _c
89 80 68 134 68 205 _c
68 251 81 291 108 323 _c
134 355 171 377 219 388 _c
183 544 _m
183 506 194 476 218 455 _c
}_e{242 434 275 424 318 424 _c
360 424 393 434 417 455 _c
441 476 453 506 453 544 _c
453 582 441 611 417 632 _c
393 653 360 664 318 664 _c
275 664 242 653 218 632 _c
194 611 183 582 183 544 _c
_cl}_e}_d
/a{{613 0 60 -13 522 560 _sc
343 275 _m
270 275 220 266 192 250 _c
164 233 150 205 150 165 _c
150 133 160 107 181 89 _c
202 70 231 61 267 61 _c
317 61 357 78 387 114 _c
417 149 432 196 432 255 _c
432 275 _l
343 275 _l
522 312 _m
522 0 _l
432 0 _l
432 83 _l
411 49 385 25 355 10 _c
325 -5 287 -13 243 -13 _c
187 -13 142 2 109 33 _c
76 64 60 106 60 159 _c
}_e{60 220 80 266 122 298 _c
163 329 224 345 306 345 _c
432 345 _l
432 354 _l
432 395 418 427 391 450 _c
364 472 326 484 277 484 _c
245 484 215 480 185 472 _c
155 464 127 453 100 439 _c
100 522 _l
132 534 164 544 195 550 _c
226 556 256 560 286 560 _c
365 560 424 539 463 498 _c
502 457 522 395 522 312 _c
_cl}_e}_d
/d{{635 0 55 -13 544 760 _sc
454 464 _m
454 760 _l
544 760 _l
544 0 _l
454 0 _l
454 82 _l
435 49 411 25 382 10 _c
353 -5 319 -13 279 -13 _c
213 -13 159 13 117 65 _c
75 117 55 187 55 273 _c
55 359 75 428 117 481 _c
159 533 213 560 279 560 _c
319 560 353 552 382 536 _c
411 520 435 496 454 464 _c
148 273 _m
148 207 161 155 188 117 _c
215 79 253 61 301 61 _c
}_e{348 61 385 79 413 117 _c
440 155 454 207 454 273 _c
454 339 440 390 413 428 _c
385 466 348 485 301 485 _c
253 485 215 466 188 428 _c
161 390 148 339 148 273 _c
_cl}_e}_d
/e{{615 0 55 -13 562 560 _sc
562 296 _m
562 252 _l
149 252 _l
153 190 171 142 205 110 _c
238 78 284 62 344 62 _c
378 62 412 66 444 74 _c
476 82 509 95 541 113 _c
541 28 _l
509 14 476 3 442 -3 _c
408 -9 373 -13 339 -13 _c
251 -13 182 12 131 62 _c
80 112 55 181 55 268 _c
55 357 79 428 127 481 _c
175 533 241 560 323 560 _c
397 560 455 536 498 489 _c
}_e{540 441 562 377 562 296 _c
472 322 _m
471 371 457 410 431 440 _c
404 469 368 484 324 484 _c
274 484 234 469 204 441 _c
174 413 156 373 152 322 _c
472 322 _l
_cl}_e}_d
/i{278 0 94 0 184 760 _sc
94 547 _m
184 547 _l
184 0 _l
94 0 _l
94 547 _l
94 760 _m
184 760 _l
184 646 _l
94 646 _l
94 760 _l
_cl}_d
/m{{974 0 91 0 889 560 _sc
520 442 _m
542 482 569 511 600 531 _c
631 550 668 560 711 560 _c
767 560 811 540 842 500 _c
873 460 889 403 889 330 _c
889 0 _l
799 0 _l
799 327 _l
799 379 789 418 771 444 _c
752 469 724 482 686 482 _c
639 482 602 466 575 435 _c
548 404 535 362 535 309 _c
535 0 _l
445 0 _l
445 327 _l
445 379 435 418 417 444 _c
398 469 369 482 331 482 _c
}_e{285 482 248 466 221 435 _c
194 404 181 362 181 309 _c
181 0 _l
91 0 _l
91 547 _l
181 547 _l
181 462 _l
201 495 226 520 255 536 _c
283 552 317 560 357 560 _c
397 560 430 550 458 530 _c
486 510 506 480 520 442 _c
_cl}_e}_d
/s{{521 0 54 -13 472 560 _sc
443 531 _m
443 446 _l
417 458 391 468 364 475 _c
336 481 308 485 279 485 _c
234 485 200 478 178 464 _c
156 450 145 430 145 403 _c
145 382 153 366 169 354 _c
185 342 217 330 265 320 _c
296 313 _l
360 299 405 279 432 255 _c
458 230 472 195 472 151 _c
472 100 452 60 412 31 _c
372 1 316 -13 246 -13 _c
216 -13 186 -10 154 -5 _c
}_e{122 0 89 8 54 20 _c
54 113 _l
87 95 120 82 152 74 _c
184 65 216 61 248 61 _c
290 61 323 68 346 82 _c
368 96 380 117 380 144 _c
380 168 371 187 355 200 _c
339 213 303 226 247 238 _c
216 245 _l
160 257 119 275 95 299 _c
70 323 58 356 58 399 _c
58 450 76 490 112 518 _c
148 546 200 560 268 560 _c
301 560 332 557 362 552 _c
391 547 418 540 443 531 _c
}_e{_cl}_e}_d
/t{392 0 27 0 368 702 _sc
183 702 _m
183 547 _l
368 547 _l
368 477 _l
183 477 _l
183 180 _l
183 135 189 106 201 94 _c
213 81 238 75 276 75 _c
368 75 _l
368 0 _l
276 0 _l
206 0 158 13 132 39 _c
106 65 93 112 93 180 _c
93 477 _l
27 477 _l
27 547 _l
93 547 _l
93 702 _l
183 702 _l
_cl}_d
/y{592 0 30 -207 562 547 _sc
322 -50 _m
296 -114 271 -157 247 -177 _c
223 -197 191 -207 151 -207 _c
79 -207 _l
79 -132 _l
132 -132 _l
156 -132 175 -126 189 -114 _c
203 -102 218 -75 235 -31 _c
251 9 _l
30 547 _l
125 547 _l
296 119 _l
467 547 _l
562 547 _l
322 -50 _l
_cl}_d
end readonly def

/BuildGlyph
 {exch begin
 CharStrings exch
 2 copy known not{pop /.notdef}if
 true 3 1 roll get exec
 end}_d

/BuildChar {
 1 index /Encoding get exch get
 1 index /BuildGlyph get exec
}_d

FontName currentdict end definefont pop
%!PS-Adobe-3.0 Resource-Font
%%Title: DejaVu Sans Oblique
%%Copyright: Copyright (c) 2003 by Bitstream, Inc. All Rights Reserved. Copyright (c) 2006 by Tavmjong Bah. All Rights Reserved. DejaVu changes are in public domain 
%%Creator: Converted from TrueType to type 3 by PPR
25 dict begin
/_d{bind def}bind def
/_m{moveto}_d
/_l{lineto}_d
/_cl{closepath eofill}_d
/_c{curveto}_d
/_sc{7 -1 roll{setcachedevice}{pop pop pop pop pop pop}ifelse}_d
/_e{exec}_d
/FontName /DejaVuSans-Oblique def
/PaintType 0 def
/FontMatrix[.001 0 0 .001 0 0]def
/FontBBox[-1016 -350 1659 1068]def
/FontType 3 def
/Encoding [ /tau ] def
/FontInfo 10 dict dup begin
/FamilyName (DejaVu Sans) def
/FullName (DejaVu Sans Oblique) def
/Notice (Copyright (c) 2003 by Bitstream, Inc. All Rights Reserved. Copyright (c) 2006 by Tavmjong Bah. All Rights Reserved. DejaVu changes are in public domain ) def
/Weight (Oblique) def
/Version (Version 2.35) def
/ItalicAngle -11.0 def
/isFixedPitch false def
/UnderlinePosition -130 def
/UnderlineThickness 90 def
end readonly def
/CharStrings 2 dict dup begin
/.notdef 0 def
/tau{602 0 84 0 606 547 _sc
329 100 _m
337 84 359 76 395 76 _c
438 76 _l
423 0 _l
369 0 _l
310 0 270 15 250 47 _c
229 79 226 129 240 198 _c
290 457 _l
84 457 _l
102 547 _l
606 547 _l
589 457 _l
382 457 _l
330 193 _l
320 145 320 114 329 100 _c
_cl}_d
end readonly def

/BuildGlyph
 {exch begin
 CharStrings exch
 2 copy known not{pop /.notdef}if
 true 3 1 roll get exec
 end}_d

/BuildChar {
 1 index /Encoding get exch get
 1 index /BuildGlyph get exec
}_d

FontName currentdict end definefont pop
end
%%EndProlog
mpldict begin
75.6 223.2 translate
460.8 345.6 0 0 clipbox
gsave
0 0 m
460.8 0 l
460.8 345.6 l
0 345.6 l
cl
1.000 setgray
fill
grestore
gsave
57.6 38.016 m
414.72 38.016 l
414.72 304.128 l
57.6 304.128 l
cl
1.000 setgray
fill
grestore
0.800 setlinewidth
1 setlinejoin
0 setlinecap
[] 0 setdash
0.000 setgray
gsave
/o {
gsave
newpath
translate
0.8 setlinewidth
1 setlinejoin
0 setlinecap
0 0 m
0 -3.5 l

gsave
0.000 setgray
fill
grestore
stroke
grestore
} bind def
62.9348 38.016 o
grestore
/DejaVuSans findfont
10.000 scalefont
setfont
gsave
59.755075 23.422250 translate
0.000000 rotate
0.000000 0.000000 m /zero glyphshow
grestore
gsave
/o {
gsave
newpath
translate
0.8 setlinewidth
1 setlinejoin
0 setlinecap
0 0 m
0 -3.5 l

gsave
0.000 setgray
fill
grestore
stroke
grestore
} bind def
117.057 38.016 o
grestore
gsave
113.877195 23.422250 translate
0.000000 rotate
0.000000 0.000000 m /five glyphshow
grestore
gsave
/o {
gsave
newpath
translate
0.8 setlinewidth
1 setlinejoin
0 setlinecap
0 0 m
0 -3.5 l

gsave
0.000 setgray
fill
grestore
stroke
grestore
} bind def
171.179 38.016 o
grestore
gsave
164.819628 23.422250 translate
0.000000 rotate
0.000000 0.000000 m /one glyphshow
6.362305 0.000000 m /zero glyphshow
grestore
gsave
/o {
gsave
newpath
translate
0.8 setlinewidth
1 setlinejoin
0 setlinecap
0 0 m
0 -3.5 l

gsave
0.000 setgray
fill
grestore
stroke
grestore
} bind def
225.301 38.016 o
grestore
gsave
218.941748 23.422250 translate
0.000000 rotate
0.000000 0.000000 m /one glyphshow
6.362305 0.000000 m /five glyphshow
grestore
gsave
/o {
gsave
newpath
translate
0.8 setlinewidth
1 setlinejoin
0 setlinecap
0 0 m
0 -3.5 l

gsave
0.000 setgray
fill
grestore
stroke
grestore
} bind def
279.423 38.016 o
grestore
gsave
273.063869 23.422250 translate
0.000000 rotate
0.000000 0.000000 m /two glyphshow
6.362305 0.000000 m /zero glyphshow
grestore
gsave
/o {
gsave
newpath
translate
0.8 setlinewidth
1 setlinejoin
0 setlinecap
0 0 m
0 -3.5 l

gsave
0.000 setgray
fill
grestore
stroke
grestore
} bind def
333.545 38.016 o
grestore
gsave
327.185989 23.422250 translate
0.000000 rotate
0.000000 0.000000 m /two glyphshow
6.362305 0.000000 m /five glyphshow
grestore
gsave
/o {
gsave
newpath
translate
0.8 setlinewidth
1 setlinejoin
0 setlinecap
0 0 m
0 -3.5 l

gsave
0.000 setgray
fill
grestore
stroke
grestore
} bind def
387.667 38.016 o
grestore
gsave
381.308109 23.422250 translate
0.000000 rotate
0.000000 0.000000 m /three glyphshow
6.362305 0.000000 m /zero glyphshow
grestore
gsave
209.863125 9.750375 translate
0.000000 rotate
0.000000 0.000000 m /t glyphshow
3.920898 0.000000 m /i glyphshow
6.699219 0.000000 m /m glyphshow
16.440430 0.000000 m /e glyphshow
22.592773 0.000000 m /comma glyphshow
25.771484 0.000000 m /space glyphshow
28.950195 0.000000 m /d glyphshow
35.297852 0.000000 m /a glyphshow
41.425781 0.000000 m /y glyphshow
47.343750 0.000000 m /s glyphshow
grestore
gsave
/o {
gsave
newpath
translate
0.8 setlinewidth
1 setlinejoin
0 setlinecap
0 0 m
-3.5 0 l

gsave
0.000 setgray
fill
grestore
stroke
grestore
} bind def
57.6 80.5955 o
grestore
gsave
34.693750 76.798593 translate
0.000000 rotate
0.000000 0.000000 m /zero glyphshow
6.362305 0.000000 m /period glyphshow
9.541016 0.000000 m /two glyphshow
grestore
gsave
/o {
gsave
newpath
translate
0.8 setlinewidth
1 setlinejoin
0 setlinecap
0 0 m
-3.5 0 l

gsave
0.000 setgray
fill
grestore
stroke
grestore
} bind def
57.6 129.81 o
grestore
gsave
34.693750 126.012753 translate
0.000000 rotate
0.000000 0.000000 m /zero glyphshow
6.362305 0.000000 m /period glyphshow
9.541016 0.000000 m /four glyphshow
grestore
gsave
/o {
gsave
newpath
translate
0.8 setlinewidth
1 setlinejoin
0 setlinecap
0 0 m
-3.5 0 l

gsave
0.000 setgray
fill
grestore
stroke
grestore
} bind def
57.6 179.024 o
grestore
gsave
34.693750 175.226913 translate
0.000000 rotate
0.000000 0.000000 m /zero glyphshow
6.362305 0.000000 m /period glyphshow
9.541016 0.000000 m /six glyphshow
grestore
gsave
/o {
gsave
newpath
translate
0.8 setlinewidth
1 setlinejoin
0 setlinecap
0 0 m
-3.5 0 l

gsave
0.000 setgray
fill
grestore
stroke
grestore
} bind def
57.6 228.238 o
grestore
gsave
34.693750 224.441073 translate
0.000000 rotate
0.000000 0.000000 m /zero glyphshow
6.362305 0.000000 m /period glyphshow
9.541016 0.000000 m /eight glyphshow
grestore
gsave
/o {
gsave
newpath
translate
0.8 setlinewidth
1 setlinejoin
0 setlinecap
0 0 m
-3.5 0 l

gsave
0.000 setgray
fill
grestore
stroke
grestore
} bind def
57.6 277.452 o
grestore
gsave
34.693750 273.655233 translate
0.000000 rotate
0.000000 0.000000 m /one glyphshow
6.362305 0.000000 m /period glyphshow
9.541016 0.000000 m /zero glyphshow
grestore
gsave
28.615625 167.572000 translate
90.000000 rotate
/DejaVuSans-Oblique findfont
10.0 scalefont
setfont
0.000000 0.531250 moveto
/tau glyphshow


grestore
1.500 setlinewidth
2 setlinecap
0.000 0.750 0.750 setrgbcolor
gsave
357.1 266.1 57.6 38.02 clipbox
73.832727 81.094195 m
73.908147 88.054133 l
73.983568 87.685984 l
74.209828 75.350567 l
74.285248 76.083887 l
74.511509 83.93163 l
74.662224 82.446128 l
74.737519 81.423452 l
74.812814 78.751888 l
75.416426 103.517095 l
75.717981 105.603565 l
75.793401 92.846484 l
75.868821 95.851228 l
76.471932 124.588539 l
77.527439 222.353132 l
79.186558 181.517832 m
79.337398 174.689082 l
79.639454 143.12543 l
80.01643 131.960044 m
80.318111 181.373679 l
80.921347 214.403357 m
80.996767 189.437142 l
81.223028 223.76619 m
81.298323 116.553541 l
81.373743 132.594761 l
81.449163 130.215456 l
81.524458 179.218223 l
81.675173 120.083236 l
81.750593 108.267941 l
81.825888 109.4713 l
81.901183 149.207754 l
82.127318 179.097713 m
82.202738 175.340819 l
82.278284 165.236885 l
82.429124 129.566226 l
82.8061 117.323391 l
82.957065 127.901601 l
83.03236 125.081751 l
83.258621 116.285777 l
83.334041 116.299515 l
83.409336 117.11891 l
83.710891 127.879057 l
83.861857 116.800416 l
84.012572 116.662142 l
84.087867 116.32609 l
84.238707 109.845759 l
84.389548 108.512051 l
84.464968 108.131228 l
84.615808 100.647164 l
84.766523 103.204983 l
84.841818 102.786502 l
84.917238 102.355028 l
85.143373 103.764913 l
85.369634 105.368625 l
85.82203 98.31207 l
85.97287 96.535378 l
86.123585 98.174214 l
86.500937 104.616413 l
86.576232 106.285112 l
86.877787 100.245535 l
86.953207 100.788838 l
87.104298 111.90901 l
87.179718 104.589102 l
87.255138 107.137646 l
87.330433 107.916856 l
87.405853 107.609578 l
87.481274 107.341031 l
87.707409 109.239599 l
87.782954 109.077726 l
87.933795 103.161592 l
88.084635 91.10565 l
88.235475 112.103944 l
88.310896 110.805676 l
88.536906 88.202482 l
88.763166 110.122178 l
88.838586 106.449529 l
88.914006 110.646642 l
89.215938 71.855382 l
89.291233 77.21841 l
89.366527 76.058156 l
89.517493 77.496781 l
89.668208 85.608187 l
89.743754 77.972422 l
89.969764 111.537144 l
90.045309 111.897683 l
90.196149 190.946095 l
90.422159 127.791199 l
90.648545 86.22737 l
90.799386 112.467099 l
91.025396 80.158789 l
91.100816 83.023468 l
91.176111 85.484158 l
91.251531 80.176265 l
91.402371 130.508798 l
91.477917 104.747307 l
91.553337 110.00266 l
91.704177 264.83353 l
91.779597 159.285201 l
91.855143 199.877261 l
92.005858 102.428254 l
92.156698 83.926002 l
92.382959 118.722146 l
92.609094 95.4411 l
92.684389 96.893491 l
92.759934 96.662007 l
92.835229 113.377863 l
92.98607 91.585134 l
93.061239 86.742801 l
93.211954 97.359749 l
93.287374 95.927036 l
93.362669 93.868958 l
93.437964 94.167247 l
93.66435 96.383285 l
93.96578 99.747579 l
94.041451 98.317335 l
94.192291 101.059475 l
94.267711 101.426099 l
94.418552 107.739851 l
94.493972 97.292914 l
94.569267 107.772338 l
94.644687 105.818736 l
94.720107 105.608314 l
94.795402 102.460997 l
94.870822 111.225565 l
94.946242 110.680535 l
95.021663 115.083165 l
95.247923 87.074338 l
95.323343 82.678691 l
95.624899 118.222495 l
95.775614 85.035347 l
95.926329 118.030887 l
96.077295 97.578657 l
96.22801 130.125101 l
96.37885 90.09881 l
96.52969 102.532068 l
96.604985 104.691317 l
96.680405 103.576608 l
96.755826 95.241599 l
96.831246 126.48565 l
96.906666 98.722404 l
96.981961 108.52443 l
97.057506 101.348991 l
97.132926 121.727796 l
97.208347 96.934029 l
97.283767 98.711274 l
97.434858 98.505437 l
97.736538 100.964678 l
97.887629 99.015256 l
98.03872 94.456516 l
98.264856 119.059109 l
98.340276 93.32488 l
98.415696 108.606917 l
98.641706 88.911773 l
98.792546 88.440525 l
98.943387 89.304949 l
99.094102 88.256737 l
99.169522 82.612003 l
99.244942 82.762546 l
99.395782 89.801415 l
99.546497 81.700733 l
99.621918 83.280554 l
99.772758 86.114678 l
99.848178 86.049156 l
100.52721 69.682452 l
100.678051 69.637485 l
101.055152 70.02573 l
101.583343 69.224805 l
101.809479 69.085669 l
101.960319 69.04645 l
102.186579 69.469723 l
102.638725 70.951914 l
102.94028 72.085557 l
103.166541 72.221261 l
103.392801 72.449692 l
103.468221 72.693127 l
103.845448 76.883925 l
104.222298 80.928447 l
104.373138 87.841902 l
104.448558 88.060232 l
104.599399 87.851578 l
104.674694 85.070245 l
104.750114 86.293992 l
104.976249 83.030552 l
105.277804 89.728509 l
105.57936 100.48083 l
105.881041 73.438749 l
105.956461 73.275522 l
106.182972 74.512895 l
106.484402 73.614535 l
107.163184 70.497951 l
107.314024 70.607885 l
107.389319 70.687453 l
107.615204 70.166848 l
107.690624 70.254741 l
107.841339 69.96504 l
108.143145 73.552399 l
108.293985 75.145192 l
108.595541 84.886774 l
108.821551 96.053759 l
108.896971 90.176063 l
108.972266 90.501649 l
109.047686 99.665213 l
109.123106 98.075991 l
109.349241 102.994693 l
109.424536 104.394136 l
109.499956 103.537474 l
109.801512 76.822767 l
109.876932 76.91408 l
110.103067 80.411179 l
110.329328 97.65993 l
110.555338 112.494507 l
110.706053 119.134771 l
110.932313 78.544856 l
111.007608 75.116751 l
111.233743 82.283071 l
111.309164 81.814977 l
111.460004 82.508449 l
111.610719 81.661074 l
111.912274 93.697942 l
112.21383 76.546181 l
112.515511 96.801602 l
112.666351 108.711311 l
113.043452 234.708942 l
113.118872 87.132649 l
113.194292 88.099324 l
113.269587 89.389856 l
113.420302 231.8546 m
113.646437 211.432797 l
113.721857 160.060736 l
113.797403 164.326088 l
113.948243 218.157336 l
114.098958 223.716806 l
114.174379 223.447558 l
114.325094 224.20437 l
114.777615 239.431548 l
114.85316 240.253663 l
114.92858 238.89717 l
115.456271 182.089577 l
115.606861 97.970153 l
116.134927 73.317835 l
116.210473 73.990146 l
116.512028 82.746912 l
117.115139 107.857532 l
117.190559 115.72363 l
117.265979 112.897285 l
117.341525 109.695275 l
117.7185 131.552911 l
117.793921 126.372102 l
117.944761 133.179595 l
118.095476 112.194598 l
118.170771 120.592404 l
118.321611 112.320043 m
118.547621 140.569881 l
118.849177 111.438205 l
119.075563 94.600085 l
119.150857 91.516351 l
119.226403 91.590736 l
119.301698 92.158767 l
119.527958 84.494754 l
119.603253 86.225095 l
119.905059 81.629724 l
119.980479 81.00624 l
120.0559 81.320112 l
120.20674 91.122619 l
120.433 113.42874 l
120.659261 110.515042 l
120.810101 112.500122 l
120.885396 120.996131 l
120.960816 159.826903 l
121.111657 114.22745 l
121.262497 131.569737 l
121.338043 108.290335 l
121.413337 132.34899 l
121.564052 97.001791 l
121.639473 100.215653 l
121.790313 93.238798 l
121.865733 93.108094 l
122.016574 82.231325 l
122.167414 88.929168 l
122.318254 82.735107 l
122.69523 91.431534 l
122.92149 94.967444 l
123.07208 92.601998 l
123.147626 99.103623 l
123.222921 115.798647 l
123.298341 95.624578 l
123.373886 101.261592 l
123.449306 106.828485 l
123.600021 103.371051 l
123.750862 109.665128 l
123.826282 91.039686 l
123.901702 93.710262 l
123.976997 93.817454 l
124.429769 88.295771 m
124.580609 116.913194 l
124.731449 99.220834 l
124.882164 129.868781 l
124.957585 108.246025 l
125.1083 141.259192 l
125.259265 113.429865 l
125.33456 138.858306 l
125.40998 132.66293 l
125.787081 107.080981 l
125.862752 107.735785 l
125.938172 110.848437 l
126.013467 120.907442 l
126.164307 108.332892 m
126.239728 138.667607 l
126.315023 111.190968 l
126.541158 132.121324 m
126.616578 129.218293 l
126.691998 119.970406 l
127.29561 121.279741 m
127.446576 153.345865 l
127.672836 166.596354 m
127.899222 124.065077 l
127.974642 125.397159 l
128.200777 134.839715 l
128.502458 237.030134 l
128.577753 147.475201 l
128.653173 170.582219 l
128.804139 103.457457 l
128.879559 108.148444 l
128.954979 105.008068 l
129.10582 110.872485 l
129.18124 106.926113 l
129.407626 79.147684 l
129.483046 83.705383 l
129.558466 81.147379 l
129.709306 69.67034 l
129.860021 113.073121 l
129.935442 110.737389 l
130.010736 74.310681 l
130.086157 74.537635 l
130.161577 78.306106 l
130.312292 70.894327 l
130.387837 71.00348 l
130.613847 73.573497 l
130.689267 72.786146 l
130.990823 69.680891 l
131.141663 69.515659 l
131.443344 69.074966 l
131.594184 70.901093 l
131.745025 66.217896 l
131.820445 66.36942 l
131.97141 72.548547 l
132.046831 68.424311 l
132.122251 72.987381 l
132.348762 66.594678 l
132.424182 65.377054 l
132.650443 91.080161 l
132.725738 123.02934 l
132.801283 110.726117 l
132.876703 118.537913 l
133.102838 78.830064 l
133.178259 78.609226 l
133.329099 75.534236 l
133.630529 63.345697 l
133.781369 65.785998 l
134.082925 70.526275 l
134.233765 71.188635 l
134.38448 70.372628 l
134.610741 68.179533 l
134.912422 65.642924 l
134.987716 65.130325 l
135.063137 65.369394 l
135.138557 65.720327 l
136.722255 61.200633 l
137.099231 60.923901 l
137.627172 60.970898 l
137.853307 61.234908 l
138.230283 62.776654 l
139.060281 67.196694 l
139.286416 69.259079 l
139.361836 66.285742 l
139.512676 71.14662 l
139.663392 66.745567 l
139.738812 68.645909 l
139.889777 51.974846 l
140.040618 71.673318 l
140.191458 74.835119 l
140.342298 74.286382 l
140.417593 75.190318 l
140.719274 69.645489 l
141.17192 65.333121 l
141.473476 61.702213 l
141.699987 68.766169 l
141.926122 73.755003 l
142.076837 75.448657 l
142.227678 74.172006 l
142.378518 75.142286 l
142.680199 72.18184 l
142.831164 73.343674 l
143.434526 81.377146 l
143.887047 91.2773 l
144.264022 80.663618 l
144.490283 86.778674 l
144.716293 87.782483 l
144.791713 88.130107 l
144.867008 87.987184 l
144.942428 87.769019 l
145.017848 83.243945 l
145.093394 83.860352 l
145.244234 88.332012 l
145.319654 82.769211 l
145.395074 90.439953 l
145.470369 89.371003 l
145.54579 89.694962 l
145.62121 89.023173 l
145.84722 95.203324 l
146.073355 104.273362 l
146.29949 122.092943 l
146.450331 92.162382 l
146.601296 111.80542 l
146.676716 85.982348 l
146.752136 95.74641 l
147.053817 79.335535 l
147.204532 93.011543 l
147.279952 81.517071 l
147.355247 83.032999 l
147.506088 74.995665 l
147.581508 82.805377 l
147.657053 76.383764 l
147.808019 79.711229 l
147.883314 80.638233 l
148.034279 87.34928 l
148.1097 86.865427 l
148.788231 63.135326 l
148.938946 68.147886 l
149.089786 69.842872 l
149.617602 68.941874 l
149.919283 67.241213 l
150.145794 66.769336 l
150.221214 66.757724 l
150.522895 68.99186 l
150.824701 64.324745 l
150.899996 64.774449 l
151.201927 67.599504 l
151.277222 67.522191 l
151.578903 69.700736 l
151.729618 70.916117 l
151.880333 70.325106 l
152.332603 68.217516 l
152.558864 69.600766 l
153.313065 75.265348 l
153.614871 76.779548 l
153.841257 80.694441 l
154.067267 73.09766 l
154.142687 73.298847 l
154.293653 72.9439 l
154.444493 74.348161 l
155.19882 91.170312 l
155.274115 88.70359 l
155.42483 92.866453 l
155.500125 91.782805 l
155.575545 87.113162 l
155.877226 100.759858 l
156.027941 105.815494 l
156.178907 84.500336 l
156.254202 91.709489 l
156.329622 91.220214 l
156.405042 90.721202 l
156.480588 107.397933 l
156.556008 100.894729 l
156.706723 87.752015 l
156.857689 111.305606 l
156.933109 106.018114 l
157.084074 87.491455 l
157.159369 87.434042 l
157.234789 86.999871 l
157.310084 87.852531 l
157.68706 84.27267 l
157.76248 84.129384 l
157.988615 88.297217 l
158.441136 97.348652 l
158.969078 104.450069 l
159.572063 118.822669 l
159.647609 118.126331 l
159.722904 117.385582 l
160.778535 92.745265 l
161.004796 100.022652 l
161.306477 118.981389 l
161.381897 123.595999 l
161.457442 122.943201 l
161.909963 112.264553 l
161.985509 111.392608 l
162.136224 113.525034 l
162.286939 117.644696 l
162.5132 137.129688 l
162.739585 154.671303 l
163.342821 193.897989 l
163.418242 198.868621 l
163.493662 198.256226 l
163.569207 194.703284 l
163.644627 221.093097 l
163.719922 129.250755 l
163.795343 162.91967 l
163.946183 139.47898 l
164.097023 137.960419 l
164.927021 107.818037 l
165.078112 105.974465 l
165.153657 106.460767 l
165.304372 104.693328 l
165.605803 107.661943 l
165.907358 92.543194 l
166.058198 100.499195 l
166.284459 112.776676 l
166.51097 109.054114 l
166.58639 109.086061 l
166.888071 116.791339 l
166.963366 114.309602 l
167.038786 114.322007 l
167.114081 115.048713 l
167.189501 114.904768 l
167.415636 114.276106 l
167.717442 120.578372 l
168.018998 126.272269 l
168.169713 130.693093 l
168.546814 132.741204 l
168.622234 132.710466 l
168.848369 129.093087 l
169.15005 120.543333 l
169.37631 112.004219 l
169.753286 105.297807 l
169.828831 105.09236 l
169.979797 112.380418 l
170.507362 142.60083 l
170.582783 142.169273 l
170.960009 137.026536 l
171.337235 128.631534 l
171.638916 106.134224 l
171.865427 127.461689 l
171.940847 172.37392 l
172.091687 103.74259 l
172.317948 89.073215 l
172.619628 84.375689 l
172.845889 79.988293 l
172.921309 80.160243 l
173.449376 85.159205 l
174.279123 72.106619 l
174.430089 71.796031 l
174.80744 70.396851 l
175.410927 67.489545 l
176.240423 64.913368 l
176.843785 63.655399 l
177.447522 62.844406 l
178.051009 62.093745 l
178.42836 61.763087 l
178.805586 61.751073 l
178.956301 61.682036 l
179.333277 61.364291 l
179.484117 61.350481 l
179.710253 61.712259 l
180.011808 62.686576 l
180.69059 65.266529 l
180.992396 71.136631 l
181.671177 84.91125 l
182.124074 93.273703 l
182.5013 100.324482 l
182.576721 100.428243 l
182.727686 99.696856 l
183.331048 94.005705 l
184.537645 82.591684 l
184.61294 82.34405 l
185.065336 76.994796 l
185.291596 76.356067 l
185.970378 73.539088 l
186.272059 72.046821 l
187.101806 67.555004 l
187.403487 66.676406 l
187.629622 66.964216 l
188.157312 68.129317 l
188.68563 69.625992 l
189.741888 72.77785 l
189.892728 72.617954 l
190.269954 71.733212 l
191.325461 69.017257 l
192.381344 67.039823 l
193.135921 66.930489 l
193.588442 66.873166 l
195.474072 66.116743 l
196.153104 65.793011 l
197.134443 65.325282 l
199.472719 63.226315 l
199.925491 63.763237 l
201.585361 65.98734 l
201.811622 66.159301 l
202.037757 65.852578 l
203.01847 63.732492 l
204.300237 61.190179 l
204.828304 60.894363 l
205.58238 60.652336 l
206.411877 60.586619 l
206.788852 60.500969 l
207.6186 60.061853 l
208.372676 59.951169 l
208.976038 60.149545 l
209.126753 60.408252 l
209.730239 62.372005 l
210.559987 65.242493 l
211.239019 66.759059 l
211.465154 67.422989 l
211.84213 71.260015 l
212.520661 79.881936 l
212.747172 81.734403 l
212.898012 81.351292 l
213.576794 77.605218 l
214.10486 74.534419 l
215.236413 70.991316 l
215.688809 70.594986 l
215.990365 70.582841 l
216.292045 71.179153 l
216.593977 70.237917 l
216.895657 66.064008 l
217.046372 74.8477 l
217.197087 91.719251 l
217.574314 68.417934 l
217.800574 70.223748 l
218.177675 66.770868 l
218.479481 66.571373 l
218.630321 66.660574 l
218.781036 67.28042 l
219.082717 69.910154 l
219.460194 73.212505 l
219.83742 75.133455 l
219.913091 76.25176 l
220.139226 86.746956 l
220.290066 100.683864 l
220.516452 151.006235 l
220.591998 147.202432 l
220.894054 119.093036 l
221.04502 121.053844 l
221.12044 120.286617 l
221.422121 86.254753 l
221.572961 95.288017 l
221.723927 112.598296 l
221.799347 108.477625 l
222.101028 88.329898 l
222.402834 84.662554 l
222.553549 85.719004 l
223.08149 92.837295 l
223.383171 102.383251 l
223.609306 109.355678 l
223.760146 109.950818 l
223.835566 109.83385 l
224.137122 103.826695 l
224.363508 120.84168 l
224.438802 127.064268 l
225.042665 93.558644 l
225.34422 82.550301 l
225.645901 90.61744 l
226.022877 105.424361 l
226.098172 104.423789 l
226.324307 101.593389 l
226.399852 101.637575 l
226.626238 99.225186 l
226.852373 95.80661 l
227.078885 100.863367 l
227.154305 103.075311 l
227.229725 102.358518 l
227.682496 98.366256 l
227.757917 98.420434 l
228.361153 91.812424 l
229.04031 74.37575 l
229.115605 75.849523 l
229.417411 79.070929 l
229.568377 81.73309 l
230.398124 71.938633 l
230.699679 70.003288 l
230.7751 70.118499 l
231.076906 82.505737 l
231.152326 82.026015 l
231.378586 76.809059 l
231.454006 78.126122 l
231.755562 84.545517 l
232.057117 86.067819 l
232.207958 85.42812 l
232.584933 82.559052 l
233.18842 69.437091 l
233.263965 69.525522 l
233.490351 70.073562 l
233.641317 69.901428 l
233.792408 69.626522 l
234.244929 67.391337 l
234.848165 64.706956 l
235.376482 62.700864 l
235.678288 61.973793 l
235.979969 61.91858 l
236.58333 62.163823 l
236.885261 62.484998 l
237.338158 63.337029 l
237.488999 64.374985 l
237.8661 64.979391 l
237.94152 64.208721 l
238.017065 64.28789 l
238.545006 64.851586 l
238.620427 64.847301 l
238.922107 63.880247 l
239.072822 63.312929 l
239.223788 61.504554 l
239.374754 61.519495 l
239.676434 61.878113 l
239.827275 62.493126 l
239.978115 62.52286 l
240.581477 62.479325 l
241.863995 62.678353 l
242.845084 62.85023 l
243.900716 63.378938 l
244.202647 63.53758 l
244.278193 63.392844 l
244.353488 63.445304 l
246.69239 65.23665 l
247.673228 65.905665 l
248.201044 65.906408 l
249.634278 65.586412 l
253.104358 64.544632 l
256.045995 64.118298 l
257.781035 63.642761 l
263.512593 61.111119 l
266.379061 60.177496 l
267.133137 60.0514 l
268.189145 60.327953 l
269.772843 60.85047 l
270.979566 60.877139 l
271.734144 61.114054 l
272.262085 61.476578 l
272.488346 61.593533 l
272.790026 61.472666 l
272.940867 61.597231 l
273.242422 62.236824 l
273.317842 62.540394 l
273.619523 66.561188 l
273.694943 66.333632 l
274.22301 62.892336 l
274.373725 63.274001 l
274.901917 65.096082 l
275.505403 65.668901 l
276.109015 65.151275 l
276.561662 64.611094 l
276.636957 64.625747 l
276.938763 66.010264 l
277.84393 70.23409 l
277.91935 70.120288 l
278.296326 68.621577 l
279.125948 64.87834 l
280.408592 62.630648 l
281.238339 61.415703 l
281.766155 60.972111 l
282.520357 60.683922 l
283.048549 60.680015 l
284.330692 60.701437 l
284.557077 60.617428 l
284.707918 60.338597 l
285.914891 60.127523 l
288.328713 59.655223 l
289.007995 59.550701 l
289.158961 59.945903 l
289.913539 59.94914 l
290.064504 59.66033 l
291.120512 59.676255 l
291.271227 60.022657 l
293.685675 60.487487 l
296.175418 61.013302 l
297.306971 60.907522 l
298.4389 60.609498 l
298.816252 60.793343 l
298.967092 60.86984 l
299.268773 59.91085 l
299.570579 58.067206 l
300.023225 64.061662 l
300.09877 64.207029 l
300.174065 64.133308 l
300.400451 62.348499 l
300.852972 58.135991 l
301.004063 58.619854 l
301.155279 59.053202 l
301.38154 59.508806 l
301.683221 65.617998 l
301.758641 65.171898 l
302.286582 58.513958 l
302.437422 59.235582 l
302.588513 60.113376 l
303.192125 54.603635 l
303.267545 54.704323 l
303.569226 56.180985 l
303.795487 58.098985 l
304.399099 60.183334 l
305.00246 69.182765 l
305.153551 68.636377 l
305.530401 65.369674 l
305.681242 64.665389 l
306.058343 65.102185 l
306.209183 65.133717 l
307.18977 62.076358 l
307.491451 61.66315 l
307.944348 60.740108 l
308.019894 60.702178 l
308.246279 61.558778 l
308.850142 63.948354 l
309.227368 64.490064 l
309.453629 63.677128 l
310.434467 59.622407 l
310.585432 59.782724 l
310.962659 60.795502 l
312.245303 65.445485 l
312.622529 69.785162 l
312.848789 71.422124 l
313.075426 71.841731 l
313.226141 71.811863 l
313.452527 71.696235 l
313.754082 73.392246 l
313.905048 69.185293 l
314.055888 68.961295 l
314.206854 69.342684 l
314.282274 73.145759 l
314.357819 72.791819 l
314.659375 71.457888 l
314.81034 73.891237 l
314.961181 79.234004 l
315.112021 75.640562 l
315.187441 80.032335 l
315.262861 74.679675 l
315.338282 89.768491 l
315.413702 85.771954 l
315.564667 84.563454 l
315.790928 86.001028 l
315.942019 84.622673 l
316.31912 76.668164 l
316.470085 71.805743 l
316.621051 90.381406 l
316.696346 86.897504 l
316.771766 85.728509 l
317.224287 112.329673 l
317.375253 132.605107 l
317.752479 81.072662 l
317.97899 83.207514 l
318.431636 79.103654 l
318.733568 78.01985 l
318.884533 77.884941 l
319.035499 78.273317 l
319.26176 79.101331 l
319.488271 79.370826 l
319.714531 82.380727 l
319.789951 78.600906 l
319.865371 83.016235 l
319.940792 82.569392 l
320.091757 81.893651 l
320.242723 79.827714 l
320.393563 84.90112 l
320.469109 85.497961 l
320.544529 80.76714 l
320.619949 82.830644 l
320.695495 78.501677 l
320.770915 82.809582 l
320.997175 76.578137 l
321.223311 80.811624 l
321.524991 85.895631 l
321.600537 82.845841 l
321.978013 88.645164 l
322.279819 91.783242 l
322.35524 94.111307 l
322.43066 89.581136 l
322.50608 95.283238 l
322.5815 93.148594 l
322.883557 89.130256 l
323.110068 87.391162 l
323.260908 88.743585 l
323.939815 96.469315 l
324.090781 96.443738 l
324.392461 96.826384 l
324.920528 99.099538 l
325.298005 100.215289 l
325.52439 101.653455 l
325.826071 96.687717 l
325.901491 97.788593 l
326.203423 102.362239 l
326.278843 102.07904 l
326.580774 90.90705 l
326.73174 87.467367 l
326.958251 96.367694 l
327.033671 99.822225 l
327.109091 99.488634 l
327.335352 91.409241 l
327.410647 91.926588 l
327.486067 94.200205 l
327.561612 93.636624 l
327.637032 92.599968 l
327.712453 98.993581 l
327.787873 94.760392 l
327.863293 94.990355 l
327.938713 95.518808 l
328.089804 91.781941 l
328.240143 87.966909 l
328.315563 93.814914 l
328.390984 93.090649 l
328.541824 94.421025 l
328.617369 94.303299 l
328.76821 93.075938 l
328.99447 91.622594 l
329.220856 90.96717 l
329.371571 90.89787 l
329.597832 88.597221 l
329.824092 89.297055 l
329.899512 88.492374 l
330.050478 91.292198 l
330.72926 91.908582 l
330.880225 91.457104 l
330.955645 88.786434 l
331.031066 88.828958 l
331.182031 91.303809 l
331.483712 91.337926 l
331.559132 91.261474 l
331.936358 89.311754 l
332.388879 87.452229 l
332.841651 86.288249 l
332.917196 85.918858 l
333.143332 84.348362 l
333.369592 83.595448 l
333.520433 83.828938 l
334.274634 86.117639 l
334.576315 86.923483 l
334.651735 85.19471 l
334.727155 85.794535 l
335.255472 91.262289 l
335.783414 100.990413 l
335.858959 96.026474 l
335.934379 96.935348 l
336.538367 103.320601 l
336.764878 105.238573 l
336.991264 107.481556 l
337.217525 103.137557 l
337.443785 100.118323 l
337.519331 100.044814 l
337.594876 99.600864 l
337.896933 90.877342 l
337.972353 90.943377 l
338.198864 92.514655 l
338.727056 87.515804 l
339.104157 86.254117 l
339.330292 86.233418 l
339.707518 89.132202 l
340.009199 90.806582 l
340.46172 99.271614 l
340.53714 100.93867 l
340.612685 91.555823 l
340.68798 96.559416 l
341.065457 77.033706 l
341.216297 72.521239 l
341.517853 75.380379 l
341.593273 78.783723 l
341.668693 77.478924 l
341.744239 77.908942 l
341.819659 69.194551 l
341.895079 73.080215 l
342.045919 71.073683 l
342.196885 69.933216 l
342.347725 70.431652 l
342.423271 70.796729 l
342.498816 70.709364 l
342.649782 70.547496 l
342.725202 70.59188 l
342.951463 71.451044 l
343.177848 73.156193 l
343.630369 77.712913 l
343.70579 76.828651 l
344.233731 69.426769 l
344.384697 70.207717 l
345.214569 78.321923 l
345.440955 80.928019 l
345.818306 70.819731 l
346.044692 65.820376 l
346.195658 67.557593 l
346.346498 72.073637 l
346.497464 67.84665 l
346.799395 85.033762 l
346.950235 91.209864 l
347.101076 85.381859 l
347.554098 66.243794 l
347.704813 71.846773 l
347.780233 77.418682 l
347.855779 75.074548 l
347.931199 76.162079 l
348.006619 84.138703 l
348.082164 83.423318 l
348.157459 82.856853 l
348.38397 89.471262 l
348.459391 84.963695 l
348.836742 120.380209 l
348.912162 122.584213 l
349.063253 118.530379 l
349.138799 118.585328 l
349.214219 118.51316 l
349.440479 112.614481 l
349.893126 99.400845 l
349.968671 99.194047 l
350.346023 90.208161 l
351.175895 80.106145 l
351.251315 80.665273 l
351.628792 87.17784 l
351.779758 90.492219 l
351.855053 88.866815 l
352.081313 92.596356 l
352.232279 88.524041 l
352.60938 71.40061 l
352.684925 61.261113 l
352.760345 64.178184 l
352.911311 61.06108 l
352.986856 61.191825 l
353.665638 56.192585 l
353.892024 54.753642 l
354.118284 57.61212 l
354.193704 58.140915 l
354.495761 55.86267 l
354.797567 74.139239 l
354.873112 71.975111 l
355.175294 59.707547 l
355.703361 63.809257 l
355.854201 62.780486 l
356.231553 60.662502 l
356.307098 60.236926 l
356.458064 63.119349 l
356.533484 62.651203 l
356.608904 60.338452 l
356.684324 61.07513 l
356.910585 62.996877 l
357.06155 62.78705 l
357.212516 62.499597 l
357.363482 63.663381 l
357.438902 61.792999 l
357.589742 65.087035 l
357.665162 64.581937 l
357.740583 64.916026 l
357.816003 67.198691 l
357.891548 66.554991 l
357.966968 60.163188 l
358.042514 94.248538 l
358.193605 62.007157 l
358.26915 59.983965 l
358.419991 63.003326 l
358.570956 59.902773 l
358.721671 71.106377 l
358.797217 70.593219 l
358.948057 63.988592 l
359.023477 62.78866 l
359.174318 68.547749 l
359.249738 59.99218 l
359.325283 73.829761 l
359.476249 61.775468 l
359.551669 66.975957 l
359.627089 66.434635 l
359.702509 61.4597 l
359.778055 66.109961 l
359.853475 64.838473 l
360.079861 67.595367 l
360.155281 65.84142 l
360.230952 66.451799 l
360.457338 82.967586 l
360.532883 99.15353 l
360.608303 71.40445 l
360.683723 98.990902 l
360.834564 66.240643 l
360.985404 76.56506 l
361.060824 102.110463 l
361.136244 60.405894 l
361.211665 62.263116 l
361.28721 73.859332 l
361.362505 70.249997 l
361.438176 71.702577 l
361.513596 78.329422 l
361.589016 75.260021 l
361.740107 62.367832 l
361.815527 63.414946 l
361.891073 65.601947 l
361.966493 65.333217 l
362.192628 67.231932 l
362.343719 62.957634 l
362.494559 65.875027 l
362.645525 63.203445 l
362.872036 78.062042 l
363.098798 60.643225 l
363.325058 77.272859 l
363.551569 64.207813 l
363.702535 78.532567 l
363.77783 73.93882 l
363.928796 60.213106 l
364.00409 62.645948 l
364.079636 62.581925 l
364.154931 62.628101 l
364.305771 62.02272 l
364.456737 62.661717 l
364.607702 63.852493 l
364.758668 68.356024 l
365.135894 62.624928 l
365.211314 63.646926 l
365.362029 59.6366 l
365.43745 68.55253 l
365.51287 90.842401 l
365.66371 56.015115 l
365.739256 59.802936 l
365.814676 65.711657 l
365.890221 63.828524 l
365.965516 60.903648 l
366.041062 61.142763 l
366.116482 61.27155 l
366.267322 59.552701 l
366.569003 64.075602 l
366.870809 53.777117 l
366.946229 54.575524 l
367.021774 56.883047 l
367.248035 128.44913 l
367.323455 239.0699 l
367.399001 62.312041 l
367.474421 69.750026 l
367.625386 64.128108 l
367.700807 73.906285 l
367.776227 58.11384 l
367.851772 59.431716 l
367.927192 59.59511 l
368.002613 54.920832 l
368.078158 55.625379 l
368.228998 60.749577 l
368.304419 60.709033 l
368.379839 61.707704 l
368.530804 84.060473 l
368.606225 81.244331 l
368.68177 79.423105 l
368.757065 80.730187 l
368.83261 77.49571 l
368.983325 90.887591 l
369.058746 71.109839 l
369.134291 82.838007 l
369.285257 62.365232 l
369.360677 62.846875 l
369.511643 67.673116 l
369.587063 69.054511 l
369.889119 50.112 l
370.03996 64.423519 l
370.26622 91.907129 l
370.34164 87.687176 l
370.417186 88.827353 l
370.643572 57.572834 l
370.718992 56.405796 l
370.869957 59.84771 l
371.096594 75.675816 l
371.172014 75.260821 l
371.3984 53.299474 l
371.473945 54.070686 l
371.851297 62.600356 l
372.002137 63.043685 l
372.228398 69.983347 l
372.379489 66.106484 l
372.454909 66.169481 l
372.530329 58.476362 l
372.605624 62.733392 l
372.681169 74.049477 l
372.756589 107.095624 l
372.907304 58.550834 l
372.982725 60.963546 l
373.058145 68.147492 l
373.13369 67.49545 l
373.20911 67.474456 l
373.511042 90.184507 l
373.586462 86.530259 l
373.812722 60.884741 l
373.888143 58.264205 l
373.963563 59.384266 l
374.114654 62.333738 l
374.41646 57.804829 l
374.49188 61.602695 l
374.567551 59.340509 l
374.718266 63.729436 l
374.793811 60.979164 l
374.869231 62.527843 l
374.944652 54.485342 l
375.020072 59.870668 l
375.095492 76.764326 l
375.170912 137.359571 l
375.246458 118.313343 l
375.623558 58.219529 l
375.698979 54.287406 l
375.92549 69.543073 l
376.00091 68.43779 l
376.076455 66.699691 l
376.302966 100.398269 l
376.453807 69.078689 l
376.529352 72.641984 l
376.604772 70.394403 l
376.680193 75.177715 l
376.831033 58.983052 l
376.981999 82.302955 l
377.132964 58.820313 l
377.208384 61.031662 l
377.359475 67.804473 l
377.510316 68.690347 l
377.661156 66.743631 l
377.736576 66.308739 l
377.962837 61.450475 l
378.038382 61.568792 l
378.264768 69.958816 l
378.340313 81.576083 l
378.566699 61.582833 l
378.71779 60.022358 l
378.793336 60.179288 l
378.944176 61.571335 l
379.019596 61.442557 l
379.246107 61.009711 l
379.397073 61.230288 l
379.623584 61.60578 l
379.699129 61.61662 l
379.774424 61.49058 l
379.84997 61.612302 l
380.152026 66.817147 l
380.227447 66.778748 l
380.453832 65.570757 l
380.755889 68.910746 l
380.831184 68.214948 l
380.906729 67.279681 l
380.982275 67.483772 l
381.057695 69.366859 l
381.133115 69.286912 l
381.208661 65.250562 l
381.284081 67.143804 l
381.434921 64.325327 l
381.510467 64.098039 l
381.736852 62.671257 l
381.887818 62.746648 l
382.265044 63.15828 l
382.868781 62.940873 l
383.396848 62.292607 l
383.774199 61.980438 l
385.359151 60.889254 l
385.811672 61.605137 l
386.339864 62.839261 l
386.490829 63.403003 l
386.717215 62.262013 l
386.943601 61.31142 l
387.094441 60.76684 l
387.396122 58.640371 l
387.697803 59.80849 l
387.773348 59.51715 l
387.924188 59.080892 l
388.075029 61.989976 l
388.225994 73.468222 l
388.301415 194.466674 l
388.376835 154.947186 l
388.527675 83.786149 l
388.603095 78.307019 l
388.678641 81.243716 l
389.206958 70.447191 l
389.584309 60.542088 l
389.7354 60.780129 l
390.112501 62.127449 l
390.187796 62.086254 l
390.489727 61.762016 l
390.716113 61.879194 l
391.093089 65.517877 l
391.319349 67.706185 l
391.470315 66.895371 l
392.526573 58.990162 l
392.753084 58.742418 l
393.05489 58.83528 l
393.205856 58.847568 l
393.356696 57.951931 l
393.583207 57.977412 l
393.809593 58.18317 l
394.413456 59.388026 l
394.866102 60.90303 l
394.941522 60.976506 l
395.167783 59.571433 l
395.846815 55.09979 l
395.922235 55.607497 l
396.148245 54.975217 l
396.374756 57.209677 l
397.129334 68.615746 l
397.431014 72.862659 l
397.58198 73.023848 l
397.883786 72.55295 l
397.959331 72.284608 l
398.110047 72.680775 l
398.261012 73.718266 l
398.411978 69.716084 l
398.487273 70.043615 l
398.487273 70.043615 l
stroke
grestore
0.627 0.314 0.314 setrgbcolor
gsave
357.1 266.1 57.6 38.02 clipbox
73.832727 102.308431 m
73.983568 109.573069 l
74.209828 104.073631 l
74.285248 104.23944 l
74.737519 109.492232 l
75.265585 125.966985 l
75.491846 137.065025 l
75.717981 156.003431 l
76.095082 196.932559 l
76.698193 272.058759 l
80.921347 220.65502 m
81.072187 185.271414 l
81.223028 225.426817 m
81.298323 147.890303 l
81.373743 149.464483 l
81.449163 143.606406 l
81.599878 254.584628 l
81.901183 171.998537 l
82.429124 178.499979 m
82.579839 192.931907 l
82.730805 189.58788 l
82.8061 182.820034 l
82.957065 134.5309 l
83.03236 134.312324 l
83.107906 137.04937 l
83.183326 135.864507 l
83.258621 134.454066 l
83.334041 130.198392 l
83.484756 114.63556 l
83.560051 114.828109 l
84.087867 152.388945 l
84.238707 158.652273 l
84.314127 158.998875 l
84.464968 165.385624 l
84.615808 145.85589 l
84.766523 161.658468 l
84.841818 158.899743 l
84.992533 154.529794 l
85.445054 151.558661 l
86.04829 143.591252 l
86.576232 142.698576 l
86.877787 139.678798 l
87.028627 132.427584 l
87.104298 149.651616 l
87.179718 131.115597 l
87.255138 135.001527 l
87.330433 136.500504 l
87.405853 136.321757 l
87.481274 135.548322 l
88.084635 113.334239 l
88.160055 112.784111 l
88.235475 113.306412 l
88.38619 153.796335 l
88.536906 159.37017 l
88.612326 150.663249 l
88.687871 119.085351 l
88.763166 135.71116 l
88.838586 111.916557 l
88.914006 119.416826 l
88.989427 120.010574 l
89.064847 106.891408 l
89.140392 128.8212 l
89.215938 98.589621 l
89.291233 121.554584 l
89.366527 119.311315 l
89.441948 121.023137 l
89.517493 107.370637 l
89.668208 137.478663 l
89.894469 77.970683 l
90.196149 244.284769 l
90.271444 209.413587 l
90.497705 121.145911 l
90.648545 105.037906 m
90.724091 130.387515 l
90.799386 116.628084 l
90.87468 117.453219 l
91.025396 120.338808 l
91.100816 113.265369 l
91.176111 115.265184 l
91.251531 119.754539 l
91.326951 153.435596 l
91.402371 122.95558 l
91.553337 149.301031 m
91.704177 233.666533 l
92.005858 155.64872 l
92.156698 134.509159 l
92.382959 166.044654 l
92.458254 178.48497 l
92.609094 134.909704 l
92.684389 135.53407 l
92.910649 139.654855 l
93.061239 114.281831 l
93.136659 119.567407 l
93.211954 130.213353 l
93.287374 127.61215 l
93.362669 124.629299 l
93.437964 125.366121 l
93.81519 131.815783 l
93.890485 131.585834 l
94.192291 127.927228 l
94.267711 126.441867 l
94.343132 128.069162 l
94.418552 133.911363 l
94.493972 109.886831 l
94.569267 131.746081 l
94.644687 125.880294 l
94.720107 126.140922 l
94.795402 117.736301 l
94.870822 128.395593 l
94.946242 126.8943 l
95.021663 126.165028 l
95.323343 105.650124 l
95.624899 129.768396 l
95.775614 105.560852 l
96.001874 113.313376 l
96.077295 111.211044 l
96.152589 127.713552 l
96.22801 115.298091 l
96.30343 118.474286 l
96.37885 120.336414 l
96.52969 114.378489 l
96.680405 126.223405 l
96.755826 116.300808 l
96.831246 156.246327 l
96.906666 121.663613 l
96.981961 150.446084 l
97.132926 113.87613 l
97.434858 124.176301 l
97.510153 124.366573 l
97.585698 124.063096 l
97.660993 125.668099 l
97.736538 125.626063 l
98.03872 113.44333 l
98.264856 138.937752 l
98.340276 109.184822 l
98.415696 131.953887 l
98.491116 125.467285 l
98.641706 109.89437 l
98.717001 110.336752 l
98.943387 115.651468 l
99.018807 115.298549 l
99.094102 116.792275 l
99.169522 98.087449 l
99.244942 105.890886 l
99.395782 125.198058 l
99.546497 101.661223 l
99.621918 104.313369 l
99.772758 109.130588 l
99.848178 108.947516 l
100.52721 93.709389 l
100.678051 93.998114 l
101.055152 95.386255 l
101.281537 94.733913 l
101.507798 94.357321 l
101.658764 94.325729 l
101.809479 94.474544 l
101.960319 94.807265 l
103.0157 100.481023 l
103.317256 100.871724 l
103.468221 101.001018 l
104.071583 103.169472 l
104.147003 102.936889 l
104.674694 100.520211 l
105.57936 108.567623 l
105.956461 102.481363 l
106.182972 102.88421 l
106.484402 102.127487 l
107.389319 97.399712 l
107.539909 97.42965 l
107.690624 98.896247 l
107.841339 95.400089 l
107.992179 100.746919 l
108.067599 100.626768 l
108.143145 100.251702 l
108.293985 101.751071 l
108.595541 113.654912 l
109.047686 134.976233 l
109.198401 133.889296 l
109.349241 137.282754 l
109.499956 134.82737 l
109.876932 106.79046 l
110.027647 106.412031 l
110.103067 107.205719 l
110.329328 121.223867 l
110.706053 159.035244 l
111.007608 109.839467 l
111.083028 110.467753 l
111.309164 116.901758 l
111.610719 110.3841 l
111.686139 110.845 l
111.912274 115.255876 l
111.987695 113.835355 l
112.21383 111.187645 l
112.515511 136.279078 l
112.666351 157.811166 l
112.817066 193.632151 l
112.892611 281.233989 l
112.968032 253.693034 l
113.043452 248.220656 l
113.118872 292.032 l
113.194292 284.46056 l
113.269587 276.145728 l
113.345007 283.712074 l
113.797403 193.743229 l
113.872823 196.212799 l
114.023538 222.748817 l
114.098958 222.547752 l
114.400514 218.425898 l
114.476059 218.117641 l
114.777615 211.123037 l
114.85316 208.607189 l
115.154716 163.333652 l
115.531566 131.663168 l
115.908541 111.088106 l
116.134927 104.909685 l
116.285893 107.931225 l
116.662618 122.447 l
117.115139 153.373784 l
117.49224 176.278934 l
117.944761 197.30541 l
118.246191 127.443227 l
118.547621 233.079418 l
118.698336 211.480419 l
119.150857 143.675239 l
119.452538 132.714616 l
119.603253 132.557402 l
119.678673 133.732532 l
119.754094 133.72398 l
120.0559 112.933521 l
120.131194 115.942826 l
120.433 147.374957 l
120.659261 143.589356 l
120.734681 144.700823 l
120.810101 144.413654 l
120.885396 149.052817 l
120.960816 114.449492 l
121.036362 148.469329 l
121.111657 140.332184 l
121.262497 163.286369 l
121.338043 117.633844 l
121.413337 178.000827 l
121.564052 113.984353 l
121.639473 121.36548 l
121.790313 101.541484 l
121.865733 98.641495 l
121.941153 107.522341 l
122.016574 94.21729 l
122.167414 106.888996 l
122.242959 97.383212 l
122.318254 99.004699 l
122.393674 97.363616 l
123.07208 120.572276 l
123.147626 114.707576 l
123.222921 147.027217 l
123.298341 117.129873 l
123.373886 128.896378 l
123.449306 156.022861 l
123.600021 122.414615 l
123.675442 121.058817 l
123.750862 101.061713 l
123.826282 103.683422 l
124.354223 89.104971 m
124.580609 127.45669 l
124.731449 115.966614 l
124.882164 94.663111 l
124.957585 104.129254 l
125.032879 134.047498 l
125.18372 106.517747 m
125.259265 114.75644 l
125.40998 89.355793 m
125.711786 129.500794 l
126.013467 156.683201 l
126.315023 181.621466 l
126.465738 189.126583 l
126.541158 188.792905 l
127.748382 247.865182 m
128.200777 171.473695 l
128.276072 172.497079 l
128.351493 176.930188 l
128.577753 146.825687 m
128.653173 173.700096 l
128.804139 145.903326 l
128.879559 151.693874 l
128.954979 146.782223 l
129.030399 147.910084 l
129.10582 147.550776 l
129.18124 145.053889 l
129.709306 97.133378 l
129.860021 131.152397 l
129.935442 120.114611 l
130.086157 103.28584 l
130.161577 102.569827 l
130.387837 94.419605 l
130.839983 89.332426 l
131.141663 88.067719 l
131.367924 87.498863 l
131.518764 85.483925 l
131.594184 89.629093 l
131.820445 82.86922 l
131.97141 91.832988 l
132.046831 93.562561 l
132.122251 92.524078 l
132.273216 84.525207 l
132.348762 84.406666 l
132.424182 85.032027 l
132.650443 103.955875 l
132.725738 125.596525 l
132.801283 108.311876 l
132.876703 118.06557 l
133.102838 95.270598 l
133.404394 88.196449 l
133.630529 79.898573 l
133.781369 81.779735 l
134.00763 84.962608 l
134.30906 84.334754 l
134.761456 79.946354 l
134.987716 78.612643 l
135.515532 76.572126 l
136.269734 72.645645 l
136.646835 71.303137 l
136.797675 71.326055 l
137.099231 71.769658 l
137.702467 73.405232 l
138.456543 76.324782 l
138.532089 76.292139 l
138.682929 76.169958 l
138.758349 76.146053 l
138.909315 80.658873 l
139.135701 81.790603 l
139.210996 79.004704 l
139.361836 83.347205 l
139.437256 79.733088 l
139.738812 87.057455 l
139.889777 64.470173 l
139.965198 94.595027 l
140.040618 92.293633 l
140.116038 90.760033 l
140.191458 92.800351 l
140.266753 91.785903 l
140.342298 92.263395 l
140.417593 91.478657 l
140.643854 85.125717 l
140.719274 85.349205 l
140.869989 84.907331 l
141.473476 78.66792 l
141.699987 85.663269 l
141.926122 91.765757 l
142.152383 94.375304 l
142.303098 93.836315 l
142.680199 90.591799 l
142.906459 94.728309 l
143.887047 117.666025 l
143.962467 117.095765 l
144.038012 117.259175 l
144.565578 106.581563 l
144.640873 106.631582 l
145.017848 108.173378 l
145.168689 110.440914 l
145.696505 125.200803 l
146.148775 153.003494 l
146.29949 163.013348 l
147.053817 116.311328 l
147.355247 150.228215 l
147.430793 144.40448 l
147.506088 119.658438 l
147.581508 201.265384 l
147.657053 114.536797 l
147.732474 124.779866 l
147.808019 133.487365 l
148.18512 114.713051 l
148.712811 92.930995 l
148.788231 95.201801 l
148.863651 91.753362 l
148.938946 92.204163 l
149.014366 92.734937 l
149.315921 103.342575 l
149.391467 102.184881 l
149.768442 93.785396 l
150.221214 88.766294 l
150.372054 89.163331 l
150.522895 89.75386 l
151.126381 85.998897 l
151.277222 86.415427 l
151.805038 89.277932 l
152.332603 92.800187 l
152.558864 93.635852 l
152.634284 93.610846 l
153.011635 88.748164 l
153.08693 88.807724 l
153.237771 88.91132 l
153.388486 96.661562 l
153.690292 99.232248 l
153.841257 102.713964 l
153.916552 99.109561 l
153.991847 89.743587 l
154.142687 104.242624 l
154.293653 102.202581 l
154.369073 93.063508 l
154.444493 94.355489 l
154.746174 98.986019 l
155.04798 110.652508 l
155.349536 127.303454 l
155.42483 126.775503 l
155.726386 116.04958 l
155.801806 112.729336 l
155.877226 99.77107 l
155.952646 100.219549 l
156.405042 152.488611 m
156.631303 137.633906 l
156.857689 142.092692 l
157.234789 139.543111 l
157.310084 107.406238 l
157.385504 108.765778 l
158.064035 119.945292 l
158.365716 123.165094 l
158.893532 137.678103 l
159.119793 144.724959 l
159.195213 132.394963 l
159.270633 135.879988 l
159.572063 149.032358 l
159.647609 148.6762 l
159.873744 143.074951 l
159.949039 153.457459 l
160.024459 152.468028 l
160.326014 145.943735 l
160.778535 136.561339 l
161.004796 144.651462 l
161.381897 169.122399 l
161.457442 167.422444 l
161.909963 149.76972 l
161.985509 148.461455 l
162.136224 153.720324 l
162.5132 177.682262 l
163.192106 226.985766 l
163.342821 229.436656 l
163.493662 227.435829 l
163.644627 229.19635 l
163.719922 229.010904 l
163.795343 226.869635 l
164.398954 172.890238 l
164.776306 161.913297 l
165.530382 148.159358 l
165.605803 148.051845 l
165.756518 149.744887 l
166.133619 158.333166 l
166.360004 167.950529 l
166.737231 199.537368 l
166.812651 212.609566 l
166.888071 209.919605 l
167.264921 187.259781 l
167.491056 178.953214 l
168.018998 182.831366 l
168.546814 184.513056 l
168.697654 185.92978 l
169.07463 189.982794 l
169.225345 189.576322 l
169.527025 195.924472 l
169.828831 156.033029 l
169.904377 164.227603 l
170.356522 228.253178 l
170.431942 234.552427 l
170.507362 234.251854 l
170.884589 217.597417 l
171.110849 201.044525 l
171.48795 148.727463 l
171.638916 122.244661 l
171.940847 194.951776 l
172.242402 127.122537 l
172.317948 125.972424 l
172.468788 126.932955 l
172.996729 115.38886 l
173.29841 114.113027 l
173.449376 113.427328 l
174.203703 100.714229 l
175.260086 93.827935 l
177.221136 77.39397 l
177.749203 74.386041 l
178.126554 73.969661 l
178.352815 73.976021 l
178.654621 74.26582 l
178.881007 74.593569 l
179.559538 73.375292 l
179.785673 73.741431 l
180.61517 76.307433 l
180.766135 78.357021 l
181.067816 87.898761 l
181.520337 104.246576 l
181.973109 113.929513 l
182.5013 131.545368 l
182.576721 131.733718 l
182.727686 130.383536 l
183.406468 119.00838 l
184.009829 109.184274 l
184.990041 96.796338 l
185.593277 94.123741 l
186.272059 91.46704 l
187.026386 87.398245 l
187.328066 86.298561 l
187.478907 86.470642 l
187.780337 87.32241 l
189.138151 92.960544 l
189.741888 95.814342 l
189.892728 95.602026 l
190.269954 94.320108 l
191.401007 89.997484 l
192.456638 87.02742 l
193.060376 86.59462 l
193.513022 86.297622 l
194.71987 85.139528 l
196.153104 83.978084 l
196.983478 83.475433 l
197.511544 82.369864 l
199.246083 78.670887 l
199.397049 78.50051 l
199.623685 78.91387 l
200.755364 82.189489 l
201.585361 84.70827 l
201.811622 85.046877 l
202.037757 84.163107 l
204.375657 72.164046 l
204.979019 71.266433 l
205.58238 70.611369 l
206.411877 69.952394 l
206.713558 69.66868 l
207.693895 67.984156 l
208.749902 66.843844 l
208.976038 66.824815 l
209.126753 67.131705 l
209.579399 69.302863 l
211.239019 79.562694 l
211.766835 83.572321 l
212.973307 93.15851 l
213.274988 93.573998 l
213.652214 93.935669 l
213.95402 93.778174 l
214.331371 93.295353 l
214.633052 92.641114 l
215.236413 91.336206 l
215.914944 91.179609 l
215.990365 91.190509 l
216.216625 91.574849 l
216.292045 91.544789 l
216.593977 89.986866 l
216.895657 83.722173 l
217.046372 92.631864 l
217.197087 114.838373 l
217.499019 84.526744 l
217.574314 84.442265 l
217.800574 86.499635 l
218.102255 83.622016 l
218.177675 83.653969 l
218.479481 84.835291 l
219.007297 88.34859 l
219.535614 92.755365 l
219.913091 95.45881 l
220.139226 106.85992 l
220.290066 125.527055 l
220.516452 191.150215 l
220.591998 179.088719 l
220.818634 132.328186 l
220.894054 132.136488 l
220.969474 131.439018 l
221.12044 133.077678 l
221.422121 112.028392 l
221.497416 115.769604 l
221.723927 132.121079 l
221.874767 125.253396 l
222.176448 114.131825 l
222.402834 111.18604 l
222.628969 113.177735 l
222.930775 115.68497 l
223.30775 124.222659 l
223.609306 131.534296 l
223.760146 131.861574 l
223.835566 131.793012 l
224.137122 129.875839 l
224.363508 136.602546 l
224.514348 145.590509 l
224.589768 145.68649 l
224.665188 145.478156 l
224.740608 143.122984 l
225.042665 121.225524 l
225.2688 111.432935 l
225.34422 109.934552 l
225.495061 112.202974 l
225.721196 127.019472 l
226.022877 152.991333 l
226.098172 150.206801 l
226.701533 128.148279 l
226.852373 128.238556 l
227.154305 126.398199 l
227.30527 126.674349 l
227.456236 127.965537 l
227.607202 124.256518 l
227.757917 127.088758 l
227.833212 126.605735 l
228.059347 125.079117 l
228.134892 124.780903 l
228.210312 123.114988 l
228.285858 123.638968 l
228.436573 119.63375 l
228.81405 99.017698 l
228.88947 112.47163 l
228.96489 107.893218 l
229.643797 76.952623 l
229.870183 72.436116 l
230.096443 84.94391 l
230.171863 85.008952 l
230.548964 84.323959 l
230.699679 84.349634 l
230.7751 84.576799 l
231.076906 88.890713 l
231.152326 77.300633 l
231.227746 80.444375 l
231.604847 93.196108 l
232.057117 101.936878 l
232.207958 102.118364 l
232.509638 101.03045 l
232.660353 99.061838 l
233.113 90.089747 l
233.18842 82.387631 l
233.263965 82.535893 l
233.414931 82.593027 l
233.641317 82.312288 l
233.792408 88.944604 l
234.169383 87.640327 l
234.471189 86.415457 l
235.829128 78.172228 l
236.65875 75.988785 l
238.092485 73.21452 l
238.545006 73.035476 l
239.223788 73.037909 l
239.902695 73.306809 l
240.807862 73.763171 l
241.788575 74.173605 l
242.769539 74.894347 l
243.297605 75.511258 l
243.674581 76.03656 l
243.750001 72.97826 l
243.825296 73.144789 l
245.635881 77.475878 l
247.824069 83.733877 l
248.125624 83.684813 l
248.879951 83.096792 l
249.785369 82.013345 l
250.162846 81.606053 l
252.425451 81.393516 l
252.576291 81.209418 l
253.783014 78.617264 l
254.839147 76.455887 l
254.990113 76.34151 l
255.367214 76.50198 l
257.328264 78.015392 l
257.630195 77.655028 l
259.138724 75.211426 l
259.968095 74.044586 l
267.057592 67.739657 l
267.585784 67.974564 l
268.339985 68.511373 l
270.074274 69.876931 l
271.356792 70.747485 l
271.884859 71.326466 l
272.865447 72.893379 l
273.016287 73.111037 l
273.694943 76.758443 l
273.770489 76.648621 l
274.22301 75.846798 l
274.29843 75.977394 l
274.977337 77.584583 l
275.80746 78.194056 l
276.335276 78.276321 l
276.712377 78.291333 l
277.466829 78.658167 l
277.84393 78.648053 l
278.220906 77.787194 l
279.427503 74.996243 l
280.484012 73.642249 l
281.539644 71.893404 l
282.444937 71.155363 l
285.990437 68.773059 l
286.065857 70.185595 l
286.141277 70.137878 l
286.819933 69.835159 l
288.479678 69.387292 l
290.592571 69.082353 l
290.818706 69.066166 l
290.969672 67.907147 l
293.685675 68.041827 l
296.401553 68.408847 l
297.533482 68.571072 l
298.363355 68.532832 l
298.816252 68.814066 l
298.967092 68.940886 l
299.344318 68.228178 l
299.570579 67.841188 l
299.947805 71.264354 l
300.174065 73.058838 l
300.324906 72.179695 l
300.777552 68.42882 l
300.852972 68.442655 l
301.079609 69.191922 l
301.155279 69.135459 l
301.38154 68.981113 l
301.683221 72.30034 l
301.758641 71.799319 l
302.135867 68.714925 l
302.211162 68.338831 l
302.286582 69.240798 l
302.362002 68.873966 l
302.739354 66.65002 l
303.192125 64.017889 l
303.342966 64.354448 l
303.644521 65.780562 l
303.795487 66.729883 l
303.870907 66.374355 l
304.323553 69.151457 l
304.700905 72.841337 l
305.228971 77.529249 l
305.681242 79.489442 l
305.832082 79.355572 l
306.133763 78.549197 l
306.96351 75.008067 l
308.019894 70.651994 l
308.095439 70.783561 l
308.925437 73.287023 l
309.151823 73.518338 l
309.227368 73.505803 l
309.529049 72.548728 l
310.434467 69.618672 l
310.585432 69.906877 l
310.962659 71.286601 l
311.867951 75.735297 l
312.471689 80.579289 l
312.99988 84.952597 l
313.301561 85.471739 l
313.452527 85.694422 l
314.055888 91.736599 l
314.131308 91.278137 l
314.659375 86.735784 l
314.81034 89.079337 l
314.961181 93.632548 l
315.036601 93.115319 l
315.112021 92.531962 l
315.262861 101.800357 l
315.338282 101.696956 l
315.489247 100.590589 l
315.564667 100.52776 l
316.017564 102.646644 l
316.470085 106.192648 l
316.696346 112.480689 l
316.997901 129.022463 l
317.375253 149.851194 l
317.450798 145.228874 l
317.601639 130.138863 l
317.752479 110.301612 l
317.827899 110.24316 l
317.97899 125.544737 l
318.356091 115.144652 l
318.582602 115.021638 l
318.884533 112.583619 l
318.960079 112.703059 l
319.110794 113.009694 l
319.714531 102.055662 l
319.865371 101.286712 l
319.940792 101.217926 l
320.016337 101.52548 l
320.091757 101.485199 l
320.393563 93.766712 l
320.619949 102.569519 l
320.695495 105.798361 l
320.770915 105.706377 l
320.997175 103.339869 l
321.14789 104.99444 l
321.223311 102.893988 l
321.298731 103.502694 l
321.978013 109.613829 l
322.279819 114.442087 l
322.35524 118.060628 l
322.43066 110.343096 l
322.50608 119.859905 l
322.5815 117.188505 l
322.808011 114.699218 l
323.110068 112.162912 l
323.336328 115.346245 l
323.788975 122.116578 l
324.468007 120.457294 l
324.618847 120.497424 l
324.845108 120.276974 l
324.920528 120.443942 l
325.222584 124.670065 l
326.127877 138.147139 l
326.354388 132.375578 l
326.73174 120.072203 l
326.807285 120.967901 l
327.335352 132.515612 l
327.410647 132.141676 l
327.561612 128.471482 l
327.938713 116.403185 l
328.089804 123.315248 l
328.240143 138.621017 l
328.315563 134.78102 l
328.541824 121.234611 l
328.617369 121.696624 l
328.84363 125.77301 l
328.918925 125.688009 l
329.145185 124.777808 l
329.522411 124.122352 l
329.673252 124.152079 l
329.748672 124.441894 l
330.050478 129.603767 l
330.955645 146.183096 l
331.031066 146.159811 l
331.257451 144.542848 l
333.369592 126.271878 l
333.520433 127.328192 l
334.123794 134.49941 l
334.727155 141.164351 l
335.104632 142.232222 l
335.406313 142.961477 l
335.707994 143.379096 l
335.858959 143.637915 l
336.236311 144.383459 l
336.538367 144.510952 l
336.764878 144.217868 l
336.991264 143.536369 l
337.292945 140.243807 l
337.368365 140.622057 l
337.519331 141.839981 l
337.594876 141.763802 l
337.896933 128.947421 l
338.047898 132.15505 l
338.198864 136.709553 l
338.42525 131.691879 l
338.65151 129.022717 l
339.028736 125.510808 l
339.405712 122.182171 l
339.556678 122.67719 l
339.783063 123.817561 l
339.858358 123.909737 l
339.933779 120.521117 l
340.009199 120.652809 l
340.3863 126.051073 l
340.46172 121.429486 l
340.53714 121.904189 l
340.612685 120.734256 l
340.68798 115.090077 l
340.763526 118.45141 l
341.140752 101.30667 l
341.291718 98.696923 l
341.668693 97.896978 l
341.819659 97.733065 l
342.498816 94.069838 l
342.951463 92.888424 l
343.026883 92.806132 l
343.328689 94.00785 l
343.630369 95.563973 l
343.93205 93.214817 l
344.309276 91.102164 l
344.837218 91.870823 l
345.289989 93.907906 l
345.440955 94.518378 l
346.044692 87.209572 l
346.120238 87.655656 l
346.573009 93.607295 l
346.950235 100.835912 l
347.252167 110.072179 l
347.554098 82.625105 l
347.704813 92.927841 l
347.780233 103.411122 l
347.855779 102.808405 l
347.931199 104.062348 l
348.006619 103.51331 l
348.082164 111.325651 l
348.157459 109.174354 l
348.38397 115.648163 l
348.459391 107.823117 l
348.610356 117.186678 l
348.761197 109.871215 l
348.912162 124.648558 l
349.063253 117.922637 l
349.138799 118.201124 l
349.214219 118.61887 l
349.365059 116.85564 l
349.440479 130.402582 l
349.515899 128.396964 l
349.742285 123.734459 l
349.893126 123.708819 l
349.968671 123.230346 l
350.421568 109.472286 l
350.798669 104.660305 l
350.949635 101.223558 l
351.326735 92.603716 l
351.477826 91.114354 l
351.704212 94.516005 l
351.779758 95.917615 l
351.855053 94.575686 l
352.081313 97.466988 l
352.232279 93.920839 l
352.835891 71.586252 l
352.911311 71.601836 l
352.986856 71.863943 l
353.439377 66.505198 l
353.892024 63.891352 l
353.967444 63.94536 l
354.118284 64.606619 l
354.193704 65.00389 l
354.495761 63.330899 l
354.797567 76.149418 l
354.873112 75.388513 l
355.099874 69.685762 l
355.175294 70.024049 l
355.401555 71.881027 l
355.627941 70.618411 l
355.703361 71.297337 l
355.778781 71.011748 l
356.307098 68.98944 l
356.458064 69.404347 l
356.835165 71.25221 l
357.06155 71.840938 l
357.212516 72.169417 l
357.288061 71.201745 l
357.363482 71.522918 l
357.438902 71.120971 l
357.589742 72.472402 l
357.816003 80.442973 l
357.891548 80.368043 l
357.966968 78.381697 l
358.042514 80.878226 l
358.193605 71.473428 l
358.26915 72.630286 l
358.419991 71.819109 l
358.646251 77.470865 l
358.721671 79.780014 l
358.797217 79.239304 l
359.023477 73.500357 l
359.098897 74.802989 l
359.174318 77.938219 l
359.249738 70.319821 l
359.325283 79.152566 l
359.400703 75.979203 l
359.476249 74.105196 l
359.551669 76.518327 l
359.627089 75.966727 l
359.702509 73.409012 l
359.928895 78.022949 l
360.230952 79.86036 l
360.306372 78.224019 l
360.457338 86.081304 l
360.608303 79.247447 l
360.683723 79.232623 l
360.759144 84.37412 l
360.834564 80.1103 l
360.909984 90.619843 l
360.985404 82.805331 l
361.060824 96.815634 l
361.136244 76.195649 l
361.211665 78.942544 l
361.28721 80.479874 l
361.438176 76.680596 l
361.589016 80.761996 l
361.664562 79.922194 l
361.740107 78.580765 l
361.815527 78.965492 l
361.891073 79.49857 l
361.966493 79.437974 l
362.343719 78.570427 l
362.494559 79.97456 l
362.645525 79.10365 l
362.947582 86.919214 l
363.098798 73.136585 l
363.325058 81.127279 l
363.551569 73.462482 l
363.702535 78.240417 l
363.928796 74.695588 l
364.00409 76.760126 l
364.154931 73.023435 l
364.381317 73.367068 l
364.532157 75.615229 l
364.909508 76.884569 l
364.984929 76.944918 l
365.211314 76.463209 l
365.362029 70.637839 l
365.51287 93.643966 l
365.66371 67.925116 l
365.739256 71.450671 l
365.814676 77.887328 l
365.890221 77.288923 l
365.965516 74.892041 l
366.041062 75.367488 l
366.116482 75.47027 l
366.267322 72.780013 l
366.569003 75.687244 l
366.870809 65.681442 l
367.021774 70.724145 l
367.172615 103.378396 l
367.248035 92.349776 l
367.323455 224.796888 l
367.399001 74.780653 l
367.474421 86.72457 l
367.625386 72.592013 l
367.700807 77.665786 l
367.776227 64.461191 l
367.851772 66.181748 l
367.927192 68.10016 l
368.002613 67.852807 l
368.078158 67.984066 l
368.455259 74.461307 l
368.530804 82.341667 l
368.606225 76.199192 l
368.68177 95.413287 l
368.757065 87.87935 l
368.83261 87.650473 l
368.983325 96.703195 l
369.058746 80.063321 l
369.134291 88.811831 l
369.285257 69.83491 l
369.436222 76.312145 l
369.511643 73.213261 l
369.587063 75.382408 l
369.813574 54.908238 l
369.889119 55.883068 l
370.03996 67.859085 l
370.26622 96.098101 l
370.794412 60.452204 l
370.945378 67.782193 l
371.096594 80.202031 l
371.172014 78.217307 l
371.3984 59.701112 l
371.473945 60.705511 l
371.775877 68.36184 l
371.926717 68.948864 l
372.077557 70.070563 l
372.152852 70.726491 l
372.303943 73.183364 l
372.379489 72.377851 l
372.530329 64.095802 l
372.756589 86.836863 l
372.907304 62.651346 l
372.982725 66.807892 l
373.13369 79.51683 l
373.20911 80.144597 l
373.284656 78.862125 l
373.511042 93.641216 l
373.586462 90.871097 l
373.812722 66.265917 l
373.888143 64.356583 l
374.114654 69.899121 l
374.41646 63.826147 l
374.49188 70.698186 l
374.567551 65.582753 l
374.642846 69.59096 l
374.718266 68.553292 l
374.793811 64.825052 l
374.869231 67.006737 l
374.944652 59.532522 l
375.095492 76.650621 l
375.170912 129.905859 l
375.246458 99.850132 l
375.321752 136.974155 l
375.472718 80.006022 l
375.698979 65.397091 l
375.92549 83.802244 l
376.00091 94.843907 l
376.076455 82.395836 l
376.152001 89.878309 l
376.227546 75.697695 l
376.302966 168.54771 l
376.378387 76.801048 l
376.453807 79.310022 l
376.529352 85.680659 l
376.604772 81.531098 l
376.680193 86.05129 l
376.755613 70.338653 l
376.831033 73.819358 l
376.981999 82.073757 l
377.057419 79.163847 l
377.132964 71.133979 l
377.208384 73.787412 l
377.434895 79.207012 l
377.510316 78.97372 l
377.811996 76.71822 l
377.887417 79.321409 l
377.962837 74.010612 l
378.038382 76.032839 l
378.113802 76.37429 l
378.264768 81.927609 l
378.340313 97.487664 l
378.415859 81.573639 l
378.491154 87.676645 l
378.642245 72.30959 l
378.71779 72.39055 l
378.944176 74.226538 l
379.246107 73.501829 l
379.321527 73.63593 l
379.774424 75.230408 l
380.227447 76.746 l
380.755889 77.964852 l
380.831184 78.098997 l
380.906729 80.960821 l
380.982275 78.055113 l
381.057695 80.623771 l
381.208661 77.584855 l
381.585887 73.911903 l
381.736852 73.323261 l
382.114204 73.408969 l
382.265044 73.461127 l
382.56685 72.998113 l
382.642396 75.511348 l
382.717816 75.438452 l
382.944202 75.011392 l
385.28373 67.213327 l
385.359151 67.253938 l
385.660831 67.850538 l
385.811672 68.252887 l
385.887217 67.97423 l
386.641795 71.143901 l
386.792635 70.980926 l
387.094441 71.265209 l
387.169861 70.641172 l
387.320702 71.862682 l
387.471417 72.360681 l
387.697803 73.499747 l
387.924188 72.612542 l
387.999609 72.793561 l
388.075029 78.093486 l
388.150574 97.006615 l
388.301415 204.32191 l
388.603095 83.421631 l
388.678641 85.700204 l
388.980572 77.464189 l
389.206958 75.709925 l
389.659855 68.666693 l
389.961661 68.424496 l
390.263467 68.759195 l
390.565147 69.608022 l
390.640693 69.898317 l
390.716113 69.552894 l
391.319349 76.53284 l
391.394769 76.126771 l
392.300187 67.724239 l
392.602119 66.033982 l
392.90405 65.911331 l
394.413456 65.988604 l
394.941522 66.645478 l
395.243328 65.724498 l
396.073075 63.561502 l
396.148245 63.593309 l
396.374756 65.340759 l
398.261012 83.891406 l
398.411978 83.060473 l
398.487273 88.097253 l
398.487273 88.097253 l
stroke
grestore
0.800 setlinewidth
0 setlinejoin
[] 0 setdash
0.000 setgray
gsave
57.6 38.016 m
57.6 304.128 l
stroke
grestore
gsave
414.72 38.016 m
414.72 304.128 l
stroke
grestore
gsave
57.6 38.016 m
414.72 38.016 l
stroke
grestore
gsave
57.6 304.128 m
414.72 304.128 l
stroke
grestore
1.000 setlinewidth
0 setlinecap
0.800 setgray
gsave
349.860625 266.78425 m
407.72 266.78425 l
409.053333 266.78425 409.72 267.450917 409.72 268.78425 c
409.72 297.128 l
409.72 298.461333 409.053333 299.128 407.72 299.128 c
349.860625 299.128 l
348.527292 299.128 347.860625 298.461333 347.860625 297.128 c
347.860625 268.78425 l
347.860625 267.450917 348.527292 266.78425 349.860625 266.78425 c
cl
gsave
1.000 setgray
fill
grestore
stroke
grestore
1.500 setlinewidth
1 setlinejoin
2 setlinecap
[] 0 setdash
0.000 0.750 0.750 setrgbcolor
gsave
351.860625 291.03425 m
371.860625 291.03425 l
stroke
grestore
0.000 setgray
gsave
379.860625 287.534250 translate
0.000000 rotate
0.000000 0.000000 m /three glyphshow
6.362305 0.000000 m /m glyphshow
16.103516 0.000000 m /m glyphshow
grestore
0.627 0.314 0.314 setrgbcolor
gsave
351.860625 276.362375 m
371.860625 276.362375 l
stroke
grestore
0.000 setgray
gsave
379.860625 272.862375 translate
0.000000 rotate
0.000000 0.000000 m /two glyphshow
6.362305 0.000000 m /m glyphshow
16.103516 0.000000 m /m glyphshow
grestore

end
showpage
