   0.001       0
    0.05       0
    0.06       0
    0.07       0
    0.08 0.02449
    0.09  0.6367
     0.1   2.449
    0.11   1.053
    0.12   1.583
    0.13   1.583
    0.14   1.918
    0.15   1.437
    0.16   1.265
    0.17   1.208
    0.18   1.739
    0.19   1.379
     0.2  0.8325
    0.21  0.8734
    0.22  0.7509
    0.23  0.7428
    0.24    1.02
    0.25  0.5224
    0.26  0.6448
    0.27  0.5061
    0.28  0.4571
    0.29  0.3591
     0.3  0.5224
    0.31  0.4979
    0.32  0.4244
    0.33  0.4408
    0.34  0.3999
    0.35  0.2857
    0.36   0.351
    0.37  0.3102
    0.38  0.2122
    0.39  0.1796
     0.4  0.1796
    0.41  0.1796
    0.42  0.1306
    0.43  0.1224
    0.44  0.1143
    0.45  0.1551
    0.46  0.0653
    0.47 0.08162
    0.48 0.09795
    0.49 0.02449
     0.5 0.04081
    0.51 0.09795
    0.52 0.08978
    0.53  0.0653
    0.54 0.04897
    0.55 0.04081
    0.56 0.04897
    0.57 0.07346
    0.58 0.03265
    0.59 0.04081
     0.6 0.03265
    0.61 0.03265
    0.62 0.02449
    0.63 0.03265
    0.64 0.03265
    0.65 0.04081
    0.66 0.04081
    0.67 0.02449
    0.68 0.01632
    0.69 0.03265
     0.7 0.04897
    0.71 0.01632
    0.72 0.02449
    0.73 0.02449
    0.74 0.008162
    0.75 0.03265
    0.76 0.01632
    0.77 0.02449
    0.78 0.01632
    0.79 0.02449
     0.8 0.008162
    0.81 0.01632
    0.82 0.02449
    0.83 0.03265
    0.84 0.01632
    0.85 0.02449
    0.86 0.008162
    0.87 0.008162
    0.88 0.02449
    0.89 0.04081
     0.9 0.008162
    0.91 0.01632
    0.92 0.01632
    0.93 0.008162
    0.94       0
    0.95 0.008162
    0.96 0.01632
    0.97 0.008162
    0.98 0.008162
    0.99 0.02449
       1 0.008162
    1.01 0.01632
    1.02       0
    1.03 0.008162
    1.04 0.01632
    1.05       0
    1.06  0.1388
      10       0
