%!PS-Adobe-3.0 EPSF-3.0
%%Title: spb/10_RAW_tau.eps
%%Creator: matplotlib version 2.2.3, http://matplotlib.org/
%%CreationDate: Fri Nov  2 11:04:34 2018
%%Orientation: portrait
%%BoundingBox: 75 223 536 568
%%EndComments
%%BeginProlog
/mpldict 9 dict def
mpldict begin
/m { moveto } bind def
/l { lineto } bind def
/r { rlineto } bind def
/c { curveto } bind def
/cl { closepath } bind def
/box {
m
1 index 0 r
0 exch r
neg 0 r
cl
} bind def
/clipbox {
box
clip
newpath
} bind def
%!PS-Adobe-3.0 Resource-Font
%%Title: DejaVu Sans
%%Copyright: Copyright (c) 2003 by Bitstream, Inc. All Rights Reserved. Copyright (c) 2006 by Tavmjong Bah. All Rights Reserved. DejaVu changes are in public domain 
%%Creator: Converted from TrueType to type 3 by PPR
25 dict begin
/_d{bind def}bind def
/_m{moveto}_d
/_l{lineto}_d
/_cl{closepath eofill}_d
/_c{curveto}_d
/_sc{7 -1 roll{setcachedevice}{pop pop pop pop pop pop}ifelse}_d
/_e{exec}_d
/FontName /DejaVuSans def
/PaintType 0 def
/FontMatrix[.001 0 0 .001 0 0]def
/FontBBox[-1021 -463 1793 1232]def
/FontType 3 def
/Encoding [ /space /comma /period /zero /one /two /three /four /five /six /seven /eight /nine /a /d /e /i /m /s /t /y ] def
/FontInfo 10 dict dup begin
/FamilyName (DejaVu Sans) def
/FullName (DejaVu Sans) def
/Notice (Copyright (c) 2003 by Bitstream, Inc. All Rights Reserved. Copyright (c) 2006 by Tavmjong Bah. All Rights Reserved. DejaVu changes are in public domain ) def
/Weight (Book) def
/Version (Version 2.35) def
/ItalicAngle 0.0 def
/isFixedPitch false def
/UnderlinePosition -130 def
/UnderlineThickness 90 def
end readonly def
/CharStrings 22 dict dup begin
/.notdef 0 def
/space{318 0 0 0 0 0 _sc
}_d
/comma{318 0 77 -115 220 124 _sc
117 124 _m
220 124 _l
220 40 _l
140 -115 _l
77 -115 _l
117 40 _l
117 124 _l
_cl}_d
/period{318 0 107 0 210 124 _sc
107 124 _m
210 124 _l
210 0 _l
107 0 _l
107 124 _l
_cl}_d
/zero{636 0 66 -13 570 742 _sc
318 664 _m
267 664 229 639 203 589 _c
177 539 165 464 165 364 _c
165 264 177 189 203 139 _c
229 89 267 64 318 64 _c
369 64 407 89 433 139 _c
458 189 471 264 471 364 _c
471 464 458 539 433 589 _c
407 639 369 664 318 664 _c
318 742 _m
399 742 461 709 505 645 _c
548 580 570 486 570 364 _c
570 241 548 147 505 83 _c
461 19 399 -13 318 -13 _c
236 -13 173 19 130 83 _c
87 147 66 241 66 364 _c
66 486 87 580 130 645 _c
173 709 236 742 318 742 _c
_cl}_d
/one{636 0 110 0 544 729 _sc
124 83 _m
285 83 _l
285 639 _l
110 604 _l
110 694 _l
284 729 _l
383 729 _l
383 83 _l
544 83 _l
544 0 _l
124 0 _l
124 83 _l
_cl}_d
/two{{636 0 73 0 536 742 _sc
192 83 _m
536 83 _l
536 0 _l
73 0 _l
73 83 _l
110 121 161 173 226 239 _c
290 304 331 346 348 365 _c
380 400 402 430 414 455 _c
426 479 433 504 433 528 _c
433 566 419 598 392 622 _c
365 646 330 659 286 659 _c
255 659 222 653 188 643 _c
154 632 117 616 78 594 _c
78 694 _l
118 710 155 722 189 730 _c
223 738 255 742 284 742 _c
}_e{359 742 419 723 464 685 _c
509 647 532 597 532 534 _c
532 504 526 475 515 449 _c
504 422 484 390 454 354 _c
446 344 420 317 376 272 _c
332 227 271 164 192 83 _c
_cl}_e}_d
/three{{636 0 76 -13 556 742 _sc
406 393 _m
453 383 490 362 516 330 _c
542 298 556 258 556 212 _c
556 140 531 84 482 45 _c
432 6 362 -13 271 -13 _c
240 -13 208 -10 176 -4 _c
144 1 110 10 76 22 _c
76 117 _l
103 101 133 89 166 81 _c
198 73 232 69 268 69 _c
330 69 377 81 409 105 _c
441 129 458 165 458 212 _c
458 254 443 288 413 312 _c
383 336 341 349 287 349 _c
}_e{202 349 _l
202 430 _l
291 430 _l
339 430 376 439 402 459 _c
428 478 441 506 441 543 _c
441 580 427 609 401 629 _c
374 649 336 659 287 659 _c
260 659 231 656 200 650 _c
169 644 135 635 98 623 _c
98 711 _l
135 721 170 729 203 734 _c
235 739 266 742 296 742 _c
370 742 429 725 473 691 _c
517 657 539 611 539 553 _c
539 513 527 479 504 451 _c
481 423 448 403 406 393 _c
_cl}_e}_d
/four{636 0 49 0 580 729 _sc
378 643 _m
129 254 _l
378 254 _l
378 643 _l
352 729 _m
476 729 _l
476 254 _l
580 254 _l
580 172 _l
476 172 _l
476 0 _l
378 0 _l
378 172 _l
49 172 _l
49 267 _l
352 729 _l
_cl}_d
/five{{636 0 77 -13 549 729 _sc
108 729 _m
495 729 _l
495 646 _l
198 646 _l
198 467 _l
212 472 227 476 241 478 _c
255 480 270 482 284 482 _c
365 482 429 459 477 415 _c
525 370 549 310 549 234 _c
549 155 524 94 475 51 _c
426 8 357 -13 269 -13 _c
238 -13 207 -10 175 -6 _c
143 -1 111 6 77 17 _c
77 116 _l
106 100 136 88 168 80 _c
199 72 232 69 267 69 _c
}_e{323 69 368 83 401 113 _c
433 143 450 183 450 234 _c
450 284 433 324 401 354 _c
368 384 323 399 267 399 _c
241 399 214 396 188 390 _c
162 384 135 375 108 363 _c
108 729 _l
_cl}_e}_d
/six{{636 0 70 -13 573 742 _sc
330 404 _m
286 404 251 388 225 358 _c
199 328 186 286 186 234 _c
186 181 199 139 225 109 _c
251 79 286 64 330 64 _c
374 64 409 79 435 109 _c
461 139 474 181 474 234 _c
474 286 461 328 435 358 _c
409 388 374 404 330 404 _c
526 713 _m
526 623 _l
501 635 476 644 451 650 _c
425 656 400 659 376 659 _c
310 659 260 637 226 593 _c
}_e{192 549 172 482 168 394 _c
187 422 211 444 240 459 _c
269 474 301 482 336 482 _c
409 482 467 459 509 415 _c
551 371 573 310 573 234 _c
573 159 550 99 506 54 _c
462 9 403 -13 330 -13 _c
246 -13 181 19 137 83 _c
92 147 70 241 70 364 _c
70 479 97 571 152 639 _c
206 707 280 742 372 742 _c
396 742 421 739 447 735 _c
472 730 498 723 526 713 _c
_cl}_e}_d
/seven{636 0 82 0 551 729 _sc
82 729 _m
551 729 _l
551 687 _l
286 0 _l
183 0 _l
432 646 _l
82 646 _l
82 729 _l
_cl}_d
/eight{{636 0 68 -13 568 742 _sc
318 346 _m
271 346 234 333 207 308 _c
180 283 167 249 167 205 _c
167 161 180 126 207 101 _c
234 76 271 64 318 64 _c
364 64 401 76 428 102 _c
455 127 469 161 469 205 _c
469 249 455 283 429 308 _c
402 333 365 346 318 346 _c
219 388 _m
177 398 144 418 120 447 _c
96 476 85 511 85 553 _c
85 611 105 657 147 691 _c
188 725 245 742 318 742 _c
}_e{390 742 447 725 489 691 _c
530 657 551 611 551 553 _c
551 511 539 476 515 447 _c
491 418 459 398 417 388 _c
464 377 501 355 528 323 _c
554 291 568 251 568 205 _c
568 134 546 80 503 43 _c
459 5 398 -13 318 -13 _c
237 -13 175 5 132 43 _c
89 80 68 134 68 205 _c
68 251 81 291 108 323 _c
134 355 171 377 219 388 _c
183 544 _m
183 506 194 476 218 455 _c
}_e{242 434 275 424 318 424 _c
360 424 393 434 417 455 _c
441 476 453 506 453 544 _c
453 582 441 611 417 632 _c
393 653 360 664 318 664 _c
275 664 242 653 218 632 _c
194 611 183 582 183 544 _c
_cl}_e}_d
/nine{{636 0 63 -13 566 742 _sc
110 15 _m
110 105 _l
134 93 159 84 185 78 _c
210 72 235 69 260 69 _c
324 69 374 90 408 134 _c
442 178 462 244 468 334 _c
448 306 424 284 396 269 _c
367 254 335 247 300 247 _c
226 247 168 269 126 313 _c
84 357 63 417 63 494 _c
63 568 85 628 129 674 _c
173 719 232 742 306 742 _c
390 742 455 709 499 645 _c
543 580 566 486 566 364 _c
}_e{566 248 538 157 484 89 _c
429 21 356 -13 264 -13 _c
239 -13 214 -10 189 -6 _c
163 -2 137 5 110 15 _c
306 324 _m
350 324 385 339 411 369 _c
437 399 450 441 450 494 _c
450 546 437 588 411 618 _c
385 648 350 664 306 664 _c
262 664 227 648 201 618 _c
175 588 162 546 162 494 _c
162 441 175 399 201 369 _c
227 339 262 324 306 324 _c
_cl}_e}_d
/a{{613 0 60 -13 522 560 _sc
343 275 _m
270 275 220 266 192 250 _c
164 233 150 205 150 165 _c
150 133 160 107 181 89 _c
202 70 231 61 267 61 _c
317 61 357 78 387 114 _c
417 149 432 196 432 255 _c
432 275 _l
343 275 _l
522 312 _m
522 0 _l
432 0 _l
432 83 _l
411 49 385 25 355 10 _c
325 -5 287 -13 243 -13 _c
187 -13 142 2 109 33 _c
76 64 60 106 60 159 _c
}_e{60 220 80 266 122 298 _c
163 329 224 345 306 345 _c
432 345 _l
432 354 _l
432 395 418 427 391 450 _c
364 472 326 484 277 484 _c
245 484 215 480 185 472 _c
155 464 127 453 100 439 _c
100 522 _l
132 534 164 544 195 550 _c
226 556 256 560 286 560 _c
365 560 424 539 463 498 _c
502 457 522 395 522 312 _c
_cl}_e}_d
/d{{635 0 55 -13 544 760 _sc
454 464 _m
454 760 _l
544 760 _l
544 0 _l
454 0 _l
454 82 _l
435 49 411 25 382 10 _c
353 -5 319 -13 279 -13 _c
213 -13 159 13 117 65 _c
75 117 55 187 55 273 _c
55 359 75 428 117 481 _c
159 533 213 560 279 560 _c
319 560 353 552 382 536 _c
411 520 435 496 454 464 _c
148 273 _m
148 207 161 155 188 117 _c
215 79 253 61 301 61 _c
}_e{348 61 385 79 413 117 _c
440 155 454 207 454 273 _c
454 339 440 390 413 428 _c
385 466 348 485 301 485 _c
253 485 215 466 188 428 _c
161 390 148 339 148 273 _c
_cl}_e}_d
/e{{615 0 55 -13 562 560 _sc
562 296 _m
562 252 _l
149 252 _l
153 190 171 142 205 110 _c
238 78 284 62 344 62 _c
378 62 412 66 444 74 _c
476 82 509 95 541 113 _c
541 28 _l
509 14 476 3 442 -3 _c
408 -9 373 -13 339 -13 _c
251 -13 182 12 131 62 _c
80 112 55 181 55 268 _c
55 357 79 428 127 481 _c
175 533 241 560 323 560 _c
397 560 455 536 498 489 _c
}_e{540 441 562 377 562 296 _c
472 322 _m
471 371 457 410 431 440 _c
404 469 368 484 324 484 _c
274 484 234 469 204 441 _c
174 413 156 373 152 322 _c
472 322 _l
_cl}_e}_d
/i{278 0 94 0 184 760 _sc
94 547 _m
184 547 _l
184 0 _l
94 0 _l
94 547 _l
94 760 _m
184 760 _l
184 646 _l
94 646 _l
94 760 _l
_cl}_d
/m{{974 0 91 0 889 560 _sc
520 442 _m
542 482 569 511 600 531 _c
631 550 668 560 711 560 _c
767 560 811 540 842 500 _c
873 460 889 403 889 330 _c
889 0 _l
799 0 _l
799 327 _l
799 379 789 418 771 444 _c
752 469 724 482 686 482 _c
639 482 602 466 575 435 _c
548 404 535 362 535 309 _c
535 0 _l
445 0 _l
445 327 _l
445 379 435 418 417 444 _c
398 469 369 482 331 482 _c
}_e{285 482 248 466 221 435 _c
194 404 181 362 181 309 _c
181 0 _l
91 0 _l
91 547 _l
181 547 _l
181 462 _l
201 495 226 520 255 536 _c
283 552 317 560 357 560 _c
397 560 430 550 458 530 _c
486 510 506 480 520 442 _c
_cl}_e}_d
/s{{521 0 54 -13 472 560 _sc
443 531 _m
443 446 _l
417 458 391 468 364 475 _c
336 481 308 485 279 485 _c
234 485 200 478 178 464 _c
156 450 145 430 145 403 _c
145 382 153 366 169 354 _c
185 342 217 330 265 320 _c
296 313 _l
360 299 405 279 432 255 _c
458 230 472 195 472 151 _c
472 100 452 60 412 31 _c
372 1 316 -13 246 -13 _c
216 -13 186 -10 154 -5 _c
}_e{122 0 89 8 54 20 _c
54 113 _l
87 95 120 82 152 74 _c
184 65 216 61 248 61 _c
290 61 323 68 346 82 _c
368 96 380 117 380 144 _c
380 168 371 187 355 200 _c
339 213 303 226 247 238 _c
216 245 _l
160 257 119 275 95 299 _c
70 323 58 356 58 399 _c
58 450 76 490 112 518 _c
148 546 200 560 268 560 _c
301 560 332 557 362 552 _c
391 547 418 540 443 531 _c
}_e{_cl}_e}_d
/t{392 0 27 0 368 702 _sc
183 702 _m
183 547 _l
368 547 _l
368 477 _l
183 477 _l
183 180 _l
183 135 189 106 201 94 _c
213 81 238 75 276 75 _c
368 75 _l
368 0 _l
276 0 _l
206 0 158 13 132 39 _c
106 65 93 112 93 180 _c
93 477 _l
27 477 _l
27 547 _l
93 547 _l
93 702 _l
183 702 _l
_cl}_d
/y{592 0 30 -207 562 547 _sc
322 -50 _m
296 -114 271 -157 247 -177 _c
223 -197 191 -207 151 -207 _c
79 -207 _l
79 -132 _l
132 -132 _l
156 -132 175 -126 189 -114 _c
203 -102 218 -75 235 -31 _c
251 9 _l
30 547 _l
125 547 _l
296 119 _l
467 547 _l
562 547 _l
322 -50 _l
_cl}_d
end readonly def

/BuildGlyph
 {exch begin
 CharStrings exch
 2 copy known not{pop /.notdef}if
 true 3 1 roll get exec
 end}_d

/BuildChar {
 1 index /Encoding get exch get
 1 index /BuildGlyph get exec
}_d

FontName currentdict end definefont pop
%!PS-Adobe-3.0 Resource-Font
%%Title: DejaVu Sans Oblique
%%Copyright: Copyright (c) 2003 by Bitstream, Inc. All Rights Reserved. Copyright (c) 2006 by Tavmjong Bah. All Rights Reserved. DejaVu changes are in public domain 
%%Creator: Converted from TrueType to type 3 by PPR
25 dict begin
/_d{bind def}bind def
/_m{moveto}_d
/_l{lineto}_d
/_cl{closepath eofill}_d
/_c{curveto}_d
/_sc{7 -1 roll{setcachedevice}{pop pop pop pop pop pop}ifelse}_d
/_e{exec}_d
/FontName /DejaVuSans-Oblique def
/PaintType 0 def
/FontMatrix[.001 0 0 .001 0 0]def
/FontBBox[-1016 -350 1659 1068]def
/FontType 3 def
/Encoding [ /tau ] def
/FontInfo 10 dict dup begin
/FamilyName (DejaVu Sans) def
/FullName (DejaVu Sans Oblique) def
/Notice (Copyright (c) 2003 by Bitstream, Inc. All Rights Reserved. Copyright (c) 2006 by Tavmjong Bah. All Rights Reserved. DejaVu changes are in public domain ) def
/Weight (Oblique) def
/Version (Version 2.35) def
/ItalicAngle -11.0 def
/isFixedPitch false def
/UnderlinePosition -130 def
/UnderlineThickness 90 def
end readonly def
/CharStrings 2 dict dup begin
/.notdef 0 def
/tau{602 0 84 0 606 547 _sc
329 100 _m
337 84 359 76 395 76 _c
438 76 _l
423 0 _l
369 0 _l
310 0 270 15 250 47 _c
229 79 226 129 240 198 _c
290 457 _l
84 457 _l
102 547 _l
606 547 _l
589 457 _l
382 457 _l
330 193 _l
320 145 320 114 329 100 _c
_cl}_d
end readonly def

/BuildGlyph
 {exch begin
 CharStrings exch
 2 copy known not{pop /.notdef}if
 true 3 1 roll get exec
 end}_d

/BuildChar {
 1 index /Encoding get exch get
 1 index /BuildGlyph get exec
}_d

FontName currentdict end definefont pop
end
%%EndProlog
mpldict begin
75.6 223.2 translate
460.8 345.6 0 0 clipbox
gsave
0 0 m
460.8 0 l
460.8 345.6 l
0 345.6 l
cl
1.000 setgray
fill
grestore
gsave
57.6 38.016 m
414.72 38.016 l
414.72 304.128 l
57.6 304.128 l
cl
1.000 setgray
fill
grestore
0.800 setlinewidth
1 setlinejoin
0 setlinecap
[] 0 setdash
0.000 setgray
gsave
/o {
gsave
newpath
translate
0.8 setlinewidth
1 setlinejoin
0 setlinecap
0 0 m
0 -3.5 l

gsave
0.000 setgray
fill
grestore
stroke
grestore
} bind def
63.2883 38.016 o
grestore
/DejaVuSans findfont
10.000 scalefont
setfont
gsave
60.108611 23.422250 translate
0.000000 rotate
0.000000 0.000000 m /zero glyphshow
grestore
gsave
/o {
gsave
newpath
translate
0.8 setlinewidth
1 setlinejoin
0 setlinecap
0 0 m
0 -3.5 l

gsave
0.000 setgray
fill
grestore
stroke
grestore
} bind def
115.668 38.016 o
grestore
gsave
112.488225 23.422250 translate
0.000000 rotate
0.000000 0.000000 m /five glyphshow
grestore
gsave
/o {
gsave
newpath
translate
0.8 setlinewidth
1 setlinejoin
0 setlinecap
0 0 m
0 -3.5 l

gsave
0.000 setgray
fill
grestore
stroke
grestore
} bind def
168.048 38.016 o
grestore
gsave
161.688151 23.422250 translate
0.000000 rotate
0.000000 0.000000 m /one glyphshow
6.362305 0.000000 m /zero glyphshow
grestore
gsave
/o {
gsave
newpath
translate
0.8 setlinewidth
1 setlinejoin
0 setlinecap
0 0 m
0 -3.5 l

gsave
0.000 setgray
fill
grestore
stroke
grestore
} bind def
220.427 38.016 o
grestore
gsave
214.067765 23.422250 translate
0.000000 rotate
0.000000 0.000000 m /one glyphshow
6.362305 0.000000 m /five glyphshow
grestore
gsave
/o {
gsave
newpath
translate
0.8 setlinewidth
1 setlinejoin
0 setlinecap
0 0 m
0 -3.5 l

gsave
0.000 setgray
fill
grestore
stroke
grestore
} bind def
272.807 38.016 o
grestore
gsave
266.447379 23.422250 translate
0.000000 rotate
0.000000 0.000000 m /two glyphshow
6.362305 0.000000 m /zero glyphshow
grestore
gsave
/o {
gsave
newpath
translate
0.8 setlinewidth
1 setlinejoin
0 setlinecap
0 0 m
0 -3.5 l

gsave
0.000 setgray
fill
grestore
stroke
grestore
} bind def
325.186 38.016 o
grestore
gsave
318.826993 23.422250 translate
0.000000 rotate
0.000000 0.000000 m /two glyphshow
6.362305 0.000000 m /five glyphshow
grestore
gsave
/o {
gsave
newpath
translate
0.8 setlinewidth
1 setlinejoin
0 setlinecap
0 0 m
0 -3.5 l

gsave
0.000 setgray
fill
grestore
stroke
grestore
} bind def
377.566 38.016 o
grestore
gsave
371.206607 23.422250 translate
0.000000 rotate
0.000000 0.000000 m /three glyphshow
6.362305 0.000000 m /zero glyphshow
grestore
gsave
209.863125 9.750375 translate
0.000000 rotate
0.000000 0.000000 m /t glyphshow
3.920898 0.000000 m /i glyphshow
6.699219 0.000000 m /m glyphshow
16.440430 0.000000 m /e glyphshow
22.592773 0.000000 m /comma glyphshow
25.771484 0.000000 m /space glyphshow
28.950195 0.000000 m /d glyphshow
35.297852 0.000000 m /a glyphshow
41.425781 0.000000 m /y glyphshow
47.343750 0.000000 m /s glyphshow
grestore
gsave
/o {
gsave
newpath
translate
0.8 setlinewidth
1 setlinejoin
0 setlinecap
0 0 m
-3.5 0 l

gsave
0.000 setgray
fill
grestore
stroke
grestore
} bind def
57.6 50.7996 o
grestore
gsave
34.693750 47.002676 translate
0.000000 rotate
0.000000 0.000000 m /zero glyphshow
6.362305 0.000000 m /period glyphshow
9.541016 0.000000 m /one glyphshow
grestore
gsave
/o {
gsave
newpath
translate
0.8 setlinewidth
1 setlinejoin
0 setlinecap
0 0 m
-3.5 0 l

gsave
0.000 setgray
fill
grestore
stroke
grestore
} bind def
57.6 82.4704 o
grestore
gsave
34.693750 78.673564 translate
0.000000 rotate
0.000000 0.000000 m /zero glyphshow
6.362305 0.000000 m /period glyphshow
9.541016 0.000000 m /two glyphshow
grestore
gsave
/o {
gsave
newpath
translate
0.8 setlinewidth
1 setlinejoin
0 setlinecap
0 0 m
-3.5 0 l

gsave
0.000 setgray
fill
grestore
stroke
grestore
} bind def
57.6 114.141 o
grestore
gsave
34.693750 110.344452 translate
0.000000 rotate
0.000000 0.000000 m /zero glyphshow
6.362305 0.000000 m /period glyphshow
9.541016 0.000000 m /three glyphshow
grestore
gsave
/o {
gsave
newpath
translate
0.8 setlinewidth
1 setlinejoin
0 setlinecap
0 0 m
-3.5 0 l

gsave
0.000 setgray
fill
grestore
stroke
grestore
} bind def
57.6 145.812 o
grestore
gsave
34.693750 142.015340 translate
0.000000 rotate
0.000000 0.000000 m /zero glyphshow
6.362305 0.000000 m /period glyphshow
9.541016 0.000000 m /four glyphshow
grestore
gsave
/o {
gsave
newpath
translate
0.8 setlinewidth
1 setlinejoin
0 setlinecap
0 0 m
-3.5 0 l

gsave
0.000 setgray
fill
grestore
stroke
grestore
} bind def
57.6 177.483 o
grestore
gsave
34.693750 173.686229 translate
0.000000 rotate
0.000000 0.000000 m /zero glyphshow
6.362305 0.000000 m /period glyphshow
9.541016 0.000000 m /five glyphshow
grestore
gsave
/o {
gsave
newpath
translate
0.8 setlinewidth
1 setlinejoin
0 setlinecap
0 0 m
-3.5 0 l

gsave
0.000 setgray
fill
grestore
stroke
grestore
} bind def
57.6 209.154 o
grestore
gsave
34.693750 205.357117 translate
0.000000 rotate
0.000000 0.000000 m /zero glyphshow
6.362305 0.000000 m /period glyphshow
9.541016 0.000000 m /six glyphshow
grestore
gsave
/o {
gsave
newpath
translate
0.8 setlinewidth
1 setlinejoin
0 setlinecap
0 0 m
-3.5 0 l

gsave
0.000 setgray
fill
grestore
stroke
grestore
} bind def
57.6 240.825 o
grestore
gsave
34.693750 237.028005 translate
0.000000 rotate
0.000000 0.000000 m /zero glyphshow
6.362305 0.000000 m /period glyphshow
9.541016 0.000000 m /seven glyphshow
grestore
gsave
/o {
gsave
newpath
translate
0.8 setlinewidth
1 setlinejoin
0 setlinecap
0 0 m
-3.5 0 l

gsave
0.000 setgray
fill
grestore
stroke
grestore
} bind def
57.6 272.496 o
grestore
gsave
34.693750 268.698893 translate
0.000000 rotate
0.000000 0.000000 m /zero glyphshow
6.362305 0.000000 m /period glyphshow
9.541016 0.000000 m /eight glyphshow
grestore
gsave
/o {
gsave
newpath
translate
0.8 setlinewidth
1 setlinejoin
0 setlinecap
0 0 m
-3.5 0 l

gsave
0.000 setgray
fill
grestore
stroke
grestore
} bind def
57.6 304.167 o
grestore
gsave
34.693750 300.369781 translate
0.000000 rotate
0.000000 0.000000 m /zero glyphshow
6.362305 0.000000 m /period glyphshow
9.541016 0.000000 m /nine glyphshow
grestore
gsave
28.615625 167.572000 translate
90.000000 rotate
/DejaVuSans-Oblique findfont
10.0 scalefont
setfont
0.000000 0.531250 moveto
/tau glyphshow


grestore
1.500 setlinewidth
2 setlinecap
0.000 0.750 0.750 setrgbcolor
gsave
357.1 266.1 57.6 38.02 clipbox
73.832727 68.089082 m
73.905962 69.040369 l
73.978832 68.956843 l
74.271043 62.736616 l
74.563496 59.241079 l
75.074561 55.11176 l
75.147553 55.092382 l
75.439642 55.880412 l
75.731852 57.012892 l
76.242917 59.787082 l
76.461893 58.030053 l
76.827095 55.118045 l
77.046192 54.390879 l
77.192176 53.129137 l
77.849589 51.325421 l
78.287783 50.595031 l
78.799091 50.174766 l
79.237406 50.112 l
79.675843 50.236751 l
79.968175 50.571042 l
80.625708 51.72014 l
80.991032 52.295092 l
82.087366 51.766087 l
82.233472 52.409833 l
82.452569 54.464245 l
83.402192 58.415336 l
83.913378 58.808653 l
84.71726 59.641199 l
85.447664 60.650568 l
85.885858 61.361193 l
86.323931 62.170572 l
86.762004 63.055589 l
86.981102 62.570335 l
87.930603 59.919441 l
88.149943 62.168804 l
89.099202 75.611085 l
89.172194 74.522641 l
89.902478 59.735818 l
90.413906 56.20222 l
90.633125 56.072333 l
90.779109 56.165481 l
91.14419 56.806202 l
91.4364 57.57207 l
91.655376 57.101316 l
92.531886 54.728489 l
92.67787 54.678515 l
93.042951 55.06105 l
93.335282 55.483699 l
93.481266 56.279937 l
94.94159 59.024778 l
96.693761 64.011664 l
96.766753 63.934345 l
97.277939 62.817577 l
97.57015 66.210158 l
97.862239 69.967986 l
98.081457 66.426476 l
98.51953 60.082379 l
98.884611 60.867511 l
99.030717 61.238262 l
99.249814 60.641924 l
99.541903 59.995074 l
99.688008 59.899213 l
100.052968 60.264759 l
100.783372 61.440583 l
101.440543 63.692185 l
101.951729 65.897068 l
102.097834 65.442407 l
103.120934 61.120531 l
103.340152 62.863469 l
103.924573 70.509118 l
104.289775 77.265242 l
104.362767 76.47323 l
104.72797 68.628893 l
104.874075 62.598956 l
104.947188 63.143723 l
105.166285 69.112549 l
105.53173 72.59046 l
105.677956 72.397476 l
105.824061 72.211328 l
105.970288 72.111267 l
106.116393 71.637099 l
106.84704 68.203783 l
107.212121 67.544012 l
108.015154 64.669827 l
108.964656 61.475181 l
109.183632 61.461839 l
109.621462 61.799077 l
110.13277 63.028858 l
110.425223 61.299558 l
111.228619 57.706777 l
111.301732 57.807764 l
111.520708 61.176639 l
112.105008 75.31807 l
112.762057 90.906342 l
113.711801 100.454297 l
113.858027 100.61117 l
114.150359 100.317026 l
114.369456 99.446734 l
114.8804 97.12901 l
114.953392 97.154359 l
115.318473 97.228284 l
115.464578 97.112986 l
115.82978 96.215088 l
116.048999 95.138734 l
117.217355 85.557885 l
117.94776 76.925552 l
118.312841 73.379111 l
118.386075 73.554419 l
118.605172 74.677689 l
118.678285 71.157114 l
118.751399 71.207685 l
118.824391 71.263636 l
118.897383 71.027943 l
119.116237 67.015256 l
119.18935 68.597939 l
119.48144 63.012963 l
119.554431 62.866338 l
119.77365 63.601255 l
120.723273 66.304372 l
121.380686 66.236187 l
121.891993 66.837601 l
123.206576 70.19254 l
123.790875 70.005957 l
124.010094 69.873219 l
124.083207 71.190687 l
124.156199 71.127075 l
124.302304 70.97922 l
124.44853 69.467534 l
125.105943 68.651251 l
125.471145 68.308937 l
127.223922 67.883826 l
127.516133 68.205256 l
127.662238 68.31584 l
128.02744 66.65429 l
128.246537 65.748297 l
128.465877 66.700431 l
128.904071 68.668818 l
129.196282 68.352788 l
129.488249 67.990469 l
129.780702 68.122289 l
129.999921 67.965944 l
130.365123 66.385891 l
132.118021 58.392737 l
132.410353 57.595626 l
132.702563 57.527355 l
132.92166 57.61745 l
133.287105 58.028698 l
133.579316 58.400503 l
133.944639 58.482663 l
134.236607 58.754267 l
134.601567 59.462743 l
134.820664 60.429311 l
135.550947 65.241383 l
135.843036 67.414848 l
136.354465 75.968918 l
136.938522 85.153693 l
137.011514 85.368927 l
137.303846 88.605408 l
137.741919 69.697883 l
138.253226 61.471909 l
138.326339 61.797656 l
138.61855 63.802103 l
138.837768 65.382783 l
139.129857 66.080462 l
139.348833 66.969666 l
139.495059 66.438226 l
139.641165 65.527517 l
140.225464 59.643158 l
140.663901 56.753206 l
141.321314 55.026277 l
141.759387 54.166097 l
142.197702 53.821126 l
142.709131 53.72942 l
143.439535 53.916426 l
144.316288 54.330567 l
145.192676 54.515833 l
146.069186 54.921779 l
146.43451 55.22375 l
147.384254 56.838073 l
148.479982 58.572777 l
148.845184 58.945931 l
149.576074 59.379387 l
149.868163 59.617719 l
150.160495 59.004222 l
151.11036 57.075475 l
151.475684 57.243189 l
152.279444 57.743653 l
153.52152 57.965372 l
153.667382 57.659888 l
153.740496 58.208088 l
153.813609 59.75266 l
153.886601 55.403738 l
153.959593 58.992168 l
154.032464 58.039165 l
154.105456 57.763961 l
154.178569 57.84296 l
154.543771 57.987471 l
155.201305 56.849916 l
155.566628 56.292556 l
155.712734 56.252508 l
155.93171 57.252615 l
156.077936 57.729383 l
156.223799 57.885095 l
156.297033 58.251826 l
156.44326 60.064309 l
156.589243 67.57782 l
156.735349 59.820239 l
156.881454 62.64109 l
156.954688 61.841191 l
157.027801 62.298612 l
157.100915 61.659548 l
157.173907 62.350696 l
157.246899 62.183913 l
157.466117 61.499461 l
157.758085 61.457664 l
158.050053 63.452518 l
158.488368 58.17918 l
158.634473 58.055017 l
159.072668 56.351532 l
159.43787 55.948318 l
159.583975 55.91435 l
159.656967 55.733695 l
159.729959 55.80521 l
159.949177 56.199821 l
160.752574 57.790734 l
161.19089 58.373965 l
161.410108 58.074288 l
161.556213 58.121229 l
162.067763 62.778389 l
162.28686 63.821769 l
162.432844 63.464761 l
162.578949 65.785652 l
162.87116 63.480571 l
163.966282 55.557769 l
164.185621 55.617996 l
164.404597 55.811249 l
164.550702 56.0137 l
164.623694 55.78886 l
164.696807 55.919932 l
165.062131 56.690543 l
165.135123 56.58611 l
166.377199 53.639758 l
167.107603 53.350487 l
167.765259 53.053046 l
168.568776 52.718701 l
169.518521 52.528136 l
170.030071 52.590741 l
171.052928 53.014743 l
172.879425 53.88108 l
173.463724 54.144871 l
174.559573 54.847446 l
175.436083 54.919815 l
176.458698 55.343347 l
176.75103 55.708755 l
177.408564 57.828879 l
177.773766 58.979013 l
178.066098 60.572558 l
178.577526 65.029551 l
178.869615 73.340988 l
178.942607 79.009395 l
179.015599 78.115954 l
179.672891 51.45073 l
179.746004 53.464492 l
180.111206 75.32678 l
180.330546 87.260016 l
180.476651 87.781316 l
180.549764 87.133581 l
180.841853 78.641232 l
180.914845 78.70702 l
181.207177 80.791027 l
181.28029 80.821898 l
181.426395 80.505314 l
181.572501 83.305544 l
181.718606 79.111066 l
181.791719 80.90092 l
181.864832 85.457289 l
181.937824 101.112604 l
182.010937 177.186199 l
182.230277 65.037932 l
182.303269 55.799327 l
182.376382 58.719007 l
182.449374 59.262481 l
182.5956 58.203349 l
182.814576 58.909216 l
182.960682 62.131229 l
183.253013 71.341512 l
183.399118 71.061583 l
183.47211 71.192952 l
183.910426 85.252357 l
184.129402 94.601938 l
184.202394 92.495422 l
184.275507 86.042215 l
184.34862 101.6167 l
184.421733 97.141634 l
184.494725 96.82999 l
184.713944 100.332434 l
184.860049 93.011943 l
184.933162 91.89412 l
185.006154 99.883243 l
185.225372 83.098558 l
185.371478 87.558899 l
185.517704 94.284502 l
185.590696 93.528722 l
185.955898 86.706757 l
186.175238 82.640141 l
186.394456 77.678455 l
186.686667 89.277362 l
186.75978 88.770823 l
186.978756 84.172415 l
187.051748 84.274968 l
187.270966 85.225517 l
187.562934 77.117929 l
187.782031 85.087849 l
187.855023 87.959812 l
187.928015 87.573149 l
188.220225 83.720884 l
188.36633 83.763326 l
188.439444 83.385846 l
188.80501 75.84505 l
188.951115 75.525687 l
189.024228 75.814324 l
189.243325 80.787646 l
189.462422 88.067113 l
189.535414 87.264556 l
189.608528 87.221305 l
189.754754 121.354401 l
189.827867 117.762865 l
190.046964 95.163229 l
190.266183 81.775814 l
190.485159 84.679387 l
190.777248 82.251402 l
190.923353 82.91172 l
191.361426 86.259107 l
191.726749 89.720778 l
191.872733 89.846919 l
191.945725 89.799227 l
192.091709 90.180147 l
192.38392 89.32228 l
192.456912 85.339063 l
192.529904 95.872327 l
192.602895 95.284332 l
192.749001 96.24597 l
192.894985 96.940678 l
193.114082 96.816378 l
193.333179 97.514163 l
193.406535 97.437605 l
193.552761 96.688694 l
193.698866 95.103046 l
194.283287 77.316972 l
194.356158 77.887544 l
194.867708 89.005282 l
194.940821 87.04991 l
195.306144 75.303424 l
195.379258 76.896982 l
195.452492 71.560513 l
195.525484 71.640951 l
195.598476 71.704948 l
195.671589 71.163614 l
195.744702 71.302878 l
196.183018 86.821656 l
196.329365 78.02022 l
196.548463 95.932873 l
196.621576 95.208626 l
196.767802 78.781928 l
196.913907 102.712287 l
196.986899 99.254616 l
197.133005 93.941431 l
197.425336 93.757934 l
197.790538 93.019393 l
197.86353 93.076559 l
198.155741 93.706869 l
198.374838 94.415782 l
198.447951 94.375357 l
198.740283 94.126854 l
198.886509 94.176177 l
198.959622 94.43279 l
199.543922 102.801775 l
199.690148 107.651657 l
199.76314 104.328822 l
199.836253 104.956789 l
199.909367 105.883092 l
200.055472 115.621242 l
200.201456 112.554955 l
200.420553 113.289101 l
200.712884 107.731391 l
200.859111 109.964328 l
201.443774 124.0818 l
201.809219 137.3184 l
201.882211 141.096275 l
201.955203 139.807947 l
203.415891 96.768276 m
203.489004 94.925636 l
203.561996 107.043177 l
203.634988 103.770944 l
204.073182 86.451856 l
204.584611 73.943085 l
204.949934 69.608955 l
205.388371 67.605586 l
205.82705 66.503011 l
205.973156 66.253098 l
206.776795 63.073436 l
206.9229 64.241082 l
207.361337 64.861916 l
207.434329 64.969058 l
207.507442 64.577225 l
208.164976 72.426715 l
208.23821 68.65163 l
208.311323 68.871934 l
208.530663 99.82468 l
208.603655 86.6671 l
208.676768 90.321811 l
208.749881 90.798142 l
208.822995 89.966056 l
208.895987 77.132919 l
208.968979 79.711773 l
209.042213 85.035908 l
209.188197 103.143432 l
209.480529 116.171475 l
209.626634 104.533392 l
209.772618 115.6805 l
209.845731 115.156287 l
210.211176 98.591509 l
210.503265 75.446713 l
210.649491 90.928878 l
210.722483 87.065365 l
210.795718 88.036651 l
210.86871 96.048111 l
210.941823 211.897861 l
211.014815 183.071214 l
211.161041 80.693712 l
211.234154 78.360856 l
211.453373 101.897064 l
211.599599 128.413851 l
211.672591 128.841156 l
211.745704 121.547679 l
211.818696 128.805141 l
211.96468 91.272188 l
212.110785 106.67125 l
212.183777 105.384204 l
212.256891 93.667684 l
212.402996 109.029627 l
212.476109 83.978487 l
212.549343 84.720233 l
212.622457 84.909507 l
212.695449 105.360674 l
212.768441 98.11812 l
212.841433 85.275265 l
212.914667 86.604442 l
212.98778 86.728534 l
213.280233 79.010847 l
213.499451 78.237774 l
213.572565 87.721926 l
213.645799 85.774435 l
213.718791 78.609954 l
213.791783 79.004996 l
213.864896 79.166869 l
214.084115 75.577337 l
214.23022 81.009275 l
214.303212 77.133407 l
214.376204 78.642112 l
214.814762 87.051885 l
214.887632 87.184351 l
215.033738 89.040134 l
215.179722 78.708506 l
215.325827 84.593746 l
215.398819 84.029991 l
215.545166 78.594067 l
215.618158 78.823297 l
216.2027 96.267256 l
216.275692 94.773222 l
216.348805 106.349648 l
216.641016 96.015585 m
216.71425 104.153717 l
216.933469 140.788157 l
217.152687 177.491896 l
217.44514 260.866825 l
217.810706 99.606934 m
217.883819 194.815211 l
218.029682 82.304469 l
218.249143 67.090484 l
218.468361 79.150382 l
218.541474 76.709256 l
218.614466 186.458707 l
218.687458 90.254808 l
218.760571 116.048506 l
218.833563 136.12016 l
219.05266 92.95582 l
219.125652 100.282657 l
219.34475 75.298124 l
219.417863 82.426216 l
219.710194 63.078859 l
219.783308 62.028094 l
219.8563 62.277823 l
220.002526 63.387742 l
220.440963 60.604195 l
220.733173 63.585452 l
220.8794 67.485229 l
221.17161 87.17808 l
221.244723 86.077054 l
221.682917 72.252128 l
221.756031 76.382172 l
221.97537 65.516791 l
222.048362 65.559331 l
222.267702 70.455033 l
222.340815 72.281573 l
222.413928 71.794891 l
222.633147 69.217107 l
222.779252 70.918743 l
222.852244 69.630543 l
223.144333 72.998044 l
223.948093 79.561502 l
224.021085 79.665577 l
224.313417 97.563728 l
224.67874 118.295736 l
225.190169 70.066106 l
225.263282 66.934096 l
225.336395 67.148065 l
225.847945 76.597647 l
225.921059 76.297954 l
226.286503 71.537786 l
226.359617 74.216494 l
226.43273 73.813167 l
226.578835 74.664538 l
226.871045 77.466139 l
227.017272 79.228185 l
227.309846 75.98339 l
227.382838 77.051337 l
227.675169 81.305732 l
227.748161 81.968885 l
228.04025 78.154863 l
228.113242 78.672899 l
228.332461 81.688426 l
228.478687 78.995406 l
228.5518 79.261019 l
228.697906 79.824276 l
228.771019 79.984873 l
229.06335 83.451522 l
229.136464 85.776791 l
229.209456 80.626796 l
229.282448 88.574488 l
229.35544 87.247667 l
229.648014 77.899214 l
229.720884 78.182739 l
230.013337 81.488298 l
230.086329 81.568446 l
230.378539 83.163622 l
230.524645 88.307849 l
230.597637 87.373628 l
230.816855 84.125839 l
231.036073 90.803958 l
231.182057 94.338041 l
231.401397 95.177521 l
231.693486 100.137795 l
231.985818 97.454943 l
232.132165 92.20425 l
232.278392 100.637685 l
232.424497 93.40492 l
232.49761 93.895885 l
232.570723 94.684676 l
232.862934 91.828051 l
233.00916 91.388817 l
233.155387 93.593976 l
233.2285 87.807269 l
233.301492 92.812427 l
233.374484 92.074375 l
233.447476 93.894777 l
233.520589 85.350753 l
233.593702 96.634906 l
233.666694 90.938237 l
233.739565 80.568407 l
233.885791 95.875678 l
233.958783 95.075114 l
234.178244 90.916169 l
234.32447 97.424809 l
234.397584 97.307846 l
234.470576 96.647472 l
234.616923 101.812057 l
234.909134 81.212938 l
234.982126 81.860269 l
235.347207 95.375774 l
235.493312 101.818867 l
235.785643 85.823619 l
235.858635 86.357711 l
236.077975 90.526936 l
236.150967 90.47073 l
236.370064 89.776329 l
236.808865 88.470259 l
237.174067 87.686564 l
237.393285 87.279075 l
237.612504 85.73575 l
237.685738 90.152996 l
237.978191 80.989159 l
238.124175 76.619019 l
238.270523 87.982677 l
238.343636 97.563402 l
238.416749 97.29254 l
238.489741 97.907048 l
238.709081 74.674539 l
238.782194 75.512775 l
239.220994 90.347685 l
239.367221 81.400171 l
239.440334 74.710855 l
239.513447 75.945831 l
239.586439 77.962717 l
239.878892 72.982254 l
239.951884 73.824371 l
240.097989 77.499129 l
240.244094 76.452145 l
240.463434 80.990756 l
240.536426 80.680915 l
240.755765 79.632176 l
240.901871 79.038682 l
241.047976 77.489822 l
241.194081 80.656824 l
241.340065 76.58762 l
241.413299 76.737893 l
241.486291 77.154774 l
241.559405 76.939673 l
241.778502 76.251455 l
241.851615 75.235587 l
241.924607 75.624297 l
242.216817 74.433808 l
242.582141 74.992217 l
242.874594 76.394322 l
242.947707 76.397699 l
243.093933 76.633507 l
243.31303 75.906533 l
243.386144 75.947822 l
243.678354 83.803433 l
243.751467 83.533528 l
243.970564 81.404054 l
244.335888 88.278757 l
244.555106 92.705547 l
244.847195 81.684367 l
244.920309 82.57549 l
244.993422 85.638185 l
245.066414 78.931961 l
245.139527 88.017487 l
245.212761 85.549733 l
245.43198 83.498172 l
245.578085 84.494822 l
245.651198 80.695728 l
245.724311 81.720556 l
245.797303 80.959509 l
246.016764 70.523021 l
246.30946 61.046589 l
246.382573 61.151973 l
247.186576 69.575243 l
247.478907 60.346659 l
247.55202 60.376952 l
247.844231 62.128328 l
247.990215 62.009491 l
248.13632 61.932652 l
248.574999 61.543702 l
248.940201 61.574295 l
249.889946 62.039645 l
250.474488 62.699304 l
251.059151 63.729439 l
251.424596 64.701165 l
251.570701 65.755814 l
251.643814 64.522146 l
251.716927 61.257112 l
251.789919 73.698543 l
251.862911 61.822679 l
251.935903 64.481234 l
252.008895 65.099262 l
252.155 63.731799 l
252.447211 73.170072 l
252.520324 71.639438 l
252.739542 66.031754 l
252.885769 67.769699 l
253.251092 71.808924 l
253.324205 72.316572 l
253.543302 70.863191 l
253.616294 70.453829 l
254.054489 74.998827 l
254.127481 72.289635 l
254.200594 72.636295 l
254.34682 72.567763 l
254.639152 74.682552 l
256.100689 81.616743 l
256.320028 82.092135 l
256.539125 82.119446 l
256.758344 81.983219 l
257.050675 81.447561 l
258.146646 78.531589 l
258.585204 76.402266 l
259.46232 67.359414 l
259.75453 65.583908 l
260.558412 59.200022 l
260.996728 56.911672 l
261.288938 56.598347 l
261.654746 56.510181 l
261.947199 56.569496 l
262.23941 56.63856 l
262.751081 56.683759 l
263.628197 57.058711 l
264.651297 57.131318 l
265.674154 56.642764 l
266.697739 57.138204 l
267.355516 57.632437 l
267.940179 58.039257 l
268.232632 57.771365 l
268.817174 57.202875 l
269.109505 56.979805 l
270.205961 54.941124 l
270.279074 54.988098 l
270.571769 57.099491 l
271.010327 60.313944 l
271.229546 60.77937 l
271.375651 60.889682 l
271.448522 61.199812 l
272.0327 72.667367 l
272.471015 61.346774 l
272.617121 57.147395 l
272.690234 57.68608 l
273.055557 62.548405 l
273.201541 63.363031 l
273.347646 62.964109 l
273.493752 62.318061 l
273.786205 64.680136 l
273.859318 64.538619 l
274.370746 62.631215 l
274.662957 62.719182 l
274.955288 64.979157 l
275.24762 55.795709 l
275.320733 56.955363 l
275.540073 62.41437 l
275.613065 61.809575 l
275.905518 58.20873 l
276.709157 56.372308 l
277.220464 55.534937 l
277.293456 55.552625 l
277.585788 56.941669 l
278.024225 59.200441 l
278.462661 60.633285 l
279.19343 66.305231 l
279.412769 69.565639 l
279.705222 72.333464 l
279.778335 70.758212 l
280.362877 94.726859 l
280.435869 91.63191 l
280.509225 83.287459 l
280.65533 100.285966 l
281.020775 73.957517 m
281.312985 90.490666 l
281.386098 88.567799 l
281.824293 139.788463 l
282.116867 173.691334 l
282.262972 178.097389 l
282.336085 170.257161 l
282.70153 79.784266 l
283.50529 111.251603 m
284.017083 72.626544 l
284.309657 61.706121 l
284.456005 61.144192 l
285.186773 66.141875 l
285.40587 68.810716 l
285.478862 67.708192 l
285.551975 69.756331 l
285.624967 69.691834 l
285.771315 69.493396 l
285.917541 68.964135 l
286.282865 71.468555 l
286.648188 73.569503 l
286.867528 72.216495 l
287.305965 69.271491 l
287.598054 69.370267 l
287.744159 69.445261 l
288.109361 70.062933 l
288.474685 70.953518 l
288.767138 72.059164 l
288.913122 76.115993 l
288.986235 76.731277 l
289.059227 76.491499 l
289.424793 73.062905 l
289.570898 69.999587 l
290.082448 69.264684 l
290.228675 68.937059 l
291.105791 66.015686 l
291.325009 65.648166 l
291.544106 66.482884 l
291.982664 69.053012 l
292.055656 66.555993 l
292.128769 66.687251 l
292.786424 67.667879 l
292.859538 67.71267 l
292.932651 70.939969 l
293.005764 70.180204 l
293.078756 69.795017 l
293.151748 70.87444 l
293.224861 68.052332 l
293.297974 68.209393 l
293.443958 68.326709 l
293.590185 68.215169 l
293.663177 70.572348 l
293.736169 68.334376 l
293.809161 68.523398 l
294.320832 69.516638 l
294.393945 69.483885 l
294.466937 71.679853 l
294.539929 69.723716 l
294.759147 74.193731 l
294.832261 69.504782 l
294.905374 69.524063 l
294.978366 69.503475 l
295.124592 69.90201 l
295.197584 68.759838 l
295.270697 69.501211 l
295.416924 67.205608 l
295.56315 74.917884 l
295.636385 73.685297 l
295.709619 75.459181 l
296.002072 68.534036 l
296.075064 68.510291 l
296.294404 70.581723 l
296.586614 68.428718 l
297.171398 61.963106 l
297.390738 65.915995 l
297.975644 78.524535 l
298.341088 81.976551 l
298.41408 81.674393 l
298.85276 75.690435 l
299.510657 66.430996 l
299.583771 66.345557 l
299.80311 67.048149 l
300.095442 68.636774 l
300.753461 74.255637 l
300.826574 72.255653 l
300.899687 72.601089 l
300.9728 72.696295 l
301.045792 71.773349 l
301.119027 73.922642 l
301.192261 71.420241 l
301.265253 73.610617 l
301.338366 72.842817 l
301.41148 69.830992 l
301.484593 70.005301 l
301.557827 70.203696 l
301.996507 68.677215 l
302.361951 68.306018 l
302.654283 67.972096 l
303.53152 66.636973 l
304.043313 65.927296 l
304.262774 65.596143 l
304.481992 65.028442 l
305.13989 64.130813 l
305.358987 63.94176 l
305.578205 64.26931 l
306.235982 65.474339 l
306.455079 65.652114 l
306.528071 65.807109 l
307.185968 69.999941 l
307.259081 69.860136 l
308.136076 68.103093 l
308.282303 67.952037 l
308.428408 67.135515 l
308.501521 67.157714 l
308.574756 67.216626 l
308.647869 66.957964 l
308.794216 63.170813 l
309.086548 62.068388 l
309.159661 61.893076 l
309.232774 63.538255 l
309.305888 63.130013 l
309.452114 62.114291 l
309.671454 61.583356 l
309.817559 61.34373 l
310.329351 59.712445 l
311.059877 57.235282 l
312.15609 54.397266 l
312.37543 54.023073 l
312.521656 53.428261 l
312.66764 53.965952 l
313.325174 54.19726 l
313.544393 54.320578 l
313.690498 54.653718 l
313.836846 54.757099 l
314.129056 57.724731 l
314.20229 57.075018 l
314.348638 55.221942 l
314.421751 55.303486 l
314.494743 54.189155 l
314.787317 57.666314 l
314.86043 57.415509 l
315.006778 54.852262 l
315.152883 58.362003 l
315.298867 55.290341 l
315.371859 55.769567 l
315.518086 56.681017 l
315.737183 56.908738 l
315.956522 57.16343 l
317.052857 58.997845 l
317.272196 58.859015 l
318.003086 57.795881 l
318.441523 57.240855 l
319.464865 56.101798 l
319.83031 56.159587 l
320.049528 56.155768 l
320.560957 55.65944 l
320.926523 57.555802 l
321.145863 58.631526 l
321.292089 58.208215 l
321.730526 56.34129 l
321.803639 56.37151 l
322.388302 57.334368 l
323.045958 57.315033 l
323.192184 58.733484 l
323.484637 58.782985 l
323.630742 57.272053 l
324.434502 57.348243 l
326.481309 57.826429 l
327.723869 57.657552 l
332.620757 57.033738 l
336.640165 57.049008 l
339.125287 57.418731 l
339.271392 57.101312 l
339.344505 57.086246 l
339.490489 57.429122 l
340.87964 57.282123 l
340.952753 58.029869 l
341.025745 57.96216 l
341.975732 57.37202 l
342.341177 57.29852 l
342.487524 56.022768 l
342.633629 58.90258 l
342.779856 59.277577 l
343.072066 58.200235 l
343.364398 57.062908 l
343.656972 59.659497 l
344.022417 62.425282 l
344.60708 61.597045 l
344.82642 60.980894 l
344.899654 62.273051 l
344.972767 62.045505 l
345.192107 61.232953 l
346.361676 77.908914 l
346.508023 77.310612 l
346.873711 73.488901 l
347.531608 53.15087 l
347.677714 53.537161 l
347.970045 55.094758 l
348.043158 55.038496 l
348.6277 57.649174 l
348.773684 57.48331 l
349.431946 56.409282 l
349.724398 56.284183 l
349.943738 56.050051 l
350.455652 55.349794 l
350.601878 54.779047 l
351.113549 54.318559 l
352.356595 53.902667 l
353.087849 53.236002 l
353.526649 52.820695 l
354.111555 52.276709 l
354.477121 52.168059 l
354.769695 53.045807 l
355.281245 55.073382 l
355.646932 56.42951 l
355.866151 56.512602 l
356.231353 56.542996 l
356.743024 58.320777 l
356.962243 59.024451 l
357.10859 56.850374 l
357.254695 68.479448 l
357.327809 65.245134 l
357.620019 53.493615 l
357.693132 50.870659 l
358.13169 66.857516 l
358.278038 55.688806 l
358.351151 56.039465 l
358.424264 57.31827 l
358.497378 56.932166 l
358.789709 55.802222 l
359.374736 55.017136 l
359.667068 55.336494 l
359.886286 55.973887 l
361.201839 60.832851 l
361.421178 59.743492 l
361.494292 60.145925 l
362.152796 93.501747 l
362.225909 75.447986 l
362.299022 78.152051 l
362.372135 80.531532 l
362.445248 79.525994 l
362.518604 78.474359 l
362.591596 78.87243 l
362.664709 79.057499 l
363.468833 62.340416 l
363.834157 59.03422 l
363.980383 58.912194 l
364.126489 59.353897 l
364.345586 60.77121 l
364.565047 63.945729 l
365.003726 74.920075 l
365.296421 91.442306 l
365.589116 130.60632 l
365.808577 86.154247 l
365.954804 79.267566 l
366.10103 78.495285 l
366.174143 78.644331 l
366.320249 78.360143 l
366.466475 79.113582 l
366.758807 85.001834 l
366.83192 84.964902 l
367.197243 81.90839 l
367.343349 80.240134 l
367.635801 92.561465 l
367.708915 91.328981 l
367.928133 85.692145 l
368.293578 90.987588 l
368.513039 81.771785 l
368.586152 81.599404 l
368.878483 82.870113 l
368.951475 82.905464 l
369.097702 83.159218 l
369.609494 78.426956 l
369.682729 78.503526 l
369.901947 86.034432 l
370.41374 115.031692 l
370.559845 127.814614 l
370.633079 117.689571 l
370.852298 159.542777 l
370.925532 156.376389 l
371.436961 89.133172 l
372.094859 88.114679 m
372.168093 86.634327 l
372.314319 93.960786 l
372.387433 93.758408 l
372.460425 93.319389 l
372.533417 93.542467 l
372.60653 94.687356 l
372.899104 114.495616 l
372.972096 112.986131 l
373.191678 104.614279 l
373.26467 105.37772 l
373.484131 109.810829 l
373.557244 109.577005 l
373.630357 107.1175 l
373.703349 119.655579 l
373.922689 104.636908 l
374.141907 90.457951 l
374.21502 91.068958 l
374.361247 95.338092 l
374.507352 88.131766 l
374.580586 88.294479 l
374.6537 89.236917 l
374.799926 84.682621 l
375.165613 101.057917 l
375.238727 118.842589 l
375.384832 292.032 l
375.457945 263.009397 l
375.823147 73.664411 l
376.042608 57.477456 l
376.115843 63.226654 l
376.188956 59.820844 l
376.335182 66.622488 l
376.847096 74.523064 l
378.016422 116.675457 l
378.089657 124.937482 l
378.16277 115.626918 l
378.235762 116.490332 l
378.308754 118.270777 l
378.528336 108.383835 l
378.747554 109.230975 l
379.113121 103.418685 l
379.332339 103.251005 l
379.697905 101.960818 l
379.990237 100.002544 l
380.136463 98.544609 l
380.428916 91.058622 l
381.159684 72.223366 l
381.525372 66.577173 l
381.96393 63.296099 l
382.402609 60.662398 l
382.548835 60.235591 l
382.695062 60.521373 l
383.060628 62.117389 l
383.426073 64.767212 l
383.864873 67.898732 l
384.084334 68.652837 l
384.303674 69.751612 l
384.815587 68.468048 l
384.8887 68.884157 l
385.107919 78.136923 l
385.765938 116.910008 l
386.131383 95.067048 l
386.350601 96.572576 l
387.228202 84.663495 l
387.447542 89.212387 l
388.105439 111.948927 l
388.398135 122.097037 l
388.544361 118.542436 l
389.641544 76.797503 l
389.714657 76.991992 l
389.933755 78.470544 l
390.372434 81.114679 l
390.445547 81.219671 l
390.737757 82.455539 l
390.957097 81.113221 l
391.615116 76.757938 l
391.980682 75.260362 l
392.1999 75.37076 l
392.858283 76.079637 l
393.150736 76.344589 l
393.589415 76.146705 l
393.881989 76.066652 l
394.247676 75.880412 l
394.686113 75.01918 l
394.905332 74.487758 l
395.051558 77.850561 l
395.417003 79.227616 l
395.636342 77.956922 l
396.001787 75.104587 l
396.074901 72.351071 l
396.148014 72.353647 l
396.513459 71.089278 l
396.732798 70.818607 l
396.952017 70.657494 l
397.098122 73.317121 l
397.536922 75.278324 l
397.610035 75.363449 l
397.756262 76.018855 l
397.975359 74.786091 l
398.121707 72.537528 l
398.341168 67.423833 l
398.41416 67.489224 l
398.487273 67.926604 l
398.487273 67.926604 l
stroke
grestore
0.627 0.314 0.314 setrgbcolor
gsave
357.1 266.1 57.6 38.02 clipbox
73.832727 79.842957 m
73.905962 80.513691 l
73.978832 83.294756 l
74.051946 79.048932 l
74.124938 80.14402 l
74.709601 71.585218 l
75.147553 67.346303 l
75.293537 67.532397 l
75.36665 65.835856 l
75.439642 66.133301 l
75.731852 67.042011 l
75.877836 69.03884 l
76.242917 69.89046 l
76.535006 67.634702 l
77.411395 60.950626 l
77.995573 58.44753 l
78.652985 56.171812 l
79.091422 55.494058 l
79.675843 55.061335 l
79.895183 55.165097 l
80.406611 55.868878 l
80.991032 57.228715 l
81.429711 56.923528 l
81.575816 56.805004 l
81.795035 56.661126 l
81.941261 56.628254 l
82.014374 56.68832 l
82.087366 56.917601 l
82.379456 60.701249 l
83.036989 71.790187 l
83.3292 76.102365 l
83.548297 76.428907 l
83.694402 76.478139 l
83.767394 72.872989 l
83.840507 72.881173 l
84.278944 73.299916 l
84.425049 73.380574 l
84.863243 74.840492 l
85.228688 75.876317 l
85.66664 77.042075 l
86.762004 81.720405 l
86.835118 81.667939 l
87.419417 80.158374 l
87.857611 78.299264 l
87.930603 78.310808 l
88.149943 81.347945 l
89.099202 97.269171 l
89.318299 92.418714 l
90.048704 74.199527 l
90.340793 69.777565 l
90.486898 69.673993 l
91.4364 70.832229 l
91.728489 69.454673 l
92.385781 66.700228 l
92.458772 66.460556 l
92.531886 68.383272 l
92.604756 68.241037 l
92.750862 68.280018 l
92.823975 66.242061 l
92.896845 66.362137 l
93.408274 67.441224 l
94.211307 69.600244 l
94.868598 71.754584 l
96.255567 77.225948 l
96.912858 79.722555 l
97.204947 80.088237 l
97.277939 80.183455 l
97.862239 82.484675 l
98.154449 79.63324 l
98.51953 76.546241 l
99.10383 75.712922 l
99.614895 74.11792 l
99.833992 74.012207 l
100.491404 74.180893 l
100.856364 74.503406 l
101.513534 75.794744 l
101.951729 76.871701 l
102.170826 76.24124 l
102.974829 73.561404 l
103.120934 73.346787 l
103.340152 74.877436 l
103.924573 81.568941 l
104.289775 87.192177 l
104.362767 87.114866 l
104.72797 84.107289 l
104.874075 82.712217 l
104.947188 82.751422 l
105.385382 83.932656 l
105.458617 84.045347 l
105.53173 83.997599 l
106.262619 83.132607 l
106.84704 83.095194 l
108.23413 83.719524 l
108.599453 83.667651 l
109.548591 83.307237 l
110.059778 84.051042 l
110.13277 83.940289 l
111.301732 74.111545 l
111.520708 77.12602 l
112.032137 89.07189 l
113.711801 136.100449 l
113.784914 135.940391 l
114.077246 133.888852 l
114.588432 127.677576 l
114.8804 124.534652 l
115.245359 126.431909 l
115.537691 127.98082 l
115.976007 129.10112 l
116.121991 127.772522 l
116.267974 122.994564 l
118.312841 97.00073 l
118.458946 97.46185 l
118.605172 98.062614 l
118.824391 99.793065 l
118.897383 99.745787 l
119.48144 84.501249 l
119.554431 84.578597 l
119.919876 87.493424 l
120.284957 90.177574 l
120.723273 92.300277 l
120.796265 92.201915 l
121.161467 91.405105 l
121.453677 90.956128 l
121.891993 90.576089 l
122.330066 91.370163 l
123.571778 93.860985 l
125.252048 96.896834 l
125.32504 96.897521 l
125.544137 96.340545 l
126.420526 92.996069 l
127.808343 87.469308 l
128.904071 86.23268 l
129.342266 85.922211 l
129.999921 85.100523 l
130.438115 82.077397 l
131.460609 74.917214 l
132.191135 70.766636 l
132.264127 73.91434 l
132.33724 73.649576 l
132.483466 73.645645 l
132.775555 74.123015 l
133.287105 75.716451 l
133.579316 76.792698 l
133.652429 72.942193 l
133.725421 73.098315 l
134.163615 74.233743 l
134.820664 76.987258 l
135.550947 80.576937 l
135.69681 88.625172 l
135.843036 89.880275 l
135.916028 82.825916 l
135.98902 83.875798 l
136.86553 99.176157 l
137.011514 101.058042 l
137.230854 96.260029 l
137.741919 83.168795 l
137.815032 89.041293 l
137.888024 87.59932 l
138.180113 82.412839 l
138.253226 82.29915 l
138.472566 83.143221 l
138.764655 85.389906 l
138.837768 85.116513 l
138.983873 84.089999 l
139.056865 78.792313 l
139.129857 79.311294 l
139.202849 79.78466 l
139.348833 87.393992 l
139.568173 84.503999 l
140.006246 79.082951 l
140.737014 72.816676 l
141.759387 67.308661 l
142.41692 65.270984 l
143.512527 62.765557 l
144.024077 62.012582 l
144.316288 62.020687 l
144.754239 62.294619 l
145.411773 63.011298 l
145.996194 63.807345 l
146.580615 64.948912 l
147.749699 68.032941 l
148.699079 70.762268 l
148.918298 70.809075 l
149.502961 70.453325 l
150.672166 69.445718 l
151.11036 69.141041 l
151.694902 69.372365 l
153.667382 70.31121 l
153.813609 71.758893 l
153.886601 68.029581 l
153.959593 71.672325 l
154.032464 70.951921 l
154.105456 70.916983 l
154.251561 71.604956 l
154.324674 71.561032 l
154.543771 71.201265 l
154.616763 71.257287 l
154.909095 71.536989 l
155.493637 71.723261 l
155.785726 72.105129 l
156.004823 72.796741 l
156.077936 72.629098 l
156.223799 72.31833 l
156.297033 72.449373 l
156.370146 73.548488 l
156.44326 71.872247 l
156.516251 76.300398 l
156.589243 71.927473 l
156.662235 78.10678 l
156.735349 77.896375 l
156.881454 74.596327 l
156.954688 74.838797 l
157.027801 75.522565 l
157.100915 72.288118 l
157.173907 73.14158 l
157.246899 73.146122 l
157.466117 72.792247 l
157.977061 72.789164 l
158.123166 72.70126 l
159.510983 71.198988 l
160.971671 70.495442 l
161.70244 69.992817 l
161.848423 73.209957 l
162.651941 73.414683 l
162.725054 73.330329 l
163.089772 71.640386 l
164.039395 67.313127 l
164.696807 66.214751 l
165.135123 65.680584 l
165.719665 65.36421 l
166.231094 65.262466 l
166.961498 65.51632 l
167.399814 65.649263 l
167.765259 65.210556 l
169.445529 63.028609 l
169.956957 62.608908 l
170.760718 62.373285 l
172.075786 62.311167 l
172.733319 62.614287 l
173.390853 63.089944 l
175.947512 65.819391 l
176.53169 66.824754 l
176.970127 67.928162 l
177.481677 69.629592 l
177.554669 67.398046 l
177.627661 67.697061 l
177.992984 69.746826 l
178.504413 73.762549 l
178.942607 85.388872 l
179.088591 88.962407 l
179.453915 72.379111 l
179.672891 64.689689 l
179.818996 70.244517 l
180.330546 100.568178 l
180.476651 99.726447 l
180.841853 93.913411 l
180.914845 94.143509 l
181.426395 98.571624 l
181.718606 96.084319 l
181.864832 105.341356 l
181.937824 111.298781 l
182.010937 174.692108 l
182.157164 105.65987 l
182.303269 83.520672 l
182.376382 84.223872 l
182.449374 83.100469 l
182.5956 75.200683 l
182.668592 76.274155 l
183.545223 99.811391 l
184.05641 111.325721 l
184.202394 123.137474 l
184.275507 110.528288 l
184.34862 131.307378 l
184.421733 126.420686 l
184.494725 125.679397 l
184.786936 132.210129 l
184.933162 135.409643 l
185.225372 114.039671 l
185.371478 117.216615 l
185.517704 121.503208 l
186.029011 104.365774 l
186.175238 103.126202 l
186.321464 103.46562 l
186.905764 105.77606 l
187.051748 106.613441 l
187.270966 108.319375 l
187.562934 104.714498 l
187.635926 104.845335 l
188.293338 108.970888 l
188.439444 110.026729 l
189.024228 96.314014 l
189.170333 99.807314 l
189.754754 121.858467 l
189.900859 131.745896 l
190.193191 107.747963 l
190.266183 108.32417 l
190.558151 114.343153 l
190.631143 114.186774 l
190.85024 114.54613 l
190.996345 114.274494 l
191.361426 113.431408 l
191.799741 112.904581 l
191.945725 112.299238 l
192.091709 111.405269 l
192.164701 106.19705 l
192.237814 110.150739 l
192.310928 129.041831 l
192.456912 105.886627 l
192.529904 126.683283 l
192.602895 126.54329 l
192.676009 126.267274 l
192.821993 126.592533 l
193.114082 125.816881 l
193.625874 132.290299 l
193.698866 132.231676 l
194.283287 107.692388 l
194.356158 108.102504 l
194.575497 112.392815 l
194.64861 97.762251 l
194.721724 99.668812 l
194.867708 103.586271 l
194.940821 103.200966 l
195.452492 97.041534 l
195.598476 98.543852 l
196.329365 110.402386 l
196.475471 119.844531 l
196.548463 118.558162 l
196.986899 106.911355 l
197.133005 128.817379 l
197.790538 120.294716 l
197.86353 120.480332 l
198.082628 122.594567 l
198.155741 105.930412 l
198.228733 108.963479 l
198.594178 121.420842 l
199.105728 132.066212 l
199.178598 132.128397 l
199.397817 131.529575 l
199.543922 130.817577 l
199.690148 131.512133 l
199.836253 132.750255 l
199.909367 122.247618 l
199.982359 124.10493 l
201.516766 171.461781 l
201.809219 172.848044 l
201.955203 172.674554 l
202.101187 172.019494 l
202.320405 169.838094 l
202.612615 164.449324 l
203.196915 147.945224 l
203.269907 145.863444 l
203.489004 131.189027 l
203.634988 124.479844 l
203.708101 130.807788 l
204.219287 107.874455 l
204.657724 98.533799 l
204.949934 95.292798 l
205.461484 92.684746 l
206.119261 90.779355 l
206.557576 88.687582 l
206.849908 87.88449 l
206.996134 87.79361 l
207.142118 88.133696 l
207.361337 90.48747 l
207.653668 96.612223 l
208.530663 122.652687 l
209.480529 159.904229 l
209.699626 166.24786 l
209.772618 163.477435 l
209.845731 164.185654 l
209.918844 163.879389 l
210.138062 159.543363 l
210.211176 152.156674 l
210.284289 197.757038 l
210.503265 127.387044 l
210.576499 125.636652 l
210.649491 171.912648 l
210.722483 165.619396 l
210.795718 140.183849 l
210.941823 185.58973 l
211.014815 178.828394 l
211.161041 134.62633 l
211.234154 108.218308 l
211.307146 116.006001 l
211.672591 160.063136 l
211.745704 156.856649 l
211.818696 159.793437 l
212.037793 110.226084 l
212.110785 144.611055 l
212.183777 107.230139 l
212.256891 114.578438 l
212.330004 111.70439 l
212.402996 143.75597 l
212.476109 102.19438 l
212.549343 107.204076 l
212.622457 101.38329 l
212.695449 147.109518 l
212.768441 140.558315 l
212.841433 117.046419 l
212.98778 132.261521 l
213.061015 130.857263 l
213.280233 114.869836 l
213.353225 116.587024 l
213.426338 119.565305 l
213.499451 112.604835 l
213.572565 137.864375 l
213.645799 109.074772 l
213.718791 112.106226 l
213.864896 116.304932 l
214.157107 104.756133 l
214.23022 106.11054 l
214.814762 123.803614 l
214.887632 124.530688 l
215.033738 130.599948 l
215.179722 121.703527 l
215.325827 140.631945 l
215.398819 138.33576 l
215.545166 132.54935 l
215.618158 108.260914 l
215.691272 114.291198 l
215.983482 154.861834 l
216.2027 150.783184 l
216.421919 160.264158 l
216.568024 175.523552 l
217.298913 287.69846 l
217.372148 93.942655 l
217.44514 94.160488 l
217.810706 133.817847 m
217.883819 167.691548 l
218.175908 110.642171 l
218.249143 107.509576 l
218.468361 125.701702 l
218.541474 123.57171 l
218.614466 273.613156 l
218.687458 126.838176 l
218.760571 143.879374 l
218.833563 150.955497 l
219.05266 110.607683 l
219.125652 125.790469 l
219.271758 88.440812 l
219.417863 106.483112 l
219.637081 88.016767 l
219.710194 91.686374 l
220.002526 82.93243 l
220.075639 83.637625 l
220.367728 88.245669 l
220.513955 89.093924 l
220.660181 91.953936 l
221.244723 114.529935 l
221.317715 114.146113 l
221.390707 113.800434 l
221.463699 112.420366 l
221.97537 89.601 l
222.048362 88.741192 l
222.121475 97.602959 l
222.194589 97.394264 l
222.413928 97.749227 l
222.560033 97.846232 l
222.633147 88.753122 l
222.706139 90.656024 l
223.582891 114.110014 l
223.656004 113.754764 l
223.87498 111.700992 l
224.459522 104.815843 l
224.605627 144.006635 l
224.67874 145.428696 l
225.190169 105.741513 l
225.263282 103.785901 l
225.336395 91.714193 l
225.409387 93.198269 l
225.847945 102.864933 l
225.921059 102.754383 l
226.43273 97.592748 l
226.578835 95.069372 l
226.725061 110.982298 l
227.090506 112.687985 l
227.602177 112.996991 l
227.967259 111.971228 l
228.186356 111.366332 l
228.5518 116.410674 l
228.625035 117.438575 l
228.697906 100.257663 l
228.771019 101.138736 l
228.844132 100.35093 l
228.990237 118.324537 l
229.06335 118.118266 l
229.136464 114.219155 l
229.209456 101.300684 l
229.35544 114.513117 l
229.501787 112.476802 l
229.5749 112.584139 l
229.794119 113.156939 l
229.867111 98.143167 l
229.940224 98.861515 l
230.305426 100.091501 l
230.889847 102.005999 l
231.182057 102.846263 l
231.693486 105.317398 l
231.985818 101.094319 l
232.132165 112.623389 l
232.424497 114.653595 l
232.862934 117.714243 l
233.082273 115.4338 l
233.374484 112.584541 l
233.447476 99.870059 l
233.520589 101.878395 l
233.812678 109.403301 l
233.958783 109.070774 l
234.32447 106.364303 l
234.397584 104.487905 l
234.543689 125.939483 l
234.616923 127.576116 l
234.763028 100.751329 l
234.909134 103.259016 l
235.055239 97.279321 l
235.493312 131.301983 l
235.785643 112.273071 l
235.858635 113.198467 l
236.077975 119.016352 l
236.150967 118.77424 l
236.370064 117.283276 l
236.954727 116.978858 l
237.320172 115.194686 l
237.466277 114.63509 l
237.53939 114.942782 l
237.612504 112.650391 l
237.685738 114.836616 l
237.758851 114.124809 l
237.831965 113.855682 l
237.978191 115.653379 l
238.051183 113.445799 l
238.124175 116.182089 l
238.270523 112.456319 l
238.343636 103.621918 l
238.416749 118.963452 l
238.562975 99.335448 l
238.709081 114.433637 l
238.855307 113.231395 l
238.92842 112.333333 l
239.001655 100.196745 l
239.074768 101.844131 l
239.294108 105.651292 l
239.513447 112.968632 l
239.586439 113.142626 l
239.659674 102.538032 l
239.732787 104.45111 l
239.878892 105.777396 l
240.024876 102.821948 l
240.097989 111.585425 l
240.170981 108.017283 l
240.609539 93.924925 l
240.682652 105.460717 l
240.755765 105.387821 l
241.047976 105.056256 l
241.194081 105.726235 l
241.267073 105.613934 l
241.340065 105.506297 l
241.632518 107.036503 l
241.924607 105.242966 l
242.289809 108.634604 l
242.362801 108.492955 l
242.509149 108.310377 l
243.459257 110.50921 l
244.262896 117.238595 l
244.555106 121.713668 l
244.847195 110.880886 l
244.920309 111.77309 l
244.993422 115.611726 l
245.066414 101.893486 l
245.139527 115.442388 l
245.212761 112.371865 l
245.285875 111.825304 l
245.43198 113.202882 l
245.651198 104.739276 l
245.724311 100.275462 l
245.797303 102.77854 l
245.943772 97.616566 l
246.089877 95.079545 l
246.382573 90.130355 l
246.894244 87.897727 l
246.967236 80.674783 l
247.040349 80.8109 l
247.186576 80.971397 l
247.405915 78.93005 l
247.478907 84.676829 l
247.55202 84.573688 l
247.771239 84.926985 l
248.867088 83.708155 l
249.232412 83.535396 l
249.74384 82.135059 l
250.255269 81.025595 l
250.912924 80.02586 l
251.424596 79.689659 l
251.570701 79.787136 l
251.862911 80.986694 l
252.447211 84.457272 l
253.1781 89.815943 l
253.251092 82.644433 l
253.324205 83.210848 l
255.442912 100.012936 l
256.173802 104.493638 l
256.539125 105.754856 l
256.831457 106.35199 l
257.050675 106.334129 l
257.270015 106.079084 l
257.41612 105.846964 l
257.489233 105.904685 l
257.781201 106.123147 l
258.146646 105.64095 l
258.438978 104.557698 l
258.585204 103.490951 l
259.023762 95.077235 l
259.75453 81.894602 l
260.339194 73.359091 l
260.412428 76.352132 l
260.48542 75.462744 l
260.923614 71.352549 l
261.142833 70.911195 l
261.435164 70.89105 l
262.604854 71.923139 l
262.824315 72.245715 l
263.336108 72.956789 l
263.774302 72.663779 l
264.505192 72.145253 l
266.332052 71.962681 l
266.9172 71.884838 l
267.794074 72.175747 l
267.940179 72.15745 l
268.305624 71.454441 l
268.890166 70.405162 l
269.255732 69.658593 l
269.913508 68.050682 l
270.279074 67.492033 l
270.571769 69.761383 l
271.083319 73.983999 l
271.521635 76.508003 l
272.0327 84.872779 l
272.690234 69.000428 l
272.763226 69.47096 l
273.347646 73.298976 l
273.566986 73.381379 l
273.786205 73.683935 l
274.078536 73.58451 l
274.370746 73.112532 l
274.44386 73.168686 l
274.809062 73.876328 l
274.955288 74.281753 l
275.24762 69.423484 l
275.320733 69.600573 l
275.540073 70.911254 l
276.124494 66.959752 l
276.270599 67.066626 l
276.56293 67.854062 l
277.220464 70.705828 l
277.731893 74.25888 l
278.462661 81.054196 l
279.120316 94.065892 l
279.705222 106.320107 l
279.924319 106.453948 l
279.997432 95.776143 l
280.070424 99.002748 l
280.289764 105.533697 l
280.362877 104.91124 l
280.582217 133.352699 l
280.87467 161.404428 m
281.020775 263.713521 l
281.093888 261.521901 l
281.386098 163.856314 l
281.45909 163.003032 l
281.678066 165.989353 l
282.043754 197.499693 l
282.116867 195.744077 l
282.262972 191.928122 l
282.555304 154.145513 l
283.066854 133.124507 l
283.432177 115.515158 l
283.578404 113.103989 l
283.651396 133.43296 l
283.724509 124.796533 l
284.163431 104.950884 l
284.456005 99.289509 l
284.748215 98.035387 l
284.821328 97.998088 l
284.894441 98.271127 l
285.186773 103.983983 l
285.551975 111.447325 l
286.063646 107.746798 l
286.136638 107.808199 l
286.42897 108.449451 l
286.648188 108.474227 l
287.013633 105.104284 l
287.305965 102.811641 l
287.817272 103.070257 l
288.913122 97.498389 l
291.325009 89.87863 l
291.544106 91.503085 l
292.128769 98.421306 l
292.567085 104.618104 l
292.640319 104.456231 l
292.713432 104.515726 l
292.786424 104.31686 l
293.078756 100.383523 l
293.224861 107.48825 l
293.370966 119.874693 l
293.443958 116.539753 l
293.663177 105.467051 l
293.736169 105.782196 l
293.955266 108.187066 l
294.0285 108.300156 l
294.101492 108.093207 l
294.174605 108.245864 l
294.247719 107.927425 l
294.539929 99.414653 l
294.613042 99.882108 l
294.832261 102.870507 l
295.416924 97.512556 l
295.490037 98.206 l
295.56315 99.116911 l
295.709619 93.67604 l
295.782732 92.995613 l
295.855967 97.962715 l
295.928959 96.561393 l
296.075064 94.868288 l
296.294404 94.079227 l
296.659727 91.176976 l
297.171398 86.476784 l
297.390738 89.277267 l
297.975644 97.907137 l
298.12187 98.985715 l
298.268097 124.928197 l
298.341088 126.451469 l
298.41408 125.926044 l
298.560307 122.797801 l
298.706655 98.622531 l
299.657005 92.520612 l
299.876102 92.442183 l
300.022207 92.495724 l
300.095442 92.63174 l
300.314781 94.450471 l
300.387895 95.158502 l
300.461008 94.803146 l
300.680226 93.444398 l
300.826574 102.122588 l
300.9728 121.943062 l
301.192261 94.297551 l
301.265253 106.633948 l
301.338366 90.820312 l
301.41148 92.044536 l
301.557827 94.337073 l
301.63094 94.20279 l
301.85028 93.357414 l
302.873623 91.096248 l
304.408879 87.88176 l
305.212882 85.978441 l
305.358987 85.765429 l
305.578205 86.051928 l
306.747289 88.273716 l
307.259081 88.448687 l
307.624526 88.327568 l
307.916858 88.297277 l
308.136076 88.18043 l
308.501521 87.646219 l
308.794216 86.695796 l
309.013556 85.127642 l
310.256238 74.207079 l
311.498193 66.662409 l
312.15609 63.443162 l
312.229204 64.979836 l
312.302317 64.840854 l
312.521656 64.655059 l
312.813746 64.701693 l
313.032964 64.748641 l
313.252182 64.67143 l
313.325174 62.933507 l
313.398287 63.005685 l
313.763611 63.543121 l
314.129056 72.118262 l
314.348638 62.656829 l
314.421751 63.991333 l
314.494743 63.234396 l
314.567856 64.706473 l
314.714083 71.278134 l
314.787317 71.583873 l
314.933665 69.046853 l
315.006778 65.160543 l
315.07977 65.7784 l
315.152883 66.46914 l
315.225875 66.11953 l
315.298867 65.692674 l
315.66407 66.64067 l
316.029514 67.241707 l
316.83376 68.720671 l
317.12597 68.968115 l
317.491536 68.651267 l
319.684205 65.969967 l
320.268626 65.836946 l
320.560957 65.726883 l
320.999636 66.474811 l
321.145863 66.698739 l
321.365203 66.411926 l
321.803639 65.831495 l
322.607521 66.317094 l
324.726955 67.039872 l
326.773761 67.838147 l
328.454638 67.778991 l
331.67077 67.616188 l
334.37511 68.184273 l
335.836405 68.255742 l
336.640165 67.59211 l
337.152079 67.092451 l
337.225192 69.399724 l
337.298184 69.341779 l
339.929168 67.379407 l
340.587308 66.952275 l
341.610287 65.917812 l
342.19495 65.630909 l
342.560516 66.037328 l
342.779856 66.361404 l
343.145179 65.341712 l
343.364398 64.815886 l
343.656972 67.279319 l
343.949304 69.824897 l
344.022417 69.771215 l
345.04588 66.432295 l
345.118994 66.517232 l
345.338455 69.574233 l
345.557673 73.304883 l
345.630786 71.157418 l
346.288684 82.262142 l
346.361676 82.146189 l
346.581137 79.844121 l
346.873711 75.487668 l
347.458616 59.657046 l
347.531608 59.599314 l
347.82394 61.897031 l
348.262255 65.037159 l
348.408482 65.684272 l
348.700692 66.753343 l
348.993145 66.175046 l
349.505059 65.178183 l
349.943738 64.558818 l
351.406002 63.7802 l
352.210369 63.572621 l
354.404008 60.91689 l
354.477121 60.945986 l
354.769695 61.922961 l
355.793037 66.502971 l
356.596919 70.489263 l
356.816016 71.291914 l
356.889129 71.213248 l
356.962243 71.10479 l
357.10859 69.136056 l
357.254695 76.100498 l
357.327809 74.698035 l
357.693132 61.161345 l
357.766245 62.76194 l
358.058577 71.126843 l
358.13169 71.536995 l
358.278038 64.64201 l
358.351151 64.750711 l
358.424264 65.432574 l
358.497378 65.202128 l
359.081919 63.840479 l
359.155154 63.812388 l
359.301623 64.144256 l
359.374736 63.215882 l
359.447849 63.544456 l
359.886286 65.995081 l
361.494292 76.936602 l
361.860221 89.095223 l
362.152796 102.735113 l
362.299022 89.862611 l
362.372135 88.259674 l
362.445248 88.846769 l
362.664709 92.475909 l
363.834157 76.345623 l
363.90727 76.550148 l
364.199602 79.408945 l
364.711152 87.085237 l
365.003726 92.404903 l
365.296421 108.032929 l
365.589116 141.325661 l
365.881812 99.02133 l
366.027917 103.537497 l
366.10103 103.339514 l
366.320249 103.803694 l
366.466475 105.126748 l
366.905033 111.90203 l
367.124251 112.340514 l
367.416341 113.120806 l
367.635801 113.404043 l
367.928133 112.715136 l
368.001246 112.808823 l
368.513039 113.813452 l
368.732378 113.772726 l
368.80537 113.752907 l
369.097702 114.861301 l
369.609494 111.180777 l
369.682729 111.604963 l
369.97506 128.170493 l
370.41374 157.245245 l
370.486853 146.395381 l
370.852298 202.586501 l
370.925532 201.949479 l
371.144629 178.582416 l
371.510074 118.177534 l
372.460425 103.191904 m
372.60653 112.027369 l
372.972096 161.331371 l
373.04533 128.36069 l
373.118565 142.378395 l
373.191678 154.404073 l
373.26467 152.557718 l
373.630357 124.225482 l
373.703349 142.560038 l
373.776462 139.385077 l
374.068794 128.958423 l
374.507352 106.331663 m
374.580586 112.216346 l
374.6537 129.593159 l
374.726813 122.985626 l
374.873039 112.784149 l
374.946153 112.251431 l
375.092379 137.727941 l
375.165613 120.584734 l
375.311719 170.258584 l
375.457945 124.934007 l
375.530937 143.90093 l
375.896261 79.033584 l
376.115843 67.98665 l
376.261948 72.193793 l
376.408295 79.146735 l
376.481287 78.707798 l
376.554401 77.559485 l
376.773862 86.58505 l
376.847096 88.309757 l
376.920088 82.732914 l
376.993201 85.387099 l
377.28529 95.632218 l
377.650856 122.139343 l
377.943309 143.663876 l
378.089657 142.414595 l
379.040007 120.099795 l
379.186113 120.791373 l
379.478565 123.15873 l
379.624792 127.235485 l
379.771018 127.594645 l
379.84401 127.443284 l
379.990237 124.036505 l
380.136463 123.34332 l
380.282689 119.940514 l
381.013458 94.936888 l
381.598485 83.824216 l
382.183148 77.63485 l
382.548835 75.198238 l
382.695062 75.559403 l
383.060628 77.757639 l
383.572299 82.759775 l
384.011099 86.820759 l
384.523134 90.887573 l
384.8887 93.14893 l
385.107919 102.851301 l
385.400372 124.167455 l
385.546719 134.919997 l
385.692825 133.419037 l
386.058269 123.535331 l
386.131383 124.263076 l
386.643175 132.755928 l
386.935749 128.923692 l
387.228202 126.187073 l
387.447542 129.46362 l
388.105439 140.443859 l
388.398135 143.73839 l
388.617474 138.427226 l
389.568431 110.851265 l
389.787771 109.438333 l
390.299199 107.562196 l
390.810992 104.672616 l
391.176437 100.358967 l
391.24955 114.378787 l
391.322784 113.684048 l
391.907569 109.108782 l
392.126908 108.862323 l
392.41924 109.032192 l
393.150736 109.794818 l
394.174563 110.200024 l
394.32079 110.071155 l
394.686113 109.236531 l
395.270776 107.263261 l
396.001787 103.703506 l
397.244469 95.560145 l
398.19482 86.640406 l
398.41416 84.202698 l
398.487273 84.181201 l
398.487273 84.181201 l
stroke
grestore
0.800 setlinewidth
0 setlinejoin
[] 0 setdash
0.000 setgray
gsave
57.6 38.016 m
57.6 304.128 l
stroke
grestore
gsave
414.72 38.016 m
414.72 304.128 l
stroke
grestore
gsave
57.6 38.016 m
414.72 38.016 l
stroke
grestore
gsave
57.6 304.128 m
414.72 304.128 l
stroke
grestore
1.000 setlinewidth
0 setlinecap
0.800 setgray
gsave
64.6 266.78425 m
122.459375 266.78425 l
123.792708 266.78425 124.459375 267.450917 124.459375 268.78425 c
124.459375 297.128 l
124.459375 298.461333 123.792708 299.128 122.459375 299.128 c
64.6 299.128 l
63.266667 299.128 62.6 298.461333 62.6 297.128 c
62.6 268.78425 l
62.6 267.450917 63.266667 266.78425 64.6 266.78425 c
cl
gsave
1.000 setgray
fill
grestore
stroke
grestore
1.500 setlinewidth
1 setlinejoin
2 setlinecap
[] 0 setdash
0.000 0.750 0.750 setrgbcolor
gsave
66.6 291.03425 m
86.6 291.03425 l
stroke
grestore
0.000 setgray
gsave
94.600000 287.534250 translate
0.000000 rotate
0.000000 0.000000 m /three glyphshow
6.362305 0.000000 m /m glyphshow
16.103516 0.000000 m /m glyphshow
grestore
0.627 0.314 0.314 setrgbcolor
gsave
66.6 276.362375 m
86.6 276.362375 l
stroke
grestore
0.000 setgray
gsave
94.600000 272.862375 translate
0.000000 rotate
0.000000 0.000000 m /two glyphshow
6.362305 0.000000 m /m glyphshow
16.103516 0.000000 m /m glyphshow
grestore

end
showpage
