%!PS-Adobe-3.0 EPSF-3.0
%%Title: new_alg/01/01_RAW_tau.eps
%%Creator: matplotlib version 3.0.2, http://matplotlib.org/
%%CreationDate: Wed Apr 10 12:41:58 2019
%%Orientation: portrait
%%BoundingBox: 75 223 536 568
%%EndComments
%%BeginProlog
/mpldict 9 dict def
mpldict begin
/m { moveto } bind def
/l { lineto } bind def
/r { rlineto } bind def
/c { curveto } bind def
/cl { closepath } bind def
/box {
m
1 index 0 r
0 exch r
neg 0 r
cl
} bind def
/clipbox {
box
clip
newpath
} bind def
%!PS-Adobe-3.0 Resource-Font
%%Title: DejaVu Sans
%%Copyright: Copyright (c) 2003 by Bitstream, Inc. All Rights Reserved. Copyright (c) 2006 by Tavmjong Bah. All Rights Reserved. DejaVu changes are in public domain 
%%Creator: Converted from TrueType to type 3 by PPR
25 dict begin
/_d{bind def}bind def
/_m{moveto}_d
/_l{lineto}_d
/_cl{closepath eofill}_d
/_c{curveto}_d
/_sc{7 -1 roll{setcachedevice}{pop pop pop pop pop pop}ifelse}_d
/_e{exec}_d
/FontName /DejaVuSans def
/PaintType 0 def
/FontMatrix[.001 0 0 .001 0 0]def
/FontBBox[-1021 -463 1793 1232]def
/FontType 3 def
/Encoding [ /space /comma /period /zero /one /two /three /four /five /six /a /d /e /i /m /s /t /y ] def
/FontInfo 10 dict dup begin
/FamilyName (DejaVu Sans) def
/FullName (DejaVu Sans) def
/Notice (Copyright (c) 2003 by Bitstream, Inc. All Rights Reserved. Copyright (c) 2006 by Tavmjong Bah. All Rights Reserved. DejaVu changes are in public domain ) def
/Weight (Book) def
/Version (Version 2.35) def
/ItalicAngle 0.0 def
/isFixedPitch false def
/UnderlinePosition -130 def
/UnderlineThickness 90 def
end readonly def
/CharStrings 19 dict dup begin
/.notdef 0 def
/space{318 0 0 0 0 0 _sc
}_d
/comma{318 0 77 -115 220 124 _sc
117 124 _m
220 124 _l
220 40 _l
140 -115 _l
77 -115 _l
117 40 _l
117 124 _l
_cl}_d
/period{318 0 107 0 210 124 _sc
107 124 _m
210 124 _l
210 0 _l
107 0 _l
107 124 _l
_cl}_d
/zero{636 0 66 -13 570 742 _sc
318 664 _m
267 664 229 639 203 589 _c
177 539 165 464 165 364 _c
165 264 177 189 203 139 _c
229 89 267 64 318 64 _c
369 64 407 89 433 139 _c
458 189 471 264 471 364 _c
471 464 458 539 433 589 _c
407 639 369 664 318 664 _c
318 742 _m
399 742 461 709 505 645 _c
548 580 570 486 570 364 _c
570 241 548 147 505 83 _c
461 19 399 -13 318 -13 _c
236 -13 173 19 130 83 _c
87 147 66 241 66 364 _c
66 486 87 580 130 645 _c
173 709 236 742 318 742 _c
_cl}_d
/one{636 0 110 0 544 729 _sc
124 83 _m
285 83 _l
285 639 _l
110 604 _l
110 694 _l
284 729 _l
383 729 _l
383 83 _l
544 83 _l
544 0 _l
124 0 _l
124 83 _l
_cl}_d
/two{{636 0 73 0 536 742 _sc
192 83 _m
536 83 _l
536 0 _l
73 0 _l
73 83 _l
110 121 161 173 226 239 _c
290 304 331 346 348 365 _c
380 400 402 430 414 455 _c
426 479 433 504 433 528 _c
433 566 419 598 392 622 _c
365 646 330 659 286 659 _c
255 659 222 653 188 643 _c
154 632 117 616 78 594 _c
78 694 _l
118 710 155 722 189 730 _c
223 738 255 742 284 742 _c
}_e{359 742 419 723 464 685 _c
509 647 532 597 532 534 _c
532 504 526 475 515 449 _c
504 422 484 390 454 354 _c
446 344 420 317 376 272 _c
332 227 271 164 192 83 _c
_cl}_e}_d
/three{{636 0 76 -13 556 742 _sc
406 393 _m
453 383 490 362 516 330 _c
542 298 556 258 556 212 _c
556 140 531 84 482 45 _c
432 6 362 -13 271 -13 _c
240 -13 208 -10 176 -4 _c
144 1 110 10 76 22 _c
76 117 _l
103 101 133 89 166 81 _c
198 73 232 69 268 69 _c
330 69 377 81 409 105 _c
441 129 458 165 458 212 _c
458 254 443 288 413 312 _c
383 336 341 349 287 349 _c
}_e{202 349 _l
202 430 _l
291 430 _l
339 430 376 439 402 459 _c
428 478 441 506 441 543 _c
441 580 427 609 401 629 _c
374 649 336 659 287 659 _c
260 659 231 656 200 650 _c
169 644 135 635 98 623 _c
98 711 _l
135 721 170 729 203 734 _c
235 739 266 742 296 742 _c
370 742 429 725 473 691 _c
517 657 539 611 539 553 _c
539 513 527 479 504 451 _c
481 423 448 403 406 393 _c
_cl}_e}_d
/four{636 0 49 0 580 729 _sc
378 643 _m
129 254 _l
378 254 _l
378 643 _l
352 729 _m
476 729 _l
476 254 _l
580 254 _l
580 172 _l
476 172 _l
476 0 _l
378 0 _l
378 172 _l
49 172 _l
49 267 _l
352 729 _l
_cl}_d
/five{{636 0 77 -13 549 729 _sc
108 729 _m
495 729 _l
495 646 _l
198 646 _l
198 467 _l
212 472 227 476 241 478 _c
255 480 270 482 284 482 _c
365 482 429 459 477 415 _c
525 370 549 310 549 234 _c
549 155 524 94 475 51 _c
426 8 357 -13 269 -13 _c
238 -13 207 -10 175 -6 _c
143 -1 111 6 77 17 _c
77 116 _l
106 100 136 88 168 80 _c
199 72 232 69 267 69 _c
}_e{323 69 368 83 401 113 _c
433 143 450 183 450 234 _c
450 284 433 324 401 354 _c
368 384 323 399 267 399 _c
241 399 214 396 188 390 _c
162 384 135 375 108 363 _c
108 729 _l
_cl}_e}_d
/six{{636 0 70 -13 573 742 _sc
330 404 _m
286 404 251 388 225 358 _c
199 328 186 286 186 234 _c
186 181 199 139 225 109 _c
251 79 286 64 330 64 _c
374 64 409 79 435 109 _c
461 139 474 181 474 234 _c
474 286 461 328 435 358 _c
409 388 374 404 330 404 _c
526 713 _m
526 623 _l
501 635 476 644 451 650 _c
425 656 400 659 376 659 _c
310 659 260 637 226 593 _c
}_e{192 549 172 482 168 394 _c
187 422 211 444 240 459 _c
269 474 301 482 336 482 _c
409 482 467 459 509 415 _c
551 371 573 310 573 234 _c
573 159 550 99 506 54 _c
462 9 403 -13 330 -13 _c
246 -13 181 19 137 83 _c
92 147 70 241 70 364 _c
70 479 97 571 152 639 _c
206 707 280 742 372 742 _c
396 742 421 739 447 735 _c
472 730 498 723 526 713 _c
_cl}_e}_d
/a{{613 0 60 -13 522 560 _sc
343 275 _m
270 275 220 266 192 250 _c
164 233 150 205 150 165 _c
150 133 160 107 181 89 _c
202 70 231 61 267 61 _c
317 61 357 78 387 114 _c
417 149 432 196 432 255 _c
432 275 _l
343 275 _l
522 312 _m
522 0 _l
432 0 _l
432 83 _l
411 49 385 25 355 10 _c
325 -5 287 -13 243 -13 _c
187 -13 142 2 109 33 _c
76 64 60 106 60 159 _c
}_e{60 220 80 266 122 298 _c
163 329 224 345 306 345 _c
432 345 _l
432 354 _l
432 395 418 427 391 450 _c
364 472 326 484 277 484 _c
245 484 215 480 185 472 _c
155 464 127 453 100 439 _c
100 522 _l
132 534 164 544 195 550 _c
226 556 256 560 286 560 _c
365 560 424 539 463 498 _c
502 457 522 395 522 312 _c
_cl}_e}_d
/d{{635 0 55 -13 544 760 _sc
454 464 _m
454 760 _l
544 760 _l
544 0 _l
454 0 _l
454 82 _l
435 49 411 25 382 10 _c
353 -5 319 -13 279 -13 _c
213 -13 159 13 117 65 _c
75 117 55 187 55 273 _c
55 359 75 428 117 481 _c
159 533 213 560 279 560 _c
319 560 353 552 382 536 _c
411 520 435 496 454 464 _c
148 273 _m
148 207 161 155 188 117 _c
215 79 253 61 301 61 _c
}_e{348 61 385 79 413 117 _c
440 155 454 207 454 273 _c
454 339 440 390 413 428 _c
385 466 348 485 301 485 _c
253 485 215 466 188 428 _c
161 390 148 339 148 273 _c
_cl}_e}_d
/e{{615 0 55 -13 562 560 _sc
562 296 _m
562 252 _l
149 252 _l
153 190 171 142 205 110 _c
238 78 284 62 344 62 _c
378 62 412 66 444 74 _c
476 82 509 95 541 113 _c
541 28 _l
509 14 476 3 442 -3 _c
408 -9 373 -13 339 -13 _c
251 -13 182 12 131 62 _c
80 112 55 181 55 268 _c
55 357 79 428 127 481 _c
175 533 241 560 323 560 _c
397 560 455 536 498 489 _c
}_e{540 441 562 377 562 296 _c
472 322 _m
471 371 457 410 431 440 _c
404 469 368 484 324 484 _c
274 484 234 469 204 441 _c
174 413 156 373 152 322 _c
472 322 _l
_cl}_e}_d
/i{278 0 94 0 184 760 _sc
94 547 _m
184 547 _l
184 0 _l
94 0 _l
94 547 _l
94 760 _m
184 760 _l
184 646 _l
94 646 _l
94 760 _l
_cl}_d
/m{{974 0 91 0 889 560 _sc
520 442 _m
542 482 569 511 600 531 _c
631 550 668 560 711 560 _c
767 560 811 540 842 500 _c
873 460 889 403 889 330 _c
889 0 _l
799 0 _l
799 327 _l
799 379 789 418 771 444 _c
752 469 724 482 686 482 _c
639 482 602 466 575 435 _c
548 404 535 362 535 309 _c
535 0 _l
445 0 _l
445 327 _l
445 379 435 418 417 444 _c
398 469 369 482 331 482 _c
}_e{285 482 248 466 221 435 _c
194 404 181 362 181 309 _c
181 0 _l
91 0 _l
91 547 _l
181 547 _l
181 462 _l
201 495 226 520 255 536 _c
283 552 317 560 357 560 _c
397 560 430 550 458 530 _c
486 510 506 480 520 442 _c
_cl}_e}_d
/s{{521 0 54 -13 472 560 _sc
443 531 _m
443 446 _l
417 458 391 468 364 475 _c
336 481 308 485 279 485 _c
234 485 200 478 178 464 _c
156 450 145 430 145 403 _c
145 382 153 366 169 354 _c
185 342 217 330 265 320 _c
296 313 _l
360 299 405 279 432 255 _c
458 230 472 195 472 151 _c
472 100 452 60 412 31 _c
372 1 316 -13 246 -13 _c
216 -13 186 -10 154 -5 _c
}_e{122 0 89 8 54 20 _c
54 113 _l
87 95 120 82 152 74 _c
184 65 216 61 248 61 _c
290 61 323 68 346 82 _c
368 96 380 117 380 144 _c
380 168 371 187 355 200 _c
339 213 303 226 247 238 _c
216 245 _l
160 257 119 275 95 299 _c
70 323 58 356 58 399 _c
58 450 76 490 112 518 _c
148 546 200 560 268 560 _c
301 560 332 557 362 552 _c
391 547 418 540 443 531 _c
}_e{_cl}_e}_d
/t{392 0 27 0 368 702 _sc
183 702 _m
183 547 _l
368 547 _l
368 477 _l
183 477 _l
183 180 _l
183 135 189 106 201 94 _c
213 81 238 75 276 75 _c
368 75 _l
368 0 _l
276 0 _l
206 0 158 13 132 39 _c
106 65 93 112 93 180 _c
93 477 _l
27 477 _l
27 547 _l
93 547 _l
93 702 _l
183 702 _l
_cl}_d
/y{592 0 30 -207 562 547 _sc
322 -50 _m
296 -114 271 -157 247 -177 _c
223 -197 191 -207 151 -207 _c
79 -207 _l
79 -132 _l
132 -132 _l
156 -132 175 -126 189 -114 _c
203 -102 218 -75 235 -31 _c
251 9 _l
30 547 _l
125 547 _l
296 119 _l
467 547 _l
562 547 _l
322 -50 _l
_cl}_d
end readonly def

/BuildGlyph
 {exch begin
 CharStrings exch
 2 copy known not{pop /.notdef}if
 true 3 1 roll get exec
 end}_d

/BuildChar {
 1 index /Encoding get exch get
 1 index /BuildGlyph get exec
}_d

FontName currentdict end definefont pop
%!PS-Adobe-3.0 Resource-Font
%%Title: DejaVu Sans Oblique
%%Copyright: Copyright (c) 2003 by Bitstream, Inc. All Rights Reserved. Copyright (c) 2006 by Tavmjong Bah. All Rights Reserved. DejaVu changes are in public domain 
%%Creator: Converted from TrueType to type 3 by PPR
25 dict begin
/_d{bind def}bind def
/_m{moveto}_d
/_l{lineto}_d
/_cl{closepath eofill}_d
/_c{curveto}_d
/_sc{7 -1 roll{setcachedevice}{pop pop pop pop pop pop}ifelse}_d
/_e{exec}_d
/FontName /DejaVuSans-Oblique def
/PaintType 0 def
/FontMatrix[.001 0 0 .001 0 0]def
/FontBBox[-1016 -350 1659 1068]def
/FontType 3 def
/Encoding [ /tau ] def
/FontInfo 10 dict dup begin
/FamilyName (DejaVu Sans) def
/FullName (DejaVu Sans Oblique) def
/Notice (Copyright (c) 2003 by Bitstream, Inc. All Rights Reserved. Copyright (c) 2006 by Tavmjong Bah. All Rights Reserved. DejaVu changes are in public domain ) def
/Weight (Oblique) def
/Version (Version 2.35) def
/ItalicAngle -11.0 def
/isFixedPitch false def
/UnderlinePosition -130 def
/UnderlineThickness 90 def
end readonly def
/CharStrings 2 dict dup begin
/.notdef 0 def
/tau{602 0 84 0 606 547 _sc
329 100 _m
337 84 359 76 395 76 _c
438 76 _l
423 0 _l
369 0 _l
310 0 270 15 250 47 _c
229 79 226 129 240 198 _c
290 457 _l
84 457 _l
102 547 _l
606 547 _l
589 457 _l
382 457 _l
330 193 _l
320 145 320 114 329 100 _c
_cl}_d
end readonly def

/BuildGlyph
 {exch begin
 CharStrings exch
 2 copy known not{pop /.notdef}if
 true 3 1 roll get exec
 end}_d

/BuildChar {
 1 index /Encoding get exch get
 1 index /BuildGlyph get exec
}_d

FontName currentdict end definefont pop
end
%%EndProlog
mpldict begin
75.6 223.2 translate
460.8 345.6 0 0 clipbox
gsave
0 0 m
460.8 0 l
460.8 345.6 l
0 345.6 l
cl
1.000 setgray
fill
grestore
gsave
57.6 38.016 m
414.72 38.016 l
414.72 304.128 l
57.6 304.128 l
cl
1.000 setgray
fill
grestore
0.800 setlinewidth
1 setlinejoin
0 setlinecap
[] 0 setdash
0.000 setgray
gsave
/o {
gsave
newpath
translate
0.8 setlinewidth
1 setlinejoin
0 setlinecap
0 0 m
0 -3.5 l

gsave
0.000 setgray
fill
grestore
stroke
grestore
} bind def
116.779 38.016 o
grestore
/DejaVuSans findfont
10.000 scalefont
setfont
gsave
110.420089 23.422250 translate
0.000000 rotate
0.000000 0.000000 m /one glyphshow
6.362305 0.000000 m /zero glyphshow
grestore
gsave
/o {
gsave
newpath
translate
0.8 setlinewidth
1 setlinejoin
0 setlinecap
0 0 m
0 -3.5 l

gsave
0.000 setgray
fill
grestore
stroke
grestore
} bind def
180.813 38.016 o
grestore
gsave
174.453990 23.422250 translate
0.000000 rotate
0.000000 0.000000 m /one glyphshow
6.362305 0.000000 m /five glyphshow
grestore
gsave
/o {
gsave
newpath
translate
0.8 setlinewidth
1 setlinejoin
0 setlinecap
0 0 m
0 -3.5 l

gsave
0.000 setgray
fill
grestore
stroke
grestore
} bind def
244.847 38.016 o
grestore
gsave
238.487891 23.422250 translate
0.000000 rotate
0.000000 0.000000 m /two glyphshow
6.362305 0.000000 m /zero glyphshow
grestore
gsave
/o {
gsave
newpath
translate
0.8 setlinewidth
1 setlinejoin
0 setlinecap
0 0 m
0 -3.5 l

gsave
0.000 setgray
fill
grestore
stroke
grestore
} bind def
308.881 38.016 o
grestore
gsave
302.521792 23.422250 translate
0.000000 rotate
0.000000 0.000000 m /two glyphshow
6.362305 0.000000 m /five glyphshow
grestore
gsave
/o {
gsave
newpath
translate
0.8 setlinewidth
1 setlinejoin
0 setlinecap
0 0 m
0 -3.5 l

gsave
0.000 setgray
fill
grestore
stroke
grestore
} bind def
372.915 38.016 o
grestore
gsave
366.555693 23.422250 translate
0.000000 rotate
0.000000 0.000000 m /three glyphshow
6.362305 0.000000 m /zero glyphshow
grestore
gsave
209.863125 9.750375 translate
0.000000 rotate
0.000000 0.000000 m /t glyphshow
3.920898 0.000000 m /i glyphshow
6.699219 0.000000 m /m glyphshow
16.440430 0.000000 m /e glyphshow
22.592773 0.000000 m /comma glyphshow
25.771484 0.000000 m /space glyphshow
28.950195 0.000000 m /d glyphshow
35.297852 0.000000 m /a glyphshow
41.425781 0.000000 m /y glyphshow
47.343750 0.000000 m /s glyphshow
grestore
gsave
/o {
gsave
newpath
translate
0.8 setlinewidth
1 setlinejoin
0 setlinecap
0 0 m
-3.5 0 l

gsave
0.000 setgray
fill
grestore
stroke
grestore
} bind def
57.6 56.9754 o
grestore
gsave
34.693750 53.178543 translate
0.000000 rotate
0.000000 0.000000 m /zero glyphshow
6.362305 0.000000 m /period glyphshow
9.541016 0.000000 m /one glyphshow
grestore
gsave
/o {
gsave
newpath
translate
0.8 setlinewidth
1 setlinejoin
0 setlinecap
0 0 m
-3.5 0 l

gsave
0.000 setgray
fill
grestore
stroke
grestore
} bind def
57.6 100.098 o
grestore
gsave
34.693750 96.301107 translate
0.000000 rotate
0.000000 0.000000 m /zero glyphshow
6.362305 0.000000 m /period glyphshow
9.541016 0.000000 m /two glyphshow
grestore
gsave
/o {
gsave
newpath
translate
0.8 setlinewidth
1 setlinejoin
0 setlinecap
0 0 m
-3.5 0 l

gsave
0.000 setgray
fill
grestore
stroke
grestore
} bind def
57.6 143.221 o
grestore
gsave
34.693750 139.423671 translate
0.000000 rotate
0.000000 0.000000 m /zero glyphshow
6.362305 0.000000 m /period glyphshow
9.541016 0.000000 m /three glyphshow
grestore
gsave
/o {
gsave
newpath
translate
0.8 setlinewidth
1 setlinejoin
0 setlinecap
0 0 m
-3.5 0 l

gsave
0.000 setgray
fill
grestore
stroke
grestore
} bind def
57.6 186.343 o
grestore
gsave
34.693750 182.546234 translate
0.000000 rotate
0.000000 0.000000 m /zero glyphshow
6.362305 0.000000 m /period glyphshow
9.541016 0.000000 m /four glyphshow
grestore
gsave
/o {
gsave
newpath
translate
0.8 setlinewidth
1 setlinejoin
0 setlinecap
0 0 m
-3.5 0 l

gsave
0.000 setgray
fill
grestore
stroke
grestore
} bind def
57.6 229.466 o
grestore
gsave
34.693750 225.668798 translate
0.000000 rotate
0.000000 0.000000 m /zero glyphshow
6.362305 0.000000 m /period glyphshow
9.541016 0.000000 m /five glyphshow
grestore
gsave
/o {
gsave
newpath
translate
0.8 setlinewidth
1 setlinejoin
0 setlinecap
0 0 m
-3.5 0 l

gsave
0.000 setgray
fill
grestore
stroke
grestore
} bind def
57.6 272.588 o
grestore
gsave
34.693750 268.791362 translate
0.000000 rotate
0.000000 0.000000 m /zero glyphshow
6.362305 0.000000 m /period glyphshow
9.541016 0.000000 m /six glyphshow
grestore
gsave
28.615625 167.572000 translate
90.000000 rotate
/DejaVuSans-Oblique findfont
10.0 scalefont
setfont
0.000000 0.531250 moveto
/tau glyphshow


grestore
1.500 setlinewidth
2 setlinecap
0.000 0.750 0.750 setrgbcolor
gsave
357.1 266.1 57.6 38.02 clipbox
73.832727 88.753373 m
73.921811 89.966124 l
74.010896 89.674512 l
74.09998 89.50983 l
74.366788 89.957038 l
74.633892 90.069576 l
75.167508 92.272558 l
75.256444 92.354676 l
75.34538 92.066617 l
75.70142 86.119736 l
75.968376 80.404803 l
76.057164 88.006618 l
76.1461 86.356459 l
76.858033 75.039289 l
77.124989 74.827793 l
77.481177 74.333171 l
77.659198 74.591465 l
77.926302 72.988171 l
78.015386 72.933471 l
78.371426 71.748 l
78.549447 65.705574 l
79.617864 63.557086 l
79.973756 63.935791 l
80.774773 61.534962 l
81.041877 61.803798 l
81.575938 60.55762 l
81.664874 64.898367 l
81.753958 64.858328 l
82.288018 64.589928 l
82.376954 64.576103 l
82.46589 65.065954 l
82.821931 63.612403 l
83.355843 61.249831 l
83.533863 60.92153 l
83.800968 58.936611 l
83.890052 68.133031 l
83.97884 67.785855 l
84.423519 65.096838 l
84.690476 63.663748 l
85.313472 62.603603 l
85.580428 62.499054 l
86.025553 62.599136 l
86.737189 63.640482 l
86.826273 63.525156 l
87.628031 61.971409 l
87.806051 58.244524 l
88.073452 58.296513 l
88.162536 58.439612 l
88.518576 60.463117 l
88.963553 63.656847 l
89.675633 70.010035 l
89.853654 70.313835 l
90.031525 70.445397 l
90.209546 70.432565 l
90.298778 70.210247 l
90.744051 66.256997 l
91.100091 63.573744 l
91.812468 62.47494 l
92.435465 60.363266 l
92.613337 60.380411 l
93.147249 60.936162 l
93.949155 61.917669 l
95.462549 60.159136 l
96.35265 60.477037 l
96.797923 60.618206 l
98.044064 60.32516 l
98.31102 60.454054 l
99.023397 61.174553 l
99.735774 61.910567 l
100.269687 61.938352 l
100.626172 62.378123 l
101.60506 64.200976 l
101.782932 64.962529 l
102.138972 66.874649 l
102.227908 66.883633 l
102.317141 66.689096 l
102.406225 66.933487 l
102.762117 79.184626 l
102.851053 78.172922 l
103.117861 71.602828 l
103.206945 71.50275 l
103.38541 72.51436 l
103.652366 75.002042 l
103.74145 74.328934 l
103.919471 84.776305 l
104.097343 76.473653 l
104.186279 82.413488 l
104.275363 81.371992 l
104.453531 78.500831 l
104.809423 76.13018 l
104.898359 76.357509 l
105.076528 78.121616 l
105.254992 83.315909 l
105.610885 106.097001 l
105.878137 162.579814 l
106.145093 101.66072 l
106.234178 104.155129 l
106.323262 110.96766 l
106.590663 92.468242 l
106.679747 90.976809 l
106.768683 91.26212 l
107.035639 94.076596 l
107.213807 105.423259 l
107.302743 104.053188 l
107.480615 94.47477 l
107.74772 77.007159 l
107.926036 80.420957 l
108.282373 97.467399 l
108.371457 102.473098 l
108.460541 96.999171 l
108.549626 117.373262 l
108.63871 87.455042 l
108.727794 93.432831 l
108.994602 109.24907 l
109.17277 98.955755 l
109.439578 106.207934 l
109.528662 106.26231 l
109.706534 87.641822 l
109.884555 96.581766 l
110.773173 61.489788 l
111.040426 54.749786 l
111.218446 54.316436 l
111.30753 54.380538 l
111.574783 56.347282 l
111.663719 56.253589 l
111.930675 54.176973 l
112.019611 54.051446 l
112.286863 52.169781 l
112.376244 52.188366 l
112.732433 60.227136 l
112.821517 64.865535 l
112.910601 64.601991 l
113.266493 70.120149 l
113.444958 70.7492 l
113.623275 70.400806 l
113.801295 70.761398 l
114.15778 68.326994 l
114.602904 62.951485 l
114.781369 62.777661 l
114.870305 63.01671 l
115.226494 70.035327 l
115.31543 69.584972 l
115.761295 65.16715 l
116.830454 57.264249 l
117.365108 55.487858 l
117.721148 58.640293 l
117.810084 58.10207 l
118.077336 55.781217 l
118.255357 56.49742 l
118.611397 57.772744 l
119.50135 60.389606 l
120.926104 65.252752 l
122.351748 72.942722 l
122.440535 72.910054 l
122.707788 72.271434 l
123.420758 69.79346 l
124.311155 66.666291 l
125.201404 64.379739 l
125.468805 64.235903 l
125.557889 64.232748 l
125.914226 63.334082 l
126.270711 67.540985 l
126.359944 67.302991 l
126.627493 64.073501 l
126.894745 66.522914 l
127.16185 68.766754 l
127.33987 69.011138 l
127.51789 71.373404 l
127.696355 76.321468 l
127.785143 72.582 l
127.874523 75.882407 l
128.052692 70.676967 l
128.230712 78.058309 l
128.319796 76.616503 l
128.40888 74.53211 l
128.5869 79.043157 l
128.675836 76.426093 l
128.764921 81.746418 l
128.943237 78.558579 l
129.032173 88.22539 l
129.121257 80.82131 l
129.210342 88.176945 l
129.299278 82.026237 l
129.388065 105.718639 l
129.47715 85.724991 l
129.566086 87.285744 l
129.65517 85.703114 l
129.83319 79.30299 l
130.18923 96.117994 l
130.456186 78.426706 l
130.545271 78.414548 l
130.634355 76.036374 l
130.723291 76.6009 l
131.079776 78.934679 l
131.346732 97.457243 l
131.524752 93.672948 l
132.058813 71.069543 l
132.147749 70.711137 l
132.325621 71.373943 l
132.681661 70.088257 l
133.037553 73.478781 l
133.126637 72.940442 l
133.394038 70.733923 l
133.483122 70.911518 l
134.106415 74.285905 l
134.284435 79.681808 l
134.373668 79.17544 l
134.462752 84.243261 l
134.551984 84.23564 l
134.819237 72.58824 l
135.175574 67.737816 l
135.443271 66.351441 l
135.621143 66.005119 l
135.888099 65.88221 l
136.689561 61.674757 l
136.778793 61.798296 l
136.867877 61.067734 l
136.956813 61.739197 l
137.13513 61.480763 l
137.668894 61.737589 l
137.847062 63.280126 l
138.114018 64.218457 l
138.647931 67.792286 l
138.737163 68.605883 l
138.826247 68.44441 l
138.915183 68.303054 l
139.004119 69.674238 l
139.093055 65.388009 l
139.181991 65.702884 l
139.449096 66.516961 l
139.53818 66.424315 l
139.805136 65.811161 l
140.161621 62.696796 l
140.517365 68.951955 l
140.606449 68.682188 l
140.962638 66.212032 l
141.14051 66.298251 l
141.229594 66.11664 l
142.298011 56.142763 l
142.475883 56.001411 l
142.743136 56.281697 l
143.811257 57.645284 l
144.790442 56.825706 l
144.968462 57.098801 l
145.146779 56.71254 l
145.235863 56.759466 l
145.503115 56.89305 l
146.838489 57.358466 l
148.085816 58.037703 l
148.97651 57.883174 l
151.64785 57.149543 l
153.161392 56.597643 l
153.784537 56.391805 l
154.051493 56.140661 l
154.496618 55.847496 l
154.67449 55.928336 l
156.099244 55.488229 l
156.544517 55.504412 l
156.989938 56.120195 l
157.435062 56.959616 l
158.058207 58.175487 l
159.037244 57.349153 l
159.304348 58.420714 l
159.393284 58.827481 l
159.749176 57.599126 l
160.461702 71.191063 l
160.550786 64.49132 l
160.639722 70.463787 l
160.728658 69.416425 l
160.817742 67.463716 l
161.173634 70.845706 l
161.351802 68.236321 l
161.618907 62.974207 l
161.885863 60.82039 l
161.974799 60.936395 l
162.063883 61.147706 l
162.241903 59.387978 l
162.776557 64.558138 l
162.954873 62.577669 l
163.311062 64.095151 l
163.844085 64.763629 l
164.377997 65.979292 l
164.466933 67.151523 l
164.556017 66.327225 l
164.822825 66.992892 l
165.089781 67.322966 l
165.80201 62.757498 l
166.336515 61.429643 l
166.514536 61.498867 l
167.226913 59.945259 l
167.760973 59.217873 l
168.028078 59.078185 l
168.294886 59.183059 l
168.829243 59.844388 l
169.096347 60.363946 l
169.274367 60.718688 l
169.363451 60.555766 l
169.452387 62.761449 l
169.541472 61.532249 l
169.808872 63.720871 l
170.075828 65.393523 l
170.521249 71.353638 l
170.610185 73.946872 l
170.69927 73.33765 l
170.788206 72.326379 l
170.966374 72.985697 l
171.055458 75.046455 l
171.322711 71.062867 l
171.589815 67.782903 l
171.767835 67.745507 l
171.856771 67.652463 l
172.212515 59.438695 l
172.390684 58.875135 l
172.47962 58.759982 l
172.568852 58.95164 l
172.746872 60.486613 l
172.924744 63.461479 l
173.192145 59.622551 l
173.548334 55.279687 l
173.726354 54.480555 l
173.993755 55.390845 l
174.616899 57.441386 l
174.794771 57.8797 l
175.06232 59.07675 l
175.774994 66.311537 l
176.219822 74.207865 l
176.398139 74.569716 l
176.487223 74.025625 l
176.576159 78.622751 l
176.665095 76.035477 l
176.932199 82.655798 l
177.288388 87.064762 l
177.37762 86.890891 l
177.644873 77.687974 l
177.733809 81.755778 l
177.911681 79.999207 l
178.000913 79.795826 l
178.089997 79.898651 l
178.179081 79.632844 l
178.268166 80.189209 l
178.891755 119.89674 l
178.980691 121.166798 l
179.33688 146.162561 l
179.603984 130.679628 l
179.693216 121.521662 l
179.782301 124.769184 l
179.871237 121.649138 l
179.960469 109.759977 l
180.049553 114.213083 l
180.227573 111.406514 l
180.316509 97.650132 l
180.405445 100.967484 l
180.761486 91.236598 l
180.850422 88.515024 l
180.939358 80.163874 l
181.117378 84.155314 l
181.20661 85.334218 l
181.473566 76.104986 l
181.562799 79.544593 l
181.651735 75.912619 l
181.740819 83.076806 l
182.007923 73.672613 l
182.185944 67.337935 l
182.275324 68.597016 l
182.364408 63.43354 l
182.453344 63.638417 l
182.542577 68.970864 l
182.720597 65.997722 l
182.809681 66.369675 l
182.898914 62.690655 l
182.987998 63.144553 l
183.077082 67.994355 l
183.166018 63.265313 l
183.344186 67.195809 l
183.522503 62.639404 l
183.611587 61.559499 l
183.700671 65.60117 l
183.789756 63.108057 l
183.967628 72.244101 l
184.145944 68.570071 l
184.413197 76.275595 l
184.502281 73.242687 l
184.680449 79.792166 l
184.769682 72.780381 l
184.858766 81.58155 l
184.94785 75.868681 l
185.036786 82.699494 l
185.12587 82.437786 l
185.214955 81.934122 l
185.304039 91.039411 l
185.393271 79.425268 l
185.482207 87.306833 l
185.571291 82.907389 l
185.749312 102.132312 l
185.838396 95.527061 l
185.92748 96.012162 l
186.105352 82.529177 l
186.461392 119.038184 l
186.639412 94.168529 l
186.728348 96.285418 l
186.817284 87.892047 l
186.906369 107.227659 l
187.262409 74.49363 l
187.440429 78.365444 l
187.529513 79.208272 l
187.70783 107.786695 l
187.885998 90.118241 l
188.064315 98.783483 l
188.242483 92.311289 l
188.331568 99.919102 l
188.420504 83.375588 l
188.509588 115.735483 l
188.598524 81.769196 l
188.687756 88.754689 l
188.865776 102.856553 l
188.95486 98.766859 l
189.043945 104.222643 l
189.133029 103.655607 l
189.221965 87.344467 l
189.311049 105.890749 l
189.400133 87.267191 l
189.489069 105.893731 l
189.578005 93.182463 l
189.756025 105.344512 l
189.844961 109.643278 l
189.933897 92.533001 l
190.022982 110.168388 l
190.201002 99.375475 l
190.290086 99.933559 l
190.379022 101.766715 l
190.468106 95.496432 l
190.646126 100.876931 l
190.73521 98.815797 l
190.913379 90.25474 l
191.002463 105.264016 l
191.091695 84.731781 l
191.269567 104.144116 l
191.358652 87.788033 l
191.447736 105.642807 l
191.536524 102.479992 l
191.625608 88.936929 l
191.714544 123.812635 l
191.892712 91.129928 l
191.981796 118.220939 l
192.159965 91.699552 l
192.248901 99.068225 l
192.337985 82.151969 l
192.427069 85.100644 l
192.605089 102.08035 l
192.694322 89.916695 l
192.872342 100.012721 l
192.961278 76.847129 l
193.050214 96.228047 l
193.317615 81.138644 l
193.585015 75.638003 l
193.763184 76.654934 l
194.030288 69.387066 l
194.208605 68.372402 l
194.297689 68.041915 l
194.386477 68.328106 l
194.653581 71.54012 l
194.920834 90.71271 l
195.010066 101.185696 l
195.099002 100.427613 l
195.188086 97.344879 l
195.277171 102.705296 l
195.366107 97.110108 l
195.543979 104.150089 l
195.633063 133.885295 l
195.722147 129.64294 l
195.989251 78.87129 l
196.078484 82.547927 l
196.16742 82.055066 l
196.256356 84.829039 l
196.434672 153.069924 l
196.612692 84.683138 l
196.701777 87.792676 l
196.790861 104.515796 l
196.880093 147.850437 l
197.058113 94.317905 l
197.236282 86.605818 l
197.325366 87.961155 l
197.770787 119.028969 l
197.859871 117.066073 l
197.948955 120.883222 l
198.126976 97.064811 l
198.215763 97.266871 l
198.304848 96.186435 l
198.750417 141.024875 l
198.839353 88.259461 l
198.928289 88.48557 l
199.017373 143.676979 l
199.195393 101.030209 l
199.284477 100.288523 l
199.373562 91.496873 l
199.462646 111.925148 l
199.640814 98.712613 l
199.72975 104.361976 l
199.997151 81.163043 l
200.175319 78.618824 l
200.264552 87.038607 l
200.35334 81.933537 l
200.442424 83.182455 l
200.620296 82.728553 l
200.70938 82.456656 l
200.976632 77.117116 l
201.065717 76.737253 l
201.510693 63.67585 l
202.40198 56.481194 l
202.758168 55.944389 l
203.203886 55.839119 l
203.649307 56.138311 l
203.827623 56.026406 l
203.916559 56.094066 l
204.005495 55.502017 l
204.094876 55.976118 l
204.272896 55.710173 l
204.629233 55.680454 l
204.807698 56.052631 l
204.985866 57.113092 l
205.164331 54.389604 l
205.253415 54.727453 l
205.431732 56.901736 l
205.520668 58.202201 l
205.698836 51.382011 l
205.787772 52.555323 l
205.966089 60.21836 l
206.055173 57.716564 l
206.144257 50.504587 l
206.233045 60.950582 l
206.322277 60.933778 l
206.767254 68.362465 l
206.85619 59.613889 l
206.945274 65.998543 l
207.034358 64.559361 l
207.12359 63.254829 l
207.212675 63.412377 l
207.301611 63.0518 l
207.479779 64.030529 l
207.569011 61.364611 l
207.657947 64.297226 l
207.74718 64.073287 l
207.836264 63.289029 l
207.925497 108.731909 l
208.014581 74.786694 l
208.192453 131.331592 l
208.281537 77.833272 l
208.370769 83.014692 l
208.548938 129.089789 l
208.726958 102.225606 l
208.816042 96.237695 l
208.904978 109.501689 l
209.082998 84.881041 l
209.26087 107.650295 l
209.350103 106.242452 l
209.439039 90.202583 l
209.528123 90.420841 l
209.617207 99.786327 l
210.06248 76.891009 l
210.151564 77.832311 l
210.240648 79.97285 l
210.329732 76.0622 l
210.418668 77.311463 l
210.596837 66.869763 l
210.774857 64.57078 l
211.042109 68.304843 l
211.131342 68.225298 l
211.220426 68.671347 l
211.398891 67.807745 l
211.576763 72.984119 l
211.754931 68.878483 l
211.843867 68.950894 l
211.9331 69.391112 l
212.111416 72.409964 l
212.467308 61.701145 l
212.556244 61.722308 l
212.823497 63.474679 l
213.268622 58.51561 l
213.62481 53.700502 l
214.248251 54.987824 l
214.782608 55.457071 l
215.673302 58.131212 l
216.116203 59.8112 l
216.205139 60.512431 l
216.382863 59.721525 l
216.649523 61.238527 l
216.73831 61.202369 l
217.005118 59.981168 l
217.182842 59.453565 l
217.449502 59.501764 l
217.805097 58.776257 l
218.605076 55.553142 l
219.227184 53.150947 l
219.405056 53.098654 l
219.582927 53.37104 l
219.760799 52.794936 l
219.938523 53.605006 l
220.027311 53.573729 l
220.205035 53.527365 l
220.471843 53.777432 l
220.82729 54.044421 l
221.360609 54.241772 l
221.538481 55.080972 l
222.071652 55.620056 l
222.338312 55.378612 l
223.227375 54.395286 l
223.316163 54.315791 l
223.494035 54.864099 l
223.849779 55.049659 l
224.116587 55.355926 l
224.738842 56.315025 l
225.094586 57.308126 l
225.805778 60.322197 l
226.427885 64.015628 l
226.516821 64.98362 l
226.605757 64.905811 l
226.694693 64.818886 l
227.050288 70.383955 l
227.139224 67.70136 l
227.317096 68.841457 l
227.406032 69.414534 l
227.583756 66.58141 l
227.939352 82.128229 l
228.028287 76.929076 l
228.117075 78.415231 l
228.383883 87.916946 l
228.472819 89.454484 l
228.561755 82.60449 l
228.739479 97.391495 l
228.917203 91.366015 l
229.006139 89.477989 l
229.183862 73.998778 l
229.450522 71.846086 l
229.628394 70.38175 l
229.895054 68.090576 l
230.072777 68.03932 l
230.250649 68.336157 l
230.428521 75.507233 l
230.606393 75.179566 l
230.784117 72.480519 l
230.961989 64.932073 l
231.495308 57.421012 l
231.584392 58.944266 l
232.029072 53.641913 l
232.206796 53.575403 l
232.473752 51.890934 l
232.651624 51.819583 l
232.918284 52.291419 l
233.540687 54.088243 l
234.252027 53.230267 l
234.429751 53.254583 l
234.518687 53.181165 l
234.607623 53.641032 l
234.69641 53.233779 l
236.296665 55.807383 l
236.563473 55.836815 l
236.919069 55.652228 l
237.096792 55.647732 l
237.3636 55.832942 l
237.897216 55.36543 l
238.341748 55.357273 l
238.430684 56.381286 l
238.51962 56.31232 l
238.697343 55.248699 l
239.764279 54.711793 l
241.186661 53.950677 l
242.075724 53.528421 l
242.520108 52.998986 l
242.786768 52.766053 l
243.142215 52.972976 l
243.409023 53.510317 l
243.76447 50.139024 l
243.853555 52.559429 l
244.031278 50.551667 l
244.120066 51.732752 l
244.209002 51.659888 l
244.297938 51.431159 l
244.475662 51.646757 l
244.920193 53.249247 l
245.364577 53.020472 l
245.720172 53.40918 l
246.253492 54.025852 l
247.053619 56.25572 l
247.586939 57.626467 l
247.676023 57.738998 l
247.853746 57.426603 l
248.298426 56.079087 l
248.654022 55.200842 l
249.18749 53.842664 l
249.720957 51.967153 l
250.165489 50.957031 l
250.521233 53.882566 l
250.610169 53.508439 l
250.876828 51.892248 l
251.054849 53.896149 l
251.143636 56.011446 l
251.232572 54.638235 l
251.321508 56.372336 l
251.49938 54.286928 l
251.588168 54.490233 l
251.76604 68.506394 l
251.854976 79.482378 l
251.943764 68.632867 l
252.121636 101.546695 l
252.299508 99.069879 l
252.477379 110.71385 l
252.655103 96.340852 l
252.921911 65.564572 l
253.099783 68.216019 l
253.188719 68.682476 l
253.277507 80.994231 l
253.366443 80.44723 l
253.98855 127.45295 l
254.077486 126.509175 l
254.166422 120.914466 l
254.433082 64.315131 l
254.522018 75.310159 l
254.610805 72.346097 l
254.788825 80.64709 l
254.877761 80.24324 l
255.144421 86.64432 l
255.322145 76.654154 l
255.500017 91.861058 l
255.588953 88.342896 l
255.855464 78.243841 l
255.9444 82.721594 l
256.033336 69.704216 l
256.21106 87.396172 l
256.47772 69.146786 l
256.566656 66.944949 l
256.744379 69.552058 l
256.922103 74.846356 l
257.011039 70.455359 l
257.099827 72.319281 l
257.366635 67.916917 l
257.455571 67.997849 l
257.633294 64.076186 l
257.811018 75.225269 l
257.988742 64.483859 l
258.166465 68.742424 l
258.522061 72.750016 l
258.610997 72.273865 l
258.699933 71.800369 l
258.788869 70.363082 l
258.877657 72.604654 l
259.055381 71.924419 l
259.410976 76.775783 l
259.855508 70.739148 l
260.122168 69.157862 l
260.477763 70.655258 l
261.278039 63.45107 l
261.900146 58.58168 l
261.989082 58.581196 l
262.166954 59.255095 l
262.522401 60.767385 l
262.700421 61.847376 l
263.144953 64.46249 l
263.322677 65.306892 l
263.856144 59.561316 l
264.211888 56.493906 l
264.834292 54.198285 l
265.190036 53.895315 l
265.456695 53.923191 l
265.901375 54.578361 l
266.168035 55.003685 l
266.434843 54.449166 l
266.879375 53.54972 l
267.23497 52.619958 l
267.323906 53.017983 l
267.412842 52.342652 l
267.501778 52.397847 l
267.590714 52.504064 l
267.857374 54.433843 l
268.124182 56.016786 l
268.213118 55.941604 l
268.302054 56.159654 l
268.568862 64.215607 l
268.657798 59.960032 l
268.924606 64.494453 l
269.013393 65.082908 l
269.102329 62.537951 l
269.191265 62.957186 l
269.280201 63.340657 l
269.458073 60.411447 l
269.547009 60.135135 l
269.724881 58.957735 l
270.080477 65.628457 l
270.436221 55.753443 l
270.525008 55.801414 l
270.791816 57.968779 l
271.147412 55.796015 l
271.41422 58.031364 l
271.858752 61.868441 l
271.947687 61.94888 l
272.036475 61.795919 l
272.569943 59.866253 l
272.836603 59.678603 l
273.014474 59.555324 l
273.281134 59.33988 l
273.814454 60.670547 l
273.992326 59.358293 l
274.170049 64.514346 l
274.347921 58.907615 l
274.436857 59.437078 l
274.525645 60.438745 l
274.614581 60.390875 l
274.703517 60.398816 l
275.059113 62.070972 l
275.503644 63.93616 l
275.681368 63.792541 l
276.214835 62.916768 l
276.303771 62.957191 l
276.481495 61.92336 l
276.659367 64.715834 l
276.837239 62.122251 l
276.926027 62.549599 l
277.103899 61.572436 l
277.192835 61.056411 l
277.370707 61.706865 l
277.54843 62.503315 l
277.637366 62.453131 l
277.726154 62.29616 l
277.904026 60.8089 l
277.992814 63.625382 l
278.08175 61.517428 l
278.259622 62.083462 l
278.881877 59.437136 l
278.970813 59.474485 l
279.148537 61.38926 l
279.326409 64.216958 l
279.415345 69.144963 l
279.504132 67.165729 l
279.682004 70.974319 l
279.859876 69.022561 l
280.48228 60.708223 l
280.660152 60.730946 l
280.74894 60.841563 l
281.015748 60.670507 l
281.282555 60.599514 l
281.727087 60.509807 l
281.904959 60.513995 l
282.082831 60.328705 l
282.349491 59.680869 l
282.61615 59.110072 l
283.060682 59.000467 l
283.32749 58.802722 l
284.394425 57.448533 l
284.750169 57.227657 l
285.194701 57.459228 l
287.684167 59.30105 l
288.484442 58.925062 l
290.440886 58.009525 l
291.507821 58.062273 l
293.463968 58.203799 l
295.331327 58.263549 l
296.931581 58.564704 l
298.621068 59.167425 l
299.243472 59.565595 l
299.954811 60.08218 l
300.310407 60.027101 l
300.666151 61.533227 l
300.755087 61.49688 l
301.021747 61.108309 l
301.37749 61.816598 l
301.466426 61.733065 l
301.733234 61.439344 l
301.911106 62.430602 l
301.999894 63.97604 l
302.08883 63.795633 l
302.266702 62.780681 l
302.444426 61.357273 l
302.533362 61.454733 l
302.888957 62.301908 l
303.244553 62.322474 l
303.956041 62.383527 l
304.311785 62.623036 l
304.934188 63.47833 l
305.200996 62.742315 l
305.289932 62.804916 l
305.467804 65.57041 l
305.645528 70.247533 l
305.823252 68.116786 l
306.001123 65.786657 l
306.178847 66.65402 l
306.356719 67.608461 l
306.712463 66.127322 l
307.068207 70.34331 l
307.423951 65.530324 l
307.512739 65.704346 l
307.690611 67.622563 l
307.868631 72.369397 l
308.224375 104.831488 l
308.491034 75.996022 l
308.57997 77.335817 l
308.846778 66.345947 l
308.935566 65.879888 l
309.558118 69.101226 l
309.73599 70.935302 l
310.002798 69.185687 l
310.091734 69.640415 l
310.269606 75.831896 l
310.358393 75.031674 l
310.625201 71.527278 l
311.158669 67.172448 l
311.425328 66.253619 l
311.958944 63.808293 l
313.203752 60.101694 l
313.648431 59.689079 l
314.270983 59.438243 l
314.626579 59.354557 l
314.715515 59.195962 l
314.804451 59.592154 l
314.893239 59.132681 l
314.982175 59.214174 l
315.248982 59.159679 l
316.049406 59.126913 l
317.561021 59.440721 l
319.161721 58.311531 l
319.6064 57.995078 l
320.228952 58.265908 l
321.029376 58.606972 l
321.65178 59.235527 l
321.918588 58.991304 l
322.452055 58.514601 l
322.807799 58.611268 l
323.430351 59.062812 l
323.608075 59.095817 l
323.697011 59.178411 l
323.785947 59.413938 l
324.14169 62.705227 l
324.497434 67.921198 l
324.853326 62.275104 l
324.942114 62.679707 l
325.386794 68.680866 l
325.74239 75.042045 l
325.920262 75.095057 l
326.097985 81.956866 l
326.364793 72.760678 l
326.453729 72.477387 l
326.631453 73.696614 l
326.898261 70.179107 l
326.987049 69.912651 l
327.431729 66.536315 l
327.609452 66.311981 l
327.698388 66.284147 l
328.054132 64.692167 l
328.498812 72.585787 l
328.587748 72.284066 l
328.676684 72.230051 l
328.76562 71.711346 l
329.121216 63.464241 l
329.210152 64.223311 l
329.476811 68.185989 l
329.743619 64.560664 l
330.010427 62.205631 l
330.188151 61.279488 l
330.277087 61.312158 l
330.543895 62.134455 l
331.432958 65.559841 l
331.610978 64.019026 l
331.78885 68.861 l
331.966722 63.262231 l
332.055658 63.502683 l
332.144594 64.221709 l
333.211529 60.055726 l
333.56757 59.99926 l
333.923165 60.015206 l
334.367845 60.013604 l
334.545865 59.944904 l
335.434929 59.221466 l
335.968544 59.110763 l
336.857904 59.91002 l
337.391372 60.488328 l
338.191647 61.949585 l
338.280583 61.849238 l
338.458455 62.254157 l
338.725263 62.462297 l
338.992071 62.152646 l
339.525687 60.97668 l
340.770642 57.304987 l
340.948514 57.147636 l
341.304258 57.4998 l
341.571066 57.882604 l
342.282406 60.353996 l
342.37149 60.205193 l
343.082681 58.051703 l
343.794021 58.75139 l
344.416573 58.48383 l
345.216996 58.672003 l
346.461655 58.880697 l
347.528887 58.815845 l
350.552265 57.694452 l
351.886008 57.972028 l
353.042324 58.333579 l
355.709811 56.706312 l
355.887683 56.906751 l
356.332362 58.089648 l
357.043702 60.642255 l
357.31051 61.56973 l
357.488382 61.857641 l
357.577318 62.036894 l
357.75519 61.467991 l
357.93321 63.15081 l
358.110934 61.593253 l
358.288806 65.43325 l
358.377742 81.024017 l
358.466678 78.268883 l
358.64455 62.727225 l
358.733486 63.518143 l
358.911357 65.917618 l
359.000293 65.919006 l
359.356037 61.056157 l
359.444973 61.359119 l
359.800865 65.204368 l
359.889653 67.502929 l
359.978589 67.305827 l
360.067525 66.570938 l
360.245397 66.967539 l
360.867801 64.440937 l
361.490204 62.652569 l
362.02382 74.188594 l
362.112756 79.021544 l
362.201544 64.555151 l
362.379564 82.182607 l
362.4685 75.418379 l
362.557436 79.178165 l
363.001968 60.822906 l
363.17984 61.358328 l
363.268775 61.863624 l
363.535583 61.160156 l
363.624519 61.143781 l
363.713455 60.970042 l
363.802243 61.06617 l
363.891179 59.625046 l
364.069051 62.363804 l
364.335859 69.631636 l
364.424795 69.567442 l
365.136283 63.220386 l
365.491878 62.787675 l
365.758835 61.957042 l
366.292599 65.093341 l
366.559406 65.971937 l
366.826214 67.061377 l
367.270894 63.938815 l
367.35983 63.301601 l
367.537702 64.310666 l
367.626638 64.262601 l
367.715574 64.14529 l
367.893446 64.402321 l
368.871594 62.06228 l
370.027761 61.669202 l
370.472293 61.88973 l
370.917269 62.293009 l
371.717545 63.126261 l
372.073289 63.401166 l
372.428884 63.557211 l
372.873712 63.902307 l
373.229308 65.62071 l
373.5852 68.103684 l
373.673988 68.062335 l
373.940944 67.635782 l
374.118816 69.330138 l
374.207752 72.042084 l
374.296688 71.530168 l
374.385624 71.53801 l
374.830452 69.1062 l
375.630728 68.042766 l
375.719664 68.025197 l
375.986471 68.629871 l
376.075407 68.862711 l
376.431151 68.279524 l
376.786747 73.016696 l
377.053703 68.867402 l
377.142491 67.466145 l
377.231427 67.501866 l
377.498383 68.544501 l
377.765043 68.335221 l
377.853979 68.235334 l
378.47653 66.057059 l
378.565615 66.152181 l
378.832423 69.253451 l
379.099082 74.448128 l
379.36589 78.006362 l
380.25525 72.436475 l
380.699782 68.195641 l
381.055674 79.347571 l
381.233546 90.740568 l
381.411566 87.617048 l
381.58929 97.942406 l
381.678226 97.085253 l
381.945033 83.701587 l
382.389713 78.44356 l
382.478649 78.190679 l
382.834541 73.470122 l
383.012265 75.848503 l
383.190285 72.907146 l
383.279221 73.194233 l
383.368157 73.808784 l
383.456945 73.787051 l
383.546029 73.988735 l
383.901625 80.432102 l
384.079497 75.721306 l
384.257369 84.999419 l
384.435241 127.308144 l
384.613113 81.423723 l
384.702049 68.871136 l
384.790836 69.764178 l
384.879772 69.252031 l
385.057644 73.904227 l
385.14658 77.567318 l
385.680196 66.148605 l
385.858068 73.277023 l
386.036088 65.225052 l
386.124876 65.516702 l
386.21396 66.396046 l
386.302896 66.337688 l
386.391832 66.391294 l
386.569704 68.418534 l
386.747576 65.260156 l
386.9253 90.690906 l
387.103172 78.95743 l
387.370128 68.524766 l
387.458916 67.660269 l
387.725872 63.205925 l
388.081616 61.92132 l
388.170403 61.937435 l
388.526147 63.868711 l
388.792955 61.858684 l
389.237635 58.630224 l
389.326571 58.56514 l
389.593379 58.960943 l
389.949123 59.993522 l
390.393951 58.59997 l
390.571823 58.961055 l
390.838631 60.042797 l
391.105587 62.959121 l
391.372395 69.154479 l
391.550267 81.572593 l
391.728139 116.525024 l
391.817075 70.449037 l
391.906011 86.126151 l
392.083883 75.671693 l
392.261755 88.44015 l
392.350691 74.008284 l
392.439627 94.593632 l
392.528563 92.224813 l
392.617498 88.158755 l
392.706434 89.960836 l
392.79537 102.914587 l
392.884158 84.152506 l
393.151114 118.226055 l
393.24005 112.137432 l
393.417774 85.053369 l
393.50671 83.507053 l
393.862454 98.039014 l
394.129262 77.540339 l
394.218198 73.683551 l
394.307134 75.143071 l
394.39607 78.898103 l
394.57409 102.472198 l
394.751814 73.109076 l
394.84075 78.634223 l
394.929686 92.787314 l
395.107706 77.944545 l
395.196642 93.478964 l
395.285578 89.984765 l
395.374514 90.256871 l
395.641322 82.336431 l
395.730258 92.417778 l
395.819194 90.051892 l
396.086001 82.353062 l
396.263873 84.138937 l
396.352809 83.471334 l
396.708701 68.557589 l
396.797489 68.128526 l
396.975361 69.179724 l
397.064445 70.450159 l
397.508977 85.243078 l
397.597913 85.093621 l
397.775785 85.959944 l
398.220465 90.279504 l
398.309401 90.352216 l
398.487273 89.246172 l
398.487273 89.246172 l
stroke
grestore
0.627 0.314 0.314 setrgbcolor
gsave
357.1 266.1 57.6 38.02 clipbox
73.832727 131.578507 m
74.010896 148.055442 l
74.366788 128.906385 l
74.544956 125.366536 l
74.722828 123.059519 l
74.811764 123.152788 l
74.9007 123.015104 l
74.989636 123.336361 l
75.34538 129.741889 l
75.70142 117.436399 l
76.1461 97.624862 l
76.858033 88.390707 l
77.124989 88.108593 l
77.303009 88.120897 l
77.570262 88.287394 l
77.926302 88.082158 l
78.282342 88.078918 l
78.549447 88.29478 l
78.994571 86.807196 l
79.083655 86.838977 l
79.350908 86.7548 l
79.617864 86.377735 l
80.062692 84.65016 l
82.10985 76.460073 l
82.46589 75.404824 l
82.643911 75.830985 l
83.266759 78.428558 l
83.890052 81.539167 l
84.067924 80.892204 l
84.95758 76.911549 l
85.402408 75.834605 l
85.936617 75.602007 l
86.114489 75.646095 l
86.737189 75.982953 l
87.182462 74.474917 l
88.162536 71.742697 l
88.429492 73.642079 l
89.586697 83.393941 l
89.853654 84.238094 l
90.209546 84.60304 l
90.298778 84.497023 l
90.654967 82.642153 l
91.545216 77.496479 l
91.901553 75.236144 l
92.524401 71.560436 l
92.702273 71.575216 l
93.503734 72.37337 l
93.860219 72.883912 l
94.127027 72.581294 l
94.839256 71.612763 l
95.373465 71.203571 l
96.085545 71.957441 l
96.708987 72.574165 l
96.975943 72.18973 l
98.221936 69.969869 l
98.756144 69.8177 l
99.201417 69.882154 l
99.64669 69.989901 l
100.180751 69.612318 l
100.358771 69.632612 l
100.715256 70.021089 l
101.160084 70.932335 l
101.515976 72.104147 l
101.782932 73.502469 l
102.04974 75.902176 l
102.138972 75.875326 l
102.227908 75.838708 l
102.317141 75.508105 l
102.406225 75.780676 l
102.673181 89.071966 l
102.762117 94.035947 l
103.117861 81.401802 l
103.206945 81.935634 l
103.74145 90.597027 l
103.919471 95.993859 l
104.008407 94.903658 l
104.186279 95.641578 l
104.364447 95.215536 l
104.631551 94.222639 l
104.720487 94.190457 l
104.898359 95.087494 l
105.165612 93.075336 l
105.254992 93.7851 l
105.610885 116.407212 l
105.878137 168.908161 l
105.967221 161.393837 l
106.234178 128.340697 l
106.323262 130.789984 l
106.501578 124.734701 l
106.857619 131.881199 l
107.035639 128.145752 l
107.213807 159.124928 l
107.569699 117.911056 l
107.836804 100.893252 l
108.193141 108.767059 l
108.549626 148.318565 l
108.63871 113.226346 l
108.727794 114.791658 l
108.81673 113.894729 l
108.994602 121.133361 l
109.17277 114.675241 l
109.261706 114.766398 l
109.350642 114.768544 l
109.528662 116.074876 l
109.706534 98.75687 l
109.884555 105.546971 l
110.951193 64.695933 l
111.129362 62.775167 l
111.30753 62.188032 l
111.485699 62.446261 l
111.663719 64.438148 l
111.841739 56.398043 l
111.930675 56.120586 l
112.019611 59.842919 l
112.286863 55.301726 l
112.376244 55.110158 l
113.177557 75.142815 l
113.444958 75.848179 l
113.623275 75.282034 l
113.712211 75.3258 l
113.801295 75.340253 l
114.15778 73.597297 l
114.692285 67.973534 l
114.870305 67.330354 l
115.226494 77.015902 l
115.31543 76.224289 l
115.761295 69.36518 l
116.295801 64.464886 l
116.74137 62.230124 l
117.276172 61.239489 l
117.365108 61.186274 l
117.721148 64.015941 l
117.810084 63.655032 l
118.077336 62.03545 l
118.255357 62.91428 l
118.789269 65.474778 l
119.412414 68.77417 l
119.946622 72.879286 l
121.015188 82.939206 l
122.440535 100.580312 l
122.618704 100.133237 l
123.064125 97.524143 l
123.598926 94.25059 l
124.667344 86.499481 l
125.201404 83.235985 l
125.468805 82.560348 l
125.557889 82.422003 l
125.914226 80.354778 l
126.092395 83.023135 l
126.270711 86.653974 l
126.359944 85.89603 l
126.627493 80.163161 l
126.805513 82.433611 l
127.072765 85.72452 l
127.250786 86.152859 l
127.33987 86.740096 l
127.607271 95.942378 l
127.696355 100.908307 l
127.785143 96.378729 l
127.874523 100.83996 l
128.052692 91.688889 l
128.230712 98.900321 l
128.319796 98.261052 l
128.40888 96.988845 l
128.5869 102.282209 l
128.675836 95.418512 l
128.764921 104.537221 l
128.943237 96.857942 l
129.032173 103.942169 l
129.121257 100.388131 l
129.210342 101.786279 l
129.299278 95.865594 l
129.388065 131.604455 l
129.47715 98.870477 l
129.566086 105.271915 l
129.65517 104.35894 l
129.83319 91.500825 l
130.18923 101.849269 l
130.456186 86.178221 l
130.545271 85.885271 l
130.723291 81.031914 l
130.990692 76.990626 l
131.257796 75.931203 l
131.435668 76.504491 l
131.613836 77.451254 l
131.791856 77.105939 l
132.058813 76.592966 l
132.236685 76.527264 l
132.325621 76.407264 l
133.037553 73.653964 l
133.74993 65.923794 l
134.106415 74.580524 l
134.373668 80.833848 l
134.462752 91.216663 l
134.551984 88.027636 l
134.819237 69.890042 l
134.997554 67.41396 l
135.175574 62.912342 l
135.264806 62.960106 l
135.353742 63.134615 l
135.532207 63.041375 l
135.799015 63.922829 l
135.888099 64.23871 l
136.155204 63.082481 l
136.422456 62.203753 l
136.600476 61.829263 l
136.778793 61.995095 l
137.224362 62.971741 l
137.847062 65.054697 l
138.647931 68.706288 l
138.737163 69.301101 l
138.915183 68.908279 l
139.181991 71.682108 l
139.360011 72.243888 l
139.449096 72.448011 l
139.627264 71.770491 l
140.161621 66.256621 l
140.517365 71.781947 l
140.606449 70.935606 l
140.962638 66.415557 l
141.229594 64.485739 l
141.31853 67.279435 l
142.208779 56.124946 l
142.386947 55.143187 l
142.564967 55.243493 l
143.366132 56.999221 l
143.811257 58.045979 l
144.701358 57.438079 l
145.414031 57.667245 l
146.660469 58.999852 l
148.085816 60.927912 l
148.620173 60.979847 l
150.757305 60.656927 l
151.024557 60.407814 l
152.271291 58.640984 l
153.606517 56.875987 l
153.873325 56.745625 l
154.407533 56.792657 l
155.030826 57.05903 l
156.366348 57.985032 l
156.722833 58.487904 l
157.523998 60.221236 l
157.968974 61.391433 l
158.058207 61.348534 l
158.948308 60.275491 l
159.037244 60.248164 l
159.304348 62.008839 l
159.393284 62.608334 l
159.749176 59.697972 l
160.461702 77.30841 l
160.550786 70.064637 l
160.639722 77.750644 l
160.817742 74.559621 l
161.084698 77.567596 l
161.173634 78.031636 l
161.351802 70.276586 l
161.618907 67.899823 l
162.063883 68.971415 l
162.152819 68.867601 l
162.241903 68.892437 l
162.598388 74.033635 l
162.954873 70.231497 l
163.132894 70.961453 l
163.311062 71.510849 l
163.666213 71.018104 l
164.111189 71.907114 l
164.289061 72.071875 l
164.377997 71.857999 l
164.466933 73.057025 l
164.556017 71.938259 l
164.644953 72.181397 l
164.822825 72.170849 l
165.000845 72.014476 l
165.089781 71.824765 l
165.445822 69.440173 l
165.980327 66.10887 l
166.60362 64.347976 l
167.494017 60.068552 l
167.938994 58.670392 l
168.117014 58.874334 l
168.383822 59.591633 l
169.096347 62.335754 l
169.274367 63.045603 l
169.363451 62.875716 l
169.452387 66.027479 l
169.541472 64.219891 l
169.808872 67.088319 l
170.165061 70.05207 l
170.521249 74.782813 l
170.610185 76.981438 l
170.69927 76.8827 l
170.788206 76.312841 l
170.877142 76.328149 l
170.966374 76.008704 l
171.055458 76.60359 l
171.322711 73.186575 l
171.500731 70.810142 l
171.589815 70.908572 l
171.856771 71.698793 l
172.301599 62.679763 l
172.568852 62.162515 l
172.924744 64.090269 l
173.192145 61.056644 l
173.63727 56.743108 l
173.815438 56.608069 l
173.993755 56.879061 l
174.260711 57.557267 l
174.438731 57.929138 l
174.616899 58.125933 l
174.883855 58.835155 l
175.06232 59.670087 l
175.596974 65.944634 l
175.952866 71.527013 l
176.308906 76.395065 l
176.398139 76.593395 l
176.487223 76.326636 l
176.576159 81.77904 l
176.665095 79.823354 l
177.199452 96.476515 l
177.288388 97.092118 l
177.37762 96.985808 l
177.466853 97.152965 l
177.644873 88.773433 l
177.822745 91.941325 l
178.089997 93.231445 l
178.179081 93.424483 l
178.268166 94.955217 l
178.53527 126.831872 l
178.713587 145.077267 l
178.980691 148.996102 l
179.33688 173.721318 l
179.603984 152.59095 l
179.782301 141.271809 l
179.871237 140.721182 l
179.960469 126.797551 l
180.049553 129.831852 l
180.316509 121.714346 l
180.405445 122.006735 l
180.583614 108.630769 l
180.850422 105.219489 l
180.939358 94.509602 l
181.028294 99.701245 l
181.473566 85.324798 l
181.562799 91.431447 l
181.651735 89.515289 l
181.829903 101.361059 l
181.918839 97.725188 l
182.275324 71.214943 l
182.364408 70.604822 l
182.453344 63.136009 l
182.542577 78.146744 l
182.631661 75.329671 l
182.720597 74.008819 l
182.809681 75.516169 l
182.987998 61.320024 l
183.077082 75.158561 l
183.166018 61.310395 l
183.255102 73.585644 l
183.433419 66.624859 l
183.611587 65.309418 l
183.700671 71.675098 l
183.789756 67.745845 l
183.878692 69.943359 l
183.967628 81.319786 l
184.145944 74.923665 l
184.413197 91.094289 l
184.502281 84.823015 l
184.680449 95.3841 l
184.769682 82.846992 l
184.858766 98.282899 l
184.94785 92.261214 l
185.036786 98.93189 l
185.12587 97.784684 l
185.214955 88.13003 l
185.304039 107.131804 l
185.393271 89.28985 l
185.482207 101.641477 l
185.571291 98.085008 l
185.749312 115.813453 l
186.016416 106.680384 l
186.105352 101.509698 l
186.372308 123.463853 l
186.550328 120.769986 l
186.639412 109.797283 l
186.728348 112.607803 l
186.817284 103.984975 l
186.906369 126.397864 l
186.995453 119.305416 l
187.084537 93.421355 l
187.173473 93.773728 l
187.262409 92.964924 l
187.351345 98.077463 l
187.440429 97.638872 l
187.529513 98.47191 l
187.70783 132.4334 l
187.885998 110.840227 l
188.064315 120.959775 l
188.153399 120.366507 l
188.242483 118.740082 l
188.331568 122.062355 l
188.420504 103.593183 l
188.509588 138.185308 l
188.598524 102.786629 l
188.687756 106.548939 l
188.865776 119.08712 l
188.95486 117.595376 l
189.043945 119.9097 l
189.133029 119.369385 l
189.221965 103.805925 l
189.311049 121.193167 l
189.400133 105.337261 l
189.489069 119.238474 l
189.578005 113.259103 l
189.844961 131.506032 l
189.933897 114.573056 l
190.022982 138.063782 l
190.112066 124.67401 l
190.201002 127.883056 l
190.468106 121.773671 l
190.73521 130.269415 l
190.913379 108.987919 l
191.002463 128.129028 l
191.091695 105.981522 l
191.180631 108.768374 l
191.269567 121.208387 l
191.358652 104.703786 l
191.447736 129.811911 l
191.536524 124.601569 l
191.625608 116.605985 l
191.714544 155.086684 l
191.892712 113.654707 l
191.981796 125.85756 l
192.159965 96.525286 l
192.248901 114.502244 l
192.427069 98.360583 l
192.516153 97.053289 l
192.605089 119.323555 l
192.694322 100.194983 l
192.872342 107.711098 l
192.961278 81.809675 l
193.050214 110.568387 l
193.22853 94.71665 l
193.406699 88.875538 l
193.495931 89.294076 l
193.674248 86.331186 l
193.85212 83.853258 l
194.030288 82.023484 l
194.119372 82.03962 l
194.297689 77.857236 l
194.386477 82.452461 l
194.475561 82.224453 l
194.564497 81.861456 l
194.653581 82.711403 l
194.920834 103.376035 l
195.099002 114.557698 l
195.188086 112.251779 l
195.277171 118.056977 l
195.366107 111.461346 l
195.722147 149.080985 l
195.811231 140.090831 l
195.989251 108.659953 l
196.078484 104.791063 l
196.16742 107.956856 l
196.434672 159.689799 l
196.523608 100.904235 l
196.612692 113.162967 l
196.701777 132.680164 l
196.790861 186.312076 l
196.880093 177.245596 l
197.147346 99.876717 l
197.236282 96.987 l
197.325366 97.427053 l
197.770787 128.210124 l
197.859871 126.504532 l
197.948955 128.064788 l
198.037891 126.972785 l
198.215763 117.990915 l
198.483016 127.714861 l
198.750417 154.056494 l
198.928289 164.954447 l
199.017373 162.050433 l
199.106457 138.681714 l
199.195393 180.733336 l
199.373562 100.294741 l
199.462646 130.302884 l
199.640814 106.084175 l
199.72975 111.972578 l
199.997151 88.683928 l
200.175319 87.927842 l
200.264552 94.111792 l
200.35334 90.27121 l
200.620296 93.324442 l
200.70938 93.588471 l
201.065717 83.824739 l
201.154653 87.679608 l
201.510693 72.451812 l
202.223663 61.126689 l
202.491212 60.472493 l
202.669232 60.344603 l
202.936337 60.503178 l
203.203886 60.488136 l
203.382054 60.788954 l
203.471138 59.326852 l
203.560222 59.554574 l
203.738539 59.364275 l
203.827623 59.237135 l
203.916559 61.165036 l
204.005495 58.671414 l
204.094876 58.956451 l
204.272896 58.523948 l
204.451064 60.503255 l
204.807698 61.364136 l
204.896782 61.549333 l
204.985866 61.42388 l
205.164331 59.451459 l
205.253415 55.531668 l
205.342499 56.469453 l
205.431732 58.638372 l
205.520668 64.998659 l
205.698836 53.983557 l
206.055173 64.06181 l
206.144257 56.53299 l
206.322277 73.312818 l
206.411213 74.735021 l
206.678318 68.296509 l
206.767254 82.518878 l
206.85619 65.735236 l
206.945274 73.803423 l
207.12359 68.373654 l
207.212675 68.621975 l
207.301611 67.954742 l
207.390695 68.063919 l
207.479779 113.69625 l
207.569011 108.887865 l
207.657947 123.89595 l
207.836264 67.454809 l
207.925497 118.198831 l
208.014581 78.905603 l
208.103517 122.402087 l
208.192453 292.032 l
208.281537 96.690442 l
208.370769 114.403396 l
208.459853 143.426814 l
208.548938 216.824409 l
208.816042 131.271281 l
208.904978 168.874098 l
209.082998 105.004232 l
209.26087 136.156979 l
209.350103 133.255138 l
209.528123 112.209274 l
209.617207 123.583794 l
209.973247 98.315864 l
210.329732 91.820727 l
210.507901 72.995111 l
210.774857 65.33465 l
211.042109 67.272893 l
211.131342 67.252242 l
211.220426 67.139503 l
211.309659 73.001385 l
211.398891 72.756171 l
211.576763 78.563466 l
211.754931 74.030348 l
212.111416 78.824821 l
212.645329 67.496836 l
212.823497 67.001987 l
213.535874 54.224698 l
213.62481 54.08893 l
213.80283 54.705299 l
214.782608 61.266605 l
215.406049 65.518588 l
216.560587 72.113524 l
216.649523 72.23857 l
216.73831 72.167432 l
217.982821 64.665547 l
218.694012 60.648126 l
219.316268 55.949703 l
219.760799 55.260721 l
220.027311 55.154516 l
220.382907 55.35253 l
220.649566 55.623295 l
220.916226 55.313928 l
221.449545 54.711764 l
223.049503 54.627115 l
224.027651 55.386774 l
224.561119 56.308102 l
224.916862 57.395377 l
225.361246 60.458996 l
226.072437 66.976534 l
226.694693 74.393707 l
227.050288 81.984495 l
227.139224 79.743059 l
227.406032 82.994066 l
227.583756 80.210688 l
228.028287 108.317417 l
228.117075 98.023686 l
228.472819 122.616596 l
228.561755 107.212738 l
228.739479 159.898208 l
229.095074 84.795113 l
229.361734 80.38118 l
229.983841 74.918996 l
230.428521 75.491309 l
230.606393 66.82108 l
230.784117 65.464945 l
230.873053 71.907891 l
230.961989 70.43864 l
231.67318 59.541269 l
231.851052 57.435156 l
231.939988 58.392545 l
232.11786 56.400467 l
232.562688 54.895071 l
232.918284 54.504471 l
233.096156 56.206043 l
233.451751 60.122252 l
233.540687 60.106228 l
233.896283 58.581759 l
234.874282 54.251841 l
234.96307 54.243693 l
235.318666 54.826714 l
236.296665 56.48969 l
236.652261 56.583061 l
237.897216 56.785085 l
238.786279 57.064859 l
239.141875 57.086039 l
239.586407 56.71105 l
241.097725 55.373522 l
242.075724 54.835743 l
243.942342 53.081232 l
244.742321 52.552003 l
244.920193 52.656711 l
245.453513 53.682654 l
246.609088 56.548039 l
247.676023 59.879029 l
247.853746 59.590342 l
248.298426 58.212639 l
248.654022 57.350738 l
249.098554 56.400052 l
249.809893 52.636859 l
249.898829 52.782126 l
250.254425 54.453181 l
250.521233 56.616468 l
250.876828 51.105807 l
250.965764 51.293831 l
251.143636 53.046032 l
251.232572 54.238657 l
251.321508 54.012682 l
251.410444 54.112719 l
251.49938 53.124809 l
251.588168 53.631518 l
251.76604 73.957551 l
252.032848 118.304616 l
252.121636 115.071056 l
252.299508 107.602042 l
252.477379 125.857041 l
252.655103 118.246573 l
252.921911 74.966317 l
253.099783 70.645683 l
253.188719 70.555821 l
253.455379 73.57839 l
253.633102 76.140937 l
253.810826 150.959772 l
254.077486 158.589238 l
254.166422 149.639199 l
254.344146 77.404316 l
254.433082 72.679327 l
254.522018 92.080595 l
254.610805 83.891551 l
254.699741 86.724547 l
254.788825 95.16682 l
254.877761 93.389884 l
254.966697 94.092895 l
255.144421 99.801411 l
255.322145 86.891968 l
255.500017 100.133893 l
255.855464 84.964185 l
255.9444 87.397393 l
256.033336 75.304489 l
256.21106 92.439055 l
256.566656 71.290616 l
256.655443 72.065644 l
256.922103 78.506741 l
257.011039 74.91886 l
257.099827 75.303053 l
257.633294 65.271937 l
257.811018 75.63395 l
257.988742 66.4105 l
258.166465 70.669035 l
258.522061 74.17678 l
258.610997 74.168094 l
258.699933 74.137411 l
258.788869 73.787571 l
258.877657 75.125898 l
258.966593 75.091603 l
259.055381 75.240358 l
259.410976 77.692828 l
259.677784 75.051211 l
260.122168 71.088167 l
260.299891 77.015681 l
260.477763 78.0614 l
261.189103 69.078431 l
261.900146 61.004279 l
262.078018 61.982277 l
262.878145 69.962933 l
263.322677 74.210844 l
263.500549 72.216941 l
264.745208 54.959073 l
264.923228 54.556566 l
265.101248 54.589913 l
265.278972 54.652666 l
265.901375 55.720133 l
266.168035 56.238371 l
266.434843 55.000918 l
267.146034 51.519441 l
267.590714 50.112 l
267.857374 52.812715 l
268.213118 55.961549 l
268.302054 56.630144 l
268.568862 65.119565 l
268.657798 60.527309 l
268.924606 66.526853 l
269.013393 67.644874 l
269.102329 65.526551 l
269.191265 65.98272 l
269.280201 65.586451 l
269.458073 63.06377 l
269.724881 60.497479 l
270.080477 68.811489 l
270.436221 57.304017 l
270.525008 57.528558 l
270.791816 60.60746 l
271.147412 59.498455 l
271.503156 62.950072 l
271.947687 66.649894 l
272.303283 66.114953 l
272.658731 65.719494 l
273.192198 66.286223 l
273.458858 66.600282 l
273.63673 66.907287 l
273.814454 66.598713 l
273.992326 64.279263 l
274.170049 71.538914 l
274.347921 64.466456 l
274.436857 65.43587 l
274.614581 67.179474 l
275.236836 68.227765 l
275.681368 69.383029 l
275.85924 69.593818 l
276.1259 69.430999 l
276.392559 69.752663 l
276.481495 69.741373 l
276.659367 71.276958 l
277.103899 69.079423 l
277.192835 68.710413 l
277.54843 70.670383 l
277.637366 70.49426 l
277.81509 69.408414 l
277.904026 68.305555 l
277.992814 70.607447 l
278.08175 68.26345 l
278.170686 68.781813 l
278.259622 68.76391 l
278.970813 62.073466 l
279.237473 68.455709 l
279.326409 70.593062 l
279.415345 76.909009 l
279.504132 75.811082 l
279.682004 81.695289 l
279.859876 78.881484 l
280.48228 66.343654 l
280.660152 66.328402 l
280.74894 66.457889 l
281.549215 65.21437 l
282.082831 64.540673 l
282.260555 64.045597 l
282.61615 62.951856 l
283.060682 62.822641 l
283.238554 62.715006 l
284.750169 60.02623 l
285.194701 60.411321 l
287.595231 63.344991 l
288.039911 63.080775 l
289.46259 61.985618 l
290.529822 61.45596 l
291.329949 61.84826 l
294.264243 63.398929 l
294.531051 63.509089 l
294.619839 60.986208 l
294.708775 61.055915 l
296.309326 62.284268 l
297.465197 62.583368 l
298.087601 63.178283 l
300.399343 65.834439 l
301.288554 67.186988 l
301.37749 67.256289 l
301.733234 66.323653 l
302.08883 71.404114 l
302.177766 70.623782 l
302.444426 67.246979 l
302.622298 68.190864 l
302.888957 69.552002 l
303.155765 70.023452 l
304.222849 71.90904 l
304.934188 73.78357 l
305.289932 73.292528 l
305.645528 80.293693 l
305.734464 79.874824 l
306.001123 76.995866 l
306.178847 77.650041 l
306.356719 78.336168 l
306.712463 77.011465 l
307.068207 80.150848 l
307.335015 77.693553 l
307.423951 78.001426 l
307.512739 77.73397 l
307.690611 78.143567 l
307.779546 79.623767 l
307.957567 94.476253 l
308.224375 121.629342 l
308.402098 100.76493 l
308.491034 87.986159 l
308.57997 89.203799 l
308.935566 78.387828 l
309.380246 82.56443 l
309.558118 83.444785 l
309.73599 86.307621 l
310.002798 83.943145 l
310.091734 84.045914 l
310.269606 88.18872 l
311.425328 78.333911 l
313.292687 67.851207 l
313.737367 66.952631 l
314.537643 65.852788 l
314.804451 66.088417 l
315.515642 67.221802 l
315.96047 68.028413 l
316.138342 67.813274 l
317.649957 65.218522 l
318.272361 65.250087 l
318.627957 65.499049 l
318.805828 65.592961 l
319.161721 64.64422 l
319.517613 63.747371 l
319.695336 63.917355 l
320.317888 65.13312 l
320.94044 66.501383 l
321.740716 68.868432 l
322.274331 68.208511 l
322.540991 68.05263 l
322.896735 68.129475 l
323.341415 68.506553 l
323.785947 69.394956 l
324.14169 71.942676 l
324.497434 75.697738 l
324.58637 75.625412 l
324.853326 75.017326 l
325.20907 79.33018 l
325.74239 86.21706 l
325.920262 85.584761 l
326.097985 93.138106 l
326.364793 85.829336 l
326.453729 85.900332 l
326.631453 89.222236 l
327.253857 82.207892 l
327.431729 81.293536 l
327.520516 81.274967 l
327.698388 81.576642 l
328.054132 79.835177 l
328.410024 87.501093 l
328.498812 86.832289 l
329.121216 76.242144 l
329.210152 77.17495 l
329.476811 81.597589 l
329.743619 78.140613 l
330.010427 75.904635 l
330.188151 75.052025 l
330.277087 75.140643 l
330.721767 76.725217 l
331.432958 79.830611 l
331.522042 79.755745 l
331.610978 79.612646 l
331.78885 81.151521 l
332.055658 77.531865 l
332.144594 77.42619 l
333.211529 70.974867 l
334.189973 68.105362 l
335.346141 65.508931 l
335.879608 64.847373 l
336.146416 65.021822 l
336.946692 66.105396 l
337.391372 66.916668 l
338.725263 70.27438 l
338.903135 69.976903 l
339.081007 69.472443 l
339.525687 66.694828 l
339.881283 67.219005 l
340.059154 67.33636 l
340.14809 67.178592 l
340.59277 61.437545 l
340.948514 58.038123 l
341.03745 58.05217 l
341.571066 59.038718 l
342.015746 63.575107 l
342.282406 66.407637 l
342.37149 66.135244 l
343.082681 61.110606 l
343.705085 62.56804 l
343.971893 62.044375 l
344.416573 61.237003 l
344.594444 61.321648 l
345.305932 62.209402 l
345.8394 63.531105 l
346.10606 62.256633 l
346.194996 61.765035 l
346.283932 64.758524 l
346.372867 64.354072 l
346.550591 63.658085 l
346.728463 64.359368 l
346.906187 65.303582 l
346.995123 62.259621 l
347.084059 62.775534 l
347.261931 63.788521 l
347.351015 63.720213 l
347.617823 62.916444 l
347.706759 66.32057 l
347.795695 66.154077 l
348.062355 65.725866 l
348.240226 65.747668 l
348.329162 62.259979 l
348.418098 62.327308 l
350.285457 63.481816 l
351.174669 63.061742 l
351.708137 62.841477 l
352.95324 62.800193 l
353.486856 62.24191 l
353.931388 61.852935 l
354.553939 61.344619 l
354.998471 60.876412 l
355.620875 60.538128 l
355.798747 60.661737 l
355.976619 61.198092 l
356.510234 63.826049 l
357.132638 67.669552 l
357.399446 68.815377 l
357.577318 69.552662 l
357.75519 68.906489 l
357.93321 70.718583 l
358.110934 69.829343 l
358.19987 79.185506 l
358.288806 64.600202 l
358.377742 93.13107 l
358.466678 87.759872 l
358.64455 69.631898 l
358.733486 70.902365 l
358.911357 75.280405 l
359.000293 76.391207 l
359.444973 73.384555 l
359.533909 73.514958 l
359.711929 72.908492 l
359.889653 76.213433 l
360.067525 73.651878 l
360.156461 74.042647 l
360.245397 74.568361 l
360.334333 74.458121 l
360.512205 74.353767 l
360.778865 74.32749 l
361.401268 71.536892 l
361.490204 71.597583 l
361.668076 74.400922 l
361.934884 83.048869 l
362.02382 89.353655 l
362.112756 88.125085 l
362.201544 82.889593 l
362.379564 93.934086 l
362.4685 81.10185 l
362.557436 86.920328 l
363.090904 70.283235 l
363.268775 69.764691 l
363.624519 67.135892 l
363.713455 67.459735 l
363.802243 68.350043 l
363.891179 67.418481 l
364.424795 79.657658 l
364.691603 77.780662 l
365.136283 72.326951 l
365.403091 73.423695 l
365.491878 73.363212 l
365.669899 73.194932 l
365.758835 73.215181 l
366.114578 76.097264 l
366.381535 76.574282 l
366.470471 76.715163 l
366.826214 79.24041 l
367.093022 77.121511 l
367.270894 76.253533 l
367.448766 76.243775 l
367.537702 76.179688 l
367.893446 74.923782 l
368.782658 71.062786 l
369.316273 70.684521 l
369.849889 70.463701 l
370.027761 70.423073 l
371.006057 69.238885 l
371.361801 69.184684 l
371.539821 69.435458 l
371.984353 70.909679 l
373.051584 75.781791 l
374.385624 84.695819 l
375.186048 82.944332 l
375.630728 82.484623 l
375.897535 82.247778 l
376.075407 82.256075 l
376.431151 80.611227 l
376.786747 85.705028 l
377.053703 81.414003 l
377.142491 80.02421 l
377.231427 80.283214 l
377.587319 82.534937 l
377.942915 83.174356 l
378.031999 83.11315 l
378.298807 83.03174 l
378.47653 83.016204 l
378.565615 83.265595 l
379.36589 93.207114 l
379.454826 92.885679 l
380.432974 87.784717 l
380.699782 85.872744 l
381.055674 97.85896 l
381.233546 106.469894 l
381.411566 100.934443 l
381.58929 107.929172 l
381.678226 107.481897 l
381.767161 102.602204 l
381.945033 108.582952 l
382.211841 99.60063 l
382.300777 100.180002 l
382.478649 99.397859 l
382.834541 94.531371 l
383.012265 97.356678 l
383.279221 95.463023 l
383.368157 95.509088 l
383.546029 94.342392 l
383.901625 104.888291 l
384.079497 95.893398 l
384.257369 111.328846 l
384.435241 146.045913 l
384.613113 97.257454 l
384.702049 80.768306 l
384.790836 83.998209 l
384.879772 83.441442 l
385.057644 85.423958 l
385.14658 85.861077 l
385.324452 81.336621 l
385.413388 81.607883 l
385.502324 82.314837 l
385.680196 81.034042 l
385.858068 85.61766 l
386.036088 81.139682 l
386.391832 83.465019 l
386.569704 86.121865 l
386.747576 84.74805 l
386.9253 104.664455 l
387.014236 103.06982 l
387.458916 82.079745 l
387.725872 76.784014 l
388.081616 74.305301 l
388.170403 74.068779 l
388.526147 74.986333 l
389.504443 66.733774 l
389.771251 66.655672 l
390.305015 67.571022 l
390.571823 69.719744 l
391.016651 75.335839 l
391.283459 81.803247 l
391.550267 98.781349 l
391.728139 144.472371 l
391.817075 87.152358 l
391.906011 110.389342 l
392.083883 97.719533 l
392.261755 110.226702 l
392.350691 96.550885 l
392.439627 129.78356 l
392.617498 113.715358 l
392.706434 115.562777 l
392.79537 140.781207 l
392.884158 110.728463 l
393.151114 162.67809 l
393.417774 108.641986 l
393.595646 122.099866 l
393.684582 136.860297 l
393.773518 121.825089 l
393.862454 123.795942 l
394.129262 104.57044 l
394.218198 101.218641 l
394.39607 111.061079 l
394.57409 150.512513 l
394.751814 97.604663 l
394.84075 107.836807 l
394.929686 133.331561 l
395.107706 105.447099 l
395.196642 126.234398 l
395.285578 122.327813 l
395.374514 120.716991 l
395.552237 112.825948 l
395.641322 111.464392 l
395.819194 123.943186 l
395.997065 104.940262 l
396.263873 108.066547 l
396.352809 107.029403 l
396.708701 85.85969 l
396.797489 85.035378 l
396.975361 85.572372 l
397.064445 86.539431 l
397.686849 101.018931 l
398.309401 108.289572 l
398.487273 120.57896 l
398.487273 120.57896 l
stroke
grestore
0.800 setlinewidth
0 setlinejoin
[] 0 setdash
0.000 setgray
gsave
57.6 38.016 m
57.6 304.128 l
stroke
grestore
gsave
414.72 38.016 m
414.72 304.128 l
stroke
grestore
gsave
57.6 38.016 m
414.72 38.016 l
stroke
grestore
gsave
57.6 304.128 m
414.72 304.128 l
stroke
grestore
1.000 setlinewidth
0 setlinecap
0.800 setgray
gsave
349.860625 266.78425 m
407.72 266.78425 l
409.053333 266.78425 409.72 267.450917 409.72 268.78425 c
409.72 297.128 l
409.72 298.461333 409.053333 299.128 407.72 299.128 c
349.860625 299.128 l
348.527292 299.128 347.860625 298.461333 347.860625 297.128 c
347.860625 268.78425 l
347.860625 267.450917 348.527292 266.78425 349.860625 266.78425 c
cl
gsave
1.000 setgray
fill
grestore
stroke
grestore
1.500 setlinewidth
1 setlinejoin
2 setlinecap
[] 0 setdash
0.000 0.750 0.750 setrgbcolor
gsave
351.860625 291.03425 m
371.860625 291.03425 l
stroke
grestore
0.000 setgray
gsave
379.860625 287.534250 translate
0.000000 rotate
0.000000 0.000000 m /three glyphshow
6.362305 0.000000 m /m glyphshow
16.103516 0.000000 m /m glyphshow
grestore
0.627 0.314 0.314 setrgbcolor
gsave
351.860625 276.362375 m
371.860625 276.362375 l
stroke
grestore
0.000 setgray
gsave
379.860625 272.862375 translate
0.000000 rotate
0.000000 0.000000 m /two glyphshow
6.362305 0.000000 m /m glyphshow
16.103516 0.000000 m /m glyphshow
grestore

end
showpage
