%!PS-Adobe-3.0 EPSF-3.0
%%Title: spb/08_RAW_tau.eps
%%Creator: matplotlib version 2.2.2, http://matplotlib.org/
%%CreationDate: Wed Aug 29 15:21:06 2018
%%Orientation: portrait
%%BoundingBox: 75 223 536 568
%%EndComments
%%BeginProlog
/mpldict 9 dict def
mpldict begin
/m { moveto } bind def
/l { lineto } bind def
/r { rlineto } bind def
/c { curveto } bind def
/cl { closepath } bind def
/box {
m
1 index 0 r
0 exch r
neg 0 r
cl
} bind def
/clipbox {
box
clip
newpath
} bind def
%!PS-Adobe-3.0 Resource-Font
%%Title: DejaVu Sans
%%Copyright: Copyright (c) 2003 by Bitstream, Inc. All Rights Reserved. Copyright (c) 2006 by Tavmjong Bah. All Rights Reserved. DejaVu changes are in public domain 
%%Creator: Converted from TrueType to type 3 by PPR
25 dict begin
/_d{bind def}bind def
/_m{moveto}_d
/_l{lineto}_d
/_cl{closepath eofill}_d
/_c{curveto}_d
/_sc{7 -1 roll{setcachedevice}{pop pop pop pop pop pop}ifelse}_d
/_e{exec}_d
/FontName /DejaVuSans def
/PaintType 0 def
/FontMatrix[.001 0 0 .001 0 0]def
/FontBBox[-1021 -463 1793 1232]def
/FontType 3 def
/Encoding [ /space /comma /period /zero /one /two /three /four /five /six /seven /eight /a /d /e /i /m /s /t /y ] def
/FontInfo 10 dict dup begin
/FamilyName (DejaVu Sans) def
/FullName (DejaVu Sans) def
/Notice (Copyright (c) 2003 by Bitstream, Inc. All Rights Reserved. Copyright (c) 2006 by Tavmjong Bah. All Rights Reserved. DejaVu changes are in public domain ) def
/Weight (Book) def
/Version (Version 2.35) def
/ItalicAngle 0.0 def
/isFixedPitch false def
/UnderlinePosition -130 def
/UnderlineThickness 90 def
end readonly def
/CharStrings 21 dict dup begin
/.notdef 0 def
/space{318 0 0 0 0 0 _sc
}_d
/comma{318 0 77 -115 220 124 _sc
117 124 _m
220 124 _l
220 40 _l
140 -115 _l
77 -115 _l
117 40 _l
117 124 _l
_cl}_d
/period{318 0 107 0 210 124 _sc
107 124 _m
210 124 _l
210 0 _l
107 0 _l
107 124 _l
_cl}_d
/zero{636 0 66 -13 570 742 _sc
318 664 _m
267 664 229 639 203 589 _c
177 539 165 464 165 364 _c
165 264 177 189 203 139 _c
229 89 267 64 318 64 _c
369 64 407 89 433 139 _c
458 189 471 264 471 364 _c
471 464 458 539 433 589 _c
407 639 369 664 318 664 _c
318 742 _m
399 742 461 709 505 645 _c
548 580 570 486 570 364 _c
570 241 548 147 505 83 _c
461 19 399 -13 318 -13 _c
236 -13 173 19 130 83 _c
87 147 66 241 66 364 _c
66 486 87 580 130 645 _c
173 709 236 742 318 742 _c
_cl}_d
/one{636 0 110 0 544 729 _sc
124 83 _m
285 83 _l
285 639 _l
110 604 _l
110 694 _l
284 729 _l
383 729 _l
383 83 _l
544 83 _l
544 0 _l
124 0 _l
124 83 _l
_cl}_d
/two{{636 0 73 0 536 742 _sc
192 83 _m
536 83 _l
536 0 _l
73 0 _l
73 83 _l
110 121 161 173 226 239 _c
290 304 331 346 348 365 _c
380 400 402 430 414 455 _c
426 479 433 504 433 528 _c
433 566 419 598 392 622 _c
365 646 330 659 286 659 _c
255 659 222 653 188 643 _c
154 632 117 616 78 594 _c
78 694 _l
118 710 155 722 189 730 _c
223 738 255 742 284 742 _c
}_e{359 742 419 723 464 685 _c
509 647 532 597 532 534 _c
532 504 526 475 515 449 _c
504 422 484 390 454 354 _c
446 344 420 317 376 272 _c
332 227 271 164 192 83 _c
_cl}_e}_d
/three{{636 0 76 -13 556 742 _sc
406 393 _m
453 383 490 362 516 330 _c
542 298 556 258 556 212 _c
556 140 531 84 482 45 _c
432 6 362 -13 271 -13 _c
240 -13 208 -10 176 -4 _c
144 1 110 10 76 22 _c
76 117 _l
103 101 133 89 166 81 _c
198 73 232 69 268 69 _c
330 69 377 81 409 105 _c
441 129 458 165 458 212 _c
458 254 443 288 413 312 _c
383 336 341 349 287 349 _c
}_e{202 349 _l
202 430 _l
291 430 _l
339 430 376 439 402 459 _c
428 478 441 506 441 543 _c
441 580 427 609 401 629 _c
374 649 336 659 287 659 _c
260 659 231 656 200 650 _c
169 644 135 635 98 623 _c
98 711 _l
135 721 170 729 203 734 _c
235 739 266 742 296 742 _c
370 742 429 725 473 691 _c
517 657 539 611 539 553 _c
539 513 527 479 504 451 _c
481 423 448 403 406 393 _c
_cl}_e}_d
/four{636 0 49 0 580 729 _sc
378 643 _m
129 254 _l
378 254 _l
378 643 _l
352 729 _m
476 729 _l
476 254 _l
580 254 _l
580 172 _l
476 172 _l
476 0 _l
378 0 _l
378 172 _l
49 172 _l
49 267 _l
352 729 _l
_cl}_d
/five{{636 0 77 -13 549 729 _sc
108 729 _m
495 729 _l
495 646 _l
198 646 _l
198 467 _l
212 472 227 476 241 478 _c
255 480 270 482 284 482 _c
365 482 429 459 477 415 _c
525 370 549 310 549 234 _c
549 155 524 94 475 51 _c
426 8 357 -13 269 -13 _c
238 -13 207 -10 175 -6 _c
143 -1 111 6 77 17 _c
77 116 _l
106 100 136 88 168 80 _c
199 72 232 69 267 69 _c
}_e{323 69 368 83 401 113 _c
433 143 450 183 450 234 _c
450 284 433 324 401 354 _c
368 384 323 399 267 399 _c
241 399 214 396 188 390 _c
162 384 135 375 108 363 _c
108 729 _l
_cl}_e}_d
/six{{636 0 70 -13 573 742 _sc
330 404 _m
286 404 251 388 225 358 _c
199 328 186 286 186 234 _c
186 181 199 139 225 109 _c
251 79 286 64 330 64 _c
374 64 409 79 435 109 _c
461 139 474 181 474 234 _c
474 286 461 328 435 358 _c
409 388 374 404 330 404 _c
526 713 _m
526 623 _l
501 635 476 644 451 650 _c
425 656 400 659 376 659 _c
310 659 260 637 226 593 _c
}_e{192 549 172 482 168 394 _c
187 422 211 444 240 459 _c
269 474 301 482 336 482 _c
409 482 467 459 509 415 _c
551 371 573 310 573 234 _c
573 159 550 99 506 54 _c
462 9 403 -13 330 -13 _c
246 -13 181 19 137 83 _c
92 147 70 241 70 364 _c
70 479 97 571 152 639 _c
206 707 280 742 372 742 _c
396 742 421 739 447 735 _c
472 730 498 723 526 713 _c
_cl}_e}_d
/seven{636 0 82 0 551 729 _sc
82 729 _m
551 729 _l
551 687 _l
286 0 _l
183 0 _l
432 646 _l
82 646 _l
82 729 _l
_cl}_d
/eight{{636 0 68 -13 568 742 _sc
318 346 _m
271 346 234 333 207 308 _c
180 283 167 249 167 205 _c
167 161 180 126 207 101 _c
234 76 271 64 318 64 _c
364 64 401 76 428 102 _c
455 127 469 161 469 205 _c
469 249 455 283 429 308 _c
402 333 365 346 318 346 _c
219 388 _m
177 398 144 418 120 447 _c
96 476 85 511 85 553 _c
85 611 105 657 147 691 _c
188 725 245 742 318 742 _c
}_e{390 742 447 725 489 691 _c
530 657 551 611 551 553 _c
551 511 539 476 515 447 _c
491 418 459 398 417 388 _c
464 377 501 355 528 323 _c
554 291 568 251 568 205 _c
568 134 546 80 503 43 _c
459 5 398 -13 318 -13 _c
237 -13 175 5 132 43 _c
89 80 68 134 68 205 _c
68 251 81 291 108 323 _c
134 355 171 377 219 388 _c
183 544 _m
183 506 194 476 218 455 _c
}_e{242 434 275 424 318 424 _c
360 424 393 434 417 455 _c
441 476 453 506 453 544 _c
453 582 441 611 417 632 _c
393 653 360 664 318 664 _c
275 664 242 653 218 632 _c
194 611 183 582 183 544 _c
_cl}_e}_d
/a{{613 0 60 -13 522 560 _sc
343 275 _m
270 275 220 266 192 250 _c
164 233 150 205 150 165 _c
150 133 160 107 181 89 _c
202 70 231 61 267 61 _c
317 61 357 78 387 114 _c
417 149 432 196 432 255 _c
432 275 _l
343 275 _l
522 312 _m
522 0 _l
432 0 _l
432 83 _l
411 49 385 25 355 10 _c
325 -5 287 -13 243 -13 _c
187 -13 142 2 109 33 _c
76 64 60 106 60 159 _c
}_e{60 220 80 266 122 298 _c
163 329 224 345 306 345 _c
432 345 _l
432 354 _l
432 395 418 427 391 450 _c
364 472 326 484 277 484 _c
245 484 215 480 185 472 _c
155 464 127 453 100 439 _c
100 522 _l
132 534 164 544 195 550 _c
226 556 256 560 286 560 _c
365 560 424 539 463 498 _c
502 457 522 395 522 312 _c
_cl}_e}_d
/d{{635 0 55 -13 544 760 _sc
454 464 _m
454 760 _l
544 760 _l
544 0 _l
454 0 _l
454 82 _l
435 49 411 25 382 10 _c
353 -5 319 -13 279 -13 _c
213 -13 159 13 117 65 _c
75 117 55 187 55 273 _c
55 359 75 428 117 481 _c
159 533 213 560 279 560 _c
319 560 353 552 382 536 _c
411 520 435 496 454 464 _c
148 273 _m
148 207 161 155 188 117 _c
215 79 253 61 301 61 _c
}_e{348 61 385 79 413 117 _c
440 155 454 207 454 273 _c
454 339 440 390 413 428 _c
385 466 348 485 301 485 _c
253 485 215 466 188 428 _c
161 390 148 339 148 273 _c
_cl}_e}_d
/e{{615 0 55 -13 562 560 _sc
562 296 _m
562 252 _l
149 252 _l
153 190 171 142 205 110 _c
238 78 284 62 344 62 _c
378 62 412 66 444 74 _c
476 82 509 95 541 113 _c
541 28 _l
509 14 476 3 442 -3 _c
408 -9 373 -13 339 -13 _c
251 -13 182 12 131 62 _c
80 112 55 181 55 268 _c
55 357 79 428 127 481 _c
175 533 241 560 323 560 _c
397 560 455 536 498 489 _c
}_e{540 441 562 377 562 296 _c
472 322 _m
471 371 457 410 431 440 _c
404 469 368 484 324 484 _c
274 484 234 469 204 441 _c
174 413 156 373 152 322 _c
472 322 _l
_cl}_e}_d
/i{278 0 94 0 184 760 _sc
94 547 _m
184 547 _l
184 0 _l
94 0 _l
94 547 _l
94 760 _m
184 760 _l
184 646 _l
94 646 _l
94 760 _l
_cl}_d
/m{{974 0 91 0 889 560 _sc
520 442 _m
542 482 569 511 600 531 _c
631 550 668 560 711 560 _c
767 560 811 540 842 500 _c
873 460 889 403 889 330 _c
889 0 _l
799 0 _l
799 327 _l
799 379 789 418 771 444 _c
752 469 724 482 686 482 _c
639 482 602 466 575 435 _c
548 404 535 362 535 309 _c
535 0 _l
445 0 _l
445 327 _l
445 379 435 418 417 444 _c
398 469 369 482 331 482 _c
}_e{285 482 248 466 221 435 _c
194 404 181 362 181 309 _c
181 0 _l
91 0 _l
91 547 _l
181 547 _l
181 462 _l
201 495 226 520 255 536 _c
283 552 317 560 357 560 _c
397 560 430 550 458 530 _c
486 510 506 480 520 442 _c
_cl}_e}_d
/s{{521 0 54 -13 472 560 _sc
443 531 _m
443 446 _l
417 458 391 468 364 475 _c
336 481 308 485 279 485 _c
234 485 200 478 178 464 _c
156 450 145 430 145 403 _c
145 382 153 366 169 354 _c
185 342 217 330 265 320 _c
296 313 _l
360 299 405 279 432 255 _c
458 230 472 195 472 151 _c
472 100 452 60 412 31 _c
372 1 316 -13 246 -13 _c
216 -13 186 -10 154 -5 _c
}_e{122 0 89 8 54 20 _c
54 113 _l
87 95 120 82 152 74 _c
184 65 216 61 248 61 _c
290 61 323 68 346 82 _c
368 96 380 117 380 144 _c
380 168 371 187 355 200 _c
339 213 303 226 247 238 _c
216 245 _l
160 257 119 275 95 299 _c
70 323 58 356 58 399 _c
58 450 76 490 112 518 _c
148 546 200 560 268 560 _c
301 560 332 557 362 552 _c
391 547 418 540 443 531 _c
}_e{_cl}_e}_d
/t{392 0 27 0 368 702 _sc
183 702 _m
183 547 _l
368 547 _l
368 477 _l
183 477 _l
183 180 _l
183 135 189 106 201 94 _c
213 81 238 75 276 75 _c
368 75 _l
368 0 _l
276 0 _l
206 0 158 13 132 39 _c
106 65 93 112 93 180 _c
93 477 _l
27 477 _l
27 547 _l
93 547 _l
93 702 _l
183 702 _l
_cl}_d
/y{592 0 30 -207 562 547 _sc
322 -50 _m
296 -114 271 -157 247 -177 _c
223 -197 191 -207 151 -207 _c
79 -207 _l
79 -132 _l
132 -132 _l
156 -132 175 -126 189 -114 _c
203 -102 218 -75 235 -31 _c
251 9 _l
30 547 _l
125 547 _l
296 119 _l
467 547 _l
562 547 _l
322 -50 _l
_cl}_d
end readonly def

/BuildGlyph
 {exch begin
 CharStrings exch
 2 copy known not{pop /.notdef}if
 true 3 1 roll get exec
 end}_d

/BuildChar {
 1 index /Encoding get exch get
 1 index /BuildGlyph get exec
}_d

FontName currentdict end definefont pop
%!PS-Adobe-3.0 Resource-Font
%%Title: DejaVu Sans Oblique
%%Copyright: Copyright (c) 2003 by Bitstream, Inc. All Rights Reserved. Copyright (c) 2006 by Tavmjong Bah. All Rights Reserved. DejaVu changes are in public domain 
%%Creator: Converted from TrueType to type 3 by PPR
25 dict begin
/_d{bind def}bind def
/_m{moveto}_d
/_l{lineto}_d
/_cl{closepath eofill}_d
/_c{curveto}_d
/_sc{7 -1 roll{setcachedevice}{pop pop pop pop pop pop}ifelse}_d
/_e{exec}_d
/FontName /DejaVuSans-Oblique def
/PaintType 0 def
/FontMatrix[.001 0 0 .001 0 0]def
/FontBBox[-1016 -350 1659 1068]def
/FontType 3 def
/Encoding [ /tau ] def
/FontInfo 10 dict dup begin
/FamilyName (DejaVu Sans) def
/FullName (DejaVu Sans Oblique) def
/Notice (Copyright (c) 2003 by Bitstream, Inc. All Rights Reserved. Copyright (c) 2006 by Tavmjong Bah. All Rights Reserved. DejaVu changes are in public domain ) def
/Weight (Oblique) def
/Version (Version 2.35) def
/ItalicAngle -11.0 def
/isFixedPitch false def
/UnderlinePosition -130 def
/UnderlineThickness 90 def
end readonly def
/CharStrings 2 dict dup begin
/.notdef 0 def
/tau{602 0 84 0 606 547 _sc
329 100 _m
337 84 359 76 395 76 _c
438 76 _l
423 0 _l
369 0 _l
310 0 270 15 250 47 _c
229 79 226 129 240 198 _c
290 457 _l
84 457 _l
102 547 _l
606 547 _l
589 457 _l
382 457 _l
330 193 _l
320 145 320 114 329 100 _c
_cl}_d
end readonly def

/BuildGlyph
 {exch begin
 CharStrings exch
 2 copy known not{pop /.notdef}if
 true 3 1 roll get exec
 end}_d

/BuildChar {
 1 index /Encoding get exch get
 1 index /BuildGlyph get exec
}_d

FontName currentdict end definefont pop
end
%%EndProlog
mpldict begin
75.6 223.2 translate
460.8 345.6 0 0 clipbox
gsave
0 0 m
460.8 0 l
460.8 345.6 l
0 345.6 l
cl
1.000 setgray
fill
grestore
gsave
57.6 38.016 m
414.72 38.016 l
414.72 304.128 l
57.6 304.128 l
cl
1.000 setgray
fill
grestore
0.800 setlinewidth
1 setlinejoin
0 setlinecap
[] 0 setdash
0.000 setgray
gsave
/o {
gsave
newpath
translate
0.8 setlinewidth
1 setlinejoin
0 setlinecap
0 0 m
0 -3.5 l

gsave
0.000 setgray
fill
grestore
stroke
grestore
} bind def
57.2105 38.016 o
grestore
/DejaVuSans findfont
10.000 scalefont
setfont
gsave
49.257395 23.422250 translate
0.000000 rotate
0.000000 0.000000 m /zero glyphshow
6.362305 0.000000 m /period glyphshow
9.541016 0.000000 m /zero glyphshow
grestore
gsave
/o {
gsave
newpath
translate
0.8 setlinewidth
1 setlinejoin
0 setlinecap
0 0 m
0 -3.5 l

gsave
0.000 setgray
fill
grestore
stroke
grestore
} bind def
98.5865 38.016 o
grestore
gsave
90.633330 23.422250 translate
0.000000 rotate
0.000000 0.000000 m /two glyphshow
6.362305 0.000000 m /period glyphshow
9.541016 0.000000 m /five glyphshow
grestore
gsave
/o {
gsave
newpath
translate
0.8 setlinewidth
1 setlinejoin
0 setlinecap
0 0 m
0 -3.5 l

gsave
0.000 setgray
fill
grestore
stroke
grestore
} bind def
139.962 38.016 o
grestore
gsave
132.009264 23.422250 translate
0.000000 rotate
0.000000 0.000000 m /five glyphshow
6.362305 0.000000 m /period glyphshow
9.541016 0.000000 m /zero glyphshow
grestore
gsave
/o {
gsave
newpath
translate
0.8 setlinewidth
1 setlinejoin
0 setlinecap
0 0 m
0 -3.5 l

gsave
0.000 setgray
fill
grestore
stroke
grestore
} bind def
181.338 38.016 o
grestore
gsave
173.385199 23.422250 translate
0.000000 rotate
0.000000 0.000000 m /seven glyphshow
6.362305 0.000000 m /period glyphshow
9.541016 0.000000 m /five glyphshow
grestore
gsave
/o {
gsave
newpath
translate
0.8 setlinewidth
1 setlinejoin
0 setlinecap
0 0 m
0 -3.5 l

gsave
0.000 setgray
fill
grestore
stroke
grestore
} bind def
222.714 38.016 o
grestore
gsave
211.581445 23.422250 translate
0.000000 rotate
0.000000 0.000000 m /one glyphshow
6.362305 0.000000 m /zero glyphshow
12.724609 0.000000 m /period glyphshow
15.903320 0.000000 m /zero glyphshow
grestore
gsave
/o {
gsave
newpath
translate
0.8 setlinewidth
1 setlinejoin
0 setlinecap
0 0 m
0 -3.5 l

gsave
0.000 setgray
fill
grestore
stroke
grestore
} bind def
264.09 38.016 o
grestore
gsave
252.957380 23.422250 translate
0.000000 rotate
0.000000 0.000000 m /one glyphshow
6.362305 0.000000 m /two glyphshow
12.724609 0.000000 m /period glyphshow
15.903320 0.000000 m /five glyphshow
grestore
gsave
/o {
gsave
newpath
translate
0.8 setlinewidth
1 setlinejoin
0 setlinecap
0 0 m
0 -3.5 l

gsave
0.000 setgray
fill
grestore
stroke
grestore
} bind def
305.466 38.016 o
grestore
gsave
294.333314 23.422250 translate
0.000000 rotate
0.000000 0.000000 m /one glyphshow
6.362305 0.000000 m /five glyphshow
12.724609 0.000000 m /period glyphshow
15.903320 0.000000 m /zero glyphshow
grestore
gsave
/o {
gsave
newpath
translate
0.8 setlinewidth
1 setlinejoin
0 setlinecap
0 0 m
0 -3.5 l

gsave
0.000 setgray
fill
grestore
stroke
grestore
} bind def
346.842 38.016 o
grestore
gsave
335.709249 23.422250 translate
0.000000 rotate
0.000000 0.000000 m /one glyphshow
6.362305 0.000000 m /seven glyphshow
12.724609 0.000000 m /period glyphshow
15.903320 0.000000 m /five glyphshow
grestore
gsave
/o {
gsave
newpath
translate
0.8 setlinewidth
1 setlinejoin
0 setlinecap
0 0 m
0 -3.5 l

gsave
0.000 setgray
fill
grestore
stroke
grestore
} bind def
388.218 38.016 o
grestore
gsave
377.085183 23.422250 translate
0.000000 rotate
0.000000 0.000000 m /two glyphshow
6.362305 0.000000 m /zero glyphshow
12.724609 0.000000 m /period glyphshow
15.903320 0.000000 m /zero glyphshow
grestore
gsave
209.863125 9.750375 translate
0.000000 rotate
0.000000 0.000000 m /t glyphshow
3.920898 0.000000 m /i glyphshow
6.699219 0.000000 m /m glyphshow
16.440430 0.000000 m /e glyphshow
22.592773 0.000000 m /comma glyphshow
25.771484 0.000000 m /space glyphshow
28.950195 0.000000 m /d glyphshow
35.297852 0.000000 m /a glyphshow
41.425781 0.000000 m /y glyphshow
47.343750 0.000000 m /s glyphshow
grestore
gsave
/o {
gsave
newpath
translate
0.8 setlinewidth
1 setlinejoin
0 setlinecap
0 0 m
-3.5 0 l

gsave
0.000 setgray
fill
grestore
stroke
grestore
} bind def
57.6 43.2058 o
grestore
gsave
34.693750 39.408911 translate
0.000000 rotate
0.000000 0.000000 m /zero glyphshow
6.362305 0.000000 m /period glyphshow
9.541016 0.000000 m /zero glyphshow
grestore
gsave
/o {
gsave
newpath
translate
0.8 setlinewidth
1 setlinejoin
0 setlinecap
0 0 m
-3.5 0 l

gsave
0.000 setgray
fill
grestore
stroke
grestore
} bind def
57.6 76.1984 o
grestore
gsave
34.693750 72.401546 translate
0.000000 rotate
0.000000 0.000000 m /zero glyphshow
6.362305 0.000000 m /period glyphshow
9.541016 0.000000 m /two glyphshow
grestore
gsave
/o {
gsave
newpath
translate
0.8 setlinewidth
1 setlinejoin
0 setlinecap
0 0 m
-3.5 0 l

gsave
0.000 setgray
fill
grestore
stroke
grestore
} bind def
57.6 109.191 o
grestore
gsave
34.693750 105.394181 translate
0.000000 rotate
0.000000 0.000000 m /zero glyphshow
6.362305 0.000000 m /period glyphshow
9.541016 0.000000 m /four glyphshow
grestore
gsave
/o {
gsave
newpath
translate
0.8 setlinewidth
1 setlinejoin
0 setlinecap
0 0 m
-3.5 0 l

gsave
0.000 setgray
fill
grestore
stroke
grestore
} bind def
57.6 142.184 o
grestore
gsave
34.693750 138.386815 translate
0.000000 rotate
0.000000 0.000000 m /zero glyphshow
6.362305 0.000000 m /period glyphshow
9.541016 0.000000 m /six glyphshow
grestore
gsave
/o {
gsave
newpath
translate
0.8 setlinewidth
1 setlinejoin
0 setlinecap
0 0 m
-3.5 0 l

gsave
0.000 setgray
fill
grestore
stroke
grestore
} bind def
57.6 175.176 o
grestore
gsave
34.693750 171.379450 translate
0.000000 rotate
0.000000 0.000000 m /zero glyphshow
6.362305 0.000000 m /period glyphshow
9.541016 0.000000 m /eight glyphshow
grestore
gsave
/o {
gsave
newpath
translate
0.8 setlinewidth
1 setlinejoin
0 setlinecap
0 0 m
-3.5 0 l

gsave
0.000 setgray
fill
grestore
stroke
grestore
} bind def
57.6 208.169 o
grestore
gsave
34.693750 204.372085 translate
0.000000 rotate
0.000000 0.000000 m /one glyphshow
6.362305 0.000000 m /period glyphshow
9.541016 0.000000 m /zero glyphshow
grestore
gsave
/o {
gsave
newpath
translate
0.8 setlinewidth
1 setlinejoin
0 setlinecap
0 0 m
-3.5 0 l

gsave
0.000 setgray
fill
grestore
stroke
grestore
} bind def
57.6 241.162 o
grestore
gsave
34.693750 237.364719 translate
0.000000 rotate
0.000000 0.000000 m /one glyphshow
6.362305 0.000000 m /period glyphshow
9.541016 0.000000 m /two glyphshow
grestore
gsave
/o {
gsave
newpath
translate
0.8 setlinewidth
1 setlinejoin
0 setlinecap
0 0 m
-3.5 0 l

gsave
0.000 setgray
fill
grestore
stroke
grestore
} bind def
57.6 274.154 o
grestore
gsave
34.693750 270.357354 translate
0.000000 rotate
0.000000 0.000000 m /one glyphshow
6.362305 0.000000 m /period glyphshow
9.541016 0.000000 m /four glyphshow
grestore
gsave
28.615625 167.572000 translate
90.000000 rotate
/DejaVuSans-Oblique findfont
10.0 scalefont
setfont
0.000000 0.531250 moveto
/tau glyphshow


grestore
1.500 setlinewidth
2 setlinecap
0.000 0.750 0.750 setrgbcolor
gsave
357.1 266.1 57.6 38.02 clipbox
73.832727 130.438404 m
74.062977 137.751281 l
74.293226 131.392833 l
74.638792 121.821547 l
74.984549 116.637936 l
75.330115 112.194071 l
75.445431 111.666043 l
75.676063 101.357084 l
75.906121 106.069823 l
76.021438 105.447158 l
76.136562 104.662549 l
76.712186 107.605664 l
76.827311 107.860483 l
77.288001 104.482427 l
77.518633 105.609076 l
77.864391 107.024956 l
78.09464 107.184272 l
78.209765 107.028082 l
78.555139 104.052443 l
78.900513 101.351156 l
79.130954 99.549269 l
79.706386 89.448765 l
80.166693 87.624274 l
80.51245 85.84351 l
81.894138 82.653636 l
82.124771 82.811164 l
82.815902 83.854332 l
83.737283 85.68954 l
83.967533 85.410228 l
84.543539 84.173635 l
85.349604 82.498093 l
86.040543 81.236419 l
87.538314 79.075774 l
88.229828 78.81694 l
90.87808 78.39716 l
92.030476 78.540378 l
92.836732 78.692144 l
93.067556 78.891437 l
93.988746 80.35429 l
94.795385 81.851292 l
95.025634 81.671868 l
96.52283 79.887217 l
96.637955 79.897907 l
96.983137 81.06427 l
98.019643 86.083841 l
98.595458 89.20368 l
98.710583 89.432507 l
99.055957 91.188878 l
99.286781 91.962643 l
99.632155 94.415006 l
99.862596 101.253946 l
99.978104 100.352435 l
100.093228 99.30891 l
100.323669 122.115345 l
100.553919 99.701401 l
100.784551 90.855681 l
101.014801 88.824497 l
101.129925 88.330131 l
101.24505 88.542362 l
101.475683 93.336807 l
101.821057 105.534021 l
102.627121 139.986559 l
102.857562 130.625321 l
103.203128 152.620816 l
103.433569 136.613757 l
104.009575 124.300985 l
104.1247 124.410653 l
104.239825 125.018019 l
104.470074 120.326365 l
104.81564 134.574892 l
105.161014 125.021281 l
105.50658 146.62101 l
105.621896 144.279103 l
105.967462 128.08429 l
106.543085 118.797794 l
106.773526 119.028741 l
107.003584 115.405048 l
107.233833 109.737919 l
107.464083 110.632847 l
107.80984 99.572757 l
108.270339 94.515493 l
108.615905 91.37013 l
108.731029 91.329617 l
109.076403 92.124354 l
109.537285 94.076069 l
109.883043 91.494499 l
110.228608 87.906585 l
110.458858 85.689071 l
110.689299 88.276429 l
110.919548 92.466151 l
111.495172 83.974655 l
111.725613 83.765405 l
111.840737 83.610474 l
112.302002 80.777266 l
112.532252 84.032182 l
112.647376 84.141897 l
112.762693 84.516164 l
113.223383 88.948949 l
114.030214 78.651796 l
114.145338 79.794038 l
114.605837 108.582602 l
114.836087 268.150902 l
114.951403 266.174201 l
115.066528 249.64314 l
115.296969 264.669861 l
115.872975 244.734031 l
116.333666 233.300929 l
116.679423 221.6674 l
117.02518 202.903459 l
118.40706 102.262102 l
118.752817 93.487201 l
119.098574 89.940023 l
119.789322 85.68579 l
120.365329 83.61082 l
120.595578 82.994833 l
121.171777 79.834965 l
121.517151 79.287294 l
122.208091 77.362239 l
122.43834 77.04499 l
122.668973 77.255314 l
123.244788 78.357436 l
123.935727 80.334022 l
124.396609 81.691202 l
124.741983 82.081599 l
125.087741 81.972056 l
125.202865 81.932152 l
125.54824 82.290373 l
126.124246 83.059033 l
126.46962 84.795493 l
127.160752 89.814071 l
127.736375 94.552964 l
128.542631 101.994428 l
128.657947 102.220075 l
128.773264 102.114104 l
128.888388 102.498028 l
129.464204 118.409245 l
129.694645 110.52466 l
129.925277 107.415211 l
130.501092 104.769621 l
130.731342 104.548259 l
130.846466 104.716126 l
130.961974 105.135058 l
131.07729 104.665595 l
131.192415 104.761205 l
131.537981 118.667383 l
131.653105 118.174287 l
132.574869 90.764914 l
132.689994 91.321925 l
133.266001 97.699268 l
133.496442 97.590683 l
134.417822 105.658184 l
134.763196 101.625525 l
135.339203 95.473233 l
135.454328 95.416335 l
135.914827 96.571846 l
136.260584 97.684346 l
136.375709 97.610783 l
136.721274 97.094433 l
137.182156 100.030272 l
137.642847 96.437114 l
137.873096 98.944431 l
138.333786 104.697848 l
138.794285 108.477185 l
139.024726 109.872613 l
139.94649 120.265468 l
140.176931 129.982907 l
140.522497 145.149991 l
140.637621 143.531928 l
140.753129 144.453087 l
140.868254 143.59374 l
141.21382 119.394858 l
141.328944 130.223299 l
142.250708 87.916531 l
142.711399 76.037433 l
142.941648 75.221535 l
143.056773 75.174523 l
143.287022 75.75514 l
143.632588 77.298338 l
144.208594 73.322278 l
144.439035 72.64595 l
144.553969 72.659575 l
144.899726 76.132288 l
145.475541 82.55704 l
145.590857 82.660039 l
145.936423 81.8794 l
146.627363 83.445765 l
146.857612 82.662333 l
147.318302 80.539141 l
147.54836 81.158037 l
147.778801 82.149834 l
148.009051 81.808492 l
148.239492 81.382223 l
148.700182 87.586895 l
149.276572 79.396076 l
150.197952 69.959365 l
150.54371 70.141217 l
152.156222 66.928113 l
152.616912 67.100894 l
153.538868 67.820602 l
153.999558 68.156873 l
155.036447 68.526563 l
155.497137 68.603187 l
155.727769 68.457805 l
156.303968 67.542323 l
157.340473 65.272718 l
159.06811 60.55762 l
159.759241 58.342532 l
160.450373 56.431251 l
160.911063 55.747056 l
161.602003 55.136494 l
161.947377 54.600157 l
162.062502 54.653945 l
162.754208 59.419989 l
163.560081 61.121494 l
163.905646 61.592738 l
164.481844 64.267746 l
165.058043 67.329324 l
166.55543 76.494996 l
166.670555 76.629729 l
166.900996 76.06793 l
167.246753 74.631574 l
167.592319 73.039016 l
167.707443 73.202823 l
168.628633 76.112305 l
168.859074 76.062208 l
169.204639 75.948749 l
169.434697 75.746496 l
170.010704 74.332461 l
170.586327 72.986698 l
171.27765 71.687456 l
172.313964 67.779277 l
172.890162 67.228505 l
173.350661 66.829822 l
173.926476 66.365168 l
174.156917 66.325312 l
174.732541 66.581219 l
175.423289 67.180344 l
176.80536 68.907391 l
177.726741 70.479011 l
178.648505 72.586408 l
179.80071 75.748482 l
180.2614 77.254589 l
180.491649 78.075222 l
180.721899 77.836032 l
180.952148 77.609087 l
181.182589 78.212255 l
181.528155 79.662454 l
181.873912 82.054634 l
182.10397 85.470313 l
182.334411 92.634817 l
182.565235 91.255423 l
182.795676 116.949265 l
182.910992 105.833573 l
183.026308 69.49224 l
183.141242 89.666526 l
183.256558 215.035166 l
183.486807 127.618682 l
183.717248 112.870736 l
184.062814 87.414172 l
184.293063 94.878334 l
184.407996 99.277341 l
184.638821 117.266365 l
184.869262 89.569888 l
185.099511 88.257695 l
185.329952 87.788092 l
185.675518 82.262548 l
185.790642 81.632262 l
186.021083 79.453754 l
186.597281 85.040209 l
186.712598 84.959541 l
186.943039 83.889489 l
187.404112 78.43593 l
187.865186 71.554797 l
187.98031 71.323463 l
188.095244 71.383471 l
188.325876 71.936264 l
189.017007 70.268868 l
189.823455 69.871437 l
190.399462 70.344638 l
190.745027 70.6236 l
191.666217 70.889216 l
192.818421 71.590548 l
194.431891 72.225486 l
196.736109 73.732629 l
198.348621 74.407707 l
198.463746 74.4688 l
198.80912 73.86715 l
198.924437 74.11055 l
199.039753 73.429843 l
199.155069 70.261675 l
199.270385 96.808815 l
199.385127 70.465244 l
199.615568 76.223554 l
199.846009 74.330467 l
199.961134 74.403122 l
200.306508 75.038833 l
200.997256 74.809756 l
201.919211 74.420094 l
202.495026 74.033424 l
203.416407 73.670033 l
203.531532 73.744927 l
203.877481 74.747963 l
204.683737 78.148725 l
205.375443 81.616174 l
206.98853 90.622048 l
207.679278 92.404762 l
207.909719 92.848522 l
208.024843 92.924225 l
208.139968 92.646436 l
208.715783 84.755957 l
209.061157 80.705341 l
209.176282 80.57117 l
209.522039 81.192292 l
209.982921 82.752775 l
210.213362 81.288744 l
210.558928 78.102024 l
210.904494 74.288001 l
211.020001 74.247667 l
211.941574 76.567108 l
212.74783 76.952784 l
213.093204 76.16629 l
214.014776 73.966079 l
214.705716 72.872269 l
215.282106 72.627741 l
216.434119 72.548432 l
217.009934 72.933742 l
217.355691 73.2532 l
218.046823 74.663922 l
218.392388 75.223587 l
219.659909 75.576506 l
220.120791 76.168319 l
220.466166 77.102464 l
220.58129 77.466986 l
221.042172 75.989441 l
221.272613 82.99724 l
221.502863 93.280049 l
221.733304 87.657509 l
222.078869 82.364147 l
222.194185 82.48807 l
222.424626 87.495112 l
222.885508 85.15555 l
223.115758 88.971644 l
223.346007 94.111145 l
223.806698 85.442833 l
223.921822 85.934399 l
224.382704 89.917675 l
224.498212 90.399254 l
224.728653 93.950181 l
224.843969 89.509875 l
224.959286 94.196099 l
225.189726 92.422426 l
225.535292 93.002472 l
225.765733 93.018039 l
226.111682 92.638924 l
226.457248 92.164077 l
226.687497 91.358492 l
227.37882 88.099561 l
227.493945 87.832458 l
227.609069 87.894301 l
227.954635 88.723318 l
228.530259 90.362947 l
229.337089 92.784669 l
229.567722 92.053689 l
230.028604 90.090544 l
230.258662 89.115008 l
230.489103 89.803406 l
230.719544 90.658296 l
230.949793 90.213053 l
231.29555 89.322872 l
231.641116 88.433871 l
231.871557 88.384259 l
232.217122 86.30413 l
232.563071 85.308347 l
233.02357 83.898868 l
233.254011 84.295969 l
233.599768 85.139238 l
233.830209 85.461833 l
233.945717 85.730451 l
234.521724 89.508136 l
234.752548 91.250397 l
234.867481 90.60894 l
234.982797 89.176732 l
235.21343 81.749794 l
235.328554 87.049841 l
235.444062 50.112 l
235.559187 93.691797 l
235.674312 86.250161 l
235.904561 89.636522 l
236.019877 88.297083 l
236.135002 88.627194 l
236.250318 88.143365 l
236.595692 92.769284 l
236.711009 93.196256 l
236.941258 94.535943 l
237.40214 81.541531 l
237.517265 80.742167 l
237.632389 80.906742 l
237.747706 80.707018 l
237.863022 80.817415 l
238.669278 85.156023 l
239.475534 83.660495 l
239.936416 79.431178 l
240.166857 81.167394 l
240.397106 83.138993 l
240.512231 82.794818 l
241.31887 77.335408 l
241.433995 77.534741 l
242.240826 81.380403 l
243.162398 71.743419 l
243.392839 74.476612 l
243.738405 81.61172 l
244.084162 92.576827 l
244.199478 92.285751 l
244.659977 87.303306 l
244.775102 87.071601 l
245.005351 86.044291 l
245.235601 87.814949 l
245.46585 92.634786 l
245.696674 84.50826 l
245.927307 95.77753 l
246.272872 92.107233 l
246.503313 91.690285 l
246.848879 91.931072 l
247.07932 94.202834 l
247.309761 97.38872 l
247.770643 107.630876 l
248.000892 109.902703 l
248.116017 105.941643 l
248.231333 93.950228 l
248.461774 104.992098 l
248.692215 96.147509 l
248.80734 100.579575 l
249.037781 120.501541 l
249.268222 162.741547 l
249.729104 266.7448 l
249.844611 266.390543 l
249.959736 264.233244 l
250.190369 255.963211 l
250.305685 253.126224 l
250.536317 240.258565 l
250.651634 242.246494 l
250.997199 253.047683 l
251.112516 252.821096 l
251.919155 243.373618 l
252.264912 234.713059 l
252.610669 219.052475 l
253.187059 179.177334 l
253.993315 107.980149 l
254.685213 90.276455 l
254.915654 96.538835 l
255.261219 112.910274 l
255.376536 113.323523 l
255.49166 114.987405 l
255.606977 113.288527 l
255.952542 86.474961 l
256.183175 80.219361 l
256.990005 74.125932 l
257.566204 71.409073 l
258.142402 69.903776 l
258.603475 68.904965 l
258.833916 68.484758 l
259.064357 68.844716 l
259.756063 70.651463 l
261.139475 76.778791 l
261.369916 75.927292 l
261.830798 73.247983 l
262.061048 71.908217 l
262.176364 71.974534 l
262.637437 72.807991 l
262.86807 72.640193 l
262.983195 72.624604 l
263.444077 73.451271 l
264.366032 75.061334 l
264.942805 76.511374 l
265.288371 76.198316 l
266.44115 78.347812 l
267.248172 78.994555 l
268.055003 80.433789 l
268.631201 80.867732 l
268.97715 81.082911 l
269.438223 80.413048 l
269.899105 79.598976 l
270.244671 80.550831 l
270.359796 80.697471 l
270.590237 85.893623 l
270.820869 83.456695 l
271.05131 82.516417 l
271.858141 75.913404 l
272.434722 75.86518 l
272.665163 75.858798 l
273.587693 71.866214 l
273.933451 73.481873 l
274.163892 75.307393 l
274.510032 78.506722 l
274.970914 70.020964 l
275.086039 70.097606 l
275.431987 71.749104 l
276.008186 70.397205 l
276.353943 70.715617 l
278.083687 69.800359 l
278.890134 69.673397 l
280.158038 69.631684 l
280.273163 69.096628 l
281.079802 69.07817 l
281.195119 68.140889 l
281.310435 69.71546 l
284.076876 69.675255 l
284.760728 69.634085 l
285.792636 69.067199 l
286.368643 68.684943 l
286.714209 68.59445 l
286.94465 67.711584 l
287.17509 71.579599 l
287.40534 68.559481 l
287.520656 68.512415 l
287.635781 68.917298 l
287.866413 68.833809 l
288.557545 68.060875 l
289.133743 67.509883 l
289.4795 67.101673 l
290.055698 66.637689 l
290.171015 66.687078 l
290.51658 67.976189 l
291.323411 72.411394 l
292.360683 78.41838 l
293.282255 81.590795 l
294.20421 85.709414 l
295.356607 91.664135 l
295.932997 93.796444 l
296.39407 94.857106 l
296.62432 91.558873 l
296.85476 95.560405 l
297.200518 95.730377 l
297.430959 95.428649 l
297.546083 94.985509 l
299.274486 81.035016 l
299.619861 79.769137 l
300.3108 78.19907 l
301.232756 76.484921 l
303.306724 73.395252 l
303.536974 70.887426 l
303.652099 75.871799 l
303.767415 71.00033 l
303.882731 71.687674 l
304.228297 71.111339 l
305.726067 68.608975 l
306.301882 68.055001 l
306.762764 67.839399 l
307.223455 67.889313 l
308.145219 68.534941 l
308.490784 68.605145 l
308.606101 68.829497 l
309.182107 73.830311 l
309.297232 73.329309 l
309.527673 74.470972 l
309.758114 77.424468 l
310.449437 106.596702 l
310.564753 105.910905 l
311.025635 96.54406 l
311.140951 96.24151 l
311.486517 93.040806 l
311.716766 90.718422 l
311.831891 89.949148 l
312.177648 86.320548 l
312.292964 85.931369 l
312.523405 83.065419 l
312.63853 84.704077 l
312.753846 143.362539 l
312.86878 84.291185 l
312.983904 83.832153 l
313.444786 78.330549 l
313.675227 77.131791 l
313.905668 77.196418 l
314.136109 73.602821 l
314.251617 73.697782 l
314.482058 74.297313 l
314.712499 74.457811 l
314.827815 74.372096 l
315.173572 75.277392 l
315.634646 77.784863 l
315.749962 76.618045 l
315.865278 83.88809 l
316.095528 77.812368 l
316.325777 73.102698 l
316.556218 70.99736 l
316.901784 68.208742 l
317.132225 68.795302 l
317.247541 68.65996 l
317.593107 67.884646 l
317.823548 68.751072 l
318.169113 68.63944 l
318.745503 69.037637 l
319.321701 71.8268 l
319.667267 73.428998 l
319.897708 72.901761 l
320.013024 72.150983 l
320.128149 69.900202 l
320.243465 77.863221 l
320.358781 67.757635 l
320.473906 68.821227 l
320.589222 68.724803 l
320.819663 67.950859 l
320.934788 67.942472 l
321.049913 68.812689 l
321.280545 74.003241 l
321.626111 134.97644 l
321.741236 256.501935 l
322.087184 84.325396 l
322.202309 78.750386 l
322.43275 80.150043 l
322.548066 96.112822 l
322.663191 83.370813 l
322.778507 84.861325 l
322.893824 82.842532 l
323.470022 88.686811 l
323.700463 94.140144 l
323.815779 97.703172 l
324.046028 95.5768 l
324.276469 106.896427 l
324.391594 106.052311 l
324.506719 104.026733 l
324.73716 104.768924 l
325.198233 95.204406 l
325.428674 110.875586 l
325.659115 126.857139 l
326.004681 81.122819 l
326.235122 74.542383 l
326.580879 74.997043 l
327.041761 67.99991 l
327.157077 67.877168 l
328.079033 69.88079 l
328.424598 70.041016 l
328.88548 71.064396 l
329.231238 72.862189 l
329.346362 73.517229 l
329.807244 70.944985 l
330.383634 90.599119 l
330.7292 96.022904 l
330.959832 74.670462 l
331.651155 63.582285 l
331.766471 63.978005 l
332.227162 68.233156 l
332.572919 72.62352 l
332.688044 72.585334 l
333.148926 70.827486 l
333.494683 70.306199 l
333.840249 72.454614 l
334.416255 76.242494 l
335.107578 78.729193 l
335.453335 79.515273 l
335.684159 79.556856 l
335.799284 79.849607 l
336.145041 79.651411 l
336.260166 79.530454 l
336.375674 77.738896 l
336.490799 78.590008 l
336.72124 78.377316 l
336.836556 78.466691 l
337.297246 77.725924 l
337.988569 76.24046 l
338.103885 76.106861 l
338.334326 76.392919 l
338.679892 77.21 l
339.948179 81.104215 l
340.293937 85.151682 l
341.79209 107.740798 l
341.907406 107.626079 l
342.13823 106.06412 l
342.483988 100.895149 l
342.945061 93.888467 l
344.558914 72.918864 l
345.020179 67.328417 l
345.365936 65.624322 l
345.711694 64.982864 l
345.942326 65.001932 l
346.172959 65.336729 l
346.864282 67.096939 l
347.555413 69.23943 l
348.016486 70.22139 l
349.1685 72.908858 l
349.398941 76.771968 l
349.629382 75.296241 l
350.090455 88.81992 l
350.20558 88.56051 l
350.896903 83.189613 l
351.012028 82.874535 l
351.242277 87.193837 l
351.472718 93.021269 l
351.9336 80.04712 l
352.048725 79.811469 l
352.394482 80.515316 l
352.855364 78.846571 l
353.085805 79.330785 l
353.777128 81.904216 l
354.238201 89.282925 l
354.468642 103.441041 l
354.58415 103.348273 l
354.699275 101.65227 l
354.929716 103.900632 l
355.620655 97.826703 l
355.851096 91.555004 l
356.081729 86.915677 l
356.196854 86.798509 l
356.311978 87.090583 l
356.542802 84.12996 l
357.119192 91.452774 l
357.580074 98.382298 l
357.92564 102.643059 l
358.156464 112.12319 l
358.386713 140.644635 l
358.617346 104.450934 l
358.73247 103.532061 l
358.847595 105.149798 l
359.078036 119.535732 l
359.42341 98.714029 l
359.538726 109.936253 l
359.769167 94.054162 l
359.999417 100.177569 l
360.114542 98.661475 l
360.344983 101.659718 l
360.575807 103.420925 l
361.036497 108.867101 l
361.152005 112.086269 l
361.267129 108.197239 l
361.49757 117.008893 l
361.843328 120.670228 l
362.188893 124.280947 l
362.30421 125.976632 l
362.534459 138.253535 l
362.649775 137.848518 l
362.995533 131.659264 l
363.225974 131.170727 l
363.802172 123.895347 l
363.917488 121.0958 l
364.263437 107.354896 l
364.378561 105.591578 l
364.609002 91.482636 l
364.839443 101.927623 l
365.415642 90.162481 l
365.530958 88.744975 l
365.646083 84.804169 l
365.761399 85.134708 l
365.876524 84.253858 l
365.991648 84.858954 l
366.222089 82.18331 l
366.337405 91.087232 l
366.683163 85.793377 l
366.913795 86.755735 l
367.259552 85.52426 l
367.374486 85.367762 l
367.720434 84.520724 l
367.835751 84.409763 l
368.066 83.778249 l
368.526882 74.298281 l
368.642007 74.135294 l
369.103272 75.22376 l
369.218588 75.387278 l
369.448837 75.945116 l
369.910102 72.326766 l
370.025036 72.622051 l
370.946608 78.064912 l
371.292557 82.424314 l
371.407873 82.331752 l
371.98388 79.725887 l
372.214512 79.138427 l
372.675011 76.928411 l
373.135893 80.257724 l
373.366334 83.32034 l
374.058231 98.758056 l
374.173356 98.531253 l
374.63443 92.635515 l
374.749937 90.605508 l
374.865062 91.824071 l
374.980378 91.749802 l
375.210819 90.666512 l
375.44126 88.561604 l
375.671701 99.88526 l
376.01765 93.422195 l
376.248091 106.285649 l
376.363407 119.407976 l
376.593848 82.270363 l
376.709165 89.149449 l
377.170047 171.2803 l
377.285363 167.465863 l
377.630928 94.091828 l
377.861561 84.878364 l
378.32206 75.293994 l
378.437185 75.123882 l
378.782942 73.080933 l
378.898066 72.555411 l
379.244015 68.941763 l
379.474456 68.185748 l
380.511536 64.192601 l
380.857485 63.988126 l
381.4333 64.042711 l
382.00969 64.674149 l
382.355447 65.104267 l
382.816138 64.520996 l
383.276828 64.009562 l
383.622777 64.895716 l
384.199166 66.32328 l
386.503193 69.739524 l
386.733634 69.54374 l
386.964075 69.270837 l
387.655781 69.658146 l
387.886222 69.574585 l
388.231979 68.755633 l
389.730324 64.648983 l
390.075699 64.287451 l
390.651514 64.068044 l
390.997079 64.635021 l
391.457961 65.873909 l
391.573086 66.155995 l
391.803527 65.911297 l
392.264217 65.103304 l
392.49485 64.734934 l
392.95554 65.909001 l
393.18579 67.0153 l
393.416231 68.20356 l
394.107937 62.913654 l
394.338569 62.357232 l
394.568818 63.241344 l
395.375649 67.265237 l
395.490774 67.216168 l
395.951464 67.140191 l
396.181905 67.207399 l
396.527854 68.294496 l
398.026199 74.401925 l
398.371956 77.90513 l
398.487273 79.679263 l
398.487273 79.679263 l
stroke
grestore
0.627 0.314 0.314 setrgbcolor
gsave
357.1 266.1 57.6 38.02 clipbox
73.832727 164.728657 m
74.178101 201.066467 l
74.293226 203.545789 l
74.408542 203.465815 l
74.523667 202.931623 l
74.984549 225.529381 l
75.100057 226.667955 l
75.215182 226.339897 l
75.445431 234.066511 l
75.676063 206.259938 l
75.906121 245.692732 l
76.367003 223.007281 l
76.942435 208.953662 l
77.864391 180.424073 l
77.979515 180.40154 l
78.900513 159.846619 l
80.857825 129.601744 l
81.663889 121.107444 l
82.009455 119.200032 l
82.240087 119.090148 l
82.700778 119.363156 l
83.737283 120.618529 l
83.967533 120.320853 l
86.271176 116.154308 l
86.732058 114.830903 l
87.999387 111.933243 l
88.460269 111.003222 l
88.575394 109.950578 l
88.690519 112.92768 l
88.805644 109.725591 l
89.036085 110.32352 l
89.266334 109.48597 l
89.496583 112.123217 l
89.727024 110.341391 l
90.302456 112.772545 l
92.145601 116.957743 l
92.491358 116.867856 l
92.836732 116.662624 l
93.413122 115.944048 l
93.758305 115.481504 l
93.873621 115.443378 l
93.988746 115.15103 l
94.10387 114.464161 l
94.219187 117.124643 l
94.334311 114.448054 l
94.680068 116.961285 l
94.795385 117.30502 l
95.14095 113.772127 l
95.255884 113.696402 l
95.486325 108.797461 l
95.716574 122.096161 l
96.177264 114.007117 l
96.407514 113.592904 l
96.637955 113.375731 l
96.868013 114.783915 l
98.940832 135.114416 l
99.171464 136.476234 l
99.402097 139.976732 l
99.517222 139.454507 l
99.632155 144.594959 l
99.862596 168.04919 l
100.093228 157.9302 l
100.323669 194.872839 l
100.553919 167.862587 l
100.899676 139.750904 l
101.24505 129.628143 l
101.475683 138.523879 l
102.39668 193.429037 l
102.742437 215.144349 l
102.857562 218.034069 l
103.088003 251.893049 l
103.203128 246.602781 l
103.663818 214.336273 l
104.1247 196.419013 l
104.354758 195.521332 l
104.470074 195.872475 l
104.81564 202.408675 l
119.559073 208.499835 m
119.674198 210.71759 l
120.595578 182.561051 l
121.171777 172.755384 l
121.97765 161.183323 l
122.092774 161.792403 l
123.590353 143.527392 l
124.511734 137.081365 l
125.087741 134.348179 l
126.009121 131.41139 l
126.124246 131.371398 l
126.354496 132.332691 l
126.815378 135.402964 l
127.62125 143.060707 l
127.736375 144.431583 l
127.966625 151.956306 l
128.311999 153.648423 l
128.542631 154.04997 l
128.657947 154.100482 l
128.773264 153.95297 l
128.888388 153.986777 l
129.349079 158.591793 l
129.464204 158.418404 l
129.925277 156.46064 l
130.271034 155.847222 l
130.731342 152.910613 l
130.961974 155.060682 l
131.192415 153.696436 l
131.422856 172.28039 l
131.537981 170.952499 l
131.883546 150.354363 l
132.113987 135.320194 l
132.229112 134.935174 l
132.574869 128.560698 l
132.80531 134.156479 l
133.03556 142.769088 l
133.381317 131.45137 l
133.496442 126.265566 l
133.726691 134.073313 l
134.187573 148.322189 l
134.302698 144.080108 l
134.417822 145.281146 l
134.648072 141.606821 l
135.339203 130.667591 l
135.454328 130.644191 l
135.799702 132.092676 l
136.260584 135.55032 l
136.490833 133.704877 l
136.721274 131.591928 l
137.067031 139.591924 l
137.182156 142.107255 l
137.297089 139.725418 l
137.642847 125.354529 l
137.873096 134.709277 l
138.21847 150.179298 l
138.564036 156.538738 l
139.716049 182.831692 l
140.407372 203.805877 l
140.753129 219.211888 l
140.868254 221.728575 l
141.098695 234.543978 l
142.480766 170.991656 m
142.711399 163.485137 l
142.941648 168.612389 l
143.632588 184.783504 l
143.747904 183.931174 l
144.553969 173.249372 l
144.899726 156.000463 l
145.01485 154.451287 l
145.475541 134.998274 l
145.590857 134.94124 l
146.281988 137.760954 l
146.397113 137.571097 l
147.318302 116.887284 l
147.433427 117.436649 l
147.893926 121.907326 l
148.124175 122.300986 l
148.239492 122.378082 l
148.700182 125.839563 l
148.815498 116.834755 l
148.930814 117.096547 l
149.507013 102.124876 l
150.082636 90.981473 l
150.428585 88.884882 l
151.234841 84.886537 l
151.810848 81.729451 l
152.041097 81.257973 l
152.271347 81.468242 l
152.963053 82.833931 l
153.653801 84.867793 l
153.884433 85.329288 l
155.497137 86.181784 l
155.612453 86.336097 l
155.958019 87.743831 l
157.110032 94.227169 l
157.455598 96.057943 l
157.570723 95.921156 l
157.916288 94.38797 l
158.492295 90.973732 l
159.298551 86.064619 l
159.413867 86.052903 l
159.759241 86.895328 l
160.565689 89.872601 l
160.681005 90.170428 l
161.026379 89.540231 l
161.141504 89.826375 l
161.371753 97.30911 l
161.717128 108.897087 l
162.062502 105.248074 l
162.408259 117.001948 l
162.6387 123.265381 l
163.329831 130.867764 l
163.444956 131.054647 l
163.675205 132.31276 l
163.790522 131.69664 l
163.905646 128.675481 l
164.25102 107.517549 l
164.712285 94.609039 l
164.827602 93.197132 l
164.942726 93.221247 l
165.4038 95.687097 l
165.749366 97.867034 l
166.325181 102.574812 l
166.670555 103.395151 l
167.016312 101.634536 l
167.592319 97.617239 l
167.822568 98.681944 l
168.628633 103.592483 l
168.859074 103.766063 l
168.974007 103.704006 l
169.204639 103.807562 l
169.319764 103.683524 l
169.434697 103.328363 l
171.5079 87.734944 l
172.544405 81.878686 l
173.120603 79.446811 l
173.350661 79.24123 l
173.696035 79.273191 l
174.272042 79.684615 l
174.617416 80.016438 l
175.077723 80.852561 l
175.768663 82.997706 l
176.690235 86.752998 l
177.381367 90.48566 l
178.072307 94.041859 l
179.339636 99.865121 l
179.80071 102.617634 l
180.606774 107.681148 l
181.297714 108.199581 l
181.412839 108.570296 l
181.643471 112.111152 l
182.219286 128.176233 l
182.449727 144.220814 l
182.565235 128.953735 l
182.795676 149.479814 l
182.910992 158.844386 l
183.026308 92.036234 l
183.141242 111.736661 l
183.371683 194.134967 m
183.486807 171.905612 l
183.717248 208.558904 l
183.947689 176.028554 l
184.062814 119.463727 l
184.177939 139.049673 l
184.293063 135.140618 l
184.407996 142.336553 l
184.638821 161.382236 l
184.984386 136.160692 l
185.099511 135.177319 l
185.560201 120.344798 l
185.905959 118.188715 l
186.021083 116.419811 l
186.251716 121.325373 l
186.482157 107.56582 l
186.597281 108.183512 l
186.712598 110.009357 l
187.519428 97.234062 l
187.749869 93.486621 l
187.865186 92.665212 l
188.095244 93.705324 l
188.325876 95.513776 l
188.786375 87.296588 l
188.9015 87.302932 l
189.362573 88.768971 l
189.477698 88.77366 l
190.053896 89.358848 l
190.284337 89.64188 l
190.860152 90.461153 l
191.666217 91.358027 l
192.587789 92.912562 l
193.510127 93.324407 l
194.547016 93.893144 l
196.736109 96.095105 l
198.693804 97.690406 l
199.039753 97.986355 l
199.155069 97.875869 l
199.270385 98.856061 l
199.385127 98.105384 l
199.615568 98.61782 l
200.076258 98.826299 l
201.919211 98.946635 l
202.495026 98.692576 l
203.416407 98.539114 l
203.531532 98.659486 l
203.877481 99.974849 l
204.913986 105.570701 l
205.490567 109.470143 l
206.066574 113.921232 l
206.642964 118.572741 l
207.103654 120.403615 l
207.333904 120.609717 l
207.564153 120.201029 l
208.024843 118.282766 l
208.139968 117.452322 l
208.255093 118.126725 l
209.291598 105.164113 l
210.443612 96.511684 l
210.904494 93.883701 l
211.020001 93.863725 l
211.365759 94.535316 l
211.826257 95.631175 l
212.74783 98.205523 l
212.978079 97.20944 l
214.014776 92.05511 l
214.821032 89.501929 l
215.397422 88.510335 l
216.088745 87.854438 l
216.434119 87.854466 l
216.779685 88.572984 l
217.816573 91.7239 l
218.737763 95.662923 l
219.198644 97.821771 l
219.314152 97.795278 l
219.659909 97.461363 l
220.120791 101.715428 l
220.235916 101.668798 l
220.466166 101.192111 l
220.58129 100.932899 l
221.042172 97.004039 l
221.272613 105.500244 l
221.502863 116.864316 l
221.733304 110.035846 l
221.963553 102.913829 l
222.078869 104.907231 l
222.194185 103.040641 l
222.424626 108.339127 l
222.539943 107.021018 l
222.655067 108.137941 l
222.770192 108.14398 l
222.885508 108.733844 l
223.346007 121.309958 l
223.461132 119.474309 l
223.806698 111.685712 l
223.921822 112.056671 l
224.267388 116.578663 l
224.613337 124.512937 l
224.728653 129.423254 l
224.843969 121.799125 l
224.959286 126.518622 l
225.189726 124.987161 l
225.535292 125.126147 l
225.765733 125.643643 l
226.341931 127.274953 l
226.457248 127.528796 l
226.572372 127.373096 l
227.493945 115.894501 l
227.609069 115.94252 l
228.069951 117.953144 l
229.337089 123.752304 l
229.682655 121.687908 l
230.258662 117.590862 l
230.489103 118.764932 l
230.719544 120.226973 l
230.834668 120.254705 l
231.180234 119.467773 l
231.410675 117.942019 l
231.641116 114.747059 l
231.871557 119.163483 l
232.101998 112.311837 l
232.217122 112.116998 l
232.332439 112.259079 l
233.02357 108.354636 l
233.254011 109.419781 l
233.715085 112.697346 l
233.945717 114.648459 l
234.060842 114.723787 l
234.176158 114.604001 l
234.406407 113.933122 l
234.867481 120.239327 l
235.21343 110.800913 l
235.328554 118.221854 l
235.444062 114.707568 l
235.559187 121.958016 l
235.789436 112.820515 l
235.904561 114.712741 l
236.250318 111.358773 l
236.711009 125.618225 l
236.826133 125.093929 l
237.056574 123.147113 l
237.171891 121.702093 l
237.40214 109.30241 l
237.632389 116.221232 l
237.978147 111.3599 l
238.093271 111.231721 l
238.323712 111.749778 l
238.554153 112.364689 l
239.360409 107.958802 l
239.590659 106.359938 l
239.936416 104.996472 l
240.051732 105.391654 l
240.166857 105.114996 l
240.397106 105.401706 l
241.31887 102.784197 l
241.664627 105.246358 l
241.894685 107.741829 l
242.240826 111.665849 l
243.162398 92.726322 l
243.392839 97.83592 l
243.62328 106.154388 l
244.084162 135.544687 l
244.199478 132.25085 l
244.659977 114.138029 l
245.005351 115.932512 l
245.235601 117.145605 l
245.46585 120.751879 l
245.696674 116.981241 l
245.927307 129.618013 l
246.042623 120.587903 l
246.157747 127.148637 l
246.388188 123.826439 l
246.733754 123.567783 l
246.848879 123.683022 l
247.07932 126.43268 l
247.309761 130.800915 l
248.116017 152.709691 l
248.231333 122.259762 l
248.346458 159.995845 l
248.461774 160.622399 l
248.576899 157.197527 l
248.692215 149.681651 l
249.037781 197.427181 l
249.383538 267.486351 l
251.688714 292.032 m
252.380228 253.455947 l
252.495545 256.508823 l
253.071551 214.884396 l
253.187059 214.973528 l
253.417308 188.089712 l
253.532625 196.193544 l
253.763066 185.275879 l
253.993315 163.26694 l
254.108823 163.536217 l
254.224139 162.901585 l
254.685213 137.915666 l
254.915654 159.441492 l
255.146095 194.613413 l
255.261219 193.180033 l
255.376536 197.215561 l
255.606977 181.450464 l
255.952542 123.015869 l
256.183175 110.888436 l
256.528932 112.450545 l
256.990005 100.771648 l
257.681328 92.871402 l
258.027086 90.481736 l
258.372843 90.010097 l
258.603475 89.967697 l
258.833916 90.076965 l
259.525431 89.308722 l
259.756063 89.327149 l
260.10182 90.647867 l
260.793718 93.62928 l
261.715482 94.656505 l
262.522121 96.397461 l
262.752754 96.276039 l
263.444077 95.729105 l
263.789834 95.748439 l
264.135783 95.991765 l
264.366032 96.297679 l
265.058121 98.000705 l
265.288371 98.278467 l
266.44115 102.792986 l
267.593738 103.816902 l
268.170319 104.252989 l
268.97715 105.356304 l
269.322716 105.280893 l
269.668664 104.954621 l
269.899105 104.68415 l
270.705553 105.376367 l
270.820869 105.248521 l
271.281751 102.125111 l
271.858141 98.383906 l
272.78048 95.741307 l
273.587693 90.960552 l
273.818134 92.075554 l
274.048767 93.38391 l
274.510032 98.294068 l
275.086039 88.090798 l
275.431987 89.081539 l
276.008186 87.242287 l
276.353943 87.286262 l
277.276856 85.82192 l
277.507297 85.87734 l
278.198811 86.39508 l
279.235892 87.453439 l
281.310435 87.123326 l
283.500678 87.747677 l
285.907761 88.326484 l
286.483768 88.533207 l
287.059966 88.114826 l
287.866413 87.700137 l
288.326912 87.679226 l
288.672669 88.117614 l
289.133743 89.071021 l
290.055698 91.626277 l
290.401264 93.497227 l
291.092778 98.892209 l
291.899609 107.333492 l
292.245366 110.057003 l
292.936498 118.450366 l
293.743329 130.195517 l
294.549968 145.917117 l
295.241482 160.728994 l
295.472115 170.678485 l
296.85476 193.323845 l
297.085201 195.298526 l
297.200518 195.214052 l
297.430959 196.44523 l
297.546083 196.314812 l
297.776524 192.928109 l
298.12209 184.699301 l
298.928729 163.512802 l
299.043854 164.259576 l
299.504736 147.783462 l
300.080551 124.50455 l
300.656558 109.88626 l
301.232756 101.047811 l
301.693446 98.129237 l
302.384769 94.916348 l
303.536974 89.691422 l
304.458738 85.345656 l
305.034936 83.434516 l
305.610943 82.497376 l
305.956508 82.218881 l
306.647448 82.232055 l
307.338771 82.42515 l
308.37566 83.670251 l
308.606101 84.331411 l
309.412548 91.53367 l
309.758114 97.30704 l
310.449437 133.277213 l
310.564753 130.379377 l
310.679878 130.660031 l
310.910319 119.409866 l
311.025635 119.344247 l
311.255884 120.812787 l
311.371201 120.951445 l
312.177648 109.135102 l
312.292964 108.511037 l
312.523405 106.232535 l
312.63853 104.992685 l
312.753846 79.583705 l
312.86878 104.631351 l
312.983904 103.450609 l
313.099221 103.629528 l
313.214537 104.941234 l
313.675227 97.218103 l
313.905668 96.536654 l
314.366742 95.975791 l
314.94294 96.327456 l
315.058256 96.714062 l
315.51933 103.389702 l
315.980403 118.28289 l
316.441093 89.941891 l
316.671534 84.173639 l
316.786659 83.925238 l
316.901784 84.198565 l
317.132225 82.063481 l
317.362666 86.74686 l
317.593107 81.849838 l
317.823548 83.331555 l
318.053989 82.847293 l
318.399746 83.233485 l
318.630187 83.324151 l
318.745503 83.513079 l
319.206577 86.491863 l
319.667267 90.49129 l
319.897708 89.033559 l
320.358781 84.010096 l
320.589222 84.333784 l
320.819663 87.601542 l
321.049913 97.541993 l
321.165229 95.321298 l
321.280545 88.83507 l
321.510986 145.266957 l
321.626111 125.870323 l
321.741236 179.801559 l
321.856552 174.337336 l
321.971868 108.689695 l
322.087184 111.055975 l
322.202309 190.96316 l
322.317625 182.011515 l
322.43275 158.999659 l
322.548066 188.228309 l
322.663191 118.675809 l
322.778507 147.748461 l
323.00914 118.750357 l
323.124456 131.707893 l
323.354897 114.550558 l
323.585338 124.334256 l
323.815779 142.091564 l
324.046028 128.212891 l
324.276469 150.114406 l
324.506719 142.692799 l
324.73716 152.726597 l
324.967601 146.992631 l
325.198233 137.539449 l
325.31355 148.713628 l
325.543991 175.932351 l
325.659115 183.485879 l
326.235122 102.587643 l
326.465563 101.32635 l
326.580879 100.881393 l
327.157077 87.125346 l
327.617959 87.773872 l
327.733276 87.715965 l
328.079033 88.044316 l
328.424598 88.248821 l
329.000605 89.924201 l
329.115921 89.924563 l
329.346362 90.356686 l
329.69212 89.663863 l
329.807244 90.013851 l
330.268318 101.981764 l
330.49895 116.837165 l
330.7292 143.175947 l
330.844516 138.33387 l
331.190465 115.418528 l
331.651155 95.933019 l
331.766471 95.123089 l
331.881596 95.145783 l
331.996912 95.283603 l
332.112037 95.598457 l
332.457794 95.184383 l
332.572919 95.233969 l
333.033609 96.082178 l
333.494683 94.546353 l
333.725124 95.269649 l
334.30113 97.165641 l
334.531571 97.529975 l
335.107578 97.46321 l
336.606115 96.863153 l
337.297246 96.544089 l
337.758128 96.428077 l
338.103885 96.546497 l
338.449451 97.395013 l
338.910333 99.258092 l
339.256282 100.429573 l
339.832863 102.621065 l
339.948179 103.391859 l
340.293937 109.283154 l
341.215892 128.599837 l
341.446524 137.501994 l
341.676965 139.70332 l
341.907406 140.270355 l
342.13823 139.213282 l
342.368863 129.617815 l
342.829936 118.127552 l
343.7517 102.905053 l
344.558914 86.024802 l
345.135496 77.643503 l
345.481061 74.584458 l
345.596377 74.589499 l
345.82701 75.310012 l
346.4034 78.480244 l
346.979406 82.242475 l
347.555413 86.48551 l
348.246927 90.507142 l
349.1685 99.095963 l
349.514065 103.683298 l
349.629382 105.213552 l
349.975331 112.700546 l
350.090455 112.677125 l
350.20558 112.914784 l
350.436021 112.546928 l
351.012028 110.8924 l
351.472718 119.039018 l
351.702967 114.070233 l
351.9336 108.018391 l
352.048725 107.605171 l
352.164232 107.939918 l
352.394482 107.863723 l
352.855364 105.491919 l
353.085805 107.565305 l
353.661811 115.685834 l
354.238201 123.939625 l
354.353326 122.705418 l
354.468642 128.958154 l
354.699275 123.718962 l
354.814591 124.892554 l
354.929716 126.409831 l
355.159965 125.071662 l
355.390214 126.305265 l
355.620655 138.214715 l
355.851096 104.531789 l
355.966604 108.411587 l
356.196854 124.781662 l
356.311978 129.630225 l
356.427294 126.992897 l
357.234508 140.503427 m
357.580074 146.166147 l
360.114542 154.482795 m
360.344983 164.194192 l
360.460299 162.920522 l
364.263437 150.445845 m
364.724319 122.607279 l
364.839443 118.637316 l
364.95476 119.503289 l
365.300517 127.622206 l
365.530958 140.317789 l
365.646083 127.693458 l
365.761399 147.501985 l
365.991648 141.220341 l
366.452722 139.371052 l
366.683163 138.823699 l
367.144236 136.800288 l
367.605118 144.845278 l
367.950684 136.307354 l
368.526882 123.590313 l
369.333713 110.478462 l
369.679278 108.230362 l
370.14016 106.662246 l
370.255285 95.315025 l
370.485726 96.615787 m
370.946608 114.123789 l
371.407873 133.485156 l
371.522806 133.616962 l
371.753439 132.627257 l
372.214512 137.702283 l
372.675011 125.196006 l
373.020768 141.928356 l
373.251209 150.194745 l
373.596966 155.062319 l
374.058231 184.665779 l
375.671701 195.82774 m
375.787209 198.449603 l
375.902525 205.867281 l
376.01765 176.533002 l
376.132775 206.871311 l
376.478724 182.370969 m
376.593848 156.616063 l
376.709165 163.837933 l
376.824289 178.077723 l
377.746436 187.774813 m
377.976686 172.500343 l
378.32206 128.938715 m
378.437185 128.53617 l
378.667625 111.987432 l
378.782942 111.596977 l
378.898066 111.689166 l
379.359331 105.729293 l
379.474456 106.287853 l
379.589581 105.558799 l
380.165779 95.647686 l
380.280904 97.731994 l
380.626661 96.71614 l
381.087735 94.320493 l
381.894565 92.540788 l
382.701013 91.043863 l
383.392144 89.76181 l
384.08385 88.814481 l
384.314291 88.755123 l
384.890298 89.228094 l
386.272752 90.687845 l
387.886222 90.86554 l
388.577928 91.328063 l
389.384567 92.125416 l
390.075699 92.850914 l
390.76683 93.543673 l
391.22752 94.500768 l
392.033776 96.385612 l
392.379725 96.805068 l
392.49485 97.133727 l
392.95554 102.070907 l
393.416231 107.917535 l
393.646863 105.662048 l
394.338569 98.8607 l
394.453694 99.132496 l
395.260333 103.589415 l
395.490774 102.974148 l
396.066589 101.460935 l
396.181905 101.392952 l
396.527854 103.103948 l
396.989119 106.688667 l
397.21956 107.799683 l
397.334876 107.833059 l
397.565126 108.297768 l
397.795758 109.638728 l
398.026199 112.089867 l
398.25664 117.649438 l
398.487273 129.412234 l
398.487273 129.412234 l
stroke
grestore
0.800 setlinewidth
0 setlinejoin
[] 0 setdash
0.000 setgray
gsave
57.6 38.016 m
57.6 304.128 l
stroke
grestore
gsave
414.72 38.016 m
414.72 304.128 l
stroke
grestore
gsave
57.6 38.016 m
414.72 38.016 l
stroke
grestore
gsave
57.6 304.128 m
414.72 304.128 l
stroke
grestore
1.000 setlinewidth
0 setlinecap
0.800 setgray
gsave
349.860625 266.78425 m
407.72 266.78425 l
409.053333 266.78425 409.72 267.450917 409.72 268.78425 c
409.72 297.128 l
409.72 298.461333 409.053333 299.128 407.72 299.128 c
349.860625 299.128 l
348.527292 299.128 347.860625 298.461333 347.860625 297.128 c
347.860625 268.78425 l
347.860625 267.450917 348.527292 266.78425 349.860625 266.78425 c
cl
gsave
1.000 setgray
fill
grestore
stroke
grestore
1.500 setlinewidth
1 setlinejoin
2 setlinecap
[] 0 setdash
0.000 0.750 0.750 setrgbcolor
gsave
351.860625 291.03425 m
371.860625 291.03425 l
stroke
grestore
0.000 setgray
gsave
379.860625 287.534250 translate
0.000000 rotate
0.000000 0.000000 m /three glyphshow
6.362305 0.000000 m /m glyphshow
16.103516 0.000000 m /m glyphshow
grestore
0.627 0.314 0.314 setrgbcolor
gsave
351.860625 276.362375 m
371.860625 276.362375 l
stroke
grestore
0.000 setgray
gsave
379.860625 272.862375 translate
0.000000 rotate
0.000000 0.000000 m /two glyphshow
6.362305 0.000000 m /m glyphshow
16.103516 0.000000 m /m glyphshow
grestore

end
showpage
