%!PS-Adobe-3.0 EPSF-3.0
%%Title: spb/06_RAW_tau.eps
%%Creator: matplotlib version 2.2.2, http://matplotlib.org/
%%CreationDate: Wed Aug 29 15:18:24 2018
%%Orientation: portrait
%%BoundingBox: 75 223 536 568
%%EndComments
%%BeginProlog
/mpldict 9 dict def
mpldict begin
/m { moveto } bind def
/l { lineto } bind def
/r { rlineto } bind def
/c { curveto } bind def
/cl { closepath } bind def
/box {
m
1 index 0 r
0 exch r
neg 0 r
cl
} bind def
/clipbox {
box
clip
newpath
} bind def
%!PS-Adobe-3.0 Resource-Font
%%Title: DejaVu Sans
%%Copyright: Copyright (c) 2003 by Bitstream, Inc. All Rights Reserved. Copyright (c) 2006 by Tavmjong Bah. All Rights Reserved. DejaVu changes are in public domain 
%%Creator: Converted from TrueType to type 3 by PPR
25 dict begin
/_d{bind def}bind def
/_m{moveto}_d
/_l{lineto}_d
/_cl{closepath eofill}_d
/_c{curveto}_d
/_sc{7 -1 roll{setcachedevice}{pop pop pop pop pop pop}ifelse}_d
/_e{exec}_d
/FontName /DejaVuSans def
/PaintType 0 def
/FontMatrix[.001 0 0 .001 0 0]def
/FontBBox[-1021 -463 1793 1232]def
/FontType 3 def
/Encoding [ /space /comma /period /zero /one /two /three /five /seven /a /d /e /i /m /s /t /y ] def
/FontInfo 10 dict dup begin
/FamilyName (DejaVu Sans) def
/FullName (DejaVu Sans) def
/Notice (Copyright (c) 2003 by Bitstream, Inc. All Rights Reserved. Copyright (c) 2006 by Tavmjong Bah. All Rights Reserved. DejaVu changes are in public domain ) def
/Weight (Book) def
/Version (Version 2.35) def
/ItalicAngle 0.0 def
/isFixedPitch false def
/UnderlinePosition -130 def
/UnderlineThickness 90 def
end readonly def
/CharStrings 18 dict dup begin
/.notdef 0 def
/space{318 0 0 0 0 0 _sc
}_d
/comma{318 0 77 -115 220 124 _sc
117 124 _m
220 124 _l
220 40 _l
140 -115 _l
77 -115 _l
117 40 _l
117 124 _l
_cl}_d
/period{318 0 107 0 210 124 _sc
107 124 _m
210 124 _l
210 0 _l
107 0 _l
107 124 _l
_cl}_d
/zero{636 0 66 -13 570 742 _sc
318 664 _m
267 664 229 639 203 589 _c
177 539 165 464 165 364 _c
165 264 177 189 203 139 _c
229 89 267 64 318 64 _c
369 64 407 89 433 139 _c
458 189 471 264 471 364 _c
471 464 458 539 433 589 _c
407 639 369 664 318 664 _c
318 742 _m
399 742 461 709 505 645 _c
548 580 570 486 570 364 _c
570 241 548 147 505 83 _c
461 19 399 -13 318 -13 _c
236 -13 173 19 130 83 _c
87 147 66 241 66 364 _c
66 486 87 580 130 645 _c
173 709 236 742 318 742 _c
_cl}_d
/one{636 0 110 0 544 729 _sc
124 83 _m
285 83 _l
285 639 _l
110 604 _l
110 694 _l
284 729 _l
383 729 _l
383 83 _l
544 83 _l
544 0 _l
124 0 _l
124 83 _l
_cl}_d
/two{{636 0 73 0 536 742 _sc
192 83 _m
536 83 _l
536 0 _l
73 0 _l
73 83 _l
110 121 161 173 226 239 _c
290 304 331 346 348 365 _c
380 400 402 430 414 455 _c
426 479 433 504 433 528 _c
433 566 419 598 392 622 _c
365 646 330 659 286 659 _c
255 659 222 653 188 643 _c
154 632 117 616 78 594 _c
78 694 _l
118 710 155 722 189 730 _c
223 738 255 742 284 742 _c
}_e{359 742 419 723 464 685 _c
509 647 532 597 532 534 _c
532 504 526 475 515 449 _c
504 422 484 390 454 354 _c
446 344 420 317 376 272 _c
332 227 271 164 192 83 _c
_cl}_e}_d
/three{{636 0 76 -13 556 742 _sc
406 393 _m
453 383 490 362 516 330 _c
542 298 556 258 556 212 _c
556 140 531 84 482 45 _c
432 6 362 -13 271 -13 _c
240 -13 208 -10 176 -4 _c
144 1 110 10 76 22 _c
76 117 _l
103 101 133 89 166 81 _c
198 73 232 69 268 69 _c
330 69 377 81 409 105 _c
441 129 458 165 458 212 _c
458 254 443 288 413 312 _c
383 336 341 349 287 349 _c
}_e{202 349 _l
202 430 _l
291 430 _l
339 430 376 439 402 459 _c
428 478 441 506 441 543 _c
441 580 427 609 401 629 _c
374 649 336 659 287 659 _c
260 659 231 656 200 650 _c
169 644 135 635 98 623 _c
98 711 _l
135 721 170 729 203 734 _c
235 739 266 742 296 742 _c
370 742 429 725 473 691 _c
517 657 539 611 539 553 _c
539 513 527 479 504 451 _c
481 423 448 403 406 393 _c
_cl}_e}_d
/five{{636 0 77 -13 549 729 _sc
108 729 _m
495 729 _l
495 646 _l
198 646 _l
198 467 _l
212 472 227 476 241 478 _c
255 480 270 482 284 482 _c
365 482 429 459 477 415 _c
525 370 549 310 549 234 _c
549 155 524 94 475 51 _c
426 8 357 -13 269 -13 _c
238 -13 207 -10 175 -6 _c
143 -1 111 6 77 17 _c
77 116 _l
106 100 136 88 168 80 _c
199 72 232 69 267 69 _c
}_e{323 69 368 83 401 113 _c
433 143 450 183 450 234 _c
450 284 433 324 401 354 _c
368 384 323 399 267 399 _c
241 399 214 396 188 390 _c
162 384 135 375 108 363 _c
108 729 _l
_cl}_e}_d
/seven{636 0 82 0 551 729 _sc
82 729 _m
551 729 _l
551 687 _l
286 0 _l
183 0 _l
432 646 _l
82 646 _l
82 729 _l
_cl}_d
/a{{613 0 60 -13 522 560 _sc
343 275 _m
270 275 220 266 192 250 _c
164 233 150 205 150 165 _c
150 133 160 107 181 89 _c
202 70 231 61 267 61 _c
317 61 357 78 387 114 _c
417 149 432 196 432 255 _c
432 275 _l
343 275 _l
522 312 _m
522 0 _l
432 0 _l
432 83 _l
411 49 385 25 355 10 _c
325 -5 287 -13 243 -13 _c
187 -13 142 2 109 33 _c
76 64 60 106 60 159 _c
}_e{60 220 80 266 122 298 _c
163 329 224 345 306 345 _c
432 345 _l
432 354 _l
432 395 418 427 391 450 _c
364 472 326 484 277 484 _c
245 484 215 480 185 472 _c
155 464 127 453 100 439 _c
100 522 _l
132 534 164 544 195 550 _c
226 556 256 560 286 560 _c
365 560 424 539 463 498 _c
502 457 522 395 522 312 _c
_cl}_e}_d
/d{{635 0 55 -13 544 760 _sc
454 464 _m
454 760 _l
544 760 _l
544 0 _l
454 0 _l
454 82 _l
435 49 411 25 382 10 _c
353 -5 319 -13 279 -13 _c
213 -13 159 13 117 65 _c
75 117 55 187 55 273 _c
55 359 75 428 117 481 _c
159 533 213 560 279 560 _c
319 560 353 552 382 536 _c
411 520 435 496 454 464 _c
148 273 _m
148 207 161 155 188 117 _c
215 79 253 61 301 61 _c
}_e{348 61 385 79 413 117 _c
440 155 454 207 454 273 _c
454 339 440 390 413 428 _c
385 466 348 485 301 485 _c
253 485 215 466 188 428 _c
161 390 148 339 148 273 _c
_cl}_e}_d
/e{{615 0 55 -13 562 560 _sc
562 296 _m
562 252 _l
149 252 _l
153 190 171 142 205 110 _c
238 78 284 62 344 62 _c
378 62 412 66 444 74 _c
476 82 509 95 541 113 _c
541 28 _l
509 14 476 3 442 -3 _c
408 -9 373 -13 339 -13 _c
251 -13 182 12 131 62 _c
80 112 55 181 55 268 _c
55 357 79 428 127 481 _c
175 533 241 560 323 560 _c
397 560 455 536 498 489 _c
}_e{540 441 562 377 562 296 _c
472 322 _m
471 371 457 410 431 440 _c
404 469 368 484 324 484 _c
274 484 234 469 204 441 _c
174 413 156 373 152 322 _c
472 322 _l
_cl}_e}_d
/i{278 0 94 0 184 760 _sc
94 547 _m
184 547 _l
184 0 _l
94 0 _l
94 547 _l
94 760 _m
184 760 _l
184 646 _l
94 646 _l
94 760 _l
_cl}_d
/m{{974 0 91 0 889 560 _sc
520 442 _m
542 482 569 511 600 531 _c
631 550 668 560 711 560 _c
767 560 811 540 842 500 _c
873 460 889 403 889 330 _c
889 0 _l
799 0 _l
799 327 _l
799 379 789 418 771 444 _c
752 469 724 482 686 482 _c
639 482 602 466 575 435 _c
548 404 535 362 535 309 _c
535 0 _l
445 0 _l
445 327 _l
445 379 435 418 417 444 _c
398 469 369 482 331 482 _c
}_e{285 482 248 466 221 435 _c
194 404 181 362 181 309 _c
181 0 _l
91 0 _l
91 547 _l
181 547 _l
181 462 _l
201 495 226 520 255 536 _c
283 552 317 560 357 560 _c
397 560 430 550 458 530 _c
486 510 506 480 520 442 _c
_cl}_e}_d
/s{{521 0 54 -13 472 560 _sc
443 531 _m
443 446 _l
417 458 391 468 364 475 _c
336 481 308 485 279 485 _c
234 485 200 478 178 464 _c
156 450 145 430 145 403 _c
145 382 153 366 169 354 _c
185 342 217 330 265 320 _c
296 313 _l
360 299 405 279 432 255 _c
458 230 472 195 472 151 _c
472 100 452 60 412 31 _c
372 1 316 -13 246 -13 _c
216 -13 186 -10 154 -5 _c
}_e{122 0 89 8 54 20 _c
54 113 _l
87 95 120 82 152 74 _c
184 65 216 61 248 61 _c
290 61 323 68 346 82 _c
368 96 380 117 380 144 _c
380 168 371 187 355 200 _c
339 213 303 226 247 238 _c
216 245 _l
160 257 119 275 95 299 _c
70 323 58 356 58 399 _c
58 450 76 490 112 518 _c
148 546 200 560 268 560 _c
301 560 332 557 362 552 _c
391 547 418 540 443 531 _c
}_e{_cl}_e}_d
/t{392 0 27 0 368 702 _sc
183 702 _m
183 547 _l
368 547 _l
368 477 _l
183 477 _l
183 180 _l
183 135 189 106 201 94 _c
213 81 238 75 276 75 _c
368 75 _l
368 0 _l
276 0 _l
206 0 158 13 132 39 _c
106 65 93 112 93 180 _c
93 477 _l
27 477 _l
27 547 _l
93 547 _l
93 702 _l
183 702 _l
_cl}_d
/y{592 0 30 -207 562 547 _sc
322 -50 _m
296 -114 271 -157 247 -177 _c
223 -197 191 -207 151 -207 _c
79 -207 _l
79 -132 _l
132 -132 _l
156 -132 175 -126 189 -114 _c
203 -102 218 -75 235 -31 _c
251 9 _l
30 547 _l
125 547 _l
296 119 _l
467 547 _l
562 547 _l
322 -50 _l
_cl}_d
end readonly def

/BuildGlyph
 {exch begin
 CharStrings exch
 2 copy known not{pop /.notdef}if
 true 3 1 roll get exec
 end}_d

/BuildChar {
 1 index /Encoding get exch get
 1 index /BuildGlyph get exec
}_d

FontName currentdict end definefont pop
%!PS-Adobe-3.0 Resource-Font
%%Title: DejaVu Sans Oblique
%%Copyright: Copyright (c) 2003 by Bitstream, Inc. All Rights Reserved. Copyright (c) 2006 by Tavmjong Bah. All Rights Reserved. DejaVu changes are in public domain 
%%Creator: Converted from TrueType to type 3 by PPR
25 dict begin
/_d{bind def}bind def
/_m{moveto}_d
/_l{lineto}_d
/_cl{closepath eofill}_d
/_c{curveto}_d
/_sc{7 -1 roll{setcachedevice}{pop pop pop pop pop pop}ifelse}_d
/_e{exec}_d
/FontName /DejaVuSans-Oblique def
/PaintType 0 def
/FontMatrix[.001 0 0 .001 0 0]def
/FontBBox[-1016 -350 1659 1068]def
/FontType 3 def
/Encoding [ /tau ] def
/FontInfo 10 dict dup begin
/FamilyName (DejaVu Sans) def
/FullName (DejaVu Sans Oblique) def
/Notice (Copyright (c) 2003 by Bitstream, Inc. All Rights Reserved. Copyright (c) 2006 by Tavmjong Bah. All Rights Reserved. DejaVu changes are in public domain ) def
/Weight (Oblique) def
/Version (Version 2.35) def
/ItalicAngle -11.0 def
/isFixedPitch false def
/UnderlinePosition -130 def
/UnderlineThickness 90 def
end readonly def
/CharStrings 2 dict dup begin
/.notdef 0 def
/tau{602 0 84 0 606 547 _sc
329 100 _m
337 84 359 76 395 76 _c
438 76 _l
423 0 _l
369 0 _l
310 0 270 15 250 47 _c
229 79 226 129 240 198 _c
290 457 _l
84 457 _l
102 547 _l
606 547 _l
589 457 _l
382 457 _l
330 193 _l
320 145 320 114 329 100 _c
_cl}_d
end readonly def

/BuildGlyph
 {exch begin
 CharStrings exch
 2 copy known not{pop /.notdef}if
 true 3 1 roll get exec
 end}_d

/BuildChar {
 1 index /Encoding get exch get
 1 index /BuildGlyph get exec
}_d

FontName currentdict end definefont pop
end
%%EndProlog
mpldict begin
75.6 223.2 translate
460.8 345.6 0 0 clipbox
gsave
0 0 m
460.8 0 l
460.8 345.6 l
0 345.6 l
cl
1.000 setgray
fill
grestore
gsave
57.6 38.016 m
414.72 38.016 l
414.72 304.128 l
57.6 304.128 l
cl
1.000 setgray
fill
grestore
0.800 setlinewidth
1 setlinejoin
0 setlinecap
[] 0 setdash
0.000 setgray
gsave
/o {
gsave
newpath
translate
0.8 setlinewidth
1 setlinejoin
0 setlinecap
0 0 m
0 -3.5 l

gsave
0.000 setgray
fill
grestore
stroke
grestore
} bind def
79.8463 38.016 o
grestore
/DejaVuSans findfont
10.000 scalefont
setfont
gsave
73.486914 23.422250 translate
0.000000 rotate
0.000000 0.000000 m /one glyphshow
6.362305 0.000000 m /zero glyphshow
grestore
gsave
/o {
gsave
newpath
translate
0.8 setlinewidth
1 setlinejoin
0 setlinecap
0 0 m
0 -3.5 l

gsave
0.000 setgray
fill
grestore
stroke
grestore
} bind def
155.721 38.016 o
grestore
gsave
149.361175 23.422250 translate
0.000000 rotate
0.000000 0.000000 m /one glyphshow
6.362305 0.000000 m /five glyphshow
grestore
gsave
/o {
gsave
newpath
translate
0.8 setlinewidth
1 setlinejoin
0 setlinecap
0 0 m
0 -3.5 l

gsave
0.000 setgray
fill
grestore
stroke
grestore
} bind def
231.595 38.016 o
grestore
gsave
225.235436 23.422250 translate
0.000000 rotate
0.000000 0.000000 m /two glyphshow
6.362305 0.000000 m /zero glyphshow
grestore
gsave
/o {
gsave
newpath
translate
0.8 setlinewidth
1 setlinejoin
0 setlinecap
0 0 m
0 -3.5 l

gsave
0.000 setgray
fill
grestore
stroke
grestore
} bind def
307.469 38.016 o
grestore
gsave
301.109697 23.422250 translate
0.000000 rotate
0.000000 0.000000 m /two glyphshow
6.362305 0.000000 m /five glyphshow
grestore
gsave
/o {
gsave
newpath
translate
0.8 setlinewidth
1 setlinejoin
0 setlinecap
0 0 m
0 -3.5 l

gsave
0.000 setgray
fill
grestore
stroke
grestore
} bind def
383.343 38.016 o
grestore
gsave
376.983957 23.422250 translate
0.000000 rotate
0.000000 0.000000 m /three glyphshow
6.362305 0.000000 m /zero glyphshow
grestore
gsave
209.863125 9.750375 translate
0.000000 rotate
0.000000 0.000000 m /t glyphshow
3.920898 0.000000 m /i glyphshow
6.699219 0.000000 m /m glyphshow
16.440430 0.000000 m /e glyphshow
22.592773 0.000000 m /comma glyphshow
25.771484 0.000000 m /space glyphshow
28.950195 0.000000 m /d glyphshow
35.297852 0.000000 m /a glyphshow
41.425781 0.000000 m /y glyphshow
47.343750 0.000000 m /s glyphshow
grestore
gsave
/o {
gsave
newpath
translate
0.8 setlinewidth
1 setlinejoin
0 setlinecap
0 0 m
-3.5 0 l

gsave
0.000 setgray
fill
grestore
stroke
grestore
} bind def
57.6 69.1144 o
grestore
gsave
28.334375 65.317553 translate
0.000000 rotate
0.000000 0.000000 m /zero glyphshow
6.362305 0.000000 m /period glyphshow
9.541016 0.000000 m /two glyphshow
15.903320 0.000000 m /five glyphshow
grestore
gsave
/o {
gsave
newpath
translate
0.8 setlinewidth
1 setlinejoin
0 setlinecap
0 0 m
-3.5 0 l

gsave
0.000 setgray
fill
grestore
stroke
grestore
} bind def
57.6 103.928 o
grestore
gsave
28.334375 100.131091 translate
0.000000 rotate
0.000000 0.000000 m /zero glyphshow
6.362305 0.000000 m /period glyphshow
9.541016 0.000000 m /five glyphshow
15.903320 0.000000 m /zero glyphshow
grestore
gsave
/o {
gsave
newpath
translate
0.8 setlinewidth
1 setlinejoin
0 setlinecap
0 0 m
-3.5 0 l

gsave
0.000 setgray
fill
grestore
stroke
grestore
} bind def
57.6 138.742 o
grestore
gsave
28.334375 134.944629 translate
0.000000 rotate
0.000000 0.000000 m /zero glyphshow
6.362305 0.000000 m /period glyphshow
9.541016 0.000000 m /seven glyphshow
15.903320 0.000000 m /five glyphshow
grestore
gsave
/o {
gsave
newpath
translate
0.8 setlinewidth
1 setlinejoin
0 setlinecap
0 0 m
-3.5 0 l

gsave
0.000 setgray
fill
grestore
stroke
grestore
} bind def
57.6 173.555 o
grestore
gsave
28.334375 169.758167 translate
0.000000 rotate
0.000000 0.000000 m /one glyphshow
6.362305 0.000000 m /period glyphshow
9.541016 0.000000 m /zero glyphshow
15.903320 0.000000 m /zero glyphshow
grestore
gsave
/o {
gsave
newpath
translate
0.8 setlinewidth
1 setlinejoin
0 setlinecap
0 0 m
-3.5 0 l

gsave
0.000 setgray
fill
grestore
stroke
grestore
} bind def
57.6 208.369 o
grestore
gsave
28.334375 204.571704 translate
0.000000 rotate
0.000000 0.000000 m /one glyphshow
6.362305 0.000000 m /period glyphshow
9.541016 0.000000 m /two glyphshow
15.903320 0.000000 m /five glyphshow
grestore
gsave
/o {
gsave
newpath
translate
0.8 setlinewidth
1 setlinejoin
0 setlinecap
0 0 m
-3.5 0 l

gsave
0.000 setgray
fill
grestore
stroke
grestore
} bind def
57.6 243.182 o
grestore
gsave
28.334375 239.385242 translate
0.000000 rotate
0.000000 0.000000 m /one glyphshow
6.362305 0.000000 m /period glyphshow
9.541016 0.000000 m /five glyphshow
15.903320 0.000000 m /zero glyphshow
grestore
gsave
/o {
gsave
newpath
translate
0.8 setlinewidth
1 setlinejoin
0 setlinecap
0 0 m
-3.5 0 l

gsave
0.000 setgray
fill
grestore
stroke
grestore
} bind def
57.6 277.996 o
grestore
gsave
28.334375 274.198780 translate
0.000000 rotate
0.000000 0.000000 m /one glyphshow
6.362305 0.000000 m /period glyphshow
9.541016 0.000000 m /seven glyphshow
15.903320 0.000000 m /five glyphshow
grestore
gsave
22.256250 167.572000 translate
90.000000 rotate
/DejaVuSans-Oblique findfont
10.0 scalefont
setfont
0.000000 0.531250 moveto
/tau glyphshow


grestore
1.500 setlinewidth
2 setlinecap
0.000 0.750 0.750 setrgbcolor
gsave
357.1 266.1 57.6 38.02 clipbox
73.832727 55.208057 m
74.677882 63.729559 l
74.783263 63.744874 l
75.205489 62.966865 l
76.156025 59.746209 l
76.367138 60.462168 l
76.895272 63.375971 l
77.635046 67.433514 l
77.951892 68.942321 l
78.585582 70.204924 l
79.00816 71.038151 l
80.065306 73.508108 l
80.910285 75.700078 l
81.333038 76.407097 l
81.755792 76.502642 l
82.284277 76.347425 l
82.706503 76.083098 l
83.340896 75.406932 l
83.975465 74.499881 l
84.925298 73.116077 l
85.665072 72.439569 l
86.298236 71.299999 l
87.14304 70.120573 l
88.727091 65.1443 l
88.832471 65.052372 l
89.149317 66.52082 l
89.360254 68.025352 l
89.676924 71.15381 l
89.887861 69.736643 l
90.627284 63.384894 l
90.943954 62.704878 l
91.049159 61.777289 l
92.297747 60.308572 l
92.508685 58.386271 l
92.614241 58.413034 l
93.548443 60.926575 l
93.96663 61.829605 l
94.388329 62.59066 l
95.759159 64.154998 l
96.708466 65.623608 l
97.235897 68.750304 l
97.657596 71.11337 l
97.97409 71.882179 l
98.39579 69.066205 l
98.606727 69.986276 l
99.133983 71.97352 l
99.239364 71.915782 l
99.766795 64.21297 l
100.08329 60.30741 l
100.18867 60.41897 l
100.926864 64.085886 l
101.243182 61.635907 l
101.770614 57.459421 l
102.087108 56.801756 l
102.192664 56.618606 l
102.720096 54.358959 l
103.629357 54.249861 l
104.156965 54.173513 l
104.367902 54.074662 l
105.422414 53.215061 l
106.688214 52.423214 l
107.848634 51.80404 l
108.903321 51.508359 l
109.747598 51.474295 l
110.907666 51.719183 l
111.329541 51.990212 l
113.334413 53.502725 l
114.811678 54.238453 l
116.078005 55.183301 l
116.394499 54.794199 l
117.765856 52.751913 l
118.398493 52.31655 l
118.820192 52.211133 l
119.340423 52.303163 l
119.758961 52.344921 l
119.969898 52.442974 l
120.391773 52.708456 l
120.602711 52.66055 l
121.024585 52.803406 l
121.130142 53.06133 l
121.446285 56.060772 l
122.184478 65.522819 l
122.71191 73.277945 l
123.133785 77.004535 l
123.450103 78.212932 l
123.66104 78.299521 l
124.399234 85.283541 l
124.504615 85.259517 l
124.820757 77.424503 l
125.348013 64.792029 l
125.875445 58.322073 l
126.191939 55.771185 l
126.508257 55.133114 l
126.824751 54.97378 l
127.24645 54.981319 l
127.457388 54.695815 l
127.668501 56.056461 l
127.773882 54.523917 l
127.879439 55.360831 l
128.0902 54.991698 l
128.195757 55.975487 l
128.406694 54.435117 l
128.512251 55.407392 l
128.723188 54.749554 l
129.039682 55.540958 l
129.145415 55.925998 l
129.461733 55.402882 l
129.56729 55.583899 l
129.778227 57.782683 l
130.094545 64.709595 l
130.200102 63.565599 l
130.411215 54.912409 l
130.516772 56.575797 l
130.622153 55.393475 l
130.83309 56.00657 l
131.255141 54.788737 l
131.571635 54.623711 l
131.782572 54.674622 l
132.310004 54.955052 l
132.731879 55.029435 l
133.048373 55.05836 l
133.153753 55.0114 l
133.364691 55.125935 l
133.681185 54.285637 l
133.786566 54.453979 l
134.10306 55.837033 l
134.208441 55.845747 l
134.524935 56.375666 l
134.630491 56.149402 l
134.841604 56.674007 l
135.158099 57.298848 l
135.263655 57.366647 l
135.474417 57.203825 l
135.683422 58.568436 l
135.894184 57.770762 l
135.999741 57.809065 l
136.105297 57.876066 l
136.42144 57.637153 l
136.737934 57.878906 l
137.054077 57.232948 l
137.159282 57.248468 l
137.475425 58.745291 l
137.580981 59.224529 l
138.002681 56.752204 l
138.108062 56.818745 l
138.318999 57.374618 l
138.42438 57.740059 l
138.635318 56.771822 l
138.846431 55.759399 l
139.057368 56.919007 l
139.26813 58.417772 l
139.478892 56.826146 l
139.689654 55.11363 l
139.795035 55.083502 l
140.111529 55.445644 l
140.532877 54.945544 l
141.481656 53.31274 l
141.587037 53.410726 l
141.797975 53.895087 l
141.903355 56.222459 l
142.008736 53.488133 l
142.219498 54.066353 l
142.43026 52.744947 l
142.535641 54.187772 l
142.641197 52.035405 l
142.957516 53.825007 l
143.063072 54.195643 l
143.274361 53.855116 l
143.590855 53.400022 l
144.118111 53.442892 l
144.53981 53.84343 l
144.856656 54.138212 l
145.17315 54.15273 l
145.383912 54.845202 l
145.594673 55.946492 l
145.911167 54.711671 l
146.016548 54.760517 l
146.22731 59.094551 l
146.543453 68.774759 l
146.648834 69.354577 l
146.859596 61.783426 l
146.965152 61.756274 l
147.175738 65.648202 l
147.281119 70.37103 l
147.3865 68.065261 l
147.70317 55.87011 l
147.808375 56.856701 l
147.913756 60.161667 l
148.124694 52.330701 l
148.335455 56.207103 l
148.75733 66.016628 l
148.967917 76.675492 l
149.073297 76.522562 l
149.284235 73.870949 l
149.389616 77.581277 l
149.495172 62.323312 l
149.811315 90.15507 l
150.022253 56.797352 l
150.233014 69.01736 l
150.338395 66.523718 l
150.443776 62.830472 l
150.549157 65.658787 l
150.759919 62.556767 l
150.865476 81.453777 l
150.970856 70.562655 l
151.287175 76.363419 l
151.392731 66.294273 l
151.498112 68.128307 l
151.603669 89.245511 l
151.709225 60.093389 l
151.920163 71.814353 l
152.025719 66.326571 l
152.130925 71.08735 l
152.342038 68.226441 l
152.447243 71.789808 l
152.5528 70.038342 l
152.658181 71.21951 l
152.763562 65.963658 l
153.080056 69.227321 l
153.185436 71.467588 l
153.290817 63.484867 l
153.501755 64.77522 l
153.607136 58.924523 l
153.817722 84.664633 l
154.028659 58.674991 l
154.13404 60.169752 l
154.344627 63.677452 l
154.450007 63.723215 l
154.976912 62.762414 l
155.504168 62.639943 l
155.820486 62.742239 l
156.347918 63.167985 l
156.558855 63.153599 l
156.980555 61.719463 l
157.40243 58.713691 l
157.613367 59.436409 l
157.718924 61.2827 l
157.824304 60.661274 l
158.140798 61.815011 l
158.246004 61.084985 l
158.667879 53.92216 l
158.77326 53.912686 l
159.089578 55.133529 l
159.194783 55.010157 l
159.511453 54.534658 l
159.933328 55.576661 l
160.143914 55.082556 l
160.882283 53.323154 l
162.252938 52.520016 l
162.88575 52.414814 l
163.307449 52.495707 l
163.729149 52.962528 l
164.256053 53.778516 l
164.783485 53.960528 l
164.888866 54.00311 l
164.994246 54.18546 l
165.310389 56.801644 l
165.837645 63.668387 l
165.943026 63.354062 l
166.25952 61.140478 l
166.470457 61.676547 l
166.681395 62.175514 l
167.2083 61.533298 l
167.524618 62.036525 l
167.630174 61.887287 l
167.946142 61.644058 l
168.26246 66.526832 l
168.473397 68.793191 l
169.106034 67.212246 l
169.211415 67.292223 l
169.422353 69.243323 l
169.633114 72.59101 l
169.843876 86.570263 l
170.160195 118.226466 l
170.265751 105.996721 l
170.476513 115.288447 l
170.581894 92.220684 l
170.687275 93.015589 l
170.898037 88.0804 l
171.003593 88.42138 l
171.108974 89.478174 l
171.319736 108.345452 l
171.424941 106.396692 l
171.530498 100.607899 l
171.636054 103.150817 l
171.952197 87.42341 l
172.26834 97.093491 l
172.584834 87.05713 l
172.795771 116.645091 l
173.006709 91.588149 l
173.217646 97.754717 l
173.428408 90.173056 l
173.533789 90.282841 l
173.850283 91.820799 l
174.061221 81.490241 l
174.166602 82.611898 l
174.272158 84.517974 l
174.588476 68.819419 l
174.904619 63.014561 l
175.115381 59.47586 l
175.326319 60.974399 l
175.431699 60.926453 l
175.537256 60.58491 l
175.748018 65.678909 l
175.958955 54.236956 l
176.064688 54.687934 l
176.381182 57.564493 l
176.592295 56.91642 l
176.803232 56.059371 l
176.908789 57.876708 l
177.01417 56.719966 l
177.330839 58.350814 l
178.280146 61.150648 l
178.594356 62.029945 l
178.910499 63.706939 l
179.121437 62.804791 l
179.332199 65.028857 l
179.437579 64.765549 l
179.54296 64.425112 l
179.859279 69.425793 l
180.175421 70.588988 l
180.280978 72.076841 l
180.492091 69.635875 l
181.019171 66.593956 l
181.546427 70.457997 l
181.967951 75.781258 l
182.284269 76.803647 l
182.705793 87.222556 l
182.81135 86.914333 l
183.549543 78.147057 l
183.655099 78.580264 l
184.076623 82.912058 l
184.182004 84.91013 l
184.287385 84.804013 l
184.392941 84.287335 l
184.814641 85.568528 l
185.025754 83.958091 l
185.236516 91.154023 l
185.658039 81.334421 l
185.76342 81.860706 l
185.868801 82.165233 l
186.501789 75.409816 l
186.923313 72.552663 l
187.134075 74.280709 l
187.239456 74.063056 l
187.345188 74.362725 l
187.450569 76.723519 l
187.661506 84.615104 l
187.767063 84.381955 l
188.294319 102.356734 l
188.716369 120.126665 l
189.032863 118.146482 l
189.243625 113.29159 l
189.454387 115.34032 l
189.559943 115.109029 l
189.665149 114.814935 l
190.192405 116.175377 l
190.297786 115.843815 l
190.508372 111.891708 l
190.719485 104.414365 l
190.930071 107.862081 l
191.141184 96.003101 l
191.246565 96.90036 l
191.457503 99.781341 l
191.66844 102.92285 l
191.773997 104.707589 l
191.984758 111.543548 l
192.406282 79.743197 l
192.61722 87.02386 l
192.828157 94.868187 l
193.249856 79.381786 l
193.355237 79.113623 l
193.460618 79.466301 l
193.671556 78.336855 l
193.777112 78.50308 l
193.882317 78.382341 l
194.093606 71.771973 l
194.304368 76.250253 l
194.515481 82.266542 l
194.620862 81.980702 l
194.93718 78.866359 l
195.253148 83.24784 l
195.358528 82.714094 l
195.464085 84.428713 l
195.780403 57.240597 l
195.88596 59.086186 l
195.991341 65.239541 l
196.096897 64.394585 l
196.307659 79.744446 l
196.41304 82.280859 l
196.518421 80.32979 l
196.623802 87.00403 l
196.729183 86.684039 l
196.834739 87.605421 l
196.940472 83.485948 l
197.046028 88.172933 l
197.256966 86.866124 l
197.467552 89.274944 l
197.78387 144.594195 l
198.520834 142.36006 l
198.626215 139.285302 l
198.942533 112.606671 l
199.04809 115.050597 l
199.469614 129.527639 l
199.574995 129.883819 l
199.680551 122.23364 l
199.891313 130.778978 l
199.99687 137.670976 l
200.207807 132.156004 l
200.313188 118.853445 l
200.417164 146.19167 l
200.522545 133.901213 l
200.627926 144.435791 l
200.838863 135.543657 l
200.94442 140.955981 l
201.155357 125.925526 l
201.260562 98.319324 l
201.4715 137.015682 l
201.682437 117.246545 l
201.893199 102.825778 l
202.104137 129.122105 l
202.209518 103.219543 l
202.315074 122.631124 l
202.525836 85.791848 l
202.736949 95.424148 l
202.84233 94.042886 l
202.947711 90.668378 l
203.053092 96.773176 l
203.158648 90.457619 l
203.264029 91.77586 l
203.580348 76.787901 l
203.685729 86.039721 l
203.79111 77.970166 l
204.002047 81.437529 l
204.423746 69.286289 l
204.74024 73.424774 l
204.845621 72.126154 l
205.267145 58.346055 l
205.477907 57.067415 l
205.583288 59.856543 l
205.899957 53.589005 l
206.005338 55.198081 l
206.110719 57.189175 l
206.321481 53.07382 l
206.427038 55.099037 l
206.532594 51.577073 l
206.743356 53.81762 l
206.848737 53.69951 l
206.954293 53.011392 l
207.059674 58.07936 l
207.270612 54.295839 l
207.375993 53.073017 l
207.481374 53.208805 l
207.586755 53.636141 l
208.008629 53.461037 l
208.219216 53.601549 l
208.746296 53.709663 l
209.167995 53.877778 l
209.273376 53.809203 l
209.58987 54.105716 l
210.011394 53.96625 l
211.594215 53.552 l
213.493355 52.698525 l
214.653248 52.225723 l
215.919224 52.062906 l
216.340747 52.144837 l
217.184146 52.913106 l
217.922515 53.817281 l
218.238658 53.389389 l
218.87147 52.441654 l
219.399077 51.932817 l
219.609839 51.899992 l
219.926333 52.612501 l
220.453765 54.48372 l
220.876166 57.646533 l
221.403247 62.237154 l
221.825648 61.717282 l
221.931029 61.447168 l
222.141967 59.832814 l
222.352904 68.572055 l
222.458461 68.493533 l
222.985717 61.83514 l
223.091273 62.110501 l
223.513324 64.344296 l
223.724437 64.302391 l
224.040931 63.870464 l
224.462455 60.827388 l
224.778773 58.840114 l
224.88433 58.951168 l
224.989711 59.253954 l
225.095443 60.521046 l
225.200824 60.496976 l
225.30638 60.452548 l
225.622523 60.97491 l
225.939017 60.839564 l
226.149954 61.739079 l
226.360716 61.149906 l
226.888148 64.285076 l
227.099261 65.731949 l
227.204817 66.152739 l
227.310198 65.426061 l
227.415755 66.430815 l
227.626692 65.635765 l
228.048743 68.252439 l
228.470267 62.960749 l
228.681028 64.387852 l
228.997171 66.428776 l
229.208284 66.351798 l
229.313665 66.390995 l
229.524427 67.311995 l
229.73554 69.29698 l
229.946302 67.359042 l
230.157064 70.790331 l
230.578939 63.303209 l
230.68432 64.208283 l
231.105843 73.89251 l
231.422162 86.981968 l
231.738656 71.800553 l
231.949593 68.879742 l
232.265912 68.033383 l
232.476849 68.092243 l
232.898548 69.006777 l
233.003929 68.780252 l
233.109486 69.229855 l
233.320423 71.605753 l
233.425804 71.442237 l
233.531185 70.927826 l
233.636742 71.314619 l
233.953236 70.239072 l
234.164173 71.425733 l
234.375111 73.149282 l
234.796634 70.455314 l
235.218158 72.636581 l
235.534476 69.668217 l
235.956351 66.416907 l
237.010687 59.478981 l
238.276137 55.678027 l
238.803393 55.350731 l
239.436205 55.249255 l
239.857904 55.245529 l
240.385336 54.528072 l
241.439847 53.205274 l
241.862074 52.901082 l
242.705648 52.595289 l
244.709817 52.314303 l
244.920755 52.432572 l
245.342454 53.253907 l
245.870061 54.61055 l
246.924749 57.81627 l
247.45218 58.754036 l
247.873879 61.920297 l
248.401135 66.00486 l
249.033596 67.698842 l
249.244709 68.321663 l
249.876995 70.433615 l
250.088108 70.774287 l
250.404426 70.816416 l
250.720745 70.778297 l
250.931682 70.550569 l
251.670051 69.190273 l
251.880989 69.505325 l
252.408245 70.385445 l
253.146262 71.19302 l
253.251819 71.173329 l
253.357024 70.97646 l
253.778899 67.620281 l
255.043294 58.007743 l
255.359788 57.225196 l
255.676107 56.891635 l
255.992601 56.656192 l
256.625413 55.84186 l
256.941556 55.366011 l
257.786008 54.072615 l
258.524026 53.355597 l
259.262044 53.091218 l
260.105794 52.966699 l
261.160657 53.083497 l
262.84763 53.353582 l
267.066379 53.883116 l
268.753352 52.932725 l
271.178869 53.264517 l
271.811682 53.33847 l
272.022619 53.221052 l
274.448664 50.609949 l
275.186857 50.127547 l
275.39797 50.164932 l
275.925226 50.685039 l
276.452482 51.476595 l
277.296056 52.759964 l
277.61255 53.113199 l
277.928868 53.457186 l
278.13963 53.614131 l
278.561505 54.149368 l
278.666886 54.496258 l
278.877999 56.693921 l
279.088761 60.594354 l
279.30005 68.932186 l
279.405431 85.520733 l
279.616368 167.706908 l
280.038067 210.900024 l
280.565323 247.371831 l
280.881466 262.623575 l
281.30299 274.505725 l
281.619308 291.703584 l
281.724689 292.032 l
281.83007 290.201621 l
282.146388 279.159447 l
282.357501 272.095747 l
282.463058 262.062188 l
282.673995 204.960923 l
282.990489 64.560231 l
283.306983 58.218236 l
283.623302 53.946997 l
283.834766 53.116084 l
284.045528 53.480922 l
284.361846 54.677785 l
285.099864 59.416244 l
285.521739 62.436322 l
285.838233 61.877181 l
286.47087 60.941042 l
286.787188 60.852879 l
287.103682 60.720901 l
287.525382 61.518274 l
288.052813 62.670829 l
288.791006 62.109312 l
289.107149 64.013363 l
289.423819 66.87433 l
289.529375 66.024013 l
289.740313 69.761507 l
289.95125 64.374089 l
290.478506 59.822417 l
291.322432 56.753673 l
291.744131 55.673738 l
291.954893 55.886416 l
292.377295 54.599714 l
292.798818 53.76699 l
293.64292 52.895812 l
294.064794 52.501115 l
294.697607 51.86859 l
295.224687 51.634507 l
295.541005 51.650699 l
295.962705 52.123376 l
296.700722 53.490841 l
297.122246 54.654168 l
297.649502 56.951114 l
298.071201 63.697282 l
298.176758 63.043559 l
298.493252 60.159582 l
299.12624 72.76063 l
299.442734 86.123474 l
299.548115 84.67121 l
299.653847 84.760807 l
299.759228 83.854098 l
300.181279 66.468625 l
300.286835 67.735605 l
300.392392 71.261495 l
300.708886 89.615457 l
300.814267 88.652576 l
301.02538 94.362349 l
301.342049 108.468362 l
301.447606 109.876019 l
301.974686 77.176935 l
302.080067 75.667208 l
302.291005 85.254414 l
302.396737 85.722507 l
302.923114 77.147304 l
303.239608 74.731225 l
303.556102 73.238982 l
303.977802 69.688594 l
304.083183 69.726982 l
304.188739 69.923937 l
304.399677 71.733332 l
304.821552 62.979348 l
305.032489 62.276317 l
305.665302 61.150631 l
305.876063 61.253848 l
306.508876 62.310892 l
306.719813 63.938608 l
307.036132 68.033409 l
307.66912 76.757229 l
307.985614 78.490437 l
308.09117 78.421673 l
308.407489 77.752227 l
308.618602 78.041367 l
308.829539 73.785835 l
309.567557 79.704359 l
309.989256 82.503381 l
310.200194 82.318864 l
310.727274 81.121194 l
311.149676 79.202491 l
311.465994 75.798559 l
311.571375 75.455153 l
311.993601 72.054802 l
312.099158 72.179125 l
312.204539 72.264079 l
312.30992 71.916603 l
312.415652 70.840828 l
312.837351 61.533676 l
313.154021 64.894019 l
313.259402 65.832652 l
314.1028 60.455196 l
314.313738 60.936505 l
314.630056 62.179227 l
314.735437 62.057194 l
315.366318 65.099489 l
315.682636 65.713842 l
315.788192 65.819363 l
316.210243 71.329035 l
316.421356 69.509469 l
316.737675 67.184576 l
317.05452 66.56533 l
317.47657 64.813485 l
317.687508 65.555181 l
318.109207 67.947596 l
318.320145 69.880733 l
318.425701 69.867561 l
318.531433 69.873581 l
318.847927 74.050873 l
318.953308 74.266586 l
319.164421 73.291119 l
319.586648 77.303206 l
319.797409 84.071593 l
320.008523 100.578749 l
320.535778 76.837685 l
320.957829 71.631177 l
321.06321 71.169799 l
321.274147 73.737034 l
321.484909 70.85934 l
321.695847 67.036838 l
321.906609 72.198928 l
322.223278 81.831483 l
322.539597 80.270266 l
322.961472 70.939415 l
323.488903 68.419642 l
324.121715 62.920522 l
324.438209 61.617601 l
324.860084 60.769487 l
326.020153 59.503626 l
326.758346 59.102094 l
327.496364 59.045015 l
328.023795 58.941829 l
328.445846 58.844667 l
329.395328 59.492994 l
331.610435 57.629082 l
333.192729 56.919735 l
334.458705 56.720342 l
335.30228 57.6819 l
336.040122 58.718689 l
336.35644 58.205665 l
336.989077 56.992238 l
338.043588 56.575307 l
338.57102 56.562123 l
338.993071 56.884823 l
339.942026 58.003746 l
340.680043 59.191225 l
340.890981 59.386794 l
340.996537 59.525797 l
341.101918 59.888544 l
341.418412 64.59379 l
341.840287 71.490162 l
341.945668 72.556598 l
342.156781 77.772242 l
342.473275 93.204065 l
342.578656 91.709715 l
343.000707 100.940656 l
343.106263 101.233223 l
343.211644 101.131086 l
343.422582 101.774577 l
343.527963 101.743748 l
343.633344 101.166405 l
343.844457 93.195508 l
343.949838 98.143102 l
344.160775 86.425659 l
344.266507 86.078181 l
344.477445 81.173623 l
344.583001 80.970307 l
344.899144 81.504285 l
345.954007 72.610829 l
346.059564 73.465937 l
346.270852 71.9473 l
346.376233 72.147523 l
346.48179 72.029335 l
346.587522 72.76587 l
346.79846 83.860108 l
347.115129 104.136365 l
347.853498 117.634077 l
348.275549 78.786117 l
348.38093 79.665126 l
348.590989 91.100292 l
348.907834 142.803583 l
349.118596 176.537469 l
349.329709 103.680173 l
349.540647 106.042539 l
349.857141 84.591067 l
350.173635 78.223169 l
350.384572 76.868827 l
350.806447 67.09302 l
351.017736 84.072849 l
351.33423 102.837573 l
351.650724 94.946428 l
351.75628 95.508945 l
351.967394 97.302793 l
352.17798 99.268635 l
352.389268 101.101444 l
352.494825 101.653301 l
352.705587 117.685553 l
352.916524 107.555076 l
353.021905 107.621483 l
353.127462 110.730046 l
353.338399 109.31874 l
353.654718 101.839942 l
353.760274 101.030451 l
353.971036 102.827974 l
354.181973 88.575789 l
354.287354 87.979064 l
354.392735 88.277666 l
355.342393 81.746015 l
355.553331 80.205656 l
356.39708 71.765942 l
356.713926 71.147597 l
357.135625 72.810706 l
357.452119 69.718088 l
357.979375 63.97687 l
358.295869 63.000051 l
358.8233 62.047448 l
359.66705 59.655225 l
359.983544 59.41496 l
360.827294 59.193309 l
361.671395 59.23901 l
362.515145 59.373253 l
363.254041 59.511081 l
364.414636 59.353743 l
364.625574 59.702099 l
364.836687 59.765627 l
364.942068 59.941263 l
365.047976 59.005311 l
365.153356 59.505109 l
365.364645 59.354256 l
367.052145 59.850367 l
367.263258 59.942743 l
368.106832 59.051305 l
368.423151 60.817318 l
368.84485 64.912295 l
368.950407 66.038141 l
369.055963 65.857231 l
369.6886 62.682605 l
370.638082 58.575371 l
370.743814 58.694107 l
371.060133 59.677339 l
371.587564 62.104727 l
371.798502 61.938958 l
371.904058 61.844296 l
372.32646 63.702475 l
372.853716 58.469695 l
372.959097 58.203882 l
373.17021 69.13663 l
373.275591 67.347619 l
373.486528 62.845284 l
373.697466 61.048927 l
373.908754 60.338936 l
374.225424 59.381876 l
374.963793 58.105699 l
375.385844 58.117154 l
376.545912 58.572091 l
377.917444 59.704663 l
378.233763 59.694937 l
378.4447 60.069903 l
378.655638 59.493453 l
378.866751 62.986893 l
379.077513 59.016599 l
379.183069 59.08479 l
379.288626 59.356569 l
379.60512 58.127785 l
379.921438 56.750776 l
380.026819 56.713151 l
380.765364 57.446329 l
381.187239 57.759723 l
381.925432 57.645987 l
382.030989 56.05942 l
382.136545 56.104806 l
382.452864 56.251446 l
382.663801 57.39724 l
383.191584 57.544933 l
383.507902 57.474199 l
383.71884 57.457746 l
383.929601 57.896816 l
384.140539 57.398726 l
384.773351 56.686293 l
385.195226 56.341956 l
387.305304 55.569501 l
388.043321 55.424889 l
388.465196 55.427548 l
390.047491 56.320149 l
390.363985 55.57502 l
391.419199 52.864632 l
391.735869 52.260408 l
391.946806 52.419008 l
392.57997 53.465195 l
393.634657 55.613749 l
393.950975 55.533906 l
394.26747 55.470101 l
394.689344 53.422186 l
394.794901 53.475713 l
395.111395 53.818636 l
395.744207 50.588277 l
395.955145 50.503975 l
396.166082 50.632278 l
396.482928 51.171782 l
396.904803 51.976076 l
397.854109 51.857714 l
398.381541 51.558282 l
398.487273 51.474766 l
398.487273 51.474766 l
stroke
grestore
0.627 0.314 0.314 setrgbcolor
gsave
357.1 266.1 57.6 38.02 clipbox
73.832727 61.301395 m
74.783263 75.622919 l
75.099933 76.852289 l
75.311046 76.95413 l
75.521983 76.578138 l
75.733448 76.029183 l
76.156025 74.236885 l
76.367138 74.9454 l
77.318377 78.972602 l
77.740954 80.157128 l
79.642377 85.612538 l
79.959574 85.647942 l
80.59344 87.393167 l
81.016018 87.820756 l
81.755792 88.538015 l
82.284277 88.759271 l
82.812235 88.72328 l
83.763825 88.392992 l
84.29231 87.878511 l
85.136938 86.614825 l
85.453959 85.035518 l
85.665072 86.016908 l
85.876185 84.536583 l
85.981742 84.602815 l
86.087474 84.811928 l
86.192855 84.186932 l
86.298236 84.467152 l
86.720814 81.689211 l
86.931927 81.584389 l
87.14304 81.522608 l
88.198957 78.454216 l
88.410245 78.475288 l
88.621358 78.876334 l
88.832471 79.555332 l
89.254698 77.600329 l
89.465635 80.493387 l
89.676924 84.546056 l
89.887861 82.050954 l
90.310263 77.291784 l
90.943954 72.417389 l
91.049159 71.726506 l
92.297747 71.123516 l
92.508685 70.225263 l
92.614241 70.239396 l
92.926344 70.893608 l
93.755692 73.282725 l
94.599267 75.657597 l
94.810028 75.650608 l
95.020966 75.60596 l
95.442841 76.900293 l
95.970448 78.375893 l
96.286766 78.100998 l
96.603085 78.798964 l
96.919403 80.11979 l
97.97409 85.112621 l
98.39579 82.155438 l
98.712108 84.130933 l
99.133983 86.418073 l
99.239364 86.426066 l
99.661415 79.24412 l
100.08329 72.673498 l
100.18867 72.630401 l
100.926864 75.021696 l
101.559676 68.911248 l
101.981727 65.996531 l
102.614539 63.150482 l
102.890988 62.97722 l
104.262521 63.149299 l
105.949845 56.962238 l
106.266339 56.783064 l
107.11044 56.793177 l
107.848634 56.826245 l
108.692559 56.391213 l
109.325196 56.364588 l
109.747598 56.979423 l
110.696729 58.902429 l
111.857324 61.892102 l
112.806806 64.408505 l
113.228856 64.49745 l
113.651083 64.374769 l
114.178339 64.055228 l
114.495008 63.866903 l
115.233728 63.733657 l
115.867068 63.430229 l
116.183562 63.099465 l
117.765856 60.459423 l
118.398493 59.833149 l
118.820192 59.627629 l
119.236623 59.625415 l
119.758961 59.862444 l
119.969898 60.085725 l
120.391773 60.634269 l
120.602711 60.759114 l
121.024585 61.283527 l
121.130142 61.622478 l
121.446285 64.745892 l
122.079097 74.087152 l
123.028228 91.571502 l
123.344722 94.701182 l
123.450103 96.286584 l
123.66104 94.998296 l
124.188296 100.751375 l
124.399234 101.128674 l
124.504615 101.846449 l
124.609996 100.609394 l
125.875445 69.212966 l
126.191939 65.591366 l
126.508257 64.689325 l
126.824751 64.411939 l
127.14107 64.364027 l
127.24645 64.283937 l
127.457388 63.609989 l
127.668501 66.717717 l
127.984819 64.402283 l
128.0902 64.390367 l
128.301313 65.926003 l
128.406694 63.378015 l
128.512251 65.759077 l
128.723188 64.857131 l
128.934126 65.173921 l
129.039682 65.692807 l
129.145415 65.656969 l
129.356352 65.451867 l
129.56729 65.249008 l
129.989165 70.773165 l
130.094545 73.584276 l
130.200102 68.364895 l
130.305483 71.461164 l
130.411215 67.156325 l
130.622153 68.20866 l
130.727533 68.04214 l
130.938647 67.332624 l
131.255141 66.11465 l
131.466078 66.132894 l
131.782572 66.399229 l
132.204447 66.809386 l
132.626322 66.575301 l
132.942816 66.535147 l
133.153753 67.043403 l
133.364691 67.935907 l
133.470247 67.897554 l
133.575628 66.125344 l
134.10306 71.065096 l
134.419554 73.161572 l
134.524935 71.75572 l
134.630491 73.126194 l
134.947161 72.019156 l
135.158099 71.024546 l
135.474417 68.357802 l
135.683422 72.118595 l
135.894184 69.283153 l
136.316059 71.844401 l
136.42144 71.75258 l
136.948696 70.343302 l
137.159282 69.569109 l
137.686362 72.466609 l
137.791919 72.272721 l
138.002681 68.640184 l
138.108062 68.874272 l
138.42438 70.134542 l
138.635318 69.746345 l
138.846431 69.315631 l
139.057368 69.969322 l
139.162749 69.681024 l
139.26813 70.438101 l
139.689654 67.095878 l
140.005972 66.667188 l
140.216909 66.35033 l
141.481656 63.728033 l
141.587037 63.812252 l
141.692418 63.500893 l
141.797975 62.71513 l
141.903355 65.862933 l
142.008736 62.860306 l
142.219498 64.10829 l
142.43026 61.509262 l
142.535641 64.829257 l
142.641197 59.352352 l
142.957516 62.741035 l
143.063072 63.35868 l
143.168805 63.183218 l
143.485474 62.137491 l
144.01273 62.032586 l
144.434429 61.607831 l
144.645543 61.483307 l
144.750923 61.522076 l
144.962212 62.200131 l
145.383912 64.355708 l
145.594673 67.565673 l
146.016548 64.292619 l
146.22731 67.507645 l
146.543453 76.855689 l
146.648834 78.123347 l
146.754215 67.825123 l
146.965152 71.401718 l
147.070357 74.259972 l
147.281119 86.091128 l
147.70317 63.903498 l
147.808375 67.599618 l
147.913756 86.252377 l
148.124694 59.882384 l
148.229899 60.848235 l
148.335455 67.815822 l
148.441012 65.748132 l
148.75733 85.59048 l
148.862536 84.722822 l
148.967917 82.69688 l
149.178854 85.851519 l
149.389616 90.201462 l
149.495172 69.534877 l
149.600553 70.153242 l
149.705759 76.317634 l
149.811315 126.137102 l
150.022253 65.00423 l
150.233014 77.000115 l
150.338395 75.958653 l
150.443776 73.530001 l
150.654538 77.000535 l
150.759919 72.771271 l
151.076413 96.548163 l
151.181794 76.617489 l
151.287175 85.579305 l
151.392731 70.243744 l
151.498112 79.294294 l
151.603669 101.799395 l
151.709225 73.65626 l
151.920163 79.158772 l
152.025719 72.088282 l
152.130925 81.661649 l
152.236481 75.681942 l
152.342038 76.029435 l
152.447243 85.441791 l
152.5528 81.107157 l
152.658181 90.291667 l
152.763562 79.270333 l
152.868942 80.388307 l
152.974499 80.182532 l
153.185436 82.849626 l
153.290817 72.353292 l
153.396374 87.964595 l
153.501755 72.577574 l
153.607136 74.149274 l
153.817722 92.931696 l
154.028659 73.419108 l
154.13404 74.216072 l
154.450007 79.011 l
154.76615 76.924177 l
154.976912 76.58309 l
155.293406 76.685533 l
155.715105 76.454522 l
156.031775 76.097526 l
156.558855 75.055254 l
157.191668 71.145554 l
157.507986 69.72635 l
157.613367 69.720865 l
157.824304 69.240583 l
158.035418 70.582077 l
158.140798 69.384659 l
158.246004 71.868338 l
158.351385 67.28701 l
158.456766 69.973727 l
158.667879 65.697926 l
158.77326 65.972602 l
158.984021 67.061688 l
159.089578 67.307623 l
159.827947 63.077435 l
160.038709 62.699464 l
160.355027 62.763015 l
160.776902 62.931345 l
161.620476 63.622888 l
161.936795 63.070711 l
162.56908 61.978163 l
163.096512 61.315701 l
163.307449 61.208374 l
163.623768 61.96881 l
163.729149 59.865094 l
164.466991 63.359281 l
165.099452 65.607885 l
165.731913 70.791413 l
165.943026 72.72474 l
166.153963 81.687736 l
166.25952 82.40937 l
166.364901 72.454293 l
166.470457 72.79457 l
166.681395 73.428342 l
167.103094 76.09057 l
167.735555 80.83308 l
168.051523 83.105052 l
168.157079 84.463865 l
168.473397 92.88426 l
168.578954 92.326002 l
168.684335 92.508754 l
168.895097 93.509734 l
169.211415 94.848766 l
169.633114 108.129359 l
169.949257 127.581827 l
170.054638 130.189555 l
170.160195 140.374079 l
170.265751 134.455201 l
170.476513 148.738276 l
170.581894 113.643181 l
170.687275 123.676426 l
170.898037 96.04435 l
171.003593 97.56946 l
171.108974 101.775543 l
171.319736 153.054893 l
171.424941 150.242682 l
171.530498 136.737424 l
171.636054 146.844414 l
171.846816 122.817551 l
171.952197 106.036764 l
172.26834 139.396337 l
172.584834 120.946791 l
172.795771 154.136098 l
173.006709 109.227692 l
173.11209 116.860606 l
173.217646 125.852425 l
173.428408 117.611616 l
173.744727 120.676058 l
173.850283 121.589107 l
174.061221 118.671258 l
174.588476 103.877748 m
174.693857 96.184752 l
174.799414 111.608262 l
174.904619 91.678764 l
175.01 93.590067 l
175.115381 93.561977 l
175.220762 91.967361 l
175.431699 83.440098 l
175.537256 95.48637 l
175.853574 88.213179 m
175.958955 73.96595 l
176.275801 81.280619 l
176.381182 83.488986 l
176.803232 79.794394 l
176.908789 81.973045 l
177.01417 80.959771 l
177.330839 83.236568 l
177.647333 84.270961 l
177.858271 85.224685 l
177.963827 85.085665 l
178.489151 86.092412 l
178.910499 89.691214 l
179.016056 89.489525 l
179.121437 88.910432 l
179.332199 91.242889 l
179.54296 79.888288 l
179.753898 93.678217 l
179.859279 92.13834 l
180.070041 80.740126 l
180.175421 77.244635 l
180.280978 92.267701 l
180.386535 77.775245 l
180.597472 84.699892 l
180.808234 83.96182 l
180.91379 84.07054 l
181.019171 84.763769 l
181.440871 97.76662 l
181.862746 112.742084 l
181.967951 112.060424 l
182.284269 105.771368 l
182.81135 117.025935 l
183.022287 109.337368 l
183.128019 106.342407 l
183.549543 77.200605 l
183.655099 77.51002 l
184.076623 88.319707 l
184.182004 93.525037 l
184.392941 88.564589 l
184.814641 101.864386 l
185.025754 95.650215 l
185.236516 111.115382 l
185.341897 106.999102 l
185.658039 70.853709 l
185.974182 99.695251 l
186.079739 98.491958 l
186.18512 103.390513 l
186.2905 96.947752 l
186.396057 97.438955 l
186.712375 96.455439 l
186.923313 94.2594 l
187.134075 100.61708 l
187.450569 93.371201 l
187.556125 104.474762 l
187.767063 78.575132 l
188.188762 117.738827 l
188.716369 172.420451 l
189.454387 151.714399 l
189.665149 155.031397 l
189.981467 160.656653 l
190.192405 160.910815 l
190.297786 160.781347 l
190.508372 159.483319 l
190.719485 157.55275 l
191.141184 141.364769 l
191.562883 160.048901 l
191.66844 157.488737 l
191.984758 141.210605 l
192.195345 114.252889 l
192.511839 92.95734 m
192.828157 112.890768 l
193.144475 104.666042 l
193.355237 102.017279 l
193.460618 102.210661 l
193.671556 98.534712 l
193.882317 119.302979 l
194.093606 95.903201 l
194.304368 109.431429 l
194.515481 121.279141 l
194.620862 119.609771 l
195.042561 107.039606 l
195.147767 106.319651 l
195.253148 109.231549 l
195.358528 105.473443 l
195.464085 117.399769 l
195.56929 83.365682 l
195.674671 89.517922 l
195.780403 87.935416 l
195.88596 91.320579 l
195.991341 101.91267 l
196.096897 97.764059 l
196.202278 76.069737 l
196.41304 88.840968 l
196.518421 76.447652 l
196.729183 97.336949 l
196.834739 99.738866 l
197.046028 106.224247 l
197.151409 106.698953 l
197.467552 81.165629 l
197.78387 160.227851 l
198.520834 168.200768 l
198.626215 163.678963 l
198.942533 120.301293 l
199.04809 128.934924 l
199.153295 133.17521 l
199.469614 152.019013 l
199.574995 150.777564 l
199.785932 145.142217 l
199.99687 170.457869 l
200.207807 167.724992 l
200.313188 146.032978 l
200.417164 182.444154 l
200.522545 168.72604 l
200.733482 179.638728 l
200.838863 177.571018 l
200.94442 182.889895 l
201.155357 178.656276 l
201.260562 135.515099 l
201.4715 170.705082 l
201.577056 149.818642 l
201.682437 153.019555 l
201.893199 138.124626 l
201.99858 139.427233 l
202.104137 146.802294 l
202.209518 111.767649 l
202.315074 135.306191 l
202.420455 131.392424 l
202.525836 132.206714 l
202.736949 106.733646 l
202.947711 112.435469 l
203.053092 115.841516 l
203.158648 115.535908 l
203.264029 113.831412 l
203.369586 105.059431 l
203.474967 107.128595 l
203.580348 95.788318 l
203.79111 102.270198 l
203.896666 102.760308 l
204.002047 105.994933 l
204.212809 101.157551 l
204.31819 88.282404 l
204.74024 92.78368 l
204.951002 79.711921 l
205.372526 67.409499 l
205.477907 66.089975 l
205.583288 66.987238 l
205.68902 72.151701 l
205.794225 63.937805 l
205.899957 66.41199 l
206.005338 62.027465 l
206.110719 62.516641 l
206.321481 59.832581 l
206.427038 60.576938 l
206.532594 60.103483 l
206.743356 61.291935 l
206.848737 60.993006 l
206.954293 59.897674 l
207.059674 67.278554 l
207.165055 61.963823 l
207.270612 62.392631 l
207.375993 61.640933 l
207.903073 62.935042 l
208.640915 62.516364 l
209.167995 62.495551 l
209.273376 62.552094 l
209.695251 62.33642 l
210.750114 61.707498 l
211.910709 60.953199 l
212.33276 60.560809 l
213.071304 59.910908 l
214.231548 59.402508 l
215.602378 59.084906 l
216.235191 59.055737 l
216.657066 59.548632 l
217.184146 60.282939 l
217.922515 61.747687 l
218.133277 61.39288 l
219.082583 59.34886 l
219.504458 58.650763 l
219.609839 58.670798 l
219.820777 59.796071 l
220.242651 63.362761 l
220.77061 70.206838 l
221.403247 80.18145 l
221.614535 80.220524 l
222.03641 79.778258 l
222.141967 78.656159 l
222.458461 87.331823 l
222.774779 83.949729 l
222.985717 80.376449 l
223.091273 80.790512 l
223.513324 83.849587 l
223.724437 84.403866 l
223.829994 84.936523 l
223.935374 83.406161 l
224.040931 83.448592 l
224.357249 81.188129 l
224.673392 80.038819 l
224.778773 80.208674 l
224.88433 80.058391 l
224.989711 81.9887 l
225.095443 79.029623 l
225.411761 80.210928 l
225.939017 81.719302 l
226.360716 86.246319 l
226.466273 86.168346 l
226.571654 85.758907 l
226.782767 83.748781 l
226.993704 88.405085 l
227.204817 85.136231 l
227.415755 86.981582 l
227.521136 77.737385 l
227.626692 79.985591 l
228.048743 98.733509 l
228.259505 79.300406 l
228.364886 85.568312 l
228.575648 81.827997 l
228.786409 81.218792 l
228.89179 81.413745 l
229.208284 87.198842 l
229.419046 93.338938 l
229.629984 108.626684 l
229.73554 121.41708 l
229.946302 98.873379 l
230.051683 98.765153 l
230.157064 99.398249 l
230.368177 98.38556 l
230.473558 98.200543 l
230.578939 99.02934 l
230.68432 107.82086 l
230.895082 135.110599 l
231.000638 134.599395 l
231.211224 154.20593 l
231.527718 150.127631 m
231.949593 96.338551 l
232.160531 89.106678 l
232.265912 88.000009 l
232.371468 88.57704 l
232.58223 92.01608 l
233.109486 106.362731 l
233.320423 117.515855 l
233.425804 114.400386 l
233.636742 104.023449 l
233.953236 96.614224 l
234.164173 104.664279 l
234.375111 118.18105 l
234.902015 99.419975 l
235.007396 99.499386 l
235.218158 98.747601 l
235.323539 98.812247 l
235.745414 92.556868 l
235.956351 89.98769 l
236.167289 87.446422 l
236.694369 80.601921 l
237.116068 77.092044 l
238.276137 70.135146 l
238.592631 70.15426 l
239.014506 70.285204 l
239.752523 70.551545 l
239.857904 70.486453 l
240.174047 69.355581 l
241.545404 63.840213 l
242.178216 62.269722 l
243.022142 60.730666 l
243.65513 59.99064 l
244.287942 59.659136 l
244.709817 59.649569 l
244.920755 59.776905 l
245.236898 60.517186 l
245.870061 62.743568 l
246.502874 65.678011 l
247.346624 70.972202 l
248.190198 77.821634 l
248.612073 80.433261 l
249.666233 85.13011 l
250.299046 86.977967 l
250.826126 87.896971 l
251.142971 87.783025 l
251.458938 87.47145 l
251.670051 87.280974 l
251.98637 88.129433 l
252.302688 88.778719 l
253.040881 89.708564 l
253.251819 89.543144 l
253.357024 89.133246 l
253.88428 82.147651 l
254.622473 73.69392 l
255.465169 67.24862 l
255.676107 67.023037 l
255.88722 66.928683 l
256.730794 63.756872 l
257.363431 62.482315 l
257.786008 61.991678 l
259.578538 60.881287 l
260.21135 60.786502 l
260.949544 61.213083 l
262.109612 61.946026 l
264.534602 62.238483 l
265.16759 62.168147 l
265.695022 62.735499 l
266.32801 63.517047 l
266.855617 64.047962 l
267.171936 63.324335 l
268.226447 60.615846 l
268.54259 60.008144 l
268.753352 60.061476 l
269.280783 60.540838 l
269.702483 60.89625 l
270.545881 61.384202 l
271.706301 61.243148 l
271.917063 61.125825 l
272.444494 59.944042 l
273.604914 57.396911 l
274.02714 57.112915 l
274.554396 56.959569 l
275.081476 57.030349 l
275.39797 57.04608 l
275.925226 56.806628 l
276.24172 56.852949 l
276.663419 57.312442 l
277.085294 58.114322 l
277.507169 59.343767 l
277.928868 61.531399 l
278.350568 65.478426 l
278.666886 69.90737 l
278.983556 80.254723 l
279.30005 94.665026 l
279.405431 81.346643 l
280.565323 120.565256 l
280.881466 124.282486 l
281.092228 129.290288 l
281.935626 140.338097 l
282.146388 146.770456 l
282.357501 157.527506 l
282.779376 199.109048 l
282.990489 67.937868 l
283.09587 77.729291 l
283.729034 72.011381 l
283.940147 73.775035 l
284.25629 78.615754 l
284.888927 89.915497 l
285.521739 95.684071 l
285.732677 95.352308 l
286.154552 93.526526 l
287.209239 86.955703 l
287.630763 87.744039 l
287.947257 88.449114 l
288.369132 86.655798 l
288.791006 84.716043 l
288.896387 131.962679 l
289.107149 123.830384 l
289.21253 121.137955 l
289.423819 98.832849 l
289.529375 90.523524 l
289.634932 110.730721 l
289.845869 92.408646 l
290.162363 84.098742 l
291.322432 67.245469 l
291.744131 66.230299 l
291.954893 67.137621 l
292.271738 63.996672 l
292.377295 63.954012 l
293.009931 62.058046 l
293.537187 61.192173 l
293.959414 60.551811 l
294.697607 58.901604 l
295.224687 58.138212 l
295.541005 57.9336 l
295.857324 58.525368 l
296.279023 59.897227 l
297.122246 63.288311 l
297.333008 65.167994 l
297.649502 70.88438 l
298.071201 90.248189 l
298.176758 89.647977 l
298.493252 82.528314 l
298.598633 82.696155 l
298.704014 84.076998 l
298.80957 81.708567 l
298.914951 83.162143 l
299.442734 121.130485 l
299.653847 105.659783 l
299.759228 100.418757 l
299.864609 107.360249 l
300.181279 101.750299 l
300.286835 107.391417 l
300.497773 141.795344 l
300.603154 169.574229 l
301.02538 138.446497 l
301.236317 146.284382 l
301.447606 156.63804 l
301.869305 119.426731 l
301.974686 120.333279 l
302.291005 131.546765 l
302.501942 118.326094 l
302.923114 116.654843 m
303.134052 105.660815 l
303.239608 106.727314 l
303.556102 111.576865 l
303.872421 113.699449 l
303.977802 113.569365 l
304.294296 106.015701 l
304.505233 97.558089 l
304.927108 89.74736 l
305.348808 85.890702 l
305.665302 84.20672 l
305.876063 85.350373 l
306.403319 90.857435 l
306.508876 92.60133 l
306.614432 96.265342 l
307.036132 132.955613 l
307.35245 137.615303 l
307.66912 130.358623 l
307.774676 130.454619 l
307.985614 133.814416 l
308.302108 113.693221 l
308.407489 114.621232 l
309.462 100.300264 l
309.778319 98.479869 l
309.883875 98.603926 l
310.094813 106.860744 l
310.727274 111.241057 l
310.83283 111.119467 l
310.938387 110.631158 l
311.044119 110.9219 l
311.149676 110.823824 l
311.360613 103.350951 l
311.571375 105.671254 l
311.993601 102.926334 l
312.099158 102.851264 l
312.30992 101.707902 l
312.415652 99.580105 l
312.731795 86.430343 l
312.942908 82.829486 l
313.997419 74.305471 l
314.1028 73.779172 l
314.208181 73.974747 l
314.735437 77.298346 l
315.788192 85.833541 l
316.3158 100.627025 l
316.421356 99.502074 l
316.632294 90.218295 l
316.737675 91.335048 l
317.05452 96.925122 l
317.47657 99.213332 l
318.214588 115.959478 l
318.742547 136.083034 l
318.953308 130.63306 l
319.164421 124.030903 l
319.480915 142.888585 l
319.692029 161.653152 l
319.902966 191.875297 l
320.219284 184.807303 m
320.535778 153.868826 l
320.957829 126.378776 l
321.06321 119.290993 l
321.274147 129.831044 l
321.379528 128.4681 l
321.484909 124.596043 l
321.695847 90.209755 l
322.012341 127.677028 l
322.223278 140.151593 l
322.539597 134.053376 l
322.961472 100.976011 l
323.277966 105.801217 l
323.488903 107.004444 l
323.699841 105.751846 l
323.805221 104.850725 l
324.227272 91.930904 l
325.281959 82.183206 l
325.914772 77.790414 l
326.230915 77.264405 l
326.863903 76.972791 l
327.390983 77.456463 l
327.60192 77.614927 l
328.129352 75.126177 l
328.445846 73.859998 l
328.656608 74.245759 l
329.289771 76.098125 l
329.395328 75.972995 l
330.238902 74.063909 l
331.18856 73.250467 l
333.614604 72.129525 l
334.247768 71.391037 l
334.458705 71.350192 l
335.091342 71.856616 l
335.30228 72.170344 l
336.040122 73.675564 l
336.251235 73.497963 l
337.410776 72.075896 l
337.832651 71.818265 l
338.360083 71.904413 l
338.57102 72.017208 l
338.993071 72.871854 l
339.41477 73.883687 l
339.625707 73.820505 l
339.83682 73.717528 l
340.258344 72.603054 l
340.469282 73.819968 l
341.101918 79.153355 l
341.418412 85.635431 l
341.945668 99.126717 l
342.051225 99.179729 l
342.156781 99.681203 l
342.367719 133.066435 l
342.789594 191.747444 l
342.89515 187.470982 l
343.317025 150.852835 l
343.422582 151.915096 l
343.527963 151.651343 l
343.633344 150.912701 l
344.160775 123.649694 l
344.688382 108.377027 l
344.899144 107.845565 l
345.637513 100.903369 l
345.742894 100.480729 l
345.954007 97.013239 l
346.059564 105.819482 l
346.165296 98.721485 l
346.270852 99.369004 l
346.48179 97.999095 l
346.587522 98.05216 l
347.22051 114.161944 l
347.431448 133.319856 l
347.536828 132.592581 l
347.642385 129.58231 l
347.853498 143.363439 l
348.064436 133.173663 l
348.275549 122.196699 l
348.38093 123.865934 l
348.485432 128.594852 l
349.223977 141.584686 m
349.435266 126.233438 l
349.540647 121.234931 l
349.75176 82.51348 l
349.857141 83.562324 l
349.962522 98.863532 l
350.279191 94.557831 l
350.384572 94.043793 l
350.806447 82.488984 l
351.017736 94.39102 l
351.123117 99.866238 l
351.33423 91.47041 l
351.439786 89.983037 l
351.650724 81.557297 l
351.75628 82.44409 l
352.17798 88.452132 l
352.283712 90.200497 l
352.494825 89.236884 l
352.705587 116.921571 l
352.916524 101.153895 l
353.233018 109.259523 l
353.338399 108.755685 l
353.549337 106.30613 l
353.760274 99.060365 l
353.971036 114.896381 l
354.181973 96.811728 l
354.392735 104.189313 l
354.709229 102.317525 l
354.81461 103.915818 l
355.237012 103.032726 l
355.447774 102.620414 l
355.869649 100.594704 l
356.186143 96.169277 l
356.291524 95.117119 l
356.502637 95.60699 l
356.608193 96.052815 l
356.713926 96.004563 l
357.135625 88.03768 l
359.66705 74.371525 l
359.878163 74.229534 l
360.194482 74.335702 l
360.721738 74.777336 l
361.143613 75.250419 l
361.565663 75.700501 l
362.304383 76.312183 l
363.148485 77.427783 l
363.887205 77.209849 l
364.520017 78.322373 l
364.73113 77.362918 l
364.942068 82.916986 l
365.047976 76.784537 l
365.153356 77.25256 l
365.258913 77.106148 l
365.470026 78.185846 l
365.680964 78.579025 l
365.997633 78.782027 l
366.419333 79.43695 l
366.63027 79.213643 l
366.946764 78.778691 l
367.263258 78.4882 l
368.106832 75.235863 l
368.31777 77.617728 l
368.633913 83.707148 l
368.950407 92.939929 l
369.161344 89.012152 l
369.6886 78.94581 l
369.899537 77.079319 l
370.638082 74.863149 l
370.849195 75.065847 l
371.27107 75.955262 l
371.587564 76.672826 l
371.904058 76.921254 l
372.32646 78.659038 l
372.853716 75.215815 l
372.959097 74.788691 l
373.17021 82.717649 l
373.697466 76.542816 l
374.014311 75.217376 l
374.75268 72.416631 l
374.963793 72.097815 l
375.280287 72.331759 l
376.862406 73.704622 l
378.339319 73.531107 l
378.4447 73.358186 l
378.655638 72.409366 l
378.866751 74.402811 l
379.077513 71.91992 l
379.183069 72.025797 l
379.288626 72.304434 l
379.710676 71.645408 l
380.132551 71.075377 l
380.659807 70.746062 l
380.870745 70.774425 l
381.503733 71.333658 l
381.820051 71.531722 l
382.980471 71.843591 l
383.29714 71.78771 l
384.140539 72.641828 l
384.456682 71.622193 l
385.08967 69.618557 l
385.828039 68.239825 l
386.144708 68.17616 l
386.777872 68.182875 l
387.727003 67.51927 l
388.35964 67.226887 l
388.781339 67.642782 l
389.30877 68.11015 l
389.836553 68.799103 l
390.047491 68.820888 l
390.363985 67.173889 l
391.208261 62.639412 l
391.735869 60.560634 l
391.841425 60.549758 l
392.052363 60.816962 l
392.57997 61.867839 l
393.001845 64.037861 l
393.42372 66.5774 l
393.529276 66.56465 l
393.740214 65.908935 l
393.845419 65.438846 l
393.950975 65.600411 l
394.26747 64.980477 l
394.689344 59.626533 l
394.794901 59.485336 l
395.006014 59.662055 l
395.111395 62.875243 l
395.638651 59.246781 l
395.955145 59.479174 l
396.060526 59.768725 l
396.166082 58.401544 l
396.588309 60.574634 l
396.799246 61.753037 l
396.904803 61.812193 l
397.326678 61.22711 l
397.748728 60.681804 l
398.170427 60.767763 l
398.487273 60.62285 l
398.487273 60.62285 l
stroke
grestore
0.800 setlinewidth
0 setlinejoin
[] 0 setdash
0.000 setgray
gsave
57.6 38.016 m
57.6 304.128 l
stroke
grestore
gsave
414.72 38.016 m
414.72 304.128 l
stroke
grestore
gsave
57.6 38.016 m
414.72 38.016 l
stroke
grestore
gsave
57.6 304.128 m
414.72 304.128 l
stroke
grestore
1.000 setlinewidth
0 setlinecap
0.800 setgray
gsave
349.860625 266.78425 m
407.72 266.78425 l
409.053333 266.78425 409.72 267.450917 409.72 268.78425 c
409.72 297.128 l
409.72 298.461333 409.053333 299.128 407.72 299.128 c
349.860625 299.128 l
348.527292 299.128 347.860625 298.461333 347.860625 297.128 c
347.860625 268.78425 l
347.860625 267.450917 348.527292 266.78425 349.860625 266.78425 c
cl
gsave
1.000 setgray
fill
grestore
stroke
grestore
1.500 setlinewidth
1 setlinejoin
2 setlinecap
[] 0 setdash
0.000 0.750 0.750 setrgbcolor
gsave
351.860625 291.03425 m
371.860625 291.03425 l
stroke
grestore
0.000 setgray
gsave
379.860625 287.534250 translate
0.000000 rotate
0.000000 0.000000 m /three glyphshow
6.362305 0.000000 m /m glyphshow
16.103516 0.000000 m /m glyphshow
grestore
0.627 0.314 0.314 setrgbcolor
gsave
351.860625 276.362375 m
371.860625 276.362375 l
stroke
grestore
0.000 setgray
gsave
379.860625 272.862375 translate
0.000000 rotate
0.000000 0.000000 m /two glyphshow
6.362305 0.000000 m /m glyphshow
16.103516 0.000000 m /m glyphshow
grestore

end
showpage
