%!PS-Adobe-3.0 EPSF-3.0
%%Title: new_alg/12/12_RAW_tau.eps
%%Creator: matplotlib version 3.0.2, http://matplotlib.org/
%%CreationDate: Wed Apr 10 12:54:18 2019
%%Orientation: portrait
%%BoundingBox: 75 223 536 568
%%EndComments
%%BeginProlog
/mpldict 9 dict def
mpldict begin
/m { moveto } bind def
/l { lineto } bind def
/r { rlineto } bind def
/c { curveto } bind def
/cl { closepath } bind def
/box {
m
1 index 0 r
0 exch r
neg 0 r
cl
} bind def
/clipbox {
box
clip
newpath
} bind def
%!PS-Adobe-3.0 Resource-Font
%%Title: DejaVu Sans
%%Copyright: Copyright (c) 2003 by Bitstream, Inc. All Rights Reserved. Copyright (c) 2006 by Tavmjong Bah. All Rights Reserved. DejaVu changes are in public domain 
%%Creator: Converted from TrueType to type 3 by PPR
25 dict begin
/_d{bind def}bind def
/_m{moveto}_d
/_l{lineto}_d
/_cl{closepath eofill}_d
/_c{curveto}_d
/_sc{7 -1 roll{setcachedevice}{pop pop pop pop pop pop}ifelse}_d
/_e{exec}_d
/FontName /DejaVuSans def
/PaintType 0 def
/FontMatrix[.001 0 0 .001 0 0]def
/FontBBox[-1021 -463 1793 1232]def
/FontType 3 def
/Encoding [ /space /comma /period /zero /one /two /three /four /five /six /eight /a /d /e /i /m /s /t /y ] def
/FontInfo 10 dict dup begin
/FamilyName (DejaVu Sans) def
/FullName (DejaVu Sans) def
/Notice (Copyright (c) 2003 by Bitstream, Inc. All Rights Reserved. Copyright (c) 2006 by Tavmjong Bah. All Rights Reserved. DejaVu changes are in public domain ) def
/Weight (Book) def
/Version (Version 2.35) def
/ItalicAngle 0.0 def
/isFixedPitch false def
/UnderlinePosition -130 def
/UnderlineThickness 90 def
end readonly def
/CharStrings 20 dict dup begin
/.notdef 0 def
/space{318 0 0 0 0 0 _sc
}_d
/comma{318 0 77 -115 220 124 _sc
117 124 _m
220 124 _l
220 40 _l
140 -115 _l
77 -115 _l
117 40 _l
117 124 _l
_cl}_d
/period{318 0 107 0 210 124 _sc
107 124 _m
210 124 _l
210 0 _l
107 0 _l
107 124 _l
_cl}_d
/zero{636 0 66 -13 570 742 _sc
318 664 _m
267 664 229 639 203 589 _c
177 539 165 464 165 364 _c
165 264 177 189 203 139 _c
229 89 267 64 318 64 _c
369 64 407 89 433 139 _c
458 189 471 264 471 364 _c
471 464 458 539 433 589 _c
407 639 369 664 318 664 _c
318 742 _m
399 742 461 709 505 645 _c
548 580 570 486 570 364 _c
570 241 548 147 505 83 _c
461 19 399 -13 318 -13 _c
236 -13 173 19 130 83 _c
87 147 66 241 66 364 _c
66 486 87 580 130 645 _c
173 709 236 742 318 742 _c
_cl}_d
/one{636 0 110 0 544 729 _sc
124 83 _m
285 83 _l
285 639 _l
110 604 _l
110 694 _l
284 729 _l
383 729 _l
383 83 _l
544 83 _l
544 0 _l
124 0 _l
124 83 _l
_cl}_d
/two{{636 0 73 0 536 742 _sc
192 83 _m
536 83 _l
536 0 _l
73 0 _l
73 83 _l
110 121 161 173 226 239 _c
290 304 331 346 348 365 _c
380 400 402 430 414 455 _c
426 479 433 504 433 528 _c
433 566 419 598 392 622 _c
365 646 330 659 286 659 _c
255 659 222 653 188 643 _c
154 632 117 616 78 594 _c
78 694 _l
118 710 155 722 189 730 _c
223 738 255 742 284 742 _c
}_e{359 742 419 723 464 685 _c
509 647 532 597 532 534 _c
532 504 526 475 515 449 _c
504 422 484 390 454 354 _c
446 344 420 317 376 272 _c
332 227 271 164 192 83 _c
_cl}_e}_d
/three{{636 0 76 -13 556 742 _sc
406 393 _m
453 383 490 362 516 330 _c
542 298 556 258 556 212 _c
556 140 531 84 482 45 _c
432 6 362 -13 271 -13 _c
240 -13 208 -10 176 -4 _c
144 1 110 10 76 22 _c
76 117 _l
103 101 133 89 166 81 _c
198 73 232 69 268 69 _c
330 69 377 81 409 105 _c
441 129 458 165 458 212 _c
458 254 443 288 413 312 _c
383 336 341 349 287 349 _c
}_e{202 349 _l
202 430 _l
291 430 _l
339 430 376 439 402 459 _c
428 478 441 506 441 543 _c
441 580 427 609 401 629 _c
374 649 336 659 287 659 _c
260 659 231 656 200 650 _c
169 644 135 635 98 623 _c
98 711 _l
135 721 170 729 203 734 _c
235 739 266 742 296 742 _c
370 742 429 725 473 691 _c
517 657 539 611 539 553 _c
539 513 527 479 504 451 _c
481 423 448 403 406 393 _c
_cl}_e}_d
/four{636 0 49 0 580 729 _sc
378 643 _m
129 254 _l
378 254 _l
378 643 _l
352 729 _m
476 729 _l
476 254 _l
580 254 _l
580 172 _l
476 172 _l
476 0 _l
378 0 _l
378 172 _l
49 172 _l
49 267 _l
352 729 _l
_cl}_d
/five{{636 0 77 -13 549 729 _sc
108 729 _m
495 729 _l
495 646 _l
198 646 _l
198 467 _l
212 472 227 476 241 478 _c
255 480 270 482 284 482 _c
365 482 429 459 477 415 _c
525 370 549 310 549 234 _c
549 155 524 94 475 51 _c
426 8 357 -13 269 -13 _c
238 -13 207 -10 175 -6 _c
143 -1 111 6 77 17 _c
77 116 _l
106 100 136 88 168 80 _c
199 72 232 69 267 69 _c
}_e{323 69 368 83 401 113 _c
433 143 450 183 450 234 _c
450 284 433 324 401 354 _c
368 384 323 399 267 399 _c
241 399 214 396 188 390 _c
162 384 135 375 108 363 _c
108 729 _l
_cl}_e}_d
/six{{636 0 70 -13 573 742 _sc
330 404 _m
286 404 251 388 225 358 _c
199 328 186 286 186 234 _c
186 181 199 139 225 109 _c
251 79 286 64 330 64 _c
374 64 409 79 435 109 _c
461 139 474 181 474 234 _c
474 286 461 328 435 358 _c
409 388 374 404 330 404 _c
526 713 _m
526 623 _l
501 635 476 644 451 650 _c
425 656 400 659 376 659 _c
310 659 260 637 226 593 _c
}_e{192 549 172 482 168 394 _c
187 422 211 444 240 459 _c
269 474 301 482 336 482 _c
409 482 467 459 509 415 _c
551 371 573 310 573 234 _c
573 159 550 99 506 54 _c
462 9 403 -13 330 -13 _c
246 -13 181 19 137 83 _c
92 147 70 241 70 364 _c
70 479 97 571 152 639 _c
206 707 280 742 372 742 _c
396 742 421 739 447 735 _c
472 730 498 723 526 713 _c
_cl}_e}_d
/eight{{636 0 68 -13 568 742 _sc
318 346 _m
271 346 234 333 207 308 _c
180 283 167 249 167 205 _c
167 161 180 126 207 101 _c
234 76 271 64 318 64 _c
364 64 401 76 428 102 _c
455 127 469 161 469 205 _c
469 249 455 283 429 308 _c
402 333 365 346 318 346 _c
219 388 _m
177 398 144 418 120 447 _c
96 476 85 511 85 553 _c
85 611 105 657 147 691 _c
188 725 245 742 318 742 _c
}_e{390 742 447 725 489 691 _c
530 657 551 611 551 553 _c
551 511 539 476 515 447 _c
491 418 459 398 417 388 _c
464 377 501 355 528 323 _c
554 291 568 251 568 205 _c
568 134 546 80 503 43 _c
459 5 398 -13 318 -13 _c
237 -13 175 5 132 43 _c
89 80 68 134 68 205 _c
68 251 81 291 108 323 _c
134 355 171 377 219 388 _c
183 544 _m
183 506 194 476 218 455 _c
}_e{242 434 275 424 318 424 _c
360 424 393 434 417 455 _c
441 476 453 506 453 544 _c
453 582 441 611 417 632 _c
393 653 360 664 318 664 _c
275 664 242 653 218 632 _c
194 611 183 582 183 544 _c
_cl}_e}_d
/a{{613 0 60 -13 522 560 _sc
343 275 _m
270 275 220 266 192 250 _c
164 233 150 205 150 165 _c
150 133 160 107 181 89 _c
202 70 231 61 267 61 _c
317 61 357 78 387 114 _c
417 149 432 196 432 255 _c
432 275 _l
343 275 _l
522 312 _m
522 0 _l
432 0 _l
432 83 _l
411 49 385 25 355 10 _c
325 -5 287 -13 243 -13 _c
187 -13 142 2 109 33 _c
76 64 60 106 60 159 _c
}_e{60 220 80 266 122 298 _c
163 329 224 345 306 345 _c
432 345 _l
432 354 _l
432 395 418 427 391 450 _c
364 472 326 484 277 484 _c
245 484 215 480 185 472 _c
155 464 127 453 100 439 _c
100 522 _l
132 534 164 544 195 550 _c
226 556 256 560 286 560 _c
365 560 424 539 463 498 _c
502 457 522 395 522 312 _c
_cl}_e}_d
/d{{635 0 55 -13 544 760 _sc
454 464 _m
454 760 _l
544 760 _l
544 0 _l
454 0 _l
454 82 _l
435 49 411 25 382 10 _c
353 -5 319 -13 279 -13 _c
213 -13 159 13 117 65 _c
75 117 55 187 55 273 _c
55 359 75 428 117 481 _c
159 533 213 560 279 560 _c
319 560 353 552 382 536 _c
411 520 435 496 454 464 _c
148 273 _m
148 207 161 155 188 117 _c
215 79 253 61 301 61 _c
}_e{348 61 385 79 413 117 _c
440 155 454 207 454 273 _c
454 339 440 390 413 428 _c
385 466 348 485 301 485 _c
253 485 215 466 188 428 _c
161 390 148 339 148 273 _c
_cl}_e}_d
/e{{615 0 55 -13 562 560 _sc
562 296 _m
562 252 _l
149 252 _l
153 190 171 142 205 110 _c
238 78 284 62 344 62 _c
378 62 412 66 444 74 _c
476 82 509 95 541 113 _c
541 28 _l
509 14 476 3 442 -3 _c
408 -9 373 -13 339 -13 _c
251 -13 182 12 131 62 _c
80 112 55 181 55 268 _c
55 357 79 428 127 481 _c
175 533 241 560 323 560 _c
397 560 455 536 498 489 _c
}_e{540 441 562 377 562 296 _c
472 322 _m
471 371 457 410 431 440 _c
404 469 368 484 324 484 _c
274 484 234 469 204 441 _c
174 413 156 373 152 322 _c
472 322 _l
_cl}_e}_d
/i{278 0 94 0 184 760 _sc
94 547 _m
184 547 _l
184 0 _l
94 0 _l
94 547 _l
94 760 _m
184 760 _l
184 646 _l
94 646 _l
94 760 _l
_cl}_d
/m{{974 0 91 0 889 560 _sc
520 442 _m
542 482 569 511 600 531 _c
631 550 668 560 711 560 _c
767 560 811 540 842 500 _c
873 460 889 403 889 330 _c
889 0 _l
799 0 _l
799 327 _l
799 379 789 418 771 444 _c
752 469 724 482 686 482 _c
639 482 602 466 575 435 _c
548 404 535 362 535 309 _c
535 0 _l
445 0 _l
445 327 _l
445 379 435 418 417 444 _c
398 469 369 482 331 482 _c
}_e{285 482 248 466 221 435 _c
194 404 181 362 181 309 _c
181 0 _l
91 0 _l
91 547 _l
181 547 _l
181 462 _l
201 495 226 520 255 536 _c
283 552 317 560 357 560 _c
397 560 430 550 458 530 _c
486 510 506 480 520 442 _c
_cl}_e}_d
/s{{521 0 54 -13 472 560 _sc
443 531 _m
443 446 _l
417 458 391 468 364 475 _c
336 481 308 485 279 485 _c
234 485 200 478 178 464 _c
156 450 145 430 145 403 _c
145 382 153 366 169 354 _c
185 342 217 330 265 320 _c
296 313 _l
360 299 405 279 432 255 _c
458 230 472 195 472 151 _c
472 100 452 60 412 31 _c
372 1 316 -13 246 -13 _c
216 -13 186 -10 154 -5 _c
}_e{122 0 89 8 54 20 _c
54 113 _l
87 95 120 82 152 74 _c
184 65 216 61 248 61 _c
290 61 323 68 346 82 _c
368 96 380 117 380 144 _c
380 168 371 187 355 200 _c
339 213 303 226 247 238 _c
216 245 _l
160 257 119 275 95 299 _c
70 323 58 356 58 399 _c
58 450 76 490 112 518 _c
148 546 200 560 268 560 _c
301 560 332 557 362 552 _c
391 547 418 540 443 531 _c
}_e{_cl}_e}_d
/t{392 0 27 0 368 702 _sc
183 702 _m
183 547 _l
368 547 _l
368 477 _l
183 477 _l
183 180 _l
183 135 189 106 201 94 _c
213 81 238 75 276 75 _c
368 75 _l
368 0 _l
276 0 _l
206 0 158 13 132 39 _c
106 65 93 112 93 180 _c
93 477 _l
27 477 _l
27 547 _l
93 547 _l
93 702 _l
183 702 _l
_cl}_d
/y{592 0 30 -207 562 547 _sc
322 -50 _m
296 -114 271 -157 247 -177 _c
223 -197 191 -207 151 -207 _c
79 -207 _l
79 -132 _l
132 -132 _l
156 -132 175 -126 189 -114 _c
203 -102 218 -75 235 -31 _c
251 9 _l
30 547 _l
125 547 _l
296 119 _l
467 547 _l
562 547 _l
322 -50 _l
_cl}_d
end readonly def

/BuildGlyph
 {exch begin
 CharStrings exch
 2 copy known not{pop /.notdef}if
 true 3 1 roll get exec
 end}_d

/BuildChar {
 1 index /Encoding get exch get
 1 index /BuildGlyph get exec
}_d

FontName currentdict end definefont pop
%!PS-Adobe-3.0 Resource-Font
%%Title: DejaVu Sans Oblique
%%Copyright: Copyright (c) 2003 by Bitstream, Inc. All Rights Reserved. Copyright (c) 2006 by Tavmjong Bah. All Rights Reserved. DejaVu changes are in public domain 
%%Creator: Converted from TrueType to type 3 by PPR
25 dict begin
/_d{bind def}bind def
/_m{moveto}_d
/_l{lineto}_d
/_cl{closepath eofill}_d
/_c{curveto}_d
/_sc{7 -1 roll{setcachedevice}{pop pop pop pop pop pop}ifelse}_d
/_e{exec}_d
/FontName /DejaVuSans-Oblique def
/PaintType 0 def
/FontMatrix[.001 0 0 .001 0 0]def
/FontBBox[-1016 -350 1659 1068]def
/FontType 3 def
/Encoding [ /tau ] def
/FontInfo 10 dict dup begin
/FamilyName (DejaVu Sans) def
/FullName (DejaVu Sans Oblique) def
/Notice (Copyright (c) 2003 by Bitstream, Inc. All Rights Reserved. Copyright (c) 2006 by Tavmjong Bah. All Rights Reserved. DejaVu changes are in public domain ) def
/Weight (Oblique) def
/Version (Version 2.35) def
/ItalicAngle -11.0 def
/isFixedPitch false def
/UnderlinePosition -130 def
/UnderlineThickness 90 def
end readonly def
/CharStrings 2 dict dup begin
/.notdef 0 def
/tau{602 0 84 0 606 547 _sc
329 100 _m
337 84 359 76 395 76 _c
438 76 _l
423 0 _l
369 0 _l
310 0 270 15 250 47 _c
229 79 226 129 240 198 _c
290 457 _l
84 457 _l
102 547 _l
606 547 _l
589 457 _l
382 457 _l
330 193 _l
320 145 320 114 329 100 _c
_cl}_d
end readonly def

/BuildGlyph
 {exch begin
 CharStrings exch
 2 copy known not{pop /.notdef}if
 true 3 1 roll get exec
 end}_d

/BuildChar {
 1 index /Encoding get exch get
 1 index /BuildGlyph get exec
}_d

FontName currentdict end definefont pop
end
%%EndProlog
mpldict begin
75.6 223.2 translate
460.8 345.6 0 0 clipbox
gsave
0 0 m
460.8 0 l
460.8 345.6 l
0 345.6 l
cl
1.000 setgray
fill
grestore
gsave
57.6 38.016 m
414.72 38.016 l
414.72 304.128 l
57.6 304.128 l
cl
1.000 setgray
fill
grestore
0.800 setlinewidth
1 setlinejoin
0 setlinecap
[] 0 setdash
0.000 setgray
gsave
/o {
gsave
newpath
translate
0.8 setlinewidth
1 setlinejoin
0 setlinecap
0 0 m
0 -3.5 l

gsave
0.000 setgray
fill
grestore
stroke
grestore
} bind def
61.5427 38.016 o
grestore
/DejaVuSans findfont
10.000 scalefont
setfont
gsave
58.363008 23.422250 translate
0.000000 rotate
0.000000 0.000000 m /zero glyphshow
grestore
gsave
/o {
gsave
newpath
translate
0.8 setlinewidth
1 setlinejoin
0 setlinecap
0 0 m
0 -3.5 l

gsave
0.000 setgray
fill
grestore
stroke
grestore
} bind def
122.703 38.016 o
grestore
gsave
119.523646 23.422250 translate
0.000000 rotate
0.000000 0.000000 m /five glyphshow
grestore
gsave
/o {
gsave
newpath
translate
0.8 setlinewidth
1 setlinejoin
0 setlinecap
0 0 m
0 -3.5 l

gsave
0.000 setgray
fill
grestore
stroke
grestore
} bind def
183.864 38.016 o
grestore
gsave
177.504598 23.422250 translate
0.000000 rotate
0.000000 0.000000 m /one glyphshow
6.362305 0.000000 m /zero glyphshow
grestore
gsave
/o {
gsave
newpath
translate
0.8 setlinewidth
1 setlinejoin
0 setlinecap
0 0 m
0 -3.5 l

gsave
0.000 setgray
fill
grestore
stroke
grestore
} bind def
245.025 38.016 o
grestore
gsave
238.665237 23.422250 translate
0.000000 rotate
0.000000 0.000000 m /one glyphshow
6.362305 0.000000 m /five glyphshow
grestore
gsave
/o {
gsave
newpath
translate
0.8 setlinewidth
1 setlinejoin
0 setlinecap
0 0 m
0 -3.5 l

gsave
0.000 setgray
fill
grestore
stroke
grestore
} bind def
306.185 38.016 o
grestore
gsave
299.825876 23.422250 translate
0.000000 rotate
0.000000 0.000000 m /two glyphshow
6.362305 0.000000 m /zero glyphshow
grestore
gsave
/o {
gsave
newpath
translate
0.8 setlinewidth
1 setlinejoin
0 setlinecap
0 0 m
0 -3.5 l

gsave
0.000 setgray
fill
grestore
stroke
grestore
} bind def
367.346 38.016 o
grestore
gsave
360.986514 23.422250 translate
0.000000 rotate
0.000000 0.000000 m /two glyphshow
6.362305 0.000000 m /five glyphshow
grestore
gsave
209.863125 9.750375 translate
0.000000 rotate
0.000000 0.000000 m /t glyphshow
3.920898 0.000000 m /i glyphshow
6.699219 0.000000 m /m glyphshow
16.440430 0.000000 m /e glyphshow
22.592773 0.000000 m /comma glyphshow
25.771484 0.000000 m /space glyphshow
28.950195 0.000000 m /d glyphshow
35.297852 0.000000 m /a glyphshow
41.425781 0.000000 m /y glyphshow
47.343750 0.000000 m /s glyphshow
grestore
gsave
/o {
gsave
newpath
translate
0.8 setlinewidth
1 setlinejoin
0 setlinecap
0 0 m
-3.5 0 l

gsave
0.000 setgray
fill
grestore
stroke
grestore
} bind def
57.6 73.5714 o
grestore
gsave
34.693750 69.774490 translate
0.000000 rotate
0.000000 0.000000 m /zero glyphshow
6.362305 0.000000 m /period glyphshow
9.541016 0.000000 m /two glyphshow
grestore
gsave
/o {
gsave
newpath
translate
0.8 setlinewidth
1 setlinejoin
0 setlinecap
0 0 m
-3.5 0 l

gsave
0.000 setgray
fill
grestore
stroke
grestore
} bind def
57.6 111.356 o
grestore
gsave
34.693750 107.558813 translate
0.000000 rotate
0.000000 0.000000 m /zero glyphshow
6.362305 0.000000 m /period glyphshow
9.541016 0.000000 m /four glyphshow
grestore
gsave
/o {
gsave
newpath
translate
0.8 setlinewidth
1 setlinejoin
0 setlinecap
0 0 m
-3.5 0 l

gsave
0.000 setgray
fill
grestore
stroke
grestore
} bind def
57.6 149.14 o
grestore
gsave
34.693750 145.343136 translate
0.000000 rotate
0.000000 0.000000 m /zero glyphshow
6.362305 0.000000 m /period glyphshow
9.541016 0.000000 m /six glyphshow
grestore
gsave
/o {
gsave
newpath
translate
0.8 setlinewidth
1 setlinejoin
0 setlinecap
0 0 m
-3.5 0 l

gsave
0.000 setgray
fill
grestore
stroke
grestore
} bind def
57.6 186.924 o
grestore
gsave
34.693750 183.127458 translate
0.000000 rotate
0.000000 0.000000 m /zero glyphshow
6.362305 0.000000 m /period glyphshow
9.541016 0.000000 m /eight glyphshow
grestore
gsave
/o {
gsave
newpath
translate
0.8 setlinewidth
1 setlinejoin
0 setlinecap
0 0 m
-3.5 0 l

gsave
0.000 setgray
fill
grestore
stroke
grestore
} bind def
57.6 224.709 o
grestore
gsave
34.693750 220.911781 translate
0.000000 rotate
0.000000 0.000000 m /one glyphshow
6.362305 0.000000 m /period glyphshow
9.541016 0.000000 m /zero glyphshow
grestore
gsave
/o {
gsave
newpath
translate
0.8 setlinewidth
1 setlinejoin
0 setlinecap
0 0 m
-3.5 0 l

gsave
0.000 setgray
fill
grestore
stroke
grestore
} bind def
57.6 262.493 o
grestore
gsave
34.693750 258.696104 translate
0.000000 rotate
0.000000 0.000000 m /one glyphshow
6.362305 0.000000 m /period glyphshow
9.541016 0.000000 m /two glyphshow
grestore
gsave
/o {
gsave
newpath
translate
0.8 setlinewidth
1 setlinejoin
0 setlinecap
0 0 m
-3.5 0 l

gsave
0.000 setgray
fill
grestore
stroke
grestore
} bind def
57.6 300.277 o
grestore
gsave
34.693750 296.480426 translate
0.000000 rotate
0.000000 0.000000 m /one glyphshow
6.362305 0.000000 m /period glyphshow
9.541016 0.000000 m /four glyphshow
grestore
gsave
28.615625 167.572000 translate
90.000000 rotate
/DejaVuSans-Oblique findfont
10.0 scalefont
setfont
0.000000 0.531250 moveto
/tau glyphshow


grestore
1.500 setlinewidth
2 setlinecap
0.000 0.750 0.750 setrgbcolor
gsave
357.1 266.1 57.6 38.02 clipbox
73.832727 56.24601 m
73.918239 55.171336 l
74.089121 55.964639 l
74.431167 56.06012 l
75.456599 56.158303 l
76.054614 55.960138 l
76.567118 55.656959 l
76.737858 55.528475 l
76.994393 55.253561 l
77.250503 55.606017 l
77.336014 55.400129 l
77.421384 56.86431 l
77.506754 55.456849 l
77.592266 55.905474 l
77.677919 55.754379 l
77.763289 55.80733 l
78.019683 55.991826 l
79.130484 56.533191 l
79.728641 57.00225 l
80.583333 57.72428 l
80.754781 57.793244 l
81.096403 58.583281 l
81.438166 57.220939 l
81.779929 61.419571 l
81.865441 60.746117 l
82.207488 58.309371 l
82.464164 58.637186 l
82.976809 57.520941 l
83.745847 56.755881 l
84.429233 55.897589 l
85.027106 55.475599 l
85.2835 55.370924 l
85.36887 55.278301 l
85.45424 55.606487 l
85.53961 56.429973 l
85.625121 55.009881 l
85.710491 56.340601 l
85.881232 55.290277 l
86.308223 55.488135 l
86.99175 55.948548 l
87.333514 56.398169 l
87.8463 56.326163 l
88.529685 55.884901 l
89.042189 55.670818 l
89.555259 56.021442 l
89.640629 56.137202 l
89.72614 56.053873 l
89.896881 56.299731 l
90.495179 56.736348 l
90.58069 57.232536 l
90.666061 56.913694 l
91.008107 57.4324 l
91.691492 58.323723 l
92.118626 59.248792 l
92.289791 60.675653 l
93.485821 62.843727 l
94.425882 63.917216 l
94.853016 66.390662 l
95.622054 71.728704 l
95.792794 73.202059 l
96.049188 69.564333 l
96.134699 70.135345 l
96.305723 73.087605 l
96.476604 69.661675 l
96.647628 73.136187 l
96.732856 78.222082 l
96.904021 71.260661 l
97.074761 73.17085 l
97.160273 71.876292 l
97.245784 73.530804 l
97.587548 67.763527 l
97.843941 68.477024 l
98.100334 72.59416 l
98.185704 72.123724 l
98.271074 72.246037 l
98.356445 72.991496 l
98.783295 69.539941 l
98.868665 69.800341 l
98.954177 69.627179 l
99.039547 69.745263 l
99.21057 73.486252 l
99.29594 72.816493 l
99.38131 72.460922 l
99.552192 75.547989 l
99.722932 93.212052 l
99.894097 75.531498 l
99.979467 75.714816 l
100.235577 81.726226 l
100.577057 67.087064 l
100.662569 67.178151 l
100.918962 66.699507 l
101.175355 65.323417 l
101.260725 65.219992 l
101.346095 65.338885 l
101.431607 65.72235 l
101.60263 65.154701 l
101.773371 74.457572 l
101.944252 67.764431 l
102.200504 70.44798 l
102.285874 70.058229 l
102.456897 67.544015 l
102.542267 70.031052 l
102.713007 65.959458 l
102.798519 66.555014 l
103.311164 60.910274 l
103.567274 65.376257 l
103.652644 67.01333 l
103.909179 64.230112 l
103.994549 64.868089 l
104.080061 68.618488 l
104.251084 194.833585 l
104.336454 203.754128 l
104.678359 79.504568 l
104.763729 79.406879 l
104.934611 82.044914 l
105.105351 83.074873 l
105.190863 83.146125 l
105.361744 84.032977 l
105.789019 74.012123 l
106.216295 66.918072 l
106.728656 61.229996 l
106.814168 61.025167 l
107.156073 61.487446 l
107.412466 62.107436 l
107.925111 63.681147 l
108.095993 64.364614 l
108.779378 63.031874 l
108.950402 64.406228 l
109.035772 64.609037 l
109.121283 63.595569 l
109.292165 64.200637 l
109.463188 63.641339 l
109.548558 64.245546 l
109.63407 63.58085 l
109.719582 65.411933 l
109.890463 64.399416 l
110.061487 63.547987 l
110.146998 61.24925 l
110.40325 62.975948 l
110.488903 62.73536 l
110.574415 58.843296 l
110.659643 59.306056 l
110.745155 59.023803 l
110.830525 59.377922 l
110.916178 60.42739 l
111.17243 78.440475 l
111.514052 60.595086 l
111.684933 66.720169 l
111.941185 75.938361 l
112.197437 65.170019 l
112.282807 64.99121 l
112.368177 65.399048 l
112.62457 64.646893 l
112.710082 65.122384 l
112.881105 63.318048 l
113.22301 68.722444 l
113.735938 62.768659 l
113.90682 62.689314 l
114.248725 61.397993 l
114.505118 63.56071 l
114.675859 66.392214 l
114.932252 73.008568 l
115.017763 69.338232 l
115.273874 82.119345 l
115.359385 73.44713 l
115.444897 79.400326 l
115.530267 67.83183 l
115.615779 74.936557 l
115.70129 69.525519 l
115.872314 84.46155 l
115.957825 82.413322 l
116.043195 90.49083 l
116.128565 71.757852 l
116.214077 90.869521 l
116.299589 70.863548 l
116.384959 72.340535 l
116.470329 72.112473 l
116.55584 78.620933 l
116.81195 68.351094 l
116.983115 72.978153 l
117.068627 72.34843 l
117.153997 68.849798 l
117.239225 75.151367 l
117.49576 71.684941 l
117.666501 69.408866 l
117.752012 69.94674 l
117.837524 72.093012 l
117.923035 71.733963 l
118.008547 71.993209 l
118.179429 67.477137 l
118.43568 60.915412 l
118.521192 61.517206 l
118.606562 61.404097 l
118.691932 61.755429 l
118.948326 59.452631 l
119.033696 59.16183 l
119.204577 60.041412 l
119.802876 65.274132 l
119.888387 66.944682 l
119.973757 66.704059 l
120.059127 66.769211 l
120.401032 61.625599 l
120.486544 65.821587 l
120.742937 97.031847 l
121.084842 63.78129 l
121.170354 65.23038 l
121.426606 71.951145 l
121.768794 65.230371 l
121.939675 66.373456 l
122.281439 64.117606 l
122.537832 63.026924 l
123.13613 59.241084 l
123.221642 59.259244 l
123.478035 60.532204 l
124.161704 62.62011 l
124.247357 62.657821 l
124.760144 65.257963 l
125.272789 68.519545 l
125.614694 69.56224 l
125.700064 69.604021 l
125.956457 70.665151 l
126.041685 69.39784 l
126.212709 71.129414 l
126.38359 69.589513 l
126.469102 97.995199 l
126.554472 70.649041 l
126.639842 72.362471 l
126.725354 72.461295 l
126.810865 71.056644 l
126.896236 71.130976 l
126.981747 70.426654 l
127.15277 71.50924 l
127.23814 71.218397 l
127.323652 72.23322 l
127.494534 67.08242 l
127.665557 64.149938 l
127.751069 66.547483 l
127.836439 66.298667 l
127.922092 66.099069 l
128.007462 66.149163 l
128.349367 66.841835 l
128.43502 65.058842 l
128.862154 69.300663 l
128.947665 68.605319 l
129.2042 73.18121 l
129.37494 74.239808 l
129.46031 74.222347 l
129.545822 77.08681 l
129.631475 76.300493 l
129.802357 75.212249 m
130.144262 71.744661 l
130.486308 66.388767 l
130.65719 64.984126 l
130.82793 69.987216 l
131.084607 78.436263 l
131.169977 73.720531 l
131.341142 85.928543 l
131.426653 78.535077 l
131.512165 81.056912 l
131.683047 78.443538 l
131.93944 70.929697 l
132.024952 70.555209 l
132.195975 63.083178 l
132.366998 65.754645 l
132.53788 61.07076 l
132.62325 60.801621 l
132.794273 61.406972 l
132.879643 61.556419 l
133.050383 62.544643 l
133.477658 60.347602 l
133.563028 60.422216 l
133.734193 60.619456 l
133.990728 60.152794 l
134.076098 60.187939 l
134.417862 63.125787 l
134.76005 66.4681 l
134.930931 65.628055 l
135.187325 63.580621 l
135.272695 64.479187 l
135.614317 62.182773 l
135.870427 60.833926 l
136.126962 59.224583 l
136.811196 70.004656 l
136.896708 69.184766 l
137.067731 66.410939 l
137.580801 64.287572 l
137.666171 65.9914 l
137.751683 61.136701 l
137.922564 65.644161 l
138.008076 66.937479 l
138.179099 64.076451 l
138.349839 67.786455 l
138.435351 61.921415 l
138.606091 67.927539 l
138.691603 69.035132 l
138.862626 75.444125 l
139.204531 56.398682 l
139.290043 57.350325 l
139.546577 64.912642 l
139.631948 64.339492 l
139.888341 61.045823 l
140.059223 61.715753 l
140.230104 62.293807 l
140.657521 60.873903 l
140.914056 60.180728 l
141.170449 64.322203 l
141.682811 75.758774 l
142.024716 64.582142 l
142.366338 60.820816 l
142.708384 58.035199 l
142.793896 58.299745 l
142.879408 59.216506 l
142.964778 57.228291 l
143.221029 62.45549 l
143.306399 63.046729 l
143.477423 61.646255 l
143.648304 57.972412 l
143.733674 58.421276 l
143.989785 60.366149 l
144.160666 61.862225 l
144.33169 61.421455 l
144.417201 59.662655 l
144.588083 63.533516 l
144.759106 65.062979 l
145.015641 67.267688 l
145.357546 62.613106 l
145.699168 58.437467 l
145.784679 58.610956 l
146.383544 62.361196 l
146.468914 62.243735 l
147.152582 60.170912 l
147.836251 60.165545 l
148.349037 60.478757 l
150.315097 61.944979 l
150.657285 62.031129 l
151.426748 61.771454 l
153.905595 60.898681 l
156.46967 60.585127 l
157.323937 60.689825 l
157.49496 60.689125 l
157.665983 59.964198 l
157.751495 61.141186 l
157.836865 60.980852 l
157.922376 61.613716 l
158.007746 59.371111 l
158.0934 59.909546 l
158.264564 61.069289 l
158.349935 61.240024 l
158.69184 59.855427 l
158.948091 62.179972 l
159.118973 60.848746 l
159.204343 61.188268 l
159.546106 58.74983 l
159.802641 59.194854 l
159.973523 60.760612 l
160.144405 60.668057 l
161.084466 59.674705 l
161.426513 60.445471 l
161.683048 58.22799 l
162.025094 61.827315 l
162.110464 61.286004 l
162.281488 61.722705 l
162.452511 61.33316 l
162.794274 58.73698 l
162.879644 59.448868 l
163.050384 66.299455 l
163.477518 57.825365 l
163.563171 57.841683 l
163.819848 59.231486 l
164.247264 58.456365 l
164.674539 58.832308 l
164.930791 59.210411 l
165.016303 60.001904 l
165.101814 59.437505 l
165.187184 59.55425 l
165.614742 60.143629 l
166.041734 60.21814 l
166.298411 60.248274 l
166.554663 60.497263 l
166.896709 59.824023 l
167.238614 60.741115 l
167.494866 61.681381 l
167.751259 61.032865 l
168.264046 58.464669 l
168.349557 58.494519 l
168.947856 59.579974 l
169.033367 59.464467 l
169.717036 58.104565 l
170.656956 57.902512 l
171.340766 57.730679 l
174.758683 57.487018 l
176.382413 57.322933 l
177.493922 57.283366 l
177.921339 57.179223 l
180.485131 55.362671 l
180.741666 55.385087 l
181.425334 55.782 l
182.108861 56.231479 l
182.450907 56.28398 l
182.62193 56.323774 l
183.134717 55.456838 l
183.30574 55.292607 l
183.647787 58.080388 l
183.989692 61.683146 l
184.502337 54.407748 l
184.673077 55.471978 l
184.758589 55.084845 l
184.8441 55.223003 l
185.185864 69.868507 l
185.527344 75.811094 l
185.698509 82.558199 l
185.954761 97.200321 l
186.040131 94.602161 l
186.211154 64.793724 l
186.467406 55.469256 l
186.638146 52.827458 l
186.808886 52.30293 l
186.894398 52.33894 l
187.065562 52.740443 l
187.407326 54.627683 l
187.492696 54.389762 l
188.005199 52.376465 l
188.175939 52.201559 l
188.603214 52.843024 l
189.116284 53.628251 l
189.458331 53.250804 l
189.800094 57.467297 l
189.885464 57.419953 l
189.970976 56.958692 l
190.141858 54.510326 l
190.654503 58.370566 l
190.740014 58.05888 l
190.825526 58.008184 l
190.910896 59.019191 l
191.167572 63.831598 l
191.338454 63.48863 l
191.680642 78.086032 l
191.851524 54.094212 l
191.937036 66.101679 l
192.022547 64.473392 l
192.193429 68.660171 l
192.278799 65.135435 l
192.364311 65.956071 l
192.535051 60.928935 l
192.620562 64.081216 l
192.706074 58.940804 l
192.876956 69.141095 l
192.962467 60.437785 l
193.047837 71.548502 l
193.304231 61.760016 l
193.475112 88.67084 l
193.646277 69.724771 l
193.731789 74.612342 l
193.817442 102.409305 l
193.902812 62.779871 l
193.988324 77.177424 l
194.073835 74.920922 l
194.244576 62.267476 l
194.329946 62.580836 l
194.415457 73.841715 l
194.500969 64.918482 l
194.586339 79.117987 l
194.671709 76.271126 l
194.757221 85.142805 l
194.842874 68.93785 l
194.928385 71.798442 l
195.013897 70.199506 l
195.099409 75.683227 l
195.184779 68.769577 l
195.270149 75.286894 l
195.355944 74.534333 l
195.441314 76.338796 l
195.612195 86.225392 l
195.868589 65.026349 l
196.039612 69.767213 l
196.125124 60.234165 l
196.296005 71.679242 l
196.466887 57.314109 l
196.723139 101.566212 l
196.808792 80.467027 l
196.979815 114.728471 l
197.150697 70.776399 l
197.321579 61.930657 l
197.406949 61.58407 l
197.57783 67.119111 l
197.74857 62.230693 l
197.834224 66.420285 l
197.919735 66.249677 l
198.005247 67.674507 l
198.090759 67.603675 l
198.261782 56.038641 l
198.432805 60.562014 l
198.518317 187.006924 l
198.603828 55.633837 l
198.689482 72.80711 l
198.774852 78.450497 l
198.945733 64.803366 l
199.031103 67.072623 l
199.116757 72.462255 l
199.20241 63.885539 l
199.28778 70.618622 l
199.373291 63.787069 l
199.544173 73.08192 l
199.629543 59.016006 l
199.715196 75.621435 l
199.800708 72.692481 l
199.88622 65.068402 l
199.971731 65.882491 l
200.057101 76.380342 l
200.142471 73.404552 l
200.227983 69.418247 l
200.313495 58.189582 l
200.398865 94.294211 l
200.569888 60.046405 l
200.6554 67.450872 l
200.740911 110.18392 l
200.997446 60.27877 l
201.082958 56.272307 l
201.168469 63.781667 l
201.339351 55.492856 l
201.681256 53.631939 l
201.852279 53.847167 l
202.108531 55.045291 l
202.364641 59.275066 l
202.535665 61.876957 l
202.621176 61.062527 l
202.792058 65.126322 l
202.96294 59.911455 l
203.133963 64.668952 l
203.304845 69.30082 l
203.390356 74.194084 l
203.475868 151.192679 l
203.817773 72.873799 l
203.903143 69.519535 l
203.988513 117.625906 l
204.074025 115.775485 l
204.245048 59.468638 l
204.330559 63.53629 l
204.416071 61.4145 l
204.586953 68.833176 l
204.757976 56.288812 l
204.843346 56.962567 l
204.928716 58.604336 l
205.014228 57.622756 l
205.099881 61.854065 l
205.185251 52.739805 l
205.270763 54.562174 l
205.441644 53.879083 l
205.527014 53.640455 l
205.612526 55.950765 l
205.698038 55.826073 l
205.869061 67.235784 l
205.954573 68.377701 l
206.040084 57.185582 l
206.125596 67.283151 l
206.296619 58.406376 l
206.809547 66.982958 l
206.980429 65.601454 l
207.066082 59.188736 l
207.151594 59.845034 l
207.237106 59.247789 l
207.408412 62.116636 l
207.579294 58.763028 l
207.664805 58.696543 l
207.835687 59.513789 l
207.921057 59.216516 l
208.177592 63.324599 l
208.348757 60.99095 l
208.434127 63.06493 l
208.690662 59.681235 l
208.776173 61.13835 l
208.861685 60.6817 l
208.947055 60.707786 l
209.032567 61.581537 l
209.20359 67.132809 l
209.374472 62.358065 l
209.459842 62.661891 l
209.630865 60.249981 l
209.716235 61.002717 l
209.801747 60.217615 l
210.05814 65.611629 l
210.14351 64.849303 l
210.314675 73.424987 l
210.400045 72.036209 l
210.656438 86.236516 l
210.74195 87.847954 l
210.827603 85.529908 l
210.913256 90.134035 l
210.998626 81.924669 l
211.08428 85.14571 l
211.16965 94.332158 l
211.255303 83.164577 l
211.340673 89.757483 l
211.426185 84.805596 l
211.511696 93.194373 l
211.597208 91.301706 l
211.682861 87.143117 l
211.768373 89.531825 l
211.853884 88.89035 l
211.939254 88.875141 l
212.024624 89.782977 l
212.110278 83.997556 l
212.195648 91.875518 l
212.366529 86.346553 l
212.451899 88.529336 l
212.537553 81.104341 l
212.623064 83.004776 l
212.708434 78.421509 l
212.794088 83.920515 l
212.879316 82.360215 l
213.050481 79.666662 l
213.648921 101.187063 l
213.734432 93.455455 l
213.819944 114.260465 l
213.905456 110.829782 l
214.076337 63.242736 l
214.161707 65.435326 l
214.247077 69.605744 l
214.332589 68.956069 l
214.503612 71.459005 l
214.674494 87.609624 l
214.759864 89.40248 l
214.845234 87.088092 l
214.930746 92.404863 l
215.016399 60.155561 l
215.101769 69.549163 l
215.187281 69.318564 l
215.272651 69.58604 l
215.529186 88.171249 l
215.614697 83.3641 l
215.785721 91.476562 l
215.871232 82.901973 l
215.956744 93.415058 l
216.298224 60.49213 l
216.383736 62.481773 l
216.469106 64.793884 l
216.554476 63.314747 l
216.725499 57.654199 l
216.810869 57.218461 l
216.896381 57.904281 l
217.238427 67.252777 l
217.494821 93.033072 l
217.580332 77.381574 l
217.665844 119.897143 l
217.751356 116.295564 l
218.093544 83.614043 l
218.178914 82.785272 l
218.349937 60.876786 l
218.435449 60.836215 l
218.520819 65.709192 l
218.60633 64.966999 l
218.691842 98.345454 l
218.862865 67.200555 l
219.033889 72.795525 l
219.1194 72.344158 l
219.204912 71.625156 l
219.375935 75.189075 l
219.461305 74.530901 l
219.546817 71.792829 l
219.632187 72.354716 l
219.803068 69.635958 l
219.88858 68.2098 l
220.401367 74.71041 l
220.48702 75.620556 l
220.914012 89.262468 l
220.999523 89.172025 l
221.085035 88.071696 l
221.170405 82.958141 l
223.136465 112.80457 m
223.221977 119.023295 l
223.307488 113.379716 l
223.47837 154.330438 l
223.649252 99.598427 l
223.820275 180.817977 l
223.905645 147.096235 l
223.991015 292.032 l
224.162038 77.334569 l
224.247408 86.138437 l
224.332778 119.219465 l
224.41829 92.728709 l
224.50366 119.935476 l
224.589172 97.971882 l
224.760053 143.882419 l
224.845565 124.384754 l
224.931077 198.91512 l
225.016447 159.162538 l
225.1021 202.512454 l
225.35821 134.107895 l
225.529375 140.256192 m
225.700115 106.484966 l
225.871138 128.89802 l
226.212902 92.859336 l
226.298272 126.482404 l
226.383925 97.0979 l
226.469437 101.087061 l
226.725405 72.057506 l
226.896287 73.954504 m
226.981798 109.425051 l
227.06731 72.991454 l
227.152822 82.092968 l
227.238192 85.997699 l
227.323703 81.060641 l
227.409215 94.952686 l
227.494727 68.585977 l
227.580097 71.079018 l
227.665467 72.605155 l
227.75112 71.182982 l
227.83649 71.69948 l
227.922002 67.771584 l
228.007513 127.971064 l
228.093025 72.359026 l
228.178537 79.707658 l
228.264048 79.545407 l
228.349418 74.649083 l
228.435072 86.942969 l
228.520583 72.640286 l
228.606095 112.300423 l
228.776976 75.782937 l
228.862347 77.667913 l
228.947717 83.778207 l
229.033087 78.491446 l
229.460503 103.840428 l
229.887778 69.265285 l
229.973148 76.030069 l
230.058802 92.556996 l
230.229683 63.489667 l
230.315195 72.13932 l
230.400565 92.169125 l
230.486218 72.595315 l
230.57173 177.056979 l
230.657241 63.111656 l
230.742753 63.795453 l
230.828265 50.112 l
231.084658 98.452963 l
231.170028 153.340686 l
231.341051 66.114493 l
231.426563 75.83064 l
231.511933 87.294333 l
231.597445 58.85387 l
231.682956 83.38509 l
231.85398 64.904351 l
232.024861 69.588334 l
232.537789 87.648632 l
232.879553 77.608052 l
233.050576 89.753494 l
233.221458 69.579493 l
233.306828 68.147737 l
233.477851 71.100894 l
233.563504 72.556022 l
233.648874 71.6711 l
233.734386 73.874804 l
233.819898 156.020642 l
233.990638 66.193194 l
234.076149 70.192155 l
234.247173 62.134897 l
234.332684 64.657573 l
234.418196 70.614069 l
234.589361 59.232394 l
234.674872 58.132274 l
234.845896 59.01282 l
234.931407 59.13254 l
235.187942 58.798308 l
235.273595 58.911133 l
235.53013 60.330413 l
235.872177 63.586741 l
236.299452 70.267686 l
236.384964 67.804484 l
236.641498 74.235489 l
236.812522 71.28299 l
237.41082 61.143585 l
237.496332 61.354413 l
237.667213 69.871234 l
237.752583 68.831617 l
237.837953 70.115114 l
237.923465 67.781517 l
238.094205 78.946435 l
238.179858 77.714474 l
238.265512 79.692511 l
238.521905 74.897047 l
238.692787 78.116695 l
238.863668 76.038786 l
238.949322 78.762645 l
239.034833 73.86267 l
239.205715 79.66924 l
239.291227 72.14418 l
239.376738 75.149044 l
239.462391 97.08709 l
239.633415 66.875789 l
239.718785 66.471839 l
239.804296 66.970136 l
240.231713 75.761848 l
240.402736 64.842678 l
240.488248 68.934922 l
240.573618 66.412192 l
240.659129 77.988979 l
240.830153 66.686986 l
240.915664 64.57708 l
241.172341 67.080719 l
241.257711 67.048226 l
241.343081 66.602057 l
241.428593 68.897464 l
241.599757 62.55953 l
241.685269 62.702395 l
241.770781 63.377344 l
242.369362 74.419901 l
242.796496 92.446561 l
242.882007 93.415444 l
243.053031 97.063093 l
243.138401 97.781412 l
243.480447 105.351543 l
243.907864 77.935654 l
244.164115 80.352014 l
244.334997 85.841272 l
244.420509 81.779418 l
244.591532 94.077 l
244.677185 96.742235 l
245.190113 130.504985 l
245.275484 128.547994 l
245.446507 109.560105 l
245.617389 89.781513 l
245.7029 93.475336 l
250.404624 103.630763 m
250.490136 104.47049 l
251.344969 105.851263 m
251.430339 105.039794 l
252.028496 120.486685 m
252.114149 119.225194 l
252.370826 111.401911 l
252.712872 117.461995 l
252.883754 133.888162 l
252.969407 132.529465 l
253.054919 123.963822 l
253.140289 166.742519 l
253.2258 125.138576 l
253.31117 141.285756 l
253.909752 76.457068 m
254.166145 95.760848 l
254.59342 116.191432 l
254.849955 130.841504 l
255.020978 141.418749 l
255.19186 113.582128 m
255.277513 104.845753 l
255.53419 151.868181 l
255.619701 189.805913 l
255.790725 162.634132 l
255.876095 166.168265 l
256.047118 204.544534 l
256.13263 218.612759 l
256.303511 191.133351 l
256.388881 198.192341 l
256.559905 230.640991 l
256.645416 233.883166 l
256.816298 247.465258 l
256.90181 245.392064 l
257.072833 224.226864 l
257.329509 144.553551 l
257.500533 104.56859 l
257.671414 114.318318 l
257.842438 94.308044 l
257.927808 97.505956 l
258.098689 94.207258 l
258.525823 84.154518 l
258.867728 93.62783 l
258.953239 93.401339 l
259.038609 91.700796 l
259.466026 71.44702 l
259.978813 65.52307 l
260.064324 65.793778 l
260.235206 62.513 l
260.491599 65.532422 l
260.577111 65.498341 l
260.662481 64.879817 l
260.747993 65.137798 l
260.919016 63.01688 l
261.090181 68.356128 l
261.346716 63.423328 l
261.60325 59.750445 l
261.945155 56.036669 l
262.030667 56.200105 l
262.287344 57.0838 l
262.372714 57.020943 l
262.458225 57.193982 l
263.313058 54.841004 l
263.569452 54.724245 l
263.91164 54.852386 l
264.082522 54.921178 l
264.167892 54.898761 l
264.338915 55.168006 l
264.424427 54.903414 l
264.59545 55.40109 l
264.766331 55.850783 l
265.27926 58.533718 l
265.450283 59.236501 l
265.621023 59.653264 l
265.877558 60.412582 l
265.96307 59.116677 l
266.048723 60.082029 l
266.134234 59.711613 l
266.305258 72.026641 l
266.390769 63.231205 l
266.56151 69.977153 l
266.647163 71.745418 l
266.732674 68.865621 l
266.818044 81.642975 l
267.245744 63.022446 l
267.416626 67.419714 l
267.502137 66.370533 l
267.587791 65.711659 l
267.929696 68.552582 l
268.100577 66.59143 l
268.271601 70.189487 l
268.357112 68.74414 l
268.527994 57.445422 l
268.613364 59.79003 l
268.698734 65.752751 l
268.869757 57.803132 l
268.955411 56.457492 l
269.126292 58.537065 l
269.468056 54.601975 l
269.724449 54.054907 l
270.49377 53.230986 l
271.177297 53.065356 l
271.604714 53.133486 l
273.740806 54.46797 l
275.791669 55.092337 l
276.304314 55.192 l
276.475479 53.659579 l
276.731731 53.626739 l
276.902754 53.315528 l
276.988124 55.02642 l
277.073636 55.003085 l
278.612704 54.478639 l
279.211427 54.366821 l
281.17777 54.768164 l
281.775926 55.329135 l
282.887153 53.892484 l
283.058035 54.253764 l
283.485451 55.669539 l
284.340143 69.999479 l
284.596819 72.155005 l
284.682189 72.185794 l
284.938724 71.528829 l
285.024236 71.678848 l
285.109747 68.57304 l
285.195401 68.716064 l
285.280771 68.327647 l
285.537447 69.102872 l
285.793982 80.454539 l
285.879494 78.537082 l
286.135887 81.708808 l
286.22154 81.437381 l
286.563304 81.988691 l
286.819697 83.934481 l
286.905067 83.801443 l
287.247114 91.259852 l
287.418137 89.405066 l
287.503648 84.058125 l
287.58916 85.385001 l
287.845553 81.336331 l
288.101947 79.067601 l
288.615017 89.030868 l
288.871551 96.768287 l
288.956921 90.909946 l
289.042433 92.686277 l
289.127803 87.293819 l
289.384338 93.724739 l
289.55522 89.932385 l
289.64059 89.386011 l
289.811613 90.861392 l
289.896983 82.868924 l
289.982495 93.555302 l
290.068006 91.224952 l
290.153376 91.267426 l
290.238888 96.643498 l
290.3244 85.10128 l
290.409911 89.09071 l
290.666588 74.098153 l
290.7521 73.631066 l
290.837611 72.183253 l
291.008351 74.115935 l
291.093863 77.43858 l
291.179375 77.24353 l
291.435626 80.679967 l
291.521138 80.821207 l
291.60665 81.385439 l
291.69202 81.233155 l
291.863184 81.957907 l
292.034208 87.890872 l
292.119861 91.928869 l
292.205231 102.614787 l
292.547419 82.243008 l
292.718301 92.222746 l
292.974836 74.2936 l
293.060347 88.425798 l
293.145717 68.429792 l
293.231229 83.780996 l
293.402111 77.812023 l
293.487764 80.041165 l
293.658787 96.309889 l
293.74444 94.574703 l
293.82981 97.708278 l
293.915322 89.82847 l
294.000692 91.459626 l
294.086204 91.814249 l
294.257369 86.787318 l
294.342739 80.98862 l
294.42825 90.139437 l
294.684644 75.390927 l
294.770014 73.715625 l
294.941037 80.067268 l
295.026549 90.582401 l
295.11206 89.183803 l
295.197572 93.293518 l
295.368454 87.407489 l
295.453965 88.168085 l
295.539477 94.163927 l
295.624988 89.608408 l
295.79587 106.719461 m
295.881382 94.03463 l
295.966752 155.372155 l
296.052405 148.702711 l
296.137917 128.442711 l
296.223428 202.410227 l
296.479963 109.031924 l
296.650845 171.471401 m
296.736215 173.613217 l
296.90738 86.940039 m
296.992891 113.998219 l
297.249426 88.108793 l
297.334938 93.28137 l
297.506103 90.15403 l
297.677126 109.148297 l
297.762638 108.230799 l
298.019173 127.306851 m
298.361502 160.332123 l
298.446872 87.571263 l
298.532384 142.656795 l
298.703549 107.75361 l
298.874431 130.092155 l
298.959801 207.383925 l
299.301706 99.900172 m
299.387217 104.983524 l
299.472729 165.328376 l
299.558099 102.25808 l
299.643611 117.858691 l
299.729264 120.073866 l
299.814634 118.923303 l
299.900145 128.804729 l
299.98594 98.447718 l
300.071452 163.985661 l
300.156963 80.163343 l
300.242475 106.512136 l
300.327987 83.93475 l
300.413357 98.097076 l
300.669609 67.28868 l
300.840773 92.051801 l
300.926285 79.310125 l
301.097025 92.323651 l
301.182537 72.951129 l
301.353418 129.148567 l
301.524442 89.276104 l
301.609812 102.336369 l
301.695323 85.204894 l
301.780835 113.883696 l
301.866347 110.05166 l
301.951858 111.438075 l
302.03737 105.861803 l
302.12274 106.363036 l
302.293763 107.619275 l
302.635951 103.163865 l
302.721321 107.611174 l
302.806833 139.435344 l
302.892203 130.987232 l
303.063226 186.5619 l
303.148738 159.220351 l
303.319761 182.35365 l
303.490785 158.549503 l
303.661808 169.418494 l
303.747178 163.615357 l
304.003854 131.5398 l
304.345618 105.577407 l
304.430988 112.18022 l
304.516499 111.904726 l
304.687381 109.395147 l
304.772751 112.956596 l
304.943775 105.906169 l
305.029428 104.570193 l
305.200168 105.52379 l
305.371191 102.138207 l
305.456703 100.065221 l
305.542214 91.920483 l
305.627726 93.762186 l
305.883978 98.186142 l
306.055001 88.044511 l
306.140371 88.997654 l
306.225883 90.360524 l
306.396906 84.530518 l
306.482418 85.17807 l
306.567929 89.210774 l
306.824464 78.576413 l
307.080999 75.80784 l
307.337676 65.05213 l
307.423046 64.163924 l
307.593927 66.108722 l
307.764809 69.64429 l
308.448902 64.196362 l
308.619784 65.719448 l
308.790807 68.433923 l
309.303735 58.835845 l
309.389247 63.729816 l
309.474758 78.227959 l
309.56027 74.890472 l
309.645782 62.078286 l
309.731152 62.722686 l
309.816663 63.348815 l
309.987687 69.234556 l
310.158568 64.029561 l
310.329592 67.170779 l
310.414962 109.027187 l
310.585843 61.954641 l
310.671497 61.738594 l
310.75715 65.97422 l
310.84252 65.319005 l
311.013543 59.972281 l
311.099196 59.159036 l
311.184708 59.663139 l
311.526613 66.472431 l
311.697636 76.561563 l
311.783148 74.374215 l
311.868801 91.640513 l
311.954171 90.233489 l
312.381871 70.059971 l
312.467241 74.878119 l
312.638264 64.810383 l
312.723776 59.468481 l
312.809146 74.76871 l
312.894799 64.108503 l
312.980169 65.389001 l
313.151192 64.561062 l
313.236563 64.303099 l
313.407727 61.381181 l
313.578751 64.321843 l
313.664262 65.446541 l
313.749774 65.291952 l
313.835286 65.778921 l
313.920939 70.190911 l
314.006309 65.793852 l
314.091962 70.26946 l
314.177474 86.142858 l
314.262844 62.998529 l
314.433725 78.619218 l
314.519237 71.610225 l
314.604749 84.024694 l
314.69026 82.037378 l
314.861142 62.176917 l
314.946654 63.373705 l
315.032024 62.764419 l
315.202905 79.552403 l
315.288275 77.100585 l
315.373787 74.710226 l
315.459157 76.396092 l
315.630039 65.989943 l
315.71555 68.337218 l
315.886574 83.51412 l
316.057739 67.517111 l
316.228903 65.868503 l
316.399927 70.111312 l
316.570808 82.063674 l
316.656462 68.678909 l
316.912996 96.092702 l
316.998508 80.368015 l
317.169531 116.264027 l
317.340555 67.16728 l
317.426208 66.201592 l
317.511719 68.325052 l
317.682884 77.700464 l
317.768254 69.152855 l
317.939278 82.180875 l
318.024931 80.763736 l
318.110442 86.063296 l
318.195954 115.580219 l
318.366836 72.675655 l
318.452347 73.677184 l
318.623229 78.631976 l
318.708882 78.914097 l
318.879906 75.115478 l
318.965276 68.990125 l
319.050929 69.766196 l
319.136299 67.313337 l
319.221811 84.4023 l
319.392834 81.223956 m
319.478345 87.422673 l
319.649369 64.083691 l
319.820392 119.530777 l
319.905762 73.958658 l
320.076785 170.818945 l
320.162155 78.983637 l
320.247667 99.248613 l
320.41869 71.407139 l
320.675084 76.780689 l
320.760595 81.690316 l
320.845965 81.311599 l
321.016847 80.407772 l
321.102359 80.207783 l
321.18787 77.999417 l
321.5302 83.479933 l
321.61557 74.557423 l
321.701082 82.510266 l
321.871963 74.352217 l
321.957475 74.820909 l
322.213868 70.613163 l
322.29938 75.578236 l
322.38475 73.295766 l
322.47012 74.208143 l
322.641143 71.569429 l
322.726655 87.372886 l
322.897395 71.984364 l
322.982765 103.614315 l
323.153788 74.385823 l
323.2393 76.639673 l
323.410323 69.440623 l
323.495835 68.126084 l
323.581347 68.546687 l
323.666717 75.075541 l
323.752228 67.81394 l
323.92311 78.887048 l
324.093992 69.717105 l
324.264873 68.363115 l
324.350385 68.510281 l
324.435897 71.633689 l
324.521267 67.967138 l
324.606778 68.142558 l
324.69229 68.275334 l
324.863596 62.936178 l
324.948966 72.32599 l
325.034478 67.683866 l
325.119848 73.252466 l
325.20536 72.897079 l
325.376241 67.239669 l
325.461612 68.807159 l
325.547123 67.177837 l
325.718005 71.197937 l
325.889028 65.201743 l
325.974398 65.343582 l
326.05991 66.084955 l
326.145421 65.938111 l
326.316303 66.479989 l
326.573263 72.52432 l
326.658774 76.793721 l
326.744286 74.601987 l
326.829656 80.572541 l
326.915309 74.740642 l
327.086191 84.392763 l
327.171703 79.45563 l
327.257214 91.501873 l
327.428096 66.452425 l
327.513749 71.002205 l
327.684631 76.866716 l
327.770142 76.837633 l
327.855654 104.465311 l
327.941166 75.10593 l
328.283071 114.151013 l
328.368582 85.049311 l
328.453952 102.421332 l
328.539606 101.695093 l
328.795999 84.492847 l
328.881652 83.115212 l
329.052392 74.383096 l
329.137904 66.911197 l
329.223416 67.282844 l
329.308927 67.833272 l
329.47995 67.274321 l
329.565462 65.843934 l
329.650974 61.256129 l
330.249697 91.836473 l
330.420578 66.185056 l
330.50609 64.474233 l
330.933507 81.518347 l
331.019018 66.261362 l
331.104671 68.133977 l
331.190042 71.079496 l
331.275695 70.603089 l
331.532088 73.277197 l
331.617741 73.010786 l
331.703111 71.945851 l
331.874135 64.196004 l
331.959505 64.537135 l
332.045016 65.745109 l
332.21604 71.854101 l
332.558086 62.856039 l
332.643598 63.16709 l
332.729109 64.043081 l
332.900133 63.316633 l
333.242321 65.444278 l
333.584226 68.052707 l
333.669737 67.965807 l
333.926131 69.535283 l
334.267894 72.645689 l
334.353547 76.040259 l
334.439059 71.318916 l
334.524571 74.715505 l
334.695735 96.374137 l
334.781105 99.137842 l
335.03764 79.044997 l
335.20838 76.684695 l
335.635797 79.789343 l
335.80682 74.488129 l
335.892474 84.95312 l
335.977844 83.529191 l
336.148867 66.050932 l
336.234237 69.743024 l
336.319749 68.59292 l
336.49063 60.738274 l
336.576142 61.214854 l
336.832394 69.13494 l
337.773305 77.669252 m
337.944328 72.23253 l
338.115068 71.522248 l
338.20058 70.588985 l
338.371461 58.566843 l
338.542485 55.089766 l
338.627996 70.389475 l
338.799161 126.174892 l
338.970043 72.971622 l
339.055555 69.725953 l
339.226295 57.895061 l
339.397318 56.829058 l
339.739223 61.769206 l
340.081269 94.389293 l
340.252151 71.26673 l
340.337663 99.346186 l
340.508544 76.625089 l
340.594056 143.815817 l
340.679568 125.79629 l
340.850733 80.654783 l
341.021897 74.183666 l
341.363802 70.276628 l
341.620479 69.075923 l
341.791219 69.748142 l
341.962242 70.699976 l
342.218777 69.747585 l
342.560824 68.048413 l
342.646477 67.632664 l
342.817359 68.961585 l
342.902729 64.164593 l
342.988382 67.27497 l
343.074035 66.038145 l
343.244917 68.724711 l
343.330428 63.902692 l
343.41594 67.073859 l
343.586822 63.720469 l
343.843215 65.437036 l
344.014238 71.471047 l
344.612537 105.689062 l
344.698048 105.262962 l
345.039953 59.631739 l
345.125606 59.722732 l
345.382 65.930887 l
345.723905 67.817633 l
345.894786 65.515877 l
346.065951 60.209252 l
346.151321 60.17467 l
346.322345 60.96386 l
346.407856 63.316815 l
346.493226 63.013414 l
346.749761 62.100624 l
346.920643 62.178305 l
347.519507 62.534571 l
347.605019 61.642062 l
347.690531 61.659146 l
347.947066 61.756707 l
348.203459 60.09034 l
348.289112 60.219304 l
348.887694 55.759822 l
349.40048 55.269081 l
349.571362 54.999901 l
350.169802 53.689517 l
350.511848 53.493585 l
351.024776 53.402753 l
352.307309 53.502103 l
353.247513 53.637851 l
354.102912 53.685472 l
354.530329 53.662794 l
355.043257 53.643285 l
355.983319 54.165991 l
356.410735 54.267065 l
356.923663 54.06247 l
357.094545 54.172925 l
357.77878 55.434163 l
358.377361 58.044854 l
358.633755 56.196519 l
358.890289 54.759329 l
359.317848 53.449244 l
359.403218 53.361022 l
359.574241 53.653882 l
359.745123 54.37299 l
360.001516 53.684146 l
360.087028 53.819506 l
360.257768 58.829955 l
360.428791 66.544868 l
360.514444 66.783295 l
360.856349 59.832557 l
360.941719 59.952042 l
361.112743 56.162349 l
361.198537 57.649317 l
361.283907 57.637903 l
361.625812 57.472614 l
361.711324 58.639823 l
361.796836 58.175422 l
362.224394 62.190183 l
362.566299 69.737065 l
362.65181 71.436325 l
362.908345 64.533171 l
362.993857 64.834053 l
363.079227 64.616807 l
363.164597 64.689723 l
363.335762 63.122575 l
363.592155 75.268584 l
363.763178 65.197883 l
363.93406 63.785272 l
364.019572 64.041877 l
364.105083 63.940261 l
364.190595 62.851245 l
364.5325 95.463692 l
364.618153 94.037212 l
364.789176 63.248362 l
364.874547 58.407574 l
364.960058 58.890697 l
365.216735 65.192809 l
365.302246 64.083107 l
365.558781 59.56461 l
365.644293 59.334806 l
365.729946 59.372086 l
365.900969 59.141097 l
366.585062 56.222659 l
366.756227 56.14048 l
367.183927 56.350136 l
368.124696 57.343084 l
368.295578 57.951951 l
368.38109 57.325581 l
368.466601 58.76473 l
368.552113 57.378897 l
368.637625 58.173701 l
368.723136 57.948565 l
368.979671 56.893313 l
369.065183 59.557765 l
369.150695 59.32544 l
369.321718 61.38008 l
369.578253 54.903387 l
369.663764 55.941181 l
369.749276 54.382059 l
370.005811 63.665746 l
370.262346 59.132399 l
370.347857 59.32987 l
370.518881 59.356333 l
370.604392 58.801672 l
370.689904 60.966465 l
371.032092 57.69262 l
371.374422 59.552472 l
371.973003 55.761798 l
372.058515 55.72674 l
372.229538 56.077399 l
372.400278 56.871434 l
372.48579 58.002106 l
372.571301 57.954862 l
372.742042 66.468404 l
372.827695 66.481845 l
373.08423 64.234526 l
373.169741 64.479622 l
373.425993 67.824093 l
373.853693 60.237684 l
374.110369 57.381323 l
374.195881 57.729813 l
374.367046 59.204644 l
374.623298 57.371231 l
374.708809 57.505361 l
374.794179 56.591489 l
374.879549 56.759519 l
375.136226 57.922663 l
375.307249 57.663401 l
375.478414 56.685666 l
375.64972 58.989928 l
375.735373 58.953262 l
375.821027 56.680038 l
375.991908 59.011982 l
376.333955 56.997372 l
376.419467 58.343896 l
376.504978 57.578887 l
376.67586 60.237241 l
376.761372 58.834846 l
377.10356 62.182402 l
377.189071 61.902427 l
377.530835 58.316432 l
377.702 58.442084 l
377.78737 58.837621 l
377.872881 58.797062 l
378.044046 56.267875 l
378.300298 55.701096 l
378.385809 55.821373 l
378.471463 54.671233 l
378.899021 58.740672 l
379.069902 58.901224 l
379.582831 57.877786 l
379.668342 57.970642 l
380.181129 58.735669 l
380.266641 58.780196 l
380.523176 58.366435 l
382.147189 55.064415 l
383.087534 53.765206 l
383.515233 54.052484 l
384.113673 54.776489 l
384.45572 55.196994 l
385.05416 55.255705 l
385.567229 56.573131 l
385.738394 56.957567 l
385.909559 56.818597 l
386.678739 55.876368 l
387.106439 55.638362 l
388.731443 54.270093 l
391.553327 53.953624 l
393.007308 53.429033 l
393.092819 53.276975 l
393.178331 53.720373 l
393.263984 53.241545 l
393.349496 53.339196 l
393.606172 53.298725 l
394.46143 53.012063 l
394.632454 52.791604 l
394.718107 53.14181 l
394.803618 52.715126 l
394.88913 52.775788 l
395.145665 52.67876 l
395.487428 52.646045 l
396.770103 52.89556 l
396.941126 52.722238 l
397.026638 52.579455 l
397.112291 52.968759 l
397.197661 52.8915 l
397.368684 53.337457 l
397.539708 51.925589 l
397.625219 51.730319 l
397.710731 54.152891 l
397.882604 56.270766 m
397.968965 50.361138 l
398.055467 52.760094 l
398.141828 51.533697 l
398.487273 53.833643 l
398.487273 53.833643 l
stroke
grestore
0.627 0.314 0.314 setrgbcolor
gsave
357.1 266.1 57.6 38.02 clipbox
73.832727 56.504712 m
74.003609 57.925052 l
74.089121 57.139506 l
74.174774 57.323532 l
75.371087 59.606599 l
75.798362 60.214794 l
75.969386 60.193508 l
76.140126 61.215318 l
76.310866 60.715616 l
76.652488 61.855749 l
76.994393 60.420388 l
77.079763 60.742409 l
77.165133 61.237739 l
77.250503 61.195484 l
77.336014 60.810701 l
77.421384 63.680647 l
77.506754 60.503221 l
77.592266 61.441539 l
77.763289 60.425027 l
77.848659 60.563512 l
78.190706 60.186853 l
79.472248 59.896712 l
80.070688 60.848637 l
80.583333 61.472651 l
80.754781 61.587644 l
81.096403 63.291496 l
81.182056 63.020332 l
81.438166 61.885317 l
81.779929 65.443355 l
81.865441 65.237836 l
82.207488 63.740472 l
82.378511 63.83873 l
82.464164 63.828221 l
82.976809 62.777825 l
83.574966 62.416748 l
84.429233 61.358539 l
85.2835 60.518278 l
85.36887 60.288203 l
85.45424 60.742746 l
85.53961 62.020624 l
85.625121 58.060108 l
85.710491 61.737207 l
85.881232 59.911522 l
86.137342 59.916588 l
86.308223 59.969832 l
86.906239 60.622213 l
87.333514 62.103859 l
87.589907 62.050018 l
87.8463 61.746465 l
88.615197 60.593353 l
88.956819 60.476854 l
89.213495 60.840025 l
89.555259 61.582334 l
89.640629 61.951024 l
89.72614 61.572735 l
89.896881 62.423143 l
90.153274 63.109165 l
90.751431 64.566194 l
91.777004 67.231901 l
93.144199 72.332869 l
94.169489 76.840256 l
94.425882 78.228516 l
94.853016 83.327264 l
95.280149 88.088478 l
95.451173 88.895621 l
95.792794 97.808703 l
96.134699 89.912744 l
96.220211 91.539078 l
96.305723 95.341906 l
96.562116 84.647862 l
96.647628 83.133992 l
96.732856 93.157448 l
96.904021 83.957565 l
96.989391 84.085045 l
97.245784 81.49504 l
97.331154 81.436712 l
97.502036 81.930125 l
97.587548 81.891108 l
97.758571 81.949607 l
97.843941 82.209422 l
98.271074 88.969914 l
98.527185 94.47037 l
98.612555 93.026409 l
98.868665 89.14379 l
99.039547 92.02214 l
99.29594 97.344278 l
99.46668 95.166583 l
99.552192 96.751265 l
99.722932 114.031097 l
99.808443 110.958657 l
99.894097 103.340689 l
100.064837 110.32072 l
100.150207 109.754627 l
100.235577 107.575179 l
100.662569 84.742928 l
100.747939 82.923731 l
100.83345 83.405519 l
100.918962 83.980636 l
101.260725 80.614661 l
101.346095 81.445749 l
101.431607 81.208339 l
101.60263 80.338692 l
101.773371 87.955847 l
101.944252 82.489469 l
102.285874 87.202338 l
102.456897 81.520959 l
102.542267 85.484578 l
102.627637 78.558449 l
102.713007 79.121599 l
103.140282 73.345361 l
103.225794 74.177203 l
103.311164 71.397615 l
103.738156 81.39858 l
103.823668 81.263027 l
103.909179 80.962104 l
103.994549 83.017784 l
104.080061 91.159838 l
104.251084 232.674993 l
104.421824 196.766284 m
104.678359 92.698651 l
104.763729 95.517019 l
104.849241 103.124172 l
104.934611 96.986047 l
105.105351 116.872443 l
105.190863 117.293096 l
105.361744 119.867964 l
105.447256 118.680597 l
105.703508 100.724067 l
105.960043 91.33214 l
106.728656 72.758713 l
106.899538 72.46095 l
107.070561 72.626886 l
107.327096 73.039373 l
107.583348 73.387882 l
107.754088 73.496005 l
108.010623 74.559035 l
108.095993 74.983671 l
108.266875 73.068434 l
108.437898 74.515464 l
108.779378 73.367186 l
109.035772 74.774417 l
109.463188 77.015065 l
109.548558 77.096331 l
109.63407 77.010279 l
109.805093 75.977304 l
109.975975 77.090983 l
110.146998 75.726418 l
110.232368 76.894941 l
110.31788 75.16947 l
110.40325 76.771231 l
110.488903 75.707133 l
110.659643 62.620858 l
110.745155 67.450695 l
110.830525 62.877552 l
111.17243 88.646214 l
111.257942 83.162518 l
111.428682 73.862119 l
111.514052 72.487775 l
111.684933 81.33746 l
111.941185 95.567052 l
112.197437 82.876384 l
112.539059 80.391429 l
112.62457 80.388817 l
112.881105 78.222491 l
112.966475 78.337835 l
113.22301 78.832997 l
113.82145 74.444348 l
113.992332 73.703953 l
114.248725 73.003803 l
114.505118 76.986541 l
114.846882 85.17609 l
114.932252 89.016371 l
115.017763 85.016594 l
115.188504 96.234123 l
115.273874 98.278821 l
115.359385 88.222276 l
115.444897 93.640146 l
115.530267 79.386495 l
115.615779 89.760428 l
115.70129 83.888263 l
115.786943 96.602446 l
115.872314 94.533219 l
115.957825 96.381896 l
116.043195 108.143284 l
116.128565 84.066894 l
116.214077 106.317323 l
116.384959 90.25903 l
116.470329 86.23661 l
116.55584 89.345382 l
116.64121 87.133437 l
116.81195 79.038442 l
116.897462 81.471002 l
116.983115 88.410212 l
117.153997 81.801584 l
117.239225 92.926967 l
117.324737 85.587338 l
117.410249 86.467001 l
117.666501 80.761881 l
118.008547 91.112803 l
118.43568 72.564249 l
118.691932 72.99367 l
119.033696 70.084139 l
119.204577 71.62278 l
119.802876 79.545596 l
119.973757 83.446661 l
120.059127 82.089945 l
120.144639 82.704852 l
120.401032 77.249368 l
120.742937 118.136435 l
120.828449 114.179489 l
120.913961 107.428592 l
121.084842 78.186699 l
121.170354 79.149093 l
121.426606 83.921503 l
121.683141 81.698363 l
121.768794 80.889024 l
121.854164 80.908843 l
121.939675 80.872211 l
122.195927 77.605004 l
122.367092 76.901662 l
122.623344 74.783348 l
123.13613 71.09603 l
123.221642 71.225317 l
123.563547 72.947019 l
124.332727 76.915729 l
124.503892 77.498431 l
124.845655 81.740413 l
125.187419 91.050766 l
125.272789 84.974848 l
125.3583 86.498645 l
125.614694 87.44635 l
125.700064 87.578665 l
125.870804 85.764027 l
126.041685 86.861734 l
126.212709 89.738233 l
126.298079 87.673919 l
126.469102 77.566951 l
126.639842 87.844437 l
126.725354 87.343038 l
126.981747 78.201411 l
127.409022 69.646367 l
131.93944 73.600984 m
132.024952 73.51116 l
132.110463 76.59823 l
132.281628 74.992865 l
132.366998 74.890451 l
132.53788 68.939197 l
132.708761 72.829417 l
132.794273 72.466521 l
132.879643 71.824834 l
133.050383 72.32266 l
133.905216 67.127827 l
133.990728 61.477462 l
134.076098 62.342217 l
134.76005 69.07942 l
134.845561 69.113576 l
135.016301 68.549915 l
135.358065 67.402162 l
135.443435 67.016521 l
135.699687 64.349891 l
135.785057 64.035389 l
136.041592 61.682549 l
136.126962 70.768409 l
136.212473 62.216048 l
136.297985 63.50466 l
136.55452 68.183607 l
136.811196 75.651456 l
136.896708 74.010815 l
137.153101 68.453999 l
137.238613 68.066277 l
137.324124 68.139218 l
137.409636 66.692116 l
137.495148 67.014198 l
137.580801 67.025487 l
137.666171 66.819415 l
138.349839 70.293433 l
138.435351 65.147336 l
138.606091 69.735495 l
138.691603 71.086671 l
138.862626 75.755086 l
139.119019 59.94959 l
139.204531 64.15878 l
139.290043 59.436435 l
139.546577 68.129446 l
139.631948 67.500198 l
139.888341 63.59003 l
139.973853 63.62488 l
140.144593 64.068344 l
140.230104 64.154533 l
140.914056 61.477475 l
141.170449 66.169605 l
141.597441 79.268979 l
141.682811 77.702942 l
142.366338 63.266941 l
142.451849 63.27612 l
142.622873 63.737741 l
142.708384 63.560758 l
142.793896 63.367889 l
143.050148 64.859981 l
143.306399 68.102535 l
143.648304 62.72779 l
143.733674 62.923451 l
143.989785 64.383029 l
144.160666 65.267595 l
144.33169 64.399162 l
144.417201 64.824058 l
144.673736 68.375205 l
145.015641 72.524137 l
145.699168 61.760246 l
145.784679 61.934783 l
146.468914 65.915275 l
146.981842 65.019986 l
147.067212 64.943197 l
147.323464 65.392321 l
147.921762 66.565087 l
148.605572 67.812907 l
150.571632 71.705698 l
151.170214 72.000213 l
151.597772 71.579907 l
151.854307 71.86757 l
152.965392 71.206274 l
153.050903 69.898653 l
153.136415 70.008641 l
154.333011 71.363656 l
155.70049 72.331107 l
156.042395 72.40164 l
156.725921 71.891209 l
157.152913 71.122815 l
157.323937 70.657565 l
157.580471 72.106407 l
157.665983 72.143825 l
157.836865 74.27871 l
158.007746 70.841955 l
158.349935 74.380703 l
158.606469 70.891653 l
158.69184 70.75135 l
158.862721 72.133128 l
159.033603 74.077233 l
159.289855 72.071162 l
159.460736 71.246338 l
159.631618 71.189663 l
159.71713 71.186582 l
160.059035 72.029476 l
160.144405 71.875433 l
160.828215 70.038506 l
161.341001 69.877281 l
161.426513 72.199343 l
161.512025 69.963818 l
161.597678 70.095367 l
161.854071 70.369086 l
161.939583 70.740897 l
162.025094 70.392632 l
162.195976 73.192116 l
162.281488 70.506078 l
162.366999 70.694935 l
162.452511 70.836161 l
162.623251 70.553519 l
162.794274 69.975608 l
162.965014 70.981424 l
163.050384 73.913419 l
163.135896 70.32706 l
163.221125 70.602112 l
163.306636 70.275418 l
163.563171 68.252453 l
163.819848 68.3232 l
164.247264 67.534315 l
164.589169 67.79359 l
165.700113 69.265978 l
166.041734 69.729372 l
166.212899 69.851954 l
166.554663 71.667581 l
166.640174 71.606135 l
167.238614 70.535625 l
167.580377 74.013854 l
167.922424 69.772881 l
168.349557 66.489616 l
168.776832 66.405255 l
168.947856 66.387488 l
169.887917 64.371969 l
170.913491 63.809583 l
171.682529 63.518153 l
171.853411 63.742577 l
173.391488 63.873915 l
174.075156 64.055054 l
175.185675 64.338202 l
175.869626 63.887327 l
178.177874 61.934001 l
178.690661 61.246349 l
178.946912 60.973857 l
179.459699 60.247719 l
180.570642 59.179376 l
180.912689 59.298923 l
181.254594 59.428283 l
181.767097 60.135994 l
182.108861 60.191891 l
182.365396 60.163918 l
182.62193 60.196036 l
183.30574 58.492293 l
183.562275 61.343129 l
183.818669 66.506293 l
183.989692 70.808151 l
184.160574 66.49357 l
184.416825 60.30749 l
184.587707 59.73263 l
184.673077 60.058157 l
184.8441 61.262446 l
185.185864 78.578214 l
185.356604 79.331034 l
185.869391 99.916039 l
186.040131 109.459941 l
186.125642 105.300828 l
186.296382 65.296745 l
186.552776 56.613702 l
186.723516 54.961648 l
186.808886 54.562546 l
186.894398 54.677477 l
187.065562 55.275642 l
187.407326 57.022044 l
188.090569 53.190151 l
188.175939 53.226918 l
188.517703 54.019969 l
188.859749 54.828015 l
189.030914 54.940625 l
189.116284 54.995675 l
189.458331 54.184073 l
189.800094 60.01151 l
189.885464 59.976823 l
189.970976 59.35809 l
190.141858 55.970028 l
190.398109 59.258336 l
190.654503 61.245279 l
190.825526 62.363676 l
191.167572 68.379701 l
191.594847 83.611762 l
191.680642 119.854263 l
191.851524 55.838506 l
191.937036 72.514839 l
192.022547 68.14482 l
192.108059 72.523759 l
192.193429 88.406152 l
192.535051 65.665979 l
192.620562 71.570032 l
192.706074 63.145028 l
192.876956 74.115059 l
192.962467 72.802637 l
193.047837 81.421113 l
193.218577 64.980154 l
193.304231 65.562643 l
193.389601 72.581078 l
193.475112 92.58416 l
193.646277 68.779807 l
193.731789 78.528884 l
193.817442 119.302182 l
193.902812 66.830504 l
193.988324 79.386307 l
194.073835 81.584842 l
194.244576 67.758131 l
194.329946 63.996827 l
194.415457 85.656082 l
194.500969 66.553206 l
194.586339 102.210525 l
194.671709 81.702847 l
194.757221 92.266251 l
194.842874 71.77828 l
194.928385 77.411648 l
195.013897 78.252581 l
195.099409 85.412194 l
195.184779 74.068782 l
195.270149 84.772569 l
195.355944 83.542394 l
195.441314 82.621969 l
195.526684 82.813468 l
195.612195 95.588055 l
195.868589 71.573825 l
196.039612 79.539154 l
196.125124 69.75736 l
196.210635 72.138705 l
196.466887 58.596789 l
196.552399 74.761629 l
196.723139 116.152773 l
196.894304 81.032505 l
197.065185 144.094231 l
197.236067 67.467673 l
197.321579 66.095269 l
197.406949 66.126047 l
197.492319 71.530815 l
197.57783 70.61978 l
197.6632 70.092257 l
197.74857 66.724122 l
197.919735 83.338467 l
198.005247 81.494992 l
198.261782 58.990647 l
198.347293 66.144504 l
198.432805 64.662389 l
198.518317 191.06519 l
198.603828 61.916932 l
198.689482 81.297974 l
198.774852 99.616038 l
198.945733 70.011817 l
199.116757 82.129624 l
199.20241 69.600413 l
199.28778 71.582507 l
199.373291 68.63945 l
199.544173 79.217695 l
199.629543 63.770364 l
199.715196 87.618428 l
199.800708 143.160799 l
199.88622 71.465622 l
199.971731 73.024625 l
200.057101 88.331073 l
200.313495 67.673766 l
200.484376 82.575824 l
200.569888 74.367205 l
200.6554 82.360795 l
200.740911 116.849508 l
200.911935 76.623655 l
201.082958 59.581348 l
201.168469 70.21094 l
201.25384 56.507894 l
201.339351 58.089177 l
201.424863 57.89457 l
201.681256 55.179925 l
201.766768 55.021545 l
201.937791 55.974806 l
202.108531 57.64182 l
202.364641 63.492292 l
202.535665 66.5642 l
202.621176 66.197907 l
202.792058 70.94381 l
202.96294 68.670878 l
203.390356 93.324183 l
203.475868 182.632681 l
203.732261 98.019196 l
203.903143 80.864154 l
204.074025 144.145583 l
204.245048 68.816132 l
204.330559 75.983766 l
204.416071 64.998695 l
204.586953 77.266948 l
204.757976 63.274999 l
204.843346 63.425044 l
204.928716 66.590073 l
205.014228 61.264887 l
205.099881 66.431764 l
205.185251 56.837391 l
205.270763 59.269571 l
205.441644 57.945135 l
205.527014 55.346673 l
205.954573 78.272964 l
206.040084 65.978461 l
206.125596 72.190049 l
206.211108 62.072861 l
206.296619 69.860753 l
206.382272 63.277816 l
206.467784 65.166165 l
206.553154 66.986841 l
206.724177 74.102683 l
206.809547 68.548893 l
206.894917 69.488597 l
206.980429 74.051125 l
207.066082 64.579977 l
207.151594 65.389148 l
207.237106 64.688763 l
207.322617 65.402391 l
207.408412 71.493475 l
207.579294 65.997638 l
207.664805 65.804391 l
207.750175 66.627549 l
207.835687 65.359842 l
208.006569 67.539846 l
208.177592 71.494372 l
208.263245 70.757101 l
208.348757 69.862667 l
208.434127 71.159269 l
208.776173 65.799898 l
208.861685 69.172373 l
208.947055 67.544347 l
209.118078 75.988745 l
209.374472 68.486327 l
209.459842 68.904081 l
209.545212 66.62195 l
209.630865 67.454968 l
209.716235 67.44031 l
209.801747 67.313676 l
210.229022 73.429344 l
210.314675 76.290804 l
210.400045 75.641685 l
210.570927 94.446715 l
210.74195 101.513716 l
210.827603 97.167728 l
210.913256 117.023378 l
211.08428 93.204419 l
211.340673 111.847334 l
211.426185 94.560785 l
211.511696 106.293171 l
211.682861 95.854012 l
211.768373 101.290227 l
211.853884 98.383729 l
211.939254 99.06863 l
212.024624 100.715493 l
212.110278 93.631862 l
212.195648 104.827362 l
212.366529 99.845559 l
212.623064 117.317369 l
212.708434 99.353695 l
212.794088 105.771036 l
213.050481 93.49378 l
213.306733 102.024513 l
213.392244 106.459552 l
213.477898 101.717613 l
213.563409 105.42635 l
213.648921 131.691108 l
213.734432 106.994122 l
213.819944 138.168188 l
214.076337 71.289841 l
214.161707 73.223401 l
214.332589 83.234149 l
214.503612 78.356181 l
214.759864 104.776879 l
214.845234 105.229118 l
214.930746 110.713227 l
215.016399 65.002187 l
215.187281 82.300879 l
215.272651 79.782403 l
215.529186 102.553527 l
215.614697 93.80396 l
215.785721 100.753543 l
215.871232 97.587492 l
215.956744 108.589986 l
216.127484 95.757615 l
216.298224 65.621248 l
216.383736 70.417268 l
216.469106 72.792009 l
216.640129 61.608297 l
216.725499 61.754566 l
216.810869 60.491201 l
217.067404 67.119532 l
217.153057 69.998066 l
217.409451 83.925369 l
217.494821 71.369538 l
217.580332 92.804921 l
217.665844 149.142531 l
217.751356 140.385967 l
217.836867 107.295394 l
217.922379 113.783425 l
218.093544 91.25767 l
218.178914 98.868497 l
218.349937 75.536286 l
218.435449 74.859613 l
218.520819 81.319222 l
218.60633 77.113523 l
218.691842 117.947675 l
218.862865 82.098576 l
219.1194 91.242353 l
219.204912 90.865524 l
219.375935 93.932265 l
219.803068 96.112615 l
219.88858 96.507338 l
220.144973 99.116789 l
220.401367 101.262375 l
220.743272 117.714411 l
220.914012 127.835235 l
221.085035 114.1356 l
223.392858 143.326334 m
223.47837 218.539651 l
223.649252 114.058746 l
223.734763 132.167573 l
223.820275 238.127829 l
223.905645 164.109772 l
224.247408 78.45482 m
224.332778 136.506667 l
224.41829 116.395259 l
224.589172 83.704879 m
224.760053 166.337814 l
224.845565 126.842105 l
224.931077 245.135538 l
225.1021 240.341298 m
225.272982 162.309689 l
225.35821 155.171583 l
225.529375 158.386335 m
225.700115 98.918546 l
225.871138 159.215498 l
226.12739 97.643153 l
226.212902 105.378454 l
226.298272 152.684435 l
226.383925 125.386889 l
226.469437 143.101561 l
226.640035 106.41207 l
226.725405 111.077282 l
226.896287 108.751131 m
226.981798 143.856266 l
227.06731 98.304707 l
227.152822 111.831618 l
227.238192 81.554746 l
227.323703 104.882603 l
227.409215 58.730115 l
227.494727 105.192571 l
227.665467 68.063574 l
227.75112 85.652407 l
227.83649 82.48069 l
227.922002 80.732905 l
228.007513 157.81946 l
228.093025 94.118483 l
228.178537 107.370199 l
228.349418 98.72848 l
228.435072 110.41818 l
228.520583 85.173809 l
228.606095 137.687158 l
228.776976 94.369528 l
228.862347 104.377866 l
229.033087 95.884254 l
229.289622 115.779872 l
229.460503 124.924817 m
229.545873 133.880495 l
229.716897 101.231704 l
229.887778 98.272514 m
229.973148 92.798252 l
230.058802 121.145701 l
230.229683 81.065479 l
230.400565 126.034458 m
230.486218 95.275161 l
230.742753 75.790572 m
230.828265 57.216145 l
230.913776 205.799734 l
230.999146 112.330163 l
231.084658 172.763696 l
231.341051 81.296117 m
231.511933 106.107082 l
231.597445 66.187304 l
231.682956 104.947362 l
231.85398 86.308138 l
231.939491 86.138222 l
232.024861 81.723914 l
232.281396 106.073063 l
232.366766 105.729227 l
232.623301 112.638606 l
232.708671 92.102005 l
232.794041 112.201128 l
232.879553 111.018873 l
232.965064 115.791328 l
233.135946 86.402345 l
233.221458 89.677921 l
233.392198 79.254409 l
233.477851 80.39799 l
233.648874 92.731634 m
233.734386 91.252284 l
233.819898 173.588444 l
233.990638 78.690387 l
234.076149 100.557694 l
234.247173 80.794138 l
234.503708 68.363283 l
234.589361 69.3123 l
234.674872 67.375192 l
234.760384 67.788832 l
234.845896 66.927736 l
234.931407 67.540333 l
235.016919 67.496122 l
235.187942 67.214357 l
235.273595 69.0204 l
235.359107 68.154432 l
235.957547 77.074841 l
236.299452 83.487253 l
236.384964 93.45984 l
236.470475 86.831471 l
236.641498 90.232198 l
237.32545 71.104658 l
237.41082 71.154997 l
237.496332 72.465059 l
237.837953 87.329904 l
237.923465 86.710282 l
238.094205 107.143619 l
238.179858 99.425792 l
238.265512 98.999831 l
238.521905 90.944008 l
238.692787 103.899674 l
238.778157 103.339883 l
238.863668 98.314179 l
238.949322 106.960324 l
239.034833 96.388666 l
239.120203 97.551335 l
239.205715 102.848028 l
239.291227 88.280155 l
239.376738 95.085903 l
239.462391 121.088175 l
239.633415 80.192105 l
239.718785 78.80211 l
239.804296 79.310256 l
240.231713 93.501912 l
240.402736 74.815014 l
240.659129 89.451971 l
240.830153 76.04692 l
241.086688 73.100276 l
241.257711 84.27659 l
241.343081 94.403577 l
241.599757 79.209235 l
241.770781 77.757845 l
241.856434 78.762738 l
242.369362 92.251227 l
242.625756 106.742698 l
242.96766 119.418715 l
243.223912 123.399436 l
243.394935 126.518045 l
243.480447 126.482818 l
243.651329 122.310598 l
243.907864 106.285191 l
244.164115 101.759106 l
244.249627 102.995289 l
244.334997 104.769717 l
244.50602 112.390614 l
244.591532 142.090708 l
248.353194 117.651744 m
248.438565 116.735334 l
248.524218 106.175247 l
250.746529 122.165933 m
250.832041 124.0938 l
250.917552 147.521969 l
251.002923 106.58461 l
251.173946 134.327201 l
251.430339 119.032548 l
251.515709 117.871249 l
251.686732 113.824854 l
251.942984 146.693288 l
252.199661 171.823069 l
252.627219 193.262671 l
252.712872 194.185834 l
252.883754 222.821058 l
253.054919 184.136446 l
253.140289 196.75776 l
254.166145 130.28682 m
254.67879 157.720577 l
255.19186 130.961611 m
255.277513 122.919553 l
255.53419 202.092619 l
255.619701 253.276302 l
255.876095 204.533619 l
255.961606 242.223531 l
256.047118 222.312728 l
256.13263 241.971014 l
256.388881 160.288087 l
256.90181 267.550142 l
256.987321 273.846225 l
257.072833 267.50132 l
257.243998 194.805708 l
257.500533 111.815677 l
257.585903 114.769312 l
257.671414 106.597715 l
257.756926 111.128637 l
257.927808 102.2204 l
258.098689 99.237934 l
258.269429 94.921938 l
258.354799 114.484297 l
258.440311 110.232491 l
258.525823 106.144695 l
258.611193 90.34469 l
258.696704 92.815247 l
258.867728 97.56334 l
259.209633 82.845439 l
259.295003 86.851231 l
259.380514 79.335623 l
259.466026 81.894342 l
259.551396 80.993568 l
259.978813 69.702649 l
260.064324 70.074566 l
260.235206 68.759938 l
260.406088 69.508264 l
260.491599 69.452437 l
260.577111 69.108865 l
260.662481 69.975834 l
260.919016 67.043157 l
261.090181 72.228996 l
261.346716 66.785627 l
261.432227 66.351217 l
261.688621 62.216023 l
261.945155 57.394075 l
262.030667 57.6673 l
262.287344 60.149216 l
262.372714 59.765819 l
262.71476 57.873567 l
262.971295 57.307672 l
263.398429 56.027828 l
263.740617 55.917821 l
263.997152 56.058676 l
264.338915 56.656929 l
264.766331 57.904662 l
265.108378 59.440371 l
265.450283 61.259577 l
265.621023 61.162953 l
265.706676 61.294409 l
265.96307 63.679658 l
266.048723 65.6916 l
266.134234 62.605889 l
266.305258 76.032223 l
266.390769 67.375165 l
266.56151 76.569854 l
266.647163 77.310085 l
266.732674 76.551607 l
266.818044 85.440931 l
267.245744 66.251379 l
267.331114 68.232794 l
267.416626 71.30062 l
267.502137 70.149226 l
267.587791 70.182619 l
267.929696 73.258906 l
268.100577 71.636738 l
268.271601 73.96218 l
268.357112 73.883291 l
268.527994 62.137058 l
268.613364 63.427448 l
268.698734 68.329379 l
268.869757 60.570723 l
268.955411 57.930073 l
269.126292 61.82768 l
269.468056 56.590574 l
269.639079 56.27577 l
269.980984 56.040561 l
270.237519 55.964313 l
270.579282 55.71149 l
271.006416 55.568952 l
271.604714 55.328066 l
272.373894 55.544152 l
273.313672 56.022409 l
273.826176 56.204262 l
276.988124 56.249636 l
279.211427 55.859163 l
280.066118 56.694638 l
280.579047 57.159734 l
281.17777 57.408769 l
281.775926 58.343246 l
282.032178 57.9977 l
282.288713 57.780242 l
282.459595 57.715835 l
282.801641 57.185012 l
282.972664 57.24247 l
283.143546 57.700158 l
283.400081 59.482852 l
283.570821 62.255784 l
284.169119 75.255118 l
284.511308 81.903162 l
284.682189 82.68648 l
284.767701 82.802797 l
284.853213 82.654843 l
285.024236 81.773233 l
285.109747 79.587558 l
285.195401 80.048 l
285.280771 80.087276 l
285.537447 81.391595 l
285.793982 90.240898 l
285.879494 88.913946 l
286.135887 92.25494 l
286.22154 92.405798 l
286.563304 94.019394 l
287.07609 102.163592 l
287.247114 104.747696 l
287.332625 104.431862 l
287.845553 100.382818 l
288.101947 98.891194 l
288.1876 98.34254 l
288.273112 98.390404 l
288.700528 111.476096 l
288.785898 97.162369 l
288.871551 100.030903 l
288.956921 102.573101 l
289.127803 94.792649 l
289.298685 105.078939 l
289.64059 89.747969 l
289.72596 90.644489 l
289.982495 96.309111 l
290.068006 93.185947 l
290.153376 93.970311 l
290.3244 88.75669 m
290.409911 101.53429 l
290.495281 98.355524 l
290.666588 92.899894 l
290.837611 96.797289 l
291.008351 92.989975 l
291.093863 92.91552 l
291.350256 112.993803 l
291.435626 112.804163 l
291.777673 106.281051 l
291.863184 106.178439 l
292.034208 104.363741 l
292.290743 96.268165 l
292.547419 89.37328 l
292.889324 101.837744 l
293.060347 87.815947 l
293.231229 103.043932 m
293.316599 100.535826 l
293.487764 105.969224 l
293.658787 122.35367 l
293.74444 98.714118 l
293.82981 105.654211 l
293.915322 102.07828 l
294.086204 112.135718 l
294.257369 105.097288 l
294.42825 96.207965 l
294.51362 110.06253 l
294.770014 97.719172 l
294.855667 99.297366 l
295.624988 143.534235 l
295.79587 155.757208 m
295.881382 135.759507 l
296.052405 203.427159 l
296.137917 188.82385 l
296.223428 285.849783 l
296.394452 169.135887 m
296.565475 96.37763 l
296.736215 231.203599 l
296.90738 123.65474 m
296.992891 174.183629 l
297.164056 117.52451 l
297.334938 142.321698 l
297.506103 101.06113 l
297.762638 183.754129 l
297.848149 97.954686 l
297.933661 112.063719 l
298.104826 208.802734 l
298.190479 203.46007 l
298.361502 225.398534 l
298.446872 193.820282 l
298.532384 194.466906 l
298.78906 113.047665 l
298.959801 246.692492 l
299.130682 196.635794 m
299.216194 81.59109 l
299.472729 208.918654 l
299.558099 144.189667 l
299.643611 161.348087 l
299.729264 165.387836 l
299.814634 163.897507 l
299.900145 185.058449 l
299.98594 116.271543 l
300.156963 96.852461 m
300.242475 175.406573 l
300.327987 107.472381 l
300.413357 143.581826 l
300.498727 110.837795 l
300.584239 115.096868 l
300.669609 100.789955 l
300.840773 150.3521 l
300.926285 117.464219 l
301.011797 170.271091 l
301.097025 160.271877 l
301.182537 115.437426 l
301.353418 168.252253 l
301.438789 115.665103 l
301.609812 152.098186 l
301.695323 107.753957 l
301.780835 150.591325 l
301.866347 144.270053 l
302.12274 134.716825 l
302.293763 133.88935 l
302.464787 136.583049 l
302.55044 139.493579 l
302.635951 146.438013 l
302.721321 135.762162 l
302.977715 210.275896 l
303.234108 224.149439 l
303.490785 243.606273 m
303.576438 245.905624 l
303.747178 241.264235 l
304.003854 188.65736 l
304.430988 147.974572 l
304.516499 148.600316 l
304.602011 147.283208 l
304.687381 143.24099 l
304.772751 155.365378 l
304.858263 136.44261 l
304.943775 136.890197 l
305.371191 126.777702 l
305.456703 132.61698 l
305.542214 121.368371 l
305.627726 122.094342 l
305.713096 121.904685 l
305.883978 123.52964 l
306.055001 113.53648 l
306.225883 120.292847 l
306.311394 119.266422 l
306.482418 108.164878 l
306.567929 108.964978 l
306.824464 97.869993 l
307.252022 86.846881 l
307.423046 80.596824 l
307.508416 81.065406 l
307.764809 84.921586 l
308.36339 78.372926 l
308.448902 78.13076 l
308.705295 82.767663 l
308.876319 85.135367 l
309.047342 84.429411 l
309.218365 79.159336 l
309.303735 79.507899 l
309.474758 111.372047 l
309.56027 138.868382 l
309.645782 73.279098 l
309.731152 74.086542 l
309.816663 75.958332 l
309.987687 89.828994 l
310.073198 86.381462 l
310.158568 78.32238 l
310.243938 85.269935 l
310.329592 85.029252 l
310.414962 140.259937 l
310.671497 75.884244 l
310.75715 77.51656 l
311.099196 68.051417 l
311.184708 69.025112 l
311.526613 80.318001 l
311.612125 133.786542 l
311.697636 90.923864 l
311.783148 93.100044 l
311.868801 119.547287 l
311.954171 93.281127 l
312.039683 102.557368 l
312.296359 88.508529 l
312.381871 87.30094 l
312.467241 93.891708 l
312.638264 80.81258 l
312.723776 71.172817 l
312.809146 97.470704 l
312.894799 74.151993 l
312.980169 77.088401 l
313.065681 76.787073 l
313.236563 77.370561 l
313.407727 70.184106 l
313.664262 76.855557 l
313.749774 77.090446 l
313.835286 76.990786 l
313.920939 82.505512 l
314.091962 80.503839 l
314.177474 70.049417 l
314.262844 73.508167 l
314.348214 97.478502 l
314.519237 87.57206 l
314.604749 109.816556 l
314.69026 99.014999 l
314.775772 72.216958 l
314.861142 72.62618 l
315.117394 82.185787 l
315.202905 97.839001 l
315.373787 83.574092 l
315.459157 95.011928 l
315.630039 79.673498 l
315.71555 81.482952 l
315.886574 100.551166 l
316.228903 75.556471 l
316.399927 81.897525 l
316.570808 99.108212 l
316.656462 78.22547 l
316.742115 95.470428 l
316.827626 94.399381 l
316.912996 75.013957 l
317.169531 151.55455 l
317.340555 85.000255 l
317.426208 78.78627 l
317.511719 82.109958 l
317.682884 95.015896 l
317.768254 83.943404 l
317.853908 107.928372 l
317.939278 93.477534 l
318.024931 102.669427 l
318.366836 93.368011 l
318.452347 94.286804 l
318.623229 96.838665 l
318.708882 96.047286 l
318.794536 96.506823 l
318.879906 94.990038 l
318.965276 82.762173 l
319.050929 83.512674 l
319.136299 82.974764 l
319.221811 72.920333 l
319.392834 98.93577 m
319.478345 110.104991 l
319.563857 91.829577 l
319.649369 96.204078 l
319.820392 169.029612 l
319.905762 89.690385 l
320.076785 199.794731 l
320.162155 101.623227 l
320.247667 137.229429 l
320.41869 87.10307 l
320.50406 87.783394 l
320.675084 93.043378 l
320.760595 103.426646 l
320.845965 100.916074 l
320.931477 103.218092 l
321.102359 100.572819 l
321.358894 112.325577 l
321.444547 125.417563 l
321.61557 87.052959 l
321.701082 97.686195 l
321.871963 88.431389 l
322.042845 85.579676 l
322.128357 84.041334 l
322.213868 80.06575 l
322.29938 88.766575 l
322.38475 86.076385 l
322.47012 93.61929 l
322.641143 87.870642 l
322.726655 96.314289 l
322.812025 93.215466 l
322.897395 81.325536 l
323.068277 93.87542 l
323.2393 96.302063 l
323.410323 86.058687 l
323.495835 83.588255 l
323.581347 83.866186 l
323.666717 86.657368 l
323.752228 82.418927 l
323.837598 107.583537 l
324.00848 83.594234 l
324.179362 86.304533 l
324.350385 83.070109 l
324.435897 88.401726 l
324.521267 81.858559 l
324.606778 81.939331 l
324.69229 81.068668 l
324.863596 75.634816 l
325.119848 95.579225 l
325.20536 102.628435 l
325.376241 82.414999 l
325.461612 81.537302 l
325.547123 77.451276 l
325.718005 84.852586 l
325.889028 77.090416 l
325.974398 78.045295 l
326.05991 79.979241 l
326.145421 77.901536 l
326.230791 79.669665 l
326.316303 78.292955 l
326.487751 85.158683 l
326.658774 96.255302 l
326.744286 90.367902 l
326.829656 103.302205 l
326.915309 88.918497 l
327.086191 119.93406 l
327.171703 94.911226 l
327.257214 109.358536 l
327.342584 105.347953 l
327.513749 87.041977 l
327.770142 94.625919 l
327.855654 121.023305 l
327.941166 92.138812 l
328.112189 122.053561 l
328.368582 96.020507 l
328.453952 86.556995 l
328.539606 112.251632 l
328.625117 108.692068 l
329.052392 95.278411 l
329.223416 83.86687 l
329.394439 80.380648 l
329.47995 80.429982 l
329.565462 78.550563 l
329.736627 80.279119 l
330.078673 105.389302 l
330.164185 99.822892 l
330.249697 110.22134 l
330.50609 76.412483 l
330.59146 81.41682 l
330.676972 90.631702 l
330.762342 89.733265 l
330.847853 92.183238 l
330.933507 100.736734 l
331.019018 84.669709 l
331.104671 87.007523 l
331.190042 89.274421 l
331.446576 86.014314 l
331.532088 85.813127 l
331.703111 86.729327 l
331.959505 77.936286 l
332.045016 78.451716 l
332.21604 87.733947 l
332.387063 76.386579 l
332.472574 76.573642 l
332.814621 79.826108 l
332.900133 79.653036 l
333.071156 80.338358 l
333.669737 86.731371 l
333.755249 86.631448 l
333.926131 91.364599 l
334.097012 99.655605 l
334.182524 99.318106 l
334.267894 99.051582 l
334.353547 101.908364 l
334.439059 98.91287 l
334.695735 135.363779 l
334.866617 127.428286 l
335.12301 99.002035 l
335.20838 99.819782 l
335.464774 105.785942 l
335.635797 102.995994 l
335.80682 90.598322 l
335.892474 97.491952 l
336.063355 105.269858 m
336.148867 80.183276 l
336.234237 82.478341 l
336.319749 88.373261 l
336.40526 86.988274 l
336.49063 74.402502 l
336.576142 81.791777 l
336.747024 70.001254 l
336.832394 75.342977 l
337.687652 84.948235 m
337.858816 82.40049 l
338.115068 73.212393 l
338.20058 73.806358 l
338.286091 72.839924 l
338.456973 76.463307 l
338.542485 76.716052 l
338.627996 97.094688 l
338.71365 194.662267 l
338.799161 165.548609 l
338.970043 124.640836 l
339.311806 79.082901 l
339.65357 89.047076 l
339.995758 110.094804 l
340.081269 133.943454 l
340.252151 114.407232 l
340.337663 127.981773 l
340.423174 105.87427 l
340.508544 106.795268 l
340.594056 180.091461 l
340.679568 167.499742 l
340.765079 167.483806 l
340.936244 116.399955 l
341.278291 99.902381 l
341.534967 95.123581 l
341.620479 95.158376 l
341.962242 109.698328 l
342.047754 108.020856 l
342.218777 101.715268 l
342.3898 87.386187 l
342.646477 83.161271 l
342.731847 83.473466 l
342.817359 86.067631 l
342.902729 85.426881 l
342.988382 84.182326 l
343.159547 78.768316 l
343.244917 80.116978 l
343.330428 78.600829 l
343.41594 79.364771 l
343.50131 88.860971 l
343.586822 86.204726 l
343.672192 84.534997 l
343.843215 89.900221 l
343.928727 82.706967 l
344.014238 83.586237 l
344.270773 103.034156 l
344.698048 128.317124 l
345.039953 82.896584 l
345.210976 79.3579 l
345.467511 81.485814 l
345.552881 81.242262 l
345.638393 82.854094 l
345.809416 72.731216 l
346.151321 68.4115 l
346.236833 68.31784 l
346.322345 67.197215 l
346.407856 67.596753 l
346.493226 74.300719 l
346.578738 73.657494 l
346.835273 72.049639 l
347.433996 69.08535 l
347.605019 69.220568 l
347.861554 69.46529 l
348.032577 69.585707 l
348.118089 69.396266 l
349.058717 59.705247 l
349.48585 58.71436 l
350.255313 55.844981 l
350.68273 55.502391 l
351.281311 55.404378 l
353.332883 55.77199 l
354.273794 55.573205 l
354.957887 55.673861 l
355.983319 56.226276 l
356.410735 56.389109 l
356.838293 56.854143 l
357.009175 57.149948 l
358.035315 61.645286 l
358.377361 63.169602 l
359.061313 57.544096 l
359.403218 56.635345 l
359.574241 56.998275 l
359.745123 57.891551 l
360.001516 57.229505 l
360.087028 57.442673 l
360.514444 71.033265 l
360.770838 61.184267 l
360.856349 60.804857 l
360.941719 64.567258 l
361.027372 61.544779 l
361.112743 61.694615 l
361.198537 61.630763 l
361.796836 64.154039 l
362.138741 68.362605 l
362.65181 75.98228 l
362.822834 76.126887 l
363.079227 75.762966 l
363.164597 75.824985 l
363.335762 74.792971 l
363.506502 79.311407 l
363.592155 79.046744 l
363.763178 71.425531 l
363.93406 69.771065 l
364.105083 70.908451 l
364.190595 70.146249 l
364.618153 108.296367 l
364.789176 70.352033 l
364.874547 63.922367 l
364.960058 64.911675 l
365.216735 73.874231 l
365.302246 72.546405 l
365.558781 67.014097 l
365.644293 66.797938 l
365.729946 66.91711 l
365.900969 66.766868 l
366.585062 63.961636 l
366.841739 63.648787 l
367.35495 63.412314 l
367.611485 63.961988 l
367.953673 63.310975 l
368.039185 63.437235 l
368.124696 63.635099 l
368.295578 64.600499 l
368.38109 63.848076 l
368.466601 64.176665 l
368.552113 63.965155 l
368.637625 64.979869 l
368.723136 64.700401 l
368.894301 63.502844 l
368.979671 62.473768 l
369.236206 67.020445 l
369.321718 66.414017 l
369.407229 63.91057 l
369.492883 65.156934 l
369.663764 59.512528 l
369.749276 59.894565 l
370.005811 74.890585 l
370.347857 64.596813 l
370.518881 64.379713 l
370.689904 67.406506 l
371.032092 63.151241 l
371.117604 63.218754 l
371.374422 64.319505 l
371.973003 60.437982 l
372.058515 60.352035 l
372.314908 62.510613 l
372.48579 64.615196 l
372.827695 74.541938 l
372.998718 74.133818 l
373.169741 74.509052 l
373.340623 78.463991 l
373.425993 78.968046 l
373.597158 72.262589 l
373.68267 75.33781 l
374.110369 62.334214 l
374.281534 65.300504 l
374.367046 67.707327 l
374.452416 67.208015 l
374.537786 68.353387 l
374.794179 62.00609 l
374.879549 62.236875 l
375.221879 64.451613 l
375.307249 64.387077 l
375.478414 63.800575 l
375.735373 69.381221 l
376.333955 64.268835 l
376.419467 65.200069 l
376.504978 64.518423 l
376.59049 66.278087 l
376.67586 65.770793 l
376.761372 65.655592 l
376.846883 67.889097 l
376.932536 67.71846 l
377.018048 67.912334 l
377.10356 67.649801 l
377.359953 65.632793 l
377.530835 65.035616 l
377.78737 65.93038 l
377.872881 65.810202 l
378.044046 60.933085 l
378.300298 60.322481 l
378.385809 58.698894 l
378.813509 66.25331 l
378.984532 66.822177 l
379.069902 66.736125 l
379.668342 64.585814 l
380.010247 64.930173 l
380.352152 64.842304 l
381.121191 63.465842 l
383.087534 59.748797 l
383.600745 59.699013 l
384.028162 59.882047 l
384.370208 60.116437 l
384.712255 59.530129 l
385.05416 58.881185 l
385.310694 59.250331 l
385.738394 59.923619 l
385.995071 59.550611 l
387.448344 56.756415 l
388.731443 55.028174 l
389.586276 55.012333 l
391.29665 55.181809 l
391.980885 54.802441 l
392.151767 53.993263 l
393.349496 53.467509 l
394.974642 53.024757 l
395.401917 53.031113 l
395.829616 53.342569 l
396.000498 53.63211 l
396.428198 54.07428 l
396.59908 54.835682 l
396.684591 54.886124 l
396.855614 54.579015 l
397.112291 53.11122 l
397.283173 53.673034 l
397.368684 53.503635 l
397.454196 52.171517 l
397.625219 53.485949 m
397.710731 56.916038 l
397.882604 54.753065 m
398.055467 52.155036 l
398.400912 56.085266 l
398.487273 56.377846 l
398.487273 56.377846 l
stroke
grestore
0.800 setlinewidth
0 setlinejoin
[] 0 setdash
0.000 setgray
gsave
57.6 38.016 m
57.6 304.128 l
stroke
grestore
gsave
414.72 38.016 m
414.72 304.128 l
stroke
grestore
gsave
57.6 38.016 m
414.72 38.016 l
stroke
grestore
gsave
57.6 304.128 m
414.72 304.128 l
stroke
grestore
1.000 setlinewidth
0 setlinecap
0.800 setgray
gsave
349.860625 266.78425 m
407.72 266.78425 l
409.053333 266.78425 409.72 267.450917 409.72 268.78425 c
409.72 297.128 l
409.72 298.461333 409.053333 299.128 407.72 299.128 c
349.860625 299.128 l
348.527292 299.128 347.860625 298.461333 347.860625 297.128 c
347.860625 268.78425 l
347.860625 267.450917 348.527292 266.78425 349.860625 266.78425 c
cl
gsave
1.000 setgray
fill
grestore
stroke
grestore
1.500 setlinewidth
1 setlinejoin
2 setlinecap
[] 0 setdash
0.000 0.750 0.750 setrgbcolor
gsave
351.860625 291.03425 m
371.860625 291.03425 l
stroke
grestore
0.000 setgray
gsave
379.860625 287.534250 translate
0.000000 rotate
0.000000 0.000000 m /three glyphshow
6.362305 0.000000 m /m glyphshow
16.103516 0.000000 m /m glyphshow
grestore
0.627 0.314 0.314 setrgbcolor
gsave
351.860625 276.362375 m
371.860625 276.362375 l
stroke
grestore
0.000 setgray
gsave
379.860625 272.862375 translate
0.000000 rotate
0.000000 0.000000 m /two glyphshow
6.362305 0.000000 m /m glyphshow
16.103516 0.000000 m /m glyphshow
grestore

end
showpage
