%!PS-Adobe-3.0 EPSF-3.0
%%Title: spb/04_RAW_tau.eps
%%Creator: matplotlib version 3.0.3, http://matplotlib.org/
%%CreationDate: Fri Jun  7 15:05:15 2019
%%Orientation: portrait
%%BoundingBox: 75 223 536 568
%%EndComments
%%BeginProlog
/mpldict 9 dict def
mpldict begin
/m { moveto } bind def
/l { lineto } bind def
/r { rlineto } bind def
/c { curveto } bind def
/cl { closepath } bind def
/box {
m
1 index 0 r
0 exch r
neg 0 r
cl
} bind def
/clipbox {
box
clip
newpath
} bind def
%!PS-Adobe-3.0 Resource-Font
%%Title: DejaVu Sans
%%Copyright: Copyright (c) 2003 by Bitstream, Inc. All Rights Reserved. Copyright (c) 2006 by Tavmjong Bah. All Rights Reserved. DejaVu changes are in public domain 
%%Creator: Converted from TrueType to type 3 by PPR
25 dict begin
/_d{bind def}bind def
/_m{moveto}_d
/_l{lineto}_d
/_cl{closepath eofill}_d
/_c{curveto}_d
/_sc{7 -1 roll{setcachedevice}{pop pop pop pop pop pop}ifelse}_d
/_e{exec}_d
/FontName /DejaVuSans def
/PaintType 0 def
/FontMatrix[.001 0 0 .001 0 0]def
/FontBBox[-1021 -463 1793 1232]def
/FontType 3 def
/Encoding [ /space /comma /period /zero /one /two /three /four /five /a /d /e /i /m /s /t /y ] def
/FontInfo 10 dict dup begin
/FamilyName (DejaVu Sans) def
/FullName (DejaVu Sans) def
/Notice (Copyright (c) 2003 by Bitstream, Inc. All Rights Reserved. Copyright (c) 2006 by Tavmjong Bah. All Rights Reserved. DejaVu changes are in public domain ) def
/Weight (Book) def
/Version (Version 2.35) def
/ItalicAngle 0.0 def
/isFixedPitch false def
/UnderlinePosition -130 def
/UnderlineThickness 90 def
end readonly def
/CharStrings 18 dict dup begin
/.notdef 0 def
/space{318 0 0 0 0 0 _sc
}_d
/comma{318 0 77 -115 220 124 _sc
117 124 _m
220 124 _l
220 40 _l
140 -115 _l
77 -115 _l
117 40 _l
117 124 _l
_cl}_d
/period{318 0 107 0 210 124 _sc
107 124 _m
210 124 _l
210 0 _l
107 0 _l
107 124 _l
_cl}_d
/zero{636 0 66 -13 570 742 _sc
318 664 _m
267 664 229 639 203 589 _c
177 539 165 464 165 364 _c
165 264 177 189 203 139 _c
229 89 267 64 318 64 _c
369 64 407 89 433 139 _c
458 189 471 264 471 364 _c
471 464 458 539 433 589 _c
407 639 369 664 318 664 _c
318 742 _m
399 742 461 709 505 645 _c
548 580 570 486 570 364 _c
570 241 548 147 505 83 _c
461 19 399 -13 318 -13 _c
236 -13 173 19 130 83 _c
87 147 66 241 66 364 _c
66 486 87 580 130 645 _c
173 709 236 742 318 742 _c
_cl}_d
/one{636 0 110 0 544 729 _sc
124 83 _m
285 83 _l
285 639 _l
110 604 _l
110 694 _l
284 729 _l
383 729 _l
383 83 _l
544 83 _l
544 0 _l
124 0 _l
124 83 _l
_cl}_d
/two{{636 0 73 0 536 742 _sc
192 83 _m
536 83 _l
536 0 _l
73 0 _l
73 83 _l
110 121 161 173 226 239 _c
290 304 331 346 348 365 _c
380 400 402 430 414 455 _c
426 479 433 504 433 528 _c
433 566 419 598 392 622 _c
365 646 330 659 286 659 _c
255 659 222 653 188 643 _c
154 632 117 616 78 594 _c
78 694 _l
118 710 155 722 189 730 _c
223 738 255 742 284 742 _c
}_e{359 742 419 723 464 685 _c
509 647 532 597 532 534 _c
532 504 526 475 515 449 _c
504 422 484 390 454 354 _c
446 344 420 317 376 272 _c
332 227 271 164 192 83 _c
_cl}_e}_d
/three{{636 0 76 -13 556 742 _sc
406 393 _m
453 383 490 362 516 330 _c
542 298 556 258 556 212 _c
556 140 531 84 482 45 _c
432 6 362 -13 271 -13 _c
240 -13 208 -10 176 -4 _c
144 1 110 10 76 22 _c
76 117 _l
103 101 133 89 166 81 _c
198 73 232 69 268 69 _c
330 69 377 81 409 105 _c
441 129 458 165 458 212 _c
458 254 443 288 413 312 _c
383 336 341 349 287 349 _c
}_e{202 349 _l
202 430 _l
291 430 _l
339 430 376 439 402 459 _c
428 478 441 506 441 543 _c
441 580 427 609 401 629 _c
374 649 336 659 287 659 _c
260 659 231 656 200 650 _c
169 644 135 635 98 623 _c
98 711 _l
135 721 170 729 203 734 _c
235 739 266 742 296 742 _c
370 742 429 725 473 691 _c
517 657 539 611 539 553 _c
539 513 527 479 504 451 _c
481 423 448 403 406 393 _c
_cl}_e}_d
/four{636 0 49 0 580 729 _sc
378 643 _m
129 254 _l
378 254 _l
378 643 _l
352 729 _m
476 729 _l
476 254 _l
580 254 _l
580 172 _l
476 172 _l
476 0 _l
378 0 _l
378 172 _l
49 172 _l
49 267 _l
352 729 _l
_cl}_d
/five{{636 0 77 -13 549 729 _sc
108 729 _m
495 729 _l
495 646 _l
198 646 _l
198 467 _l
212 472 227 476 241 478 _c
255 480 270 482 284 482 _c
365 482 429 459 477 415 _c
525 370 549 310 549 234 _c
549 155 524 94 475 51 _c
426 8 357 -13 269 -13 _c
238 -13 207 -10 175 -6 _c
143 -1 111 6 77 17 _c
77 116 _l
106 100 136 88 168 80 _c
199 72 232 69 267 69 _c
}_e{323 69 368 83 401 113 _c
433 143 450 183 450 234 _c
450 284 433 324 401 354 _c
368 384 323 399 267 399 _c
241 399 214 396 188 390 _c
162 384 135 375 108 363 _c
108 729 _l
_cl}_e}_d
/a{{613 0 60 -13 522 560 _sc
343 275 _m
270 275 220 266 192 250 _c
164 233 150 205 150 165 _c
150 133 160 107 181 89 _c
202 70 231 61 267 61 _c
317 61 357 78 387 114 _c
417 149 432 196 432 255 _c
432 275 _l
343 275 _l
522 312 _m
522 0 _l
432 0 _l
432 83 _l
411 49 385 25 355 10 _c
325 -5 287 -13 243 -13 _c
187 -13 142 2 109 33 _c
76 64 60 106 60 159 _c
}_e{60 220 80 266 122 298 _c
163 329 224 345 306 345 _c
432 345 _l
432 354 _l
432 395 418 427 391 450 _c
364 472 326 484 277 484 _c
245 484 215 480 185 472 _c
155 464 127 453 100 439 _c
100 522 _l
132 534 164 544 195 550 _c
226 556 256 560 286 560 _c
365 560 424 539 463 498 _c
502 457 522 395 522 312 _c
_cl}_e}_d
/d{{635 0 55 -13 544 760 _sc
454 464 _m
454 760 _l
544 760 _l
544 0 _l
454 0 _l
454 82 _l
435 49 411 25 382 10 _c
353 -5 319 -13 279 -13 _c
213 -13 159 13 117 65 _c
75 117 55 187 55 273 _c
55 359 75 428 117 481 _c
159 533 213 560 279 560 _c
319 560 353 552 382 536 _c
411 520 435 496 454 464 _c
148 273 _m
148 207 161 155 188 117 _c
215 79 253 61 301 61 _c
}_e{348 61 385 79 413 117 _c
440 155 454 207 454 273 _c
454 339 440 390 413 428 _c
385 466 348 485 301 485 _c
253 485 215 466 188 428 _c
161 390 148 339 148 273 _c
_cl}_e}_d
/e{{615 0 55 -13 562 560 _sc
562 296 _m
562 252 _l
149 252 _l
153 190 171 142 205 110 _c
238 78 284 62 344 62 _c
378 62 412 66 444 74 _c
476 82 509 95 541 113 _c
541 28 _l
509 14 476 3 442 -3 _c
408 -9 373 -13 339 -13 _c
251 -13 182 12 131 62 _c
80 112 55 181 55 268 _c
55 357 79 428 127 481 _c
175 533 241 560 323 560 _c
397 560 455 536 498 489 _c
}_e{540 441 562 377 562 296 _c
472 322 _m
471 371 457 410 431 440 _c
404 469 368 484 324 484 _c
274 484 234 469 204 441 _c
174 413 156 373 152 322 _c
472 322 _l
_cl}_e}_d
/i{278 0 94 0 184 760 _sc
94 547 _m
184 547 _l
184 0 _l
94 0 _l
94 547 _l
94 760 _m
184 760 _l
184 646 _l
94 646 _l
94 760 _l
_cl}_d
/m{{974 0 91 0 889 560 _sc
520 442 _m
542 482 569 511 600 531 _c
631 550 668 560 711 560 _c
767 560 811 540 842 500 _c
873 460 889 403 889 330 _c
889 0 _l
799 0 _l
799 327 _l
799 379 789 418 771 444 _c
752 469 724 482 686 482 _c
639 482 602 466 575 435 _c
548 404 535 362 535 309 _c
535 0 _l
445 0 _l
445 327 _l
445 379 435 418 417 444 _c
398 469 369 482 331 482 _c
}_e{285 482 248 466 221 435 _c
194 404 181 362 181 309 _c
181 0 _l
91 0 _l
91 547 _l
181 547 _l
181 462 _l
201 495 226 520 255 536 _c
283 552 317 560 357 560 _c
397 560 430 550 458 530 _c
486 510 506 480 520 442 _c
_cl}_e}_d
/s{{521 0 54 -13 472 560 _sc
443 531 _m
443 446 _l
417 458 391 468 364 475 _c
336 481 308 485 279 485 _c
234 485 200 478 178 464 _c
156 450 145 430 145 403 _c
145 382 153 366 169 354 _c
185 342 217 330 265 320 _c
296 313 _l
360 299 405 279 432 255 _c
458 230 472 195 472 151 _c
472 100 452 60 412 31 _c
372 1 316 -13 246 -13 _c
216 -13 186 -10 154 -5 _c
}_e{122 0 89 8 54 20 _c
54 113 _l
87 95 120 82 152 74 _c
184 65 216 61 248 61 _c
290 61 323 68 346 82 _c
368 96 380 117 380 144 _c
380 168 371 187 355 200 _c
339 213 303 226 247 238 _c
216 245 _l
160 257 119 275 95 299 _c
70 323 58 356 58 399 _c
58 450 76 490 112 518 _c
148 546 200 560 268 560 _c
301 560 332 557 362 552 _c
391 547 418 540 443 531 _c
}_e{_cl}_e}_d
/t{392 0 27 0 368 702 _sc
183 702 _m
183 547 _l
368 547 _l
368 477 _l
183 477 _l
183 180 _l
183 135 189 106 201 94 _c
213 81 238 75 276 75 _c
368 75 _l
368 0 _l
276 0 _l
206 0 158 13 132 39 _c
106 65 93 112 93 180 _c
93 477 _l
27 477 _l
27 547 _l
93 547 _l
93 702 _l
183 702 _l
_cl}_d
/y{592 0 30 -207 562 547 _sc
322 -50 _m
296 -114 271 -157 247 -177 _c
223 -197 191 -207 151 -207 _c
79 -207 _l
79 -132 _l
132 -132 _l
156 -132 175 -126 189 -114 _c
203 -102 218 -75 235 -31 _c
251 9 _l
30 547 _l
125 547 _l
296 119 _l
467 547 _l
562 547 _l
322 -50 _l
_cl}_d
end readonly def

/BuildGlyph
 {exch begin
 CharStrings exch
 2 copy known not{pop /.notdef}if
 true 3 1 roll get exec
 end}_d

/BuildChar {
 1 index /Encoding get exch get
 1 index /BuildGlyph get exec
}_d

FontName currentdict end definefont pop
%!PS-Adobe-3.0 Resource-Font
%%Title: DejaVu Sans Oblique
%%Copyright: Copyright (c) 2003 by Bitstream, Inc. All Rights Reserved. Copyright (c) 2006 by Tavmjong Bah. All Rights Reserved. DejaVu changes are in public domain 
%%Creator: Converted from TrueType to type 3 by PPR
25 dict begin
/_d{bind def}bind def
/_m{moveto}_d
/_l{lineto}_d
/_cl{closepath eofill}_d
/_c{curveto}_d
/_sc{7 -1 roll{setcachedevice}{pop pop pop pop pop pop}ifelse}_d
/_e{exec}_d
/FontName /DejaVuSans-Oblique def
/PaintType 0 def
/FontMatrix[.001 0 0 .001 0 0]def
/FontBBox[-1016 -350 1659 1068]def
/FontType 3 def
/Encoding [ /tau ] def
/FontInfo 10 dict dup begin
/FamilyName (DejaVu Sans) def
/FullName (DejaVu Sans Oblique) def
/Notice (Copyright (c) 2003 by Bitstream, Inc. All Rights Reserved. Copyright (c) 2006 by Tavmjong Bah. All Rights Reserved. DejaVu changes are in public domain ) def
/Weight (Oblique) def
/Version (Version 2.35) def
/ItalicAngle -11.0 def
/isFixedPitch false def
/UnderlinePosition -130 def
/UnderlineThickness 90 def
end readonly def
/CharStrings 2 dict dup begin
/.notdef 0 def
/tau{602 0 84 0 606 547 _sc
329 100 _m
337 84 359 76 395 76 _c
438 76 _l
423 0 _l
369 0 _l
310 0 270 15 250 47 _c
229 79 226 129 240 198 _c
290 457 _l
84 457 _l
102 547 _l
606 547 _l
589 457 _l
382 457 _l
330 193 _l
320 145 320 114 329 100 _c
_cl}_d
end readonly def

/BuildGlyph
 {exch begin
 CharStrings exch
 2 copy known not{pop /.notdef}if
 true 3 1 roll get exec
 end}_d

/BuildChar {
 1 index /Encoding get exch get
 1 index /BuildGlyph get exec
}_d

FontName currentdict end definefont pop
end
%%EndProlog
mpldict begin
75.6 223.2 translate
460.8 345.6 0 0 clipbox
gsave
0 0 m
460.8 0 l
460.8 345.6 l
0 345.6 l
cl
1.000 setgray
fill
grestore
gsave
57.6 38.016 m
414.72 38.016 l
414.72 304.128 l
57.6 304.128 l
cl
1.000 setgray
fill
grestore
0.800 setlinewidth
1 setlinejoin
0 setlinecap
[] 0 setdash
0.000 setgray
gsave
/o {
gsave
newpath
translate
0.8 setlinewidth
1 setlinejoin
0 setlinecap
0 0 m
0 -3.5 l

gsave
0.000 setgray
fill
grestore
stroke
grestore
} bind def
62.9557 38.016 o
grestore
/DejaVuSans findfont
10.000 scalefont
setfont
gsave
59.776019 23.422250 translate
0.000000 rotate
0.000000 0.000000 m /zero glyphshow
grestore
gsave
/o {
gsave
newpath
translate
0.8 setlinewidth
1 setlinejoin
0 setlinecap
0 0 m
0 -3.5 l

gsave
0.000 setgray
fill
grestore
stroke
grestore
} bind def
117.076 38.016 o
grestore
gsave
113.896782 23.422250 translate
0.000000 rotate
0.000000 0.000000 m /five glyphshow
grestore
gsave
/o {
gsave
newpath
translate
0.8 setlinewidth
1 setlinejoin
0 setlinecap
0 0 m
0 -3.5 l

gsave
0.000 setgray
fill
grestore
stroke
grestore
} bind def
171.197 38.016 o
grestore
gsave
164.837857 23.422250 translate
0.000000 rotate
0.000000 0.000000 m /one glyphshow
6.362305 0.000000 m /zero glyphshow
grestore
gsave
/o {
gsave
newpath
translate
0.8 setlinewidth
1 setlinejoin
0 setlinecap
0 0 m
0 -3.5 l

gsave
0.000 setgray
fill
grestore
stroke
grestore
} bind def
225.318 38.016 o
grestore
gsave
218.958620 23.422250 translate
0.000000 rotate
0.000000 0.000000 m /one glyphshow
6.362305 0.000000 m /five glyphshow
grestore
gsave
/o {
gsave
newpath
translate
0.8 setlinewidth
1 setlinejoin
0 setlinecap
0 0 m
0 -3.5 l

gsave
0.000 setgray
fill
grestore
stroke
grestore
} bind def
279.439 38.016 o
grestore
gsave
273.079383 23.422250 translate
0.000000 rotate
0.000000 0.000000 m /two glyphshow
6.362305 0.000000 m /zero glyphshow
grestore
gsave
/o {
gsave
newpath
translate
0.8 setlinewidth
1 setlinejoin
0 setlinecap
0 0 m
0 -3.5 l

gsave
0.000 setgray
fill
grestore
stroke
grestore
} bind def
333.56 38.016 o
grestore
gsave
327.200146 23.422250 translate
0.000000 rotate
0.000000 0.000000 m /two glyphshow
6.362305 0.000000 m /five glyphshow
grestore
gsave
/o {
gsave
newpath
translate
0.8 setlinewidth
1 setlinejoin
0 setlinecap
0 0 m
0 -3.5 l

gsave
0.000 setgray
fill
grestore
stroke
grestore
} bind def
387.68 38.016 o
grestore
gsave
381.320908 23.422250 translate
0.000000 rotate
0.000000 0.000000 m /three glyphshow
6.362305 0.000000 m /zero glyphshow
grestore
gsave
209.863125 9.750375 translate
0.000000 rotate
0.000000 0.000000 m /t glyphshow
3.920898 0.000000 m /i glyphshow
6.699219 0.000000 m /m glyphshow
16.440430 0.000000 m /e glyphshow
22.592773 0.000000 m /comma glyphshow
25.771484 0.000000 m /space glyphshow
28.950195 0.000000 m /d glyphshow
35.297852 0.000000 m /a glyphshow
41.425781 0.000000 m /y glyphshow
47.343750 0.000000 m /s glyphshow
grestore
gsave
/o {
gsave
newpath
translate
0.8 setlinewidth
1 setlinejoin
0 setlinecap
0 0 m
-3.5 0 l

gsave
0.000 setgray
fill
grestore
stroke
grestore
} bind def
57.6 50.112 o
grestore
gsave
34.693750 46.315094 translate
0.000000 rotate
0.000000 0.000000 m /zero glyphshow
6.362305 0.000000 m /period glyphshow
9.541016 0.000000 m /zero glyphshow
grestore
gsave
/o {
gsave
newpath
translate
0.8 setlinewidth
1 setlinejoin
0 setlinecap
0 0 m
-3.5 0 l

gsave
0.000 setgray
fill
grestore
stroke
grestore
} bind def
57.6 80.3526 o
grestore
gsave
34.693750 76.555703 translate
0.000000 rotate
0.000000 0.000000 m /zero glyphshow
6.362305 0.000000 m /period glyphshow
9.541016 0.000000 m /five glyphshow
grestore
gsave
/o {
gsave
newpath
translate
0.8 setlinewidth
1 setlinejoin
0 setlinecap
0 0 m
-3.5 0 l

gsave
0.000 setgray
fill
grestore
stroke
grestore
} bind def
57.6 110.593 o
grestore
gsave
34.693750 106.796312 translate
0.000000 rotate
0.000000 0.000000 m /one glyphshow
6.362305 0.000000 m /period glyphshow
9.541016 0.000000 m /zero glyphshow
grestore
gsave
/o {
gsave
newpath
translate
0.8 setlinewidth
1 setlinejoin
0 setlinecap
0 0 m
-3.5 0 l

gsave
0.000 setgray
fill
grestore
stroke
grestore
} bind def
57.6 140.834 o
grestore
gsave
34.693750 137.036920 translate
0.000000 rotate
0.000000 0.000000 m /one glyphshow
6.362305 0.000000 m /period glyphshow
9.541016 0.000000 m /five glyphshow
grestore
gsave
/o {
gsave
newpath
translate
0.8 setlinewidth
1 setlinejoin
0 setlinecap
0 0 m
-3.5 0 l

gsave
0.000 setgray
fill
grestore
stroke
grestore
} bind def
57.6 171.074 o
grestore
gsave
34.693750 167.277529 translate
0.000000 rotate
0.000000 0.000000 m /two glyphshow
6.362305 0.000000 m /period glyphshow
9.541016 0.000000 m /zero glyphshow
grestore
gsave
/o {
gsave
newpath
translate
0.8 setlinewidth
1 setlinejoin
0 setlinecap
0 0 m
-3.5 0 l

gsave
0.000 setgray
fill
grestore
stroke
grestore
} bind def
57.6 201.315 o
grestore
gsave
34.693750 197.518138 translate
0.000000 rotate
0.000000 0.000000 m /two glyphshow
6.362305 0.000000 m /period glyphshow
9.541016 0.000000 m /five glyphshow
grestore
gsave
/o {
gsave
newpath
translate
0.8 setlinewidth
1 setlinejoin
0 setlinecap
0 0 m
-3.5 0 l

gsave
0.000 setgray
fill
grestore
stroke
grestore
} bind def
57.6 231.556 o
grestore
gsave
34.693750 227.758746 translate
0.000000 rotate
0.000000 0.000000 m /three glyphshow
6.362305 0.000000 m /period glyphshow
9.541016 0.000000 m /zero glyphshow
grestore
gsave
/o {
gsave
newpath
translate
0.8 setlinewidth
1 setlinejoin
0 setlinecap
0 0 m
-3.5 0 l

gsave
0.000 setgray
fill
grestore
stroke
grestore
} bind def
57.6 261.796 o
grestore
gsave
34.693750 257.999355 translate
0.000000 rotate
0.000000 0.000000 m /three glyphshow
6.362305 0.000000 m /period glyphshow
9.541016 0.000000 m /five glyphshow
grestore
gsave
/o {
gsave
newpath
translate
0.8 setlinewidth
1 setlinejoin
0 setlinecap
0 0 m
-3.5 0 l

gsave
0.000 setgray
fill
grestore
stroke
grestore
} bind def
57.6 292.037 o
grestore
gsave
34.693750 288.239964 translate
0.000000 rotate
0.000000 0.000000 m /four glyphshow
6.362305 0.000000 m /period glyphshow
9.541016 0.000000 m /zero glyphshow
grestore
gsave
28.615625 167.572000 translate
90.000000 rotate
/DejaVuSans-Oblique findfont
10.0 scalefont
setfont
0.000000 0.531250 moveto
/tau glyphshow


grestore
1.500 setlinewidth
2 setlinecap
0.000 0.750 0.750 setrgbcolor
gsave
357.1 266.1 57.6 38.02 clipbox
73.832727 56.585275 m
73.983439 56.571752 l
74.661076 56.210844 l
75.338713 56.118727 l
76.995535 56.325397 l
78.275766 56.384795 l
79.48083 56.383992 l
82.568219 56.319867 l
84.527591 56.477912 l
86.712592 56.882431 l
87.164726 57.096888 l
87.541316 56.923061 l
87.842739 57.297788 l
87.918157 56.968196 l
87.99345 57.093867 l
88.144286 57.179728 l
88.445709 57.139098 l
90.10416 57.216791 l
91.007926 57.584453 l
91.83665 58.175973 l
91.987362 58.1081 l
92.28891 58.886514 l
92.364203 58.767028 l
92.590082 58.188501 l
92.891504 58.548591 l
93.192802 58.727894 l
94.247655 57.039082 l
94.47366 56.829439 l
95.001212 56.908195 l
95.755144 57.090395 l
96.282947 56.828822 l
96.885667 57.395951 l
97.186964 57.295631 l
97.56368 57.077342 l
98.76937 57.104699 l
100.05098 57.17988 l
100.729243 57.278038 l
101.407381 57.420469 l
101.784222 57.432456 l
102.839076 57.707119 l
105.55213 57.848234 l
106.607234 57.625932 l
106.833614 57.75958 l
107.361166 57.554895 l
107.662714 57.749448 l
108.265685 58.622573 l
108.86878 60.830952 l
109.170453 58.036529 l
109.245872 58.163379 l
109.472001 59.153502 l
109.698131 57.94916 l
109.924135 57.025872 l
110.074972 56.656862 l
110.225808 56.858357 l
110.828779 58.714544 l
110.979365 60.362788 l
111.129951 59.134918 l
111.280662 60.273499 l
112.034093 56.964271 l
112.486478 56.183083 l
112.712482 56.570709 l
113.692168 59.345648 l
113.843255 60.394752 l
113.993966 63.018891 l
114.144552 70.988037 l
114.295138 68.759781 l
114.44585 71.135174 l
114.747147 66.167117 l
114.822565 68.255131 l
114.897858 65.558202 l
114.973151 66.408947 l
115.199406 67.730624 l
115.274699 65.237622 l
115.350117 66.291308 l
115.425536 66.836582 l
115.802251 79.409554 l
115.952963 72.737114 l
116.028381 76.719394 l
116.179092 68.845251 l
116.25451 71.45289 l
116.329803 66.343826 l
116.405222 69.663129 l
116.48064 69.231248 l
116.631226 70.98728 l
116.85723 77.082363 l
116.932523 81.787161 l
117.007942 79.855837 l
117.08336 78.328931 l
117.309364 65.141083 l
117.460075 61.595359 l
117.686205 63.119107 l
117.987753 66.504272 l
118.063046 66.305175 l
118.213757 65.432558 l
118.515055 71.134493 l
118.816477 64.605636 l
119.042732 61.498685 l
119.268987 65.251689 l
119.34428 64.489858 l
119.570284 67.396696 l
119.645577 69.124332 l
119.720995 67.140525 l
119.871707 69.924189 l
119.947 69.053541 l
120.022293 71.795871 l
120.097586 67.924503 l
120.173004 75.483808 l
120.323715 63.051794 l
120.399008 66.935087 l
120.474301 58.308911 l
120.549594 60.708306 l
120.625013 58.553411 l
120.700306 59.539358 l
120.775724 58.52154 l
120.851017 59.785685 l
120.92631 57.179816 l
121.001728 57.567912 l
121.077021 58.214786 l
121.152314 58.000159 l
121.378569 57.374146 l
121.453862 57.626736 l
121.52928 64.02589 l
121.604573 58.59415 l
121.679992 60.943965 l
121.75541 61.309719 l
121.830828 60.753621 l
121.906121 60.768833 l
122.057208 67.086426 l
122.132501 66.800324 l
122.20792 64.224249 l
122.283338 64.867291 l
122.358756 64.665041 l
122.434174 63.506279 l
122.509593 66.669463 l
122.584886 61.828188 l
122.660304 65.977846 l
123.036894 56.774259 l
123.187606 59.562966 l
123.262899 55.669281 l
123.41361 62.4404 l
123.564321 59.195708 l
123.63974 57.11533 l
123.715033 57.357364 l
123.790326 57.958431 l
123.865744 57.919952 l
123.941162 57.696771 l
124.016455 57.937463 l
124.091748 56.580493 l
124.167166 56.752487 l
124.317878 57.07743 l
124.694468 58.948548 l
124.770012 57.895098 l
124.84543 58.083394 l
124.996141 57.541293 l
125.146978 58.207019 l
125.372982 57.68095 l
125.4484 57.707268 l
125.749698 60.031252 l
125.975952 60.428095 l
126.051245 60.425989 l
126.352543 61.537255 l
126.427961 61.398858 l
126.654091 60.913754 l
126.955513 64.112391 l
127.106225 63.739859 l
127.332354 63.05493 l
127.407772 63.099258 l
127.558484 61.907211 l
127.709195 63.953856 l
127.859906 58.430937 l
128.161329 62.693928 l
128.236747 62.510773 l
128.53817 59.337688 l
128.688881 57.387301 l
128.764299 57.270286 l
128.915011 58.980348 l
129.065722 62.783723 l
129.141015 62.079601 l
129.367395 58.097749 l
129.518232 60.247469 l
129.668692 69.875133 l
129.744111 66.931807 l
129.894947 60.4646 l
129.970365 60.804922 l
130.045658 61.725306 l
130.19637 58.967869 l
130.271663 59.057424 l
130.497792 61.648348 l
130.573211 61.547362 l
130.724047 61.512416 l
130.874758 61.087573 l
131.176056 58.217588 l
131.326642 67.698017 l
131.477353 59.400778 l
131.552646 59.407602 l
131.628064 59.9327 l
131.778776 58.862704 l
132.080324 62.254026 l
132.683294 55.746963 l
132.758587 55.817896 l
133.06001 56.697723 l
133.286014 56.652046 l
133.738524 57.053587 l
135.69777 56.556356 l
136.979004 56.643199 l
139.390385 56.284266 l
142.404987 56.125705 l
143.987392 56.222622 l
145.494756 56.487283 l
146.474567 56.843568 l
147.152705 57.156393 l
147.453877 57.110819 l
147.604463 57.470111 l
147.830844 58.273309 l
148.660069 57.900071 l
149.036784 58.153085 l
149.262914 58.337068 l
149.564211 57.946117 l
149.865634 57.161309 l
150.01622 57.969225 l
150.166931 59.445691 l
150.393186 57.627282 l
150.619065 58.214857 l
150.769902 59.579497 l
150.84532 58.821941 l
150.920738 60.293224 l
150.996156 60.082053 l
151.222161 60.733242 l
151.372872 60.353221 l
151.674295 60.744065 l
151.975592 59.326917 l
152.352433 56.929024 l
152.804692 57.428299 l
152.955278 57.416418 l
153.48283 57.003272 l
154.085801 57.421271 l
154.462767 57.046225 l
154.839357 56.772642 l
156.5726 56.695122 l
157.477368 56.297004 l
158.306468 56.419572 l
158.608016 56.780614 l
158.985108 57.841294 l
159.513036 59.358803 l
159.814584 59.659278 l
159.890002 60.519506 l
159.96542 60.368544 l
160.342136 63.170529 l
160.417429 63.855314 l
160.492847 63.730555 l
160.56814 63.753181 l
160.643558 62.641284 l
160.719102 64.699038 l
160.794395 64.40145 l
160.945231 64.22645 l
161.246779 63.051065 l
161.322072 62.57605 l
161.472784 65.983602 l
161.623495 64.191895 l
161.774331 64.747325 l
161.849624 65.907183 l
161.925043 65.375916 l
162.000461 64.408292 l
162.151298 67.171939 l
162.226716 67.518049 l
162.452845 60.79541 l
162.603557 60.544261 l
162.754268 60.896919 l
162.980523 62.326854 l
163.131359 63.404468 l
163.206652 62.353209 l
163.282071 59.162272 l
163.357364 59.2514 l
163.432782 59.412124 l
163.73458 57.436362 l
163.96071 59.187543 l
164.186965 61.73584 l
164.337676 65.679968 l
164.488513 64.920808 l
164.563931 70.257563 l
164.639224 85.903307 l
164.714768 84.373919 l
164.865604 78.678158 l
164.941022 78.85569 l
165.317863 105.548954 l
165.393156 104.132769 l
165.468575 89.375546 l
165.694579 103.25844 l
165.920709 72.556249 l
165.996252 73.028241 l
166.146963 66.438436 l
166.222256 66.877766 l
166.297675 66.590613 l
166.372968 66.973019 l
166.599097 73.708428 l
166.749809 70.720905 l
166.825102 71.064731 l
166.90052 71.248156 l
166.976063 73.322154 l
167.051482 70.958772 l
167.1269 71.022136 l
167.202318 70.483268 l
167.277737 72.474688 l
167.353155 70.182947 l
167.654703 73.625896 l
167.956 75.752991 l
168.031418 75.3763 l
168.106711 76.419166 l
168.332841 73.442031 l
168.483552 72.659449 l
169.161941 67.769412 l
169.38807 68.653821 l
169.463363 69.087311 l
169.840705 65.104227 l
169.991417 65.356796 l
170.06696 65.171504 l
170.142379 65.399548 l
170.29309 64.437492 l
170.443801 64.29277 l
171.272651 64.522167 l
171.347944 64.037062 l
171.423487 66.344024 l
171.49878 63.806798 l
171.574073 64.64906 l
171.649491 65.027282 l
172.101375 61.681288 l
172.403048 60.932015 l
172.55401 60.704287 l
172.704972 61.125799 l
172.780515 61.017266 l
172.931101 60.63556 l
173.006519 59.997025 l
173.081938 60.169781 l
173.232649 60.536164 l
173.458653 61.058638 l
173.609365 64.785492 l
173.835369 69.601956 l
174.061373 67.372582 l
174.362921 63.424127 l
174.589051 61.568489 l
174.815055 66.871474 l
174.965892 78.449496 l
175.04131 78.535686 l
175.116728 80.609358 l
175.192272 79.86683 l
175.26769 78.713805 l
175.418652 73.159419 l
175.569488 76.621239 l
175.795743 68.902502 l
175.871036 68.393837 l
176.097166 71.090637 l
176.323295 74.157511 l
176.474257 75.969155 l
176.700262 73.839992 l
176.77568 73.7079 l
176.926266 72.722022 l
177.076977 75.65428 l
177.303107 70.2862 l
177.378525 72.111511 l
177.453943 69.304659 l
177.529362 71.056202 l
177.680449 68.704601 l
177.906704 67.872262 l
177.982122 67.736793 l
178.283544 70.412292 l
178.358963 70.054799 l
178.660385 68.090378 l
179.413942 67.103588 l
179.489485 67.080443 l
179.866201 65.377555 l
180.016912 64.290688 l
180.092456 64.253253 l
180.243418 71.757296 l
180.545091 62.775738 l
180.620634 63.058187 l
180.771346 61.485864 l
181.072768 68.641067 l
181.148061 64.003794 l
181.223354 66.552418 l
181.298647 65.847173 l
181.524777 60.361359 l
181.60007 59.741466 l
181.675488 60.029688 l
181.750781 60.545395 l
181.826199 63.497362 l
181.901492 63.171603 l
182.052078 65.202168 l
182.127371 64.996812 l
182.20279 65.251512 l
182.655049 60.767011 l
182.805885 60.478788 l
183.032391 60.870927 l
183.107684 61.151187 l
183.333939 63.88564 l
183.409357 65.275273 l
183.786198 60.259857 l
184.163039 61.365925 l
184.31375 62.320746 l
184.389043 62.147162 l
184.765759 60.20532 l
184.841177 60.312402 l
184.91647 60.501595 l
185.217892 59.416277 l
185.444022 59.740299 l
185.821113 60.581385 l
185.896532 60.495341 l
185.97195 60.310087 l
186.19833 59.146315 l
186.273748 59.214866 l
186.42446 60.164812 l
186.575171 59.464976 l
186.725882 60.080358 l
186.801175 59.918778 l
187.102598 59.312302 l
187.328727 58.983771 l
187.630275 59.432621 l
187.931698 59.997854 l
188.233246 58.595501 l
188.308539 58.700388 l
188.836717 60.437576 l
188.91201 60.406583 l
189.213683 59.478363 l
189.816654 57.258745 l
189.892072 57.280752 l
191.023096 57.677685 l
192.153994 57.037984 l
192.379873 57.723053 l
192.455417 57.691875 l
192.907676 58.967385 l
192.982969 58.882176 l
193.058387 58.876905 l
193.359935 59.719146 l
193.661734 59.140669 l
193.737277 59.196893 l
193.963407 59.647677 l
194.339997 65.072975 l
194.415415 64.75447 l
194.490708 64.149793 l
194.566252 64.163519 l
194.792382 66.199089 l
195.018511 67.60461 l
195.169222 68.230331 l
195.395352 66.42722 l
195.47077 66.387243 l
195.772068 64.476087 l
195.923029 64.459948 l
196.073866 64.500108 l
196.224703 65.850568 l
196.300121 62.967404 l
196.451083 66.578268 l
196.677087 64.815991 l
196.827798 83.928109 l
196.903091 80.09005 l
197.053803 66.338311 l
197.129221 68.853252 l
197.204639 68.927524 l
197.280057 70.425719 l
197.581856 63.533353 l
197.657149 63.249685 l
197.732567 63.43206 l
197.807985 62.893372 l
198.03399 65.517106 l
198.109408 66.551525 l
198.335538 63.309298 l
198.486499 70.285132 l
198.561918 68.749603 l
198.788173 64.358515 l
198.939009 64.61098 l
199.014302 66.133153 l
199.08972 63.398614 l
199.165013 63.812343 l
199.240306 64.255408 l
199.315725 62.505354 l
199.541854 64.963279 l
199.617273 65.462458 l
199.692566 65.257032 l
199.767984 64.519595 l
199.843402 65.481147 l
199.994113 64.190408 l
200.069532 67.198804 l
200.144825 75.058721 l
200.220243 71.525669 l
200.295661 68.286672 l
200.37108 75.874441 l
200.446498 73.396578 l
200.597209 77.79729 l
200.747795 77.941521 l
200.898632 70.815407 l
201.049468 82.618282 l
201.20043 64.239298 l
201.426685 75.011838 l
201.502103 72.009787 l
201.577522 71.950844 l
201.878944 62.82671 l
202.105074 66.072619 l
202.255785 69.36232 l
202.406622 74.169566 l
202.481915 68.105016 l
202.557208 74.339059 l
202.632626 65.735616 l
202.707919 67.857458 l
202.933923 65.292417 l
203.009342 64.840901 l
203.084635 64.939658 l
203.159928 65.303159 l
203.537144 71.388325 l
203.612563 70.714769 l
203.688106 71.234174 l
203.763399 70.441187 l
204.216034 76.897371 l
204.442038 72.119003 l
204.517331 72.414731 l
204.743336 63.369846 l
204.818754 62.532239 l
204.969591 64.729909 l
205.045009 64.694128 l
205.271264 63.585456 l
205.572812 69.312964 l
205.723523 61.243148 l
205.798941 62.121072 l
206.024945 64.515851 l
206.326619 61.641928 l
206.402162 66.330769 l
206.47758 65.178031 l
206.552999 65.894863 l
206.628417 62.768988 l
206.703835 67.109232 l
206.854547 60.97597 l
207.005383 65.034919 l
207.231387 75.736021 l
207.382224 74.68805 l
207.53281 69.517995 l
207.75894 67.260735 l
207.834358 67.507295 l
208.13578 62.792601 l
208.36191 67.185906 l
208.512621 70.018165 l
208.58804 69.815437 l
208.663458 68.927416 l
208.739001 70.721594 l
208.81442 67.523524 l
208.889963 72.052293 l
208.965382 70.194214 l
209.0408 73.528764 l
209.116218 69.693224 l
209.342473 78.243325 l
209.49331 71.062323 l
209.568603 71.694368 l
209.644021 72.858932 l
210.171448 68.421494 l
210.246866 68.581691 l
210.623832 64.935426 l
210.69925 64.637886 l
210.850212 62.720022 l
210.925505 62.943792 l
211.453559 66.016466 l
211.679813 65.336369 l
211.905943 64.991375 l
212.132073 64.991052 l
212.358202 65.033322 l
212.659875 66.540296 l
212.961423 61.130372 l
213.036841 61.180943 l
213.639937 64.214594 l
213.866317 66.882414 l
213.941736 66.62062 l
214.469664 62.898323 l
214.84663 61.988118 l
215.147927 61.646184 l
215.44935 61.721105 l
215.675479 61.924401 l
216.27845 61.32507 l
216.50508 62.39241 l
217.108051 65.577409 l
217.258637 65.467911 l
217.334055 65.414075 l
217.484892 65.842544 l
217.635603 66.665318 l
217.861858 68.526103 l
217.937151 68.660912 l
218.087987 75.64463 l
218.238824 71.424905 l
218.540372 90.958889 l
218.766627 76.237111 l
218.842045 76.817206 l
218.993132 82.935508 l
219.143969 72.271058 l
219.219262 72.527146 l
219.29468 73.503908 l
219.445517 71.972247 l
219.746814 64.912548 l
219.822232 65.697884 l
219.897525 64.993215 l
220.12378 59.281552 l
220.274366 60.148369 l
220.349659 59.664346 l
220.500496 61.168757 l
220.72675 68.066642 l
220.802294 66.286809 l
220.877587 72.829727 l
221.028298 58.599786 l
221.103717 62.676199 l
221.179135 61.367854 l
221.254678 59.193534 l
221.330097 67.566339 l
221.480933 61.896688 l
221.556477 64.41752 l
221.631895 60.787381 l
221.707188 65.09216 l
221.782606 63.752525 l
221.858025 61.949691 l
221.933443 62.451485 l
222.008861 62.989308 l
222.159573 59.658841 l
222.310159 63.652478 l
222.385452 62.895837 l
222.46087 63.44685 l
222.536288 60.841705 l
222.611581 62.71981 l
222.686999 60.553807 l
222.762292 61.081975 l
222.837711 60.919767 l
222.913129 60.999548 l
223.06384 61.500659 l
223.139133 60.909183 l
223.214552 61.510025 l
223.28997 61.309177 l
223.516225 60.554823 l
223.666936 61.553439 l
223.74248 60.953782 l
223.817898 62.226688 l
223.893316 62.171092 l
223.968734 62.158735 l
224.044278 63.131665 l
224.119696 62.824591 l
224.345951 62.643686 l
224.421244 63.008981 l
224.571955 61.372331 l
224.948671 65.864153 l
225.250094 70.442697 l
225.325512 70.115751 l
225.626809 65.523842 l
225.928232 59.200093 l
226.00365 64.336539 l
226.154487 59.967799 l
226.229905 61.805372 l
226.305323 60.221211 l
226.380867 60.592856 l
226.531829 60.014271 l
226.758083 63.321523 l
226.833502 64.703644 l
226.908795 64.15227 l
227.134924 61.848497 l
227.285636 62.496441 l
227.511765 63.363767 l
227.813188 63.384154 l
228.039317 62.89321 l
228.11461 62.969012 l
228.34074 63.066256 l
228.491451 62.955575 l
228.717456 62.174014 l
229.094672 60.755586 l
229.320927 60.481296 l
229.547057 60.254946 l
229.697893 60.335214 l
229.923898 61.632564 l
230.150152 63.768577 l
230.225445 63.216921 l
230.451575 61.056067 l
230.677705 67.93957 l
230.828541 71.110378 l
231.054671 70.105881 l
231.130089 70.512661 l
232.035234 78.615258 l
232.411949 87.666738 l
232.638079 93.617772 l
232.864208 91.320536 l
233.165756 86.643591 l
233.241175 87.390029 l
233.542722 94.767991 l
234.221487 113.689051 l
234.372324 116.667317 l
234.447742 116.553575 l
234.749164 112.615833 l
234.824583 111.597767 l
235.050587 106.579886 l
235.502721 100.332649 l
235.578014 96.328526 l
235.653557 108.442828 l
235.72885 96.047389 l
235.804269 101.693145 l
235.879687 104.981952 l
235.955105 104.642952 l
236.181235 102.181035 l
236.331946 106.260284 l
236.407364 101.520815 l
236.482783 107.60896 l
236.558201 106.526506 l
236.633619 106.265753 l
236.784331 107.543819 l
236.935167 103.360973 l
237.010585 106.141269 l
237.086004 105.346783 l
237.538012 90.44365 l
237.613431 101.295585 l
237.839435 87.604092 l
238.06569 94.548172 l
238.140983 94.659947 l
238.216526 95.275237 l
238.291819 97.14766 l
238.442656 115.267466 l
238.593492 144.231558 l
238.819622 88.531125 l
238.894915 86.188789 l
238.970333 86.537119 l
239.121045 91.024347 l
239.271756 97.29294 l
239.347049 85.238192 l
239.422467 97.891288 l
239.497886 90.527646 l
239.573304 96.333698 l
239.648722 83.008072 l
239.799433 94.680945 l
239.95027 78.229485 l
240.025688 84.209596 l
240.1764 76.470463 l
240.327111 83.454474 l
240.55324 75.987826 l
240.854788 71.174845 l
241.005374 77.534423 l
241.080793 76.368225 l
241.156211 75.246934 l
241.231504 69.517922 l
241.457759 76.391882 l
241.60847 90.004222 l
241.759181 63.710017 l
241.834474 65.574763 l
241.985311 80.173732 l
242.060854 97.216207 l
242.211566 76.468711 l
242.362277 90.169522 l
242.437695 89.314557 l
242.512988 88.182199 l
242.663574 92.080596 l
242.889704 113.339336 l
243.040415 77.409319 l
243.115833 81.736404 l
243.191126 82.526642 l
243.417256 104.590729 l
243.492549 103.671171 l
243.567967 88.686847 l
243.64326 90.273803 l
243.718679 91.83992 l
243.793972 91.33147 l
243.86939 91.276332 l
244.020226 83.891915 l
244.095645 85.678318 l
244.171063 90.533217 l
244.246607 82.305677 l
244.322025 92.54082 l
244.623573 79.290158 l
244.774284 90.196274 l
245.000664 65.636705 l
245.075957 66.468134 l
245.151501 66.285213 l
245.302212 66.060153 l
245.37763 66.260656 l
245.452923 62.855356 l
245.528342 65.612591 l
245.754471 62.730064 l
245.829764 62.490005 l
246.282399 67.798188 l
246.357692 67.624652 l
246.432985 67.765558 l
246.583696 79.859456 l
246.659115 78.870741 l
246.734533 76.815712 l
246.885244 86.674516 l
247.036081 100.80073 l
247.337754 72.207081 l
247.413298 77.732207 l
247.564134 91.976466 l
247.714971 96.516467 l
247.790264 116.104883 l
247.940975 88.857301 l
248.167105 77.01226 l
248.242523 74.604148 l
248.317816 75.589719 l
248.619489 81.171606 l
248.7702 79.580297 l
248.920786 76.244041 l
248.996205 73.312848 l
249.071498 77.188905 l
249.297627 64.232802 l
249.750012 58.523442 l
249.825305 58.386956 l
250.051685 59.177165 l
250.353483 59.068256 l
250.579613 59.671842 l
250.655031 59.58063 l
250.730324 59.690421 l
250.956579 58.49154 l
251.031997 59.241221 l
251.107416 58.408481 l
251.182709 58.589253 l
251.258002 58.615942 l
251.710386 57.846777 l
251.861097 57.795703 l
252.162896 59.288186 l
252.766242 62.849013 l
253.218626 68.623349 l
253.294045 63.327159 l
253.369463 63.65825 l
253.444881 62.875821 l
253.5203 62.992831 l
253.821722 75.509549 l
253.89714 74.61948 l
253.972559 72.841927 l
254.12327 64.623213 l
254.273981 79.318616 l
254.3494 77.148378 l
254.424693 71.60806 l
254.651073 82.290189 l
254.801909 76.844007 l
254.877328 81.08417 l
255.028039 75.907192 l
255.103457 76.485522 l
255.179001 77.974631 l
255.329712 91.151982 l
255.405005 90.669453 l
255.480423 89.45911 l
255.555716 78.208098 l
255.631135 90.684281 l
255.857264 74.520518 l
256.083268 105.716511 l
256.460235 66.049209 l
256.611196 63.783787 l
256.837201 68.451736 l
256.912619 65.33044 l
256.987912 66.493658 l
257.138749 78.502448 l
257.214292 68.824203 l
257.28971 87.709907 l
257.365129 87.02898 l
257.440547 71.641927 l
257.515965 72.609229 l
257.591258 73.610637 l
257.817513 85.369738 l
257.892931 92.41997 l
257.968224 90.425627 l
258.345191 70.258461 l
258.495902 68.145549 l
258.722031 81.566933 l
258.79745 83.806274 l
258.872743 83.196627 l
258.948161 81.830485 l
259.023579 69.910029 l
259.098998 70.728679 l
259.249959 70.052996 l
259.325252 81.979314 l
259.400545 78.210685 l
259.475964 78.667083 l
259.551257 68.926294 l
259.62655 70.170214 l
259.702093 71.221178 l
259.852805 67.981636 l
260.003641 75.118749 l
260.079059 74.818492 l
260.154478 68.116312 l
260.229896 69.31653 l
260.380607 70.441082 l
260.531319 70.284655 l
260.606737 70.333529 l
260.757323 71.412474 l
260.908159 72.110116 l
261.209833 77.737566 l
261.360669 86.220523 l
261.436087 85.838873 l
261.511381 84.618749 l
261.737635 86.348748 l
261.813054 85.542971 l
262.114476 72.798509 l
262.189895 73.239744 l
262.491442 80.021398 l
262.717572 87.283399 l
262.868409 82.575607 l
263.094538 90.268784 l
263.169831 90.160977 l
263.320542 91.837673 l
263.546547 79.680696 l
263.772676 77.127172 l
263.923513 76.617926 l
264.149642 73.326827 l
264.225061 73.296539 l
264.300604 70.066659 l
264.376023 71.891019 l
264.451441 71.754298 l
264.526859 70.547915 l
264.602277 70.662002 l
264.828532 70.90844 l
265.130205 74.94867 l
265.281167 92.890404 l
265.35646 79.299415 l
265.431879 94.946087 l
265.507297 89.796407 l
265.58259 86.275203 l
265.658008 89.957226 l
265.808719 80.854729 l
265.959431 94.462773 l
266.034724 94.965829 l
266.411565 73.709944 l
266.487108 73.423731 l
266.562401 73.755374 l
266.637945 74.830051 l
266.939242 86.51878 l
267.01466 81.024131 l
267.089953 81.963797 l
267.24079 88.894106 l
267.316083 87.919042 l
267.617756 76.812974 l
267.919304 62.00719 l
267.994722 63.247943 l
268.070015 65.551108 l
268.296019 85.267729 l
268.371438 84.13789 l
268.597567 86.530758 l
268.67286 86.147501 l
268.748279 87.240564 l
268.823697 81.832308 l
269.049826 107.448715 l
269.200538 76.95031 l
269.351249 67.819822 l
269.426542 69.476858 l
269.50196 69.855561 l
269.577379 75.247967 l
269.652797 64.99332 l
269.72809 65.706107 l
269.803508 66.187136 l
269.954345 69.721001 l
270.331311 85.49434 l
270.406729 85.807738 l
270.632984 77.84324 l
270.708277 78.319737 l
270.783695 78.200305 l
270.858988 78.217337 l
271.235829 73.584806 l
271.311248 74.933365 l
271.386666 74.545121 l
271.462084 74.400893 l
271.763632 72.009352 l
272.06518 85.929833 l
272.216016 81.740661 l
272.366728 76.40421 l
272.517564 97.926101 l
272.819237 142.549595 l
272.969949 150.829344 l
273.120785 130.01877 l
273.422208 92.182879 l
273.648212 76.0996 l
273.874342 64.59214 l
274.251308 60.791258 l
274.326726 60.911632 l
274.477437 64.278205 l
274.628274 64.710917 l
274.703818 62.218149 l
274.779111 62.724474 l
275.00524 65.599026 l
275.533043 76.312641 l
275.683879 83.247797 l
275.759423 92.191894 l
275.834967 86.799494 l
275.91026 88.807216 l
275.985678 89.536376 l
276.362519 105.989314 l
276.438062 105.736596 l
276.588774 101.482728 l
276.890697 88.51404 l
277.041534 74.745971 l
277.19237 77.766392 l
277.267789 77.810656 l
277.343207 76.890248 l
277.418625 77.723455 l
277.493918 76.66878 l
277.569211 71.397337 l
277.644755 74.447771 l
277.720173 70.986065 l
277.795591 71.546378 l
277.87101 71.764571 l
278.021972 74.611932 l
278.097515 76.315736 l
278.323645 69.986366 l
278.399063 69.028177 l
278.474356 69.22892 l
278.776029 70.977849 l
278.851447 70.971752 l
279.002159 71.578529 l
279.303707 67.283349 l
279.530087 76.331779 l
279.60538 79.756036 l
279.680798 78.781729 l
279.756091 76.25719 l
279.831509 68.053246 l
279.906928 69.188762 l
280.510149 87.400521 l
280.585442 87.449759 l
280.811571 84.152415 l
281.037826 89.434772 l
281.113244 91.749236 l
281.414667 68.457643 l
281.490085 68.466079 l
281.565503 69.045927 l
281.71634 68.615826 l
282.017888 70.403067 l
282.093181 70.302093 l
282.31931 69.285485 l
282.620858 63.58422 l
282.696277 63.669176 l
282.997824 64.789132 l
283.073368 64.804797 l
283.299372 64.109155 l
283.450084 63.038256 l
283.600795 60.081512 l
283.902217 59.204026 l
283.97751 59.179572 l
284.65615 62.45565 l
284.882279 63.477685 l
285.108409 63.8018 l
285.410207 63.843561 l
286.541231 66.636149 l
286.616649 66.625538 l
286.842904 66.087664 l
287.219745 62.366051 l
287.672004 62.974529 l
287.822841 63.375327 l
288.878196 67.51802 l
289.179744 67.455163 l
289.405873 67.420845 l
289.632003 67.391328 l
290.008969 67.196333 l
290.084512 67.324647 l
290.235349 67.19687 l
290.688109 66.944531 l
291.06495 66.492254 l
292.421853 62.304011 l
293.176286 62.261233 l
293.327123 62.683469 l
294.458021 60.132951 l
294.834987 59.532845 l
296.267559 58.107447 l
297.247746 56.886451 l
298.152515 56.206923 l
298.831405 55.95511 l
299.585087 55.909852 l
299.735798 56.305527 l
299.811216 55.870296 l
299.886634 58.83509 l
299.961927 55.095587 l
300.037346 55.795354 l
300.188182 55.675895 l
300.490106 55.860775 l
300.791529 55.720565 l
303.505835 55.981532 l
304.561566 55.976459 l
304.637109 56.050692 l
304.712402 55.890711 l
304.863239 56.065785 l
305.315749 56.217062 l
305.843426 56.30579 l
306.597108 56.411887 l
307.275622 56.733049 l
307.35104 56.803063 l
307.652713 56.240203 l
307.954386 57.975963 l
308.255934 56.162709 l
308.482189 58.493599 l
308.633026 59.856496 l
308.784113 60.086057 l
309.387209 60.930602 l
309.538045 60.981528 l
309.839593 60.848251 l
310.065973 60.98999 l
310.292228 60.657826 l
310.442814 60.476222 l
310.593651 60.385066 l
310.669069 60.189846 l
310.895324 57.499086 l
311.04616 56.527728 l
311.27229 57.887286 l
311.573838 59.782235 l
311.799967 58.370128 l
312.026097 57.390046 l
312.252352 56.911226 l
312.55415 56.818293 l
313.081953 56.906461 l
313.534463 57.174411 l
314.212977 57.619583 l
315.570255 57.641778 l
317.228956 57.327449 l
317.832177 57.213453 l
318.435524 56.992227 l
318.963201 56.923473 l
319.415586 56.713493 l
319.717133 56.986349 l
320.018681 57.94522 l
320.0941 57.892835 l
320.169393 57.735972 l
320.244686 57.843264 l
320.395522 57.513 l
320.47094 57.671709 l
320.621777 59.500309 l
320.772488 67.725902 l
320.847907 66.540742 l
320.998618 61.396243 l
321.074036 62.570741 l
321.149454 65.797876 l
321.224747 62.892895 l
321.300166 63.443466 l
321.375459 63.671338 l
321.601714 60.18887 l
321.677132 60.512782 l
321.75255 60.406946 l
321.827968 60.05011 l
321.978805 57.725527 l
322.054223 57.815517 l
322.280478 58.378411 l
322.506482 55.870668 l
322.732612 56.275973 l
323.788217 57.021777 l
324.76853 56.870891 l
324.919241 57.000014 l
325.59788 58.068779 l
326.352189 58.196494 l
326.653862 57.523239 l
326.804824 57.926825 l
326.880242 59.584594 l
327.031078 57.005126 l
327.904402 58.215716 m
328.055113 61.017617 l
328.206075 57.644654 l
328.281494 58.313071 l
328.432205 59.160268 l
328.507623 59.16473 l
328.733878 58.797391 l
328.809171 58.818459 l
329.186513 60.470986 l
329.412768 63.180334 l
329.488311 62.949263 l
329.563604 62.336508 l
329.714316 64.765131 l
329.789734 64.72683 l
329.865152 64.518787 l
330.015864 62.558615 l
330.166575 76.396908 l
330.241993 71.514553 l
330.392704 62.428225 l
330.467997 63.141803 l
330.543416 66.351703 l
330.618834 75.013629 l
330.694252 71.561479 l
330.769545 70.300576 l
330.844964 70.857986 l
330.920382 72.089086 l
330.9958 64.934239 l
331.071093 70.74191 l
331.297348 63.290926 l
331.523853 74.528206 l
331.825527 62.036426 l
332.127325 57.704352 l
332.35358 65.404561 l
332.504291 74.833309 l
332.579835 82.8191 l
332.881257 63.413923 l
333.032094 67.017107 l
333.107387 65.859474 l
333.258349 64.281116 l
333.484478 63.417073 l
333.560022 61.488837 l
333.635315 62.361341 l
333.710733 62.52293 l
333.86157 63.200858 l
333.936988 63.22008 l
334.54046 67.308703 l
334.615878 65.66472 l
334.691296 66.791368 l
335.143806 58.411028 l
335.294768 59.874999 l
335.370186 59.777591 l
335.445604 59.633288 l
335.671734 60.841366 l
335.973407 62.457144 l
336.0487 62.564173 l
336.350373 64.569011 l
336.50121 64.00697 l
336.72759 62.587991 l
336.953719 60.988111 l
337.029138 61.015967 l
337.255142 61.461305 l
337.33056 61.36725 l
337.405853 61.261126 l
337.556815 61.470555 l
337.858488 62.419538 l
338.084743 62.794448 l
338.160036 62.76656 l
338.461584 59.498872 l
338.537128 59.954292 l
338.763508 63.187651 l
338.838926 63.100593 l
339.065181 62.270146 l
339.366729 62.891744 l
340.12041 65.143251 l
340.195703 65.054389 l
340.271247 64.899339 l
340.421833 65.670171 l
340.57267 63.160413 l
340.723506 64.655871 l
340.874217 63.287271 l
340.94951 63.322053 l
341.024929 63.433633 l
341.854279 62.332611 l
342.381957 61.997817 l
342.834341 61.777293 l
342.985178 61.64797 l
343.211433 62.942746 l
343.286726 63.464796 l
343.362144 63.245781 l
343.588273 62.419372 l
343.814528 62.277031 l
343.889821 62.393814 l
344.116201 67.627928 l
344.191745 70.015097 l
344.267163 69.417306 l
344.342582 68.780525 l
344.568586 65.510468 l
344.945677 62.862226 l
345.699735 60.804241 l
346.604754 59.934441 l
346.906052 59.984289 l
347.735653 60.647643 l
348.112744 61.17743 l
348.414167 61.963316 l
348.489585 61.870404 l
348.565003 61.725521 l
348.71584 60.483299 l
348.866676 64.016123 l
348.94222 63.915963 l
349.017638 60.198524 l
349.092931 61.17182 l
349.243893 62.509221 l
349.470023 62.833508 l
349.846989 63.022897 l
350.073244 62.915272 l
350.524501 62.576286 l
350.750755 62.519554 l
350.826174 62.384342 l
351.429645 58.924289 l
351.505064 59.019033 l
351.731193 62.008373 l
352.032992 63.888468 l
352.334539 60.654948 l
352.485376 64.248519 l
352.636213 70.124775 l
352.711631 69.540067 l
353.013429 65.282693 l
353.088848 65.436246 l
353.164266 65.39331 l
353.314977 65.250903 l
353.61665 64.917966 l
353.692069 64.897384 l
353.767612 64.576782 l
353.843156 61.735673 l
353.918574 62.273706 l
353.993992 62.815506 l
354.144704 61.220715 l
354.597213 66.440982 l
354.823468 66.871897 l
355.049598 68.385009 l
356.180997 73.734562 l
356.256416 73.855697 l
356.482545 72.616107 l
357.010348 69.614235 l
357.613694 67.983735 l
358.141497 66.335697 l
358.594007 63.373683 l
358.744843 63.130839 l
358.970973 63.500656 l
359.348189 66.058937 l
359.423608 66.003873 l
359.649863 65.892742 l
359.800574 65.911612 l
360.17754 65.529811 l
360.479338 63.999245 l
360.6303 64.453239 l
361.082685 62.824997 l
361.233647 62.924911 l
361.836742 63.901905 l
362.590549 65.787267 l
363.04331 64.273198 l
363.194146 64.739872 l
363.269564 64.621239 l
363.420276 64.438765 l
363.495694 64.492367 l
363.721949 66.082861 l
364.174333 70.095408 l
364.400588 69.362455 l
364.702387 67.233404 l
364.928767 69.128336 l
365.00406 68.801845 l
365.154896 66.417024 l
365.230315 64.172814 l
365.456569 67.778103 l
365.607406 66.490101 l
365.682699 66.766518 l
365.83341 67.511602 l
365.908954 70.115644 l
366.05979 62.173638 l
366.210502 64.192354 l
366.361338 66.728004 l
366.436757 70.4245 l
366.512175 66.522639 l
366.587468 66.780678 l
366.738179 65.410097 l
366.889016 65.043087 l
366.964434 65.100129 l
367.190689 64.610338 l
367.341651 64.728131 l
367.417069 64.746862 l
367.567906 63.45595 l
367.643324 63.534821 l
367.718742 63.724342 l
367.869579 63.293559 l
368.020415 64.141121 l
368.095708 65.097371 l
368.171127 64.706105 l
368.321838 65.838302 l
368.623386 62.207311 l
368.698804 62.338076 l
368.924934 63.316809 l
369.150938 62.10249 l
369.301649 61.605737 l
369.377067 61.555883 l
369.528029 64.061466 l
369.905121 60.349713 l
370.131376 60.371874 l
370.35763 56.758209 l
370.433049 58.28524 l
370.508342 56.736399 l
370.810015 61.653131 l
370.885433 61.619102 l
371.111563 61.881399 l
371.337818 62.156365 l
371.563947 61.813218 l
372.167293 60.711934 l
372.544635 60.533587 l
372.620054 60.424603 l
372.695472 59.029808 l
372.770765 59.16389 l
372.846309 59.115436 l
372.99702 59.445526 l
373.072313 59.384152 l
373.147856 59.318903 l
373.600241 60.058166 l
373.751077 60.118062 l
374.354424 62.414939 l
374.429842 62.350783 l
374.806933 59.731049 l
375.108732 58.507814 l
375.259568 58.455416 l
375.41028 57.797188 l
375.485698 57.90024 l
375.560991 57.536685 l
375.636409 57.777812 l
375.711828 57.599127 l
375.862664 58.506865 l
376.013375 58.703268 l
376.616722 59.912071 l
376.993938 60.659621 l
377.220444 60.844166 l
377.371155 60.946434 l
377.974251 64.394653 l
378.049669 63.964753 l
378.275924 62.6104 l
378.426761 62.885063 l
378.577597 63.335403 l
378.653015 63.296937 l
378.879145 63.2442 l
379.331905 66.605334 l
379.407324 66.444799 l
379.482742 66.167155 l
379.859708 68.15893 l
380.085838 71.201888 l
380.161381 71.18281 l
380.236799 71.038525 l
380.387636 73.560613 l
380.614016 68.462518 l
380.990982 62.63579 l
381.066401 62.453976 l
381.141694 62.57892 l
381.217237 61.879499 l
381.292781 62.272077 l
381.443617 61.964294 l
381.594454 62.409661 l
381.745165 60.427714 l
381.820709 60.654061 l
381.896127 60.391238 l
382.122382 63.408684 l
382.1978 67.956093 l
382.273218 67.943917 l
382.348637 67.585182 l
382.65031 69.511945 l
382.876565 73.801035 l
383.10282 73.072533 l
383.404367 72.791977 l
383.630748 71.505261 l
383.781584 71.273964 l
383.932546 69.913711 l
384.158675 69.299419 l
384.460098 72.811903 l
384.610935 69.941138 l
384.912483 61.368642 l
385.138737 67.300852 l
385.289574 72.958555 l
385.364867 77.421681 l
385.515704 67.237539 l
385.591247 67.273669 l
385.666665 78.949543 l
385.741958 71.804639 l
385.817377 73.384559 l
385.892795 72.130842 l
386.11905 59.61226 l
386.496141 63.593057 l
386.57156 63.772922 l
386.646978 65.297091 l
386.722396 69.67159 l
386.797814 64.411648 l
386.873358 65.29471 l
386.948776 65.664591 l
387.024194 66.949045 l
387.099613 66.631408 l
387.325868 59.230554 l
387.401286 59.28756 l
387.551997 59.682998 l
387.627416 59.672937 l
388.154968 57.796787 l
388.456891 57.50739 l
389.060363 57.200865 l
389.738877 56.629361 l
390.342098 56.299696 l
391.398079 56.097905 l
392.755358 56.230738 l
393.811464 55.878295 l
395.923302 56.666336 l
396.300393 56.778751 l
396.601941 56.891378 l
396.752652 56.897034 l
396.903489 56.939884 l
396.978907 57.060667 l
397.054325 56.874284 l
397.129744 56.976354 l
397.205037 57.170443 l
397.280455 56.93842 l
397.355998 57.030934 l
397.50696 56.79579 l
397.582253 57.10881 l
397.657672 56.984204 l
397.73309 56.852096 l
397.883926 57.047691 l
397.959345 56.980217 l
398.336436 56.62817 l
398.487273 56.560327 l
398.487273 56.560327 l
stroke
grestore
0.627 0.314 0.314 setrgbcolor
gsave
357.1 266.1 57.6 38.02 clipbox
73.832727 57.53407 m
74.134025 57.433851 l
74.736369 57.297066 l
76.01635 56.645036 l
76.468108 56.512797 l
77.447293 56.745667 l
78.878361 57.090119 l
81.213196 56.769494 l
83.472236 56.761552 l
84.37688 56.95449 l
87.01414 57.746731 l
90.10416 58.691921 l
91.007926 58.948607 l
91.610521 59.404808 l
92.062655 59.837945 l
92.740793 59.513095 l
93.644935 59.237079 l
94.548953 59.068344 l
95.679726 58.558953 l
96.508951 58.938125 l
96.885667 59.076281 l
98.54324 58.674333 l
99.749557 58.683462 l
102.387193 58.628197 l
103.215666 58.74961 l
104.421482 59.240934 l
104.873741 59.599515 l
105.250832 59.805151 l
105.627423 59.565822 l
106.456523 59.018045 l
106.833614 59.085742 l
107.587296 59.534022 l
107.813551 59.950717 l
108.567232 62.098698 l
108.86878 63.271642 l
109.245872 61.069763 l
109.32129 61.084432 l
109.472001 60.99742 l
110.074972 58.479362 l
110.225808 58.463678 l
110.451813 58.602384 l
110.678067 58.635826 l
110.904072 60.683025 l
110.979365 61.575964 l
111.129951 60.25857 l
111.280662 61.397515 l
111.355955 61.084766 l
111.657378 59.843382 l
112.184804 58.264795 l
112.486478 57.763684 l
112.712482 58.276164 l
113.61675 61.666117 l
113.767586 62.841754 l
113.993966 66.744693 l
114.219845 74.447017 l
114.295138 73.660271 l
114.44585 75.873631 l
114.521143 75.444848 l
114.897858 72.359178 l
115.123988 74.944855 l
115.802251 84.306104 l
115.952963 83.770854 l
116.103799 87.214827 l
116.48064 79.182613 l
116.706519 79.576116 l
117.007942 86.474027 l
117.309364 79.7293 l
117.460075 70.084037 l
117.535619 70.677196 l
117.610912 71.463102 l
117.837042 69.43467 l
117.912335 69.382393 l
118.138464 70.35911 l
118.213757 70.806117 l
118.515055 76.565924 l
118.816477 66.56536 l
118.891895 66.514762 l
118.967314 66.679431 l
119.042732 64.340193 l
119.118276 66.413852 l
119.268987 63.521776 l
119.34428 63.585104 l
119.419698 63.701391 l
119.796414 65.123867 l
119.871707 65.101046 l
120.022293 65.457103 l
120.097586 64.994207 l
120.173004 66.152217 l
120.248422 77.714657 l
120.474301 60.837169 l
120.549594 63.891346 l
120.625013 60.257851 l
120.700306 62.671727 l
120.775724 60.062122 l
120.851017 61.750611 l
120.92631 59.903174 l
121.001728 60.029551 l
121.227732 59.869962 l
121.378569 59.585487 l
121.453862 60.180224 l
121.52928 66.992621 l
121.604573 60.365173 l
121.679992 64.334217 l
121.75541 64.221628 l
121.830828 63.430417 l
121.906121 63.676348 l
122.132501 69.1453 l
122.20792 68.753702 l
122.283338 69.131174 l
122.434174 66.324243 l
122.509593 67.457804 l
122.584886 65.185336 l
122.660304 69.116041 l
122.735597 67.273192 l
122.961601 59.473723 l
123.036894 58.538704 l
123.187606 60.767539 l
123.262899 58.011827 l
123.41361 62.559066 l
123.488903 62.94524 l
123.63974 58.479419 l
123.715033 58.572085 l
123.790326 58.982417 l
123.865744 58.941252 l
123.941162 58.812282 l
124.016455 58.901021 l
124.167166 58.023196 l
124.317878 58.119071 l
124.619175 58.964661 l
124.694468 59.492912 l
124.920723 58.530449 l
124.996141 58.425068 l
125.146978 59.238073 l
125.222396 59.166891 l
125.372982 59.111594 l
125.4484 59.201022 l
125.900534 61.578642 l
126.126538 62.204034 l
126.427961 63.368473 l
126.654091 63.320455 l
127.030806 66.142921 l
127.106225 65.905872 l
127.332354 65.389516 l
127.407772 65.401545 l
127.558484 64.566439 l
127.709195 65.93 l
127.859906 62.11714 l
128.161329 66.28894 l
128.236747 65.528775 l
128.688881 59.005559 l
128.764299 58.727659 l
128.915011 61.087842 l
129.065722 64.619683 l
129.141015 64.333251 l
129.367395 60.041676 l
129.442813 60.774068 l
129.593399 64.771566 l
129.668692 70.03198 l
129.970365 60.875179 l
130.045658 59.699255 l
130.120951 60.772728 l
130.19637 60.447582 l
130.271663 60.452847 l
130.573211 63.019408 l
130.724047 63.26808 l
130.79934 63.266232 l
130.950051 62.820082 l
131.025344 62.544275 l
131.176056 60.358868 l
131.326642 69.47469 l
131.40206 66.805702 l
131.477353 62.361067 l
131.552646 62.730526 l
131.628064 63.428189 l
131.778776 61.942811 l
132.080324 64.090088 l
132.683294 56.784161 l
132.758587 56.861246 l
132.984591 57.856791 l
133.06001 57.805259 l
133.286014 57.560292 l
133.738524 58.180475 l
135.546934 57.53747 l
136.677456 57.812509 l
139.465803 56.558551 l
141.349632 56.458653 l
142.857371 56.306458 l
143.911974 56.318395 l
144.891785 56.763831 l
145.419338 56.93637 l
146.399149 57.360954 l
148.132391 59.212384 l
148.735362 58.550213 l
149.338207 59.242443 l
149.714923 58.616157 l
149.865634 58.250346 l
150.01622 59.214335 l
150.166931 60.904067 l
150.393186 58.856868 l
150.543772 59.089239 l
150.694483 59.853534 l
150.920738 60.985419 l
151.523583 62.149595 l
151.674295 62.50903 l
151.825006 61.941682 l
151.975592 61.121817 l
152.27714 58.071284 l
152.352433 58.056491 l
152.653855 58.564031 l
153.030696 58.418826 l
153.558123 57.923325 l
154.085801 58.166874 l
154.613478 57.416103 l
154.91465 57.219894 l
155.14078 57.303413 l
155.366909 57.405772 l
156.421763 57.144896 l
156.949566 57.112649 l
157.326532 57.035935 l
157.854084 56.950077 l
158.306468 57.059378 l
158.608016 57.774454 l
159.211363 59.777504 l
159.96542 63.203907 l
160.266843 65.155022 l
160.56814 67.4289 l
160.643558 66.347843 l
160.719102 68.140332 l
160.794395 67.872069 l
160.869938 67.848966 l
161.096068 68.169755 l
161.246779 68.029198 l
161.322072 67.932358 l
161.548202 68.496869 l
161.698913 68.148952 l
162.000461 67.150137 l
162.226716 70.696867 l
162.452845 64.102674 l
162.528138 63.336752 l
162.603557 63.350723 l
163.131359 65.242225 l
163.583619 61.246515 l
163.73458 60.622662 l
163.885417 62.02052 l
164.186965 66.949277 l
164.337676 72.795087 l
164.413094 72.624817 l
164.488513 71.883514 l
164.563931 78.140812 l
164.639224 93.801058 l
164.714768 92.704793 l
164.865604 88.35138 l
164.941022 88.140098 l
165.393156 116.246759 l
165.468575 116.795549 l
165.694579 110.732262 l
166.071545 77.759802 l
166.222256 74.959659 l
166.297675 77.46881 l
166.372968 72.704904 l
166.599097 80.299952 l
166.67439 80.57654 l
166.90052 79.183515 l
166.976063 81.953416 l
167.051482 78.118892 l
167.1269 78.410299 l
167.277737 78.295882 l
167.353155 77.652211 l
167.956 85.892885 l
168.031418 85.772813 l
168.18213 84.059039 l
168.55897 79.58154 l
169.161941 73.580056 l
169.312652 74.809908 l
169.38807 74.60478 l
169.463363 75.960249 l
169.840705 72.663668 l
169.991417 71.884092 l
170.06696 71.199992 l
170.142379 71.780576 l
170.29309 69.990999 l
170.443801 69.67027 l
170.820642 70.260343 l
170.971353 70.690863 l
171.121939 69.938943 l
171.423487 70.351443 l
171.800203 68.440201 l
172.101375 66.433456 l
172.780515 64.186911 l
172.931101 63.909305 l
173.081938 63.925349 l
173.232649 64.191173 l
173.458653 65.127518 l
173.684658 71.481171 l
173.835369 74.370393 l
174.136666 71.387398 l
174.212085 71.976516 l
174.362921 71.635517 l
174.589051 68.938513 l
174.664469 69.373176 l
174.815055 75.05716 l
174.965892 89.846027 l
175.04131 89.682463 l
175.418652 80.104053 l
175.49407 82.295831 l
175.569488 85.160447 l
175.795743 77.306125 l
175.871036 77.421373 l
175.946455 77.504978 l
176.247877 81.617709 l
176.474257 85.944385 l
176.549676 84.968505 l
176.926266 79.066463 l
177.076977 82.003731 l
177.303107 76.350685 l
177.529362 78.553695 l
177.60503 75.884268 l
177.680449 76.328986 l
177.982122 73.916275 l
178.283544 79.225853 l
178.358963 78.48843 l
178.660385 75.054974 l
178.735678 74.749189 l
178.811097 76.853377 l
179.037101 73.713694 l
179.188063 72.126133 l
179.338649 73.067488 l
179.564778 74.215816 l
179.866201 73.551012 l
179.941619 73.151141 l
180.092456 69.959526 l
180.243418 82.533709 l
180.469672 69.841912 l
180.545091 68.279108 l
180.620634 70.028511 l
180.771346 68.393427 l
180.846764 71.902075 l
180.922057 68.196466 l
181.072768 73.270055 l
181.148061 71.040546 l
181.298647 76.77611 l
181.524777 63.797458 l
181.60007 63.044422 l
181.750781 65.356605 l
181.901492 72.154393 l
182.052078 71.509698 l
182.278208 68.877158 l
182.428919 67.609752 l
182.504338 67.583924 l
182.655049 67.123203 l
182.730467 67.22523 l
182.805885 67.186567 l
183.107684 64.123263 l
183.25852 66.092088 l
183.409357 69.05157 l
183.786198 63.054782 l
183.861491 63.106729 l
184.012202 63.144414 l
184.238332 64.126757 l
184.31375 64.530965 l
184.389043 64.432096 l
184.765759 63.345557 l
184.91647 63.774939 l
185.293311 62.790904 l
185.594859 62.92691 l
185.821113 63.223564 l
186.273748 62.056865 l
186.42446 62.610868 l
186.499753 62.536064 l
186.725882 62.290858 l
187.630275 61.765742 l
187.931698 62.324162 l
188.308539 61.144132 l
188.534919 61.283281 l
188.836717 62.282202 l
189.062847 62.829058 l
189.138265 62.81385 l
189.816654 58.440381 l
190.19362 58.682237 l
190.495043 58.830571 l
191.400187 58.640238 l
192.153994 58.382332 l
192.53071 59.532591 l
192.907676 60.714502 l
193.208973 61.190142 l
193.963407 62.747206 l
194.415415 68.885263 l
194.490708 68.869626 l
194.566252 68.839557 l
195.169222 73.071835 l
195.772068 68.569988 l
195.847611 68.575593 l
196.224703 69.625449 l
196.526376 71.407601 l
196.601794 70.986815 l
196.677087 70.254254 l
196.827798 91.024084 l
196.903091 85.249418 l
197.053803 71.734756 l
197.129221 74.925193 l
197.204639 74.574337 l
197.280057 75.16575 l
197.581856 69.039201 l
197.657149 69.267659 l
197.732567 69.900391 l
197.807985 69.573002 l
198.03399 71.875377 l
198.184701 70.886084 l
198.335538 71.747749 l
198.486499 73.158959 l
198.788173 70.987303 l
198.939009 69.227009 l
199.014302 72.730717 l
199.08972 68.627986 l
199.165013 68.909865 l
199.240306 69.037237 l
199.315725 67.124475 l
199.767984 71.644918 l
199.994113 72.339768 l
200.144825 79.367477 l
200.220243 79.070421 l
200.295661 78.340293 l
200.672502 90.073687 l
200.747795 89.367954 l
200.898632 82.044864 l
201.049468 89.254795 l
201.20043 70.690598 l
201.351267 78.074844 l
201.426685 87.853713 l
201.652815 73.41971 l
201.803651 67.465433 l
201.878944 67.819573 l
201.954362 68.832172 l
202.105074 73.244819 l
202.180367 70.823303 l
202.406622 80.024255 l
202.481915 74.676103 l
202.557208 78.98682 l
202.632626 71.08752 l
202.707919 73.436878 l
202.85863 70.879846 l
202.933923 70.966766 l
203.084635 69.409508 l
203.159928 69.282302 l
203.461726 72.028467 l
203.537144 74.825583 l
203.612563 74.058854 l
203.688106 74.627856 l
203.763399 73.507461 l
204.216034 83.632667 l
204.366745 78.184805 l
204.442038 78.756675 l
204.517331 78.830112 l
204.818754 67.987577 l
204.894172 67.943531 l
205.045009 68.543826 l
205.195845 72.842429 l
205.271264 69.14193 l
205.497393 73.002129 l
205.572812 74.716921 l
205.64823 72.370409 l
205.723523 65.651779 l
205.798941 66.638256 l
206.024945 70.249499 l
206.326619 65.771727 l
206.402162 72.802805 l
206.47758 68.912095 l
206.552999 70.237938 l
206.703835 70.639821 l
206.779254 73.475039 l
206.854547 64.801113 l
206.929965 68.200279 l
207.231387 82.281947 l
207.306806 81.382275 l
207.382224 82.621863 l
207.457517 76.291488 l
207.53281 76.818199 l
207.834358 72.289058 l
207.985069 70.97807 l
208.13578 68.106544 l
208.663458 77.840745 l
208.739001 79.174945 l
208.81442 77.455591 l
209.0408 86.464171 l
209.116218 80.414589 l
209.191636 81.430033 l
209.342473 84.716145 l
209.49331 78.252947 l
209.568603 78.413354 l
209.644021 78.938949 l
209.870025 77.982636 l
210.096155 77.474714 l
210.246866 76.615344 l
210.850212 67.377961 l
210.925505 67.676028 l
211.227178 69.373482 l
211.453559 70.737945 l
211.528977 70.541345 l
211.755232 69.974564 l
211.830525 70.124772 l
211.905943 69.939118 l
211.981361 70.014886 l
212.358202 70.539095 l
212.659875 72.957945 l
212.961423 66.437598 l
213.036841 66.461759 l
213.564519 69.230405 l
213.866317 74.243953 l
213.941736 73.761621 l
214.469664 67.78074 l
214.84663 66.459913 l
215.147927 65.811569 l
215.44935 65.866635 l
215.750897 66.035523 l
216.052195 65.959736 l
216.27845 66.051376 l
216.50508 66.965902 l
217.258637 70.645644 l
217.334055 70.808353 l
217.635603 73.31505 l
217.861858 76.114563 l
217.937151 76.404145 l
218.087987 86.412405 l
218.16328 85.204642 l
218.238824 83.723669 l
218.464954 99.890974 l
218.540372 99.747976 l
218.691208 90.570791 l
218.842045 104.97481 l
219.29468 78.035525 l
219.445517 82.095977 l
219.671521 69.248287 l
219.746814 69.269204 l
219.822232 73.305041 l
220.048236 63.018798 l
220.199073 62.582074 l
220.500496 65.864413 l
220.72675 74.903517 l
220.802294 99.095649 l
220.877587 66.820129 l
220.953005 76.051149 l
221.028298 62.441665 l
221.103717 65.361156 l
221.179135 65.747777 l
221.254678 64.080304 l
221.330097 72.888822 l
221.405515 69.425658 l
221.480933 65.854361 l
221.556477 70.652434 l
221.631895 64.834157 l
221.782606 70.413601 l
221.858025 67.11241 l
221.933443 68.105095 l
222.008861 68.963076 l
222.159573 65.043183 l
222.310159 68.535759 l
222.385452 68.085802 l
222.46087 67.794647 l
222.536288 64.962719 l
222.611581 67.898992 l
222.762292 65.182286 l
222.913129 65.955043 l
222.988547 65.72801 l
223.06384 65.778034 l
223.139133 64.897955 l
223.214552 65.679586 l
223.365388 64.828282 l
223.440806 65.221632 l
223.516225 64.482437 l
223.666936 65.429624 l
223.74248 64.753359 l
223.893316 66.014044 l
223.968734 66.173235 l
224.119696 67.052519 l
224.270533 67.309049 l
224.345951 67.248086 l
224.496662 67.870561 l
224.571955 66.81142 l
224.873378 71.557047 l
225.023964 72.733464 l
225.325512 78.939103 l
225.626809 71.436617 l
225.928232 64.64652 l
226.00365 67.791577 l
226.079068 63.693572 l
226.154487 63.867672 l
226.229905 65.571432 l
226.305323 64.157955 l
226.380867 65.105831 l
226.45641 64.991691 l
226.531829 65.169562 l
226.758083 68.30712 l
226.833502 69.540022 l
227.134924 66.062527 l
227.210343 66.221896 l
227.436347 67.28987 l
227.511765 67.25763 l
227.737769 67.004223 l
228.190029 67.305234 l
228.34074 67.162 l
228.717456 65.347406 l
229.245509 63.069548 l
229.547057 62.306785 l
229.773186 63.389694 l
229.999316 65.537313 l
230.150152 67.773236 l
230.225445 67.636234 l
230.451575 66.574993 l
230.602286 71.69976 l
230.828541 82.055028 l
231.054671 79.625441 l
231.130089 79.870382 l
231.50718 82.699391 l
232.336656 97.705059 l
233.165756 122.855024 l
233.467429 128.397147 l
233.618141 129.097603 l
233.693559 128.868893 l
233.844521 126.718913 l
234.372324 112.067553 l
234.447742 112.200441 l
234.975169 117.996513 l
235.050587 117.596828 l
235.276591 115.90716 l
235.427303 117.790596 l
235.502721 117.369788 l
235.578014 115.277923 l
235.653557 124.762945 l
235.72885 115.692263 l
235.804269 118.350539 l
235.879687 119.324648 l
235.955105 119.315771 l
236.105942 119.626681 l
236.256653 120.349677 l
236.784331 123.44459 l
237.010585 121.258559 l
237.538012 113.760993 l
237.613431 122.683605 l
237.839435 110.104606 l
237.990397 117.744017 l
238.06569 117.246125 l
238.216526 115.752941 l
238.291819 115.933252 l
238.442656 126.702347 l
238.593492 143.211042 l
238.819622 94.906596 l
238.894915 93.420295 l
238.970333 94.432891 l
239.196338 103.880708 l
239.271756 112.191782 l
239.422467 100.522154 l
239.497886 96.199864 l
239.573304 105.922354 l
239.648722 84.675577 l
239.799433 105.795263 l
239.95027 83.71481 l
240.025688 97.963463 l
240.1764 87.48181 l
240.327111 94.370859 l
240.628659 82.389384 l
240.854788 79.062353 l
241.005374 88.776907 l
241.080793 87.225635 l
241.156211 85.34404 l
241.231504 78.217256 l
241.306922 81.742388 l
241.382466 80.612434 l
241.457759 80.492998 l
241.60847 94.650562 l
241.759181 70.26765 l
241.834474 74.347457 l
242.060854 95.68093 l
242.211566 84.172739 l
242.512988 94.025437 l
242.588281 93.517752 l
242.663574 93.911964 l
242.889704 125.479672 l
243.040415 79.80362 l
243.417256 121.141068 l
243.567967 90.825891 l
243.64326 96.153276 l
243.718679 102.176877 l
243.793972 101.002123 l
243.86939 99.012827 l
244.020226 88.932709 l
244.171063 103.171151 l
244.246607 87.020846 l
244.322025 106.300286 l
244.397318 100.171908 l
244.472736 98.12569 l
244.623573 90.024125 l
244.774284 98.678015 l
245.000664 76.412611 l
245.075957 76.763437 l
245.226919 73.122656 l
245.302212 75.567888 l
245.37763 72.214401 l
245.452923 72.868258 l
245.528342 73.285099 l
245.60376 73.173516 l
245.679178 73.232803 l
245.829764 74.379649 l
246.282399 84.576326 l
246.357692 83.104514 l
246.432985 82.489717 l
246.583696 107.272818 l
246.659115 102.152834 l
246.734533 94.247955 l
246.885244 105.924302 l
247.036081 124.182577 l
247.111499 122.191772 l
247.337754 111.710768 l
247.639552 118.584329 l
247.714971 109.657589 l
247.790264 132.395885 l
247.865682 109.826021 l
247.940975 109.951176 l
248.242523 79.184577 l
248.694782 104.373409 l
248.7702 103.383456 l
248.845493 100.630028 l
248.996205 85.084435 l
249.071498 91.040735 l
249.297627 68.381203 l
249.59905 63.431317 l
249.825305 61.873962 l
250.051685 62.246238 l
250.353483 61.692547 l
250.655031 62.514877 l
251.408838 60.205789 l
251.785679 60.512576 l
251.936516 61.132701 l
252.615531 66.369905 l
252.917079 74.01948 l
253.06779 80.942751 l
253.218626 76.791675 l
253.294045 68.67814 l
253.369463 68.96553 l
253.444881 68.77262 l
253.5203 69.749307 l
253.89714 82.676004 l
253.972559 81.556078 l
254.12327 73.446289 l
254.273981 91.638748 l
254.3494 89.075996 l
254.424693 83.535582 l
254.651073 97.830543 l
254.801909 93.732272 l
254.877328 97.199928 l
255.103457 91.092694 l
255.179001 91.64407 l
255.405005 108.744445 l
255.480423 107.736486 l
255.555716 107.007534 l
255.631135 103.913357 l
255.781721 85.609683 l
255.857264 87.182856 l
256.007975 104.962149 l
256.083268 118.944159 l
256.460235 76.180528 l
256.761908 74.59898 l
256.987912 74.289867 l
257.138749 74.66949 l
257.666677 77.941255 l
258.118936 83.150449 l
258.194354 69.862716 l
258.345191 83.399086 l
258.420484 83.28395 l
258.495902 82.716887 l
258.872743 76.335969 l
259.098998 74.797203 l
259.249959 75.211375 l
259.62655 77.373313 l
260.380607 82.814195 l
260.4559 82.684382 l
260.606737 83.053079 l
260.832616 82.308605 l
260.908159 83.125475 l
261.209833 104.848147 l
261.436087 121.780941 l
261.511381 122.848536 l
261.586924 122.518103 l
261.813054 115.521555 l
262.114476 87.21087 l
262.189895 89.401987 l
262.642279 110.825549 l
262.717572 114.339185 l
262.79299 106.152476 l
262.868409 106.24139 l
263.094538 112.019534 l
263.169831 111.471592 l
263.245249 112.264931 l
263.320542 111.21058 l
263.621965 88.982926 l
263.848095 86.211054 l
263.923513 85.636946 l
264.300604 78.320014 l
264.376023 78.211313 l
264.526859 76.989665 l
264.677696 78.383364 l
264.828532 80.82443 l
265.130205 87.06299 l
265.281167 116.690779 l
265.35646 97.245376 l
265.431879 111.552332 l
265.507297 106.789256 l
265.58259 104.363314 l
265.733301 87.296457 l
265.808719 88.752484 l
266.034724 112.143167 l
266.336272 76.326821 l
266.487108 82.454323 l
266.637945 90.904269 l
266.939242 126.240835 l
267.089953 103.073731 l
267.165372 105.820554 l
267.24079 108.815606 l
267.316083 107.161531 l
267.466919 100.389013 l
267.542212 98.633195 l
267.994722 75.68062 l
268.070015 78.960624 l
268.220726 90.402834 l
268.296019 91.327774 l
268.446731 103.42025 l
268.522149 101.836755 l
268.823697 92.766696 l
269.049826 123.297703 l
269.200538 85.864451 l
269.275956 84.017361 l
269.351249 77.448861 l
269.426542 77.507898 l
269.50196 76.607119 l
269.577379 83.029756 l
269.652797 75.713601 l
269.72809 77.270539 l
269.954345 79.232508 l
270.029763 83.580905 l
270.255893 102.926978 l
270.331311 105.427853 l
270.406729 105.418124 l
270.55744 95.090301 l
270.632984 95.20189 l
270.783695 96.451663 l
270.858988 96.084584 l
271.160536 82.469914 l
271.311248 84.781602 l
271.462084 88.875793 l
271.537502 88.686685 l
271.612795 88.462769 l
271.763632 84.964983 l
271.989762 115.565615 l
272.06518 116.045576 l
272.140598 115.418567 l
272.216016 113.333139 l
272.366728 103.212421 l
272.592983 165.479142 l
272.89453 292.032 l
272.969949 287.767851 l
273.196204 142.680454 l
273.422208 101.962728 l
274.025053 69.997103 l
274.251308 67.812063 l
274.402144 67.807361 l
274.703818 68.686995 l
274.854404 70.516444 l
275.306788 83.977972 l
275.533043 95.066128 l
275.759423 118.318798 l
275.91026 116.193516 l
276.061096 120.636441 l
276.136389 123.987032 l
276.211807 122.607441 l
276.2871 121.301239 l
276.438062 144.687481 l
276.588774 120.709267 l
276.664192 123.129424 l
276.73961 128.020616 l
276.815028 127.39704 l
276.890697 126.537419 l
276.966241 126.757433 l
277.041534 126.924473 l
277.19237 125.60295 l
277.418625 128.537755 l
277.493918 126.244846 l
277.87101 57.726628 l
278.097515 56.932179 l
278.474356 52.858021 l
278.700611 52.101987 l
278.851447 52.020614 l
279.002159 52.460853 l
279.906928 60.405165 l
280.057764 69.215782 l
280.510149 124.379315 l
280.585442 122.090375 l
280.811571 104.788059 l
280.886989 106.559821 l
281.113244 116.507521 l
281.263956 112.937383 l
281.414667 115.658744 l
281.565503 122.131838 l
281.867051 109.122731 l
282.168599 95.35873 l
282.847113 81.694003 l
282.922406 81.546024 l
283.148661 81.76769 l
283.224079 81.401132 l
283.751506 69.942983 l
283.826924 69.231557 l
283.902217 69.325125 l
284.203765 71.425275 l
284.882279 77.814517 l
285.183827 80.065586 l
285.4855 80.56869 l
285.636212 80.615278 l
286.088596 81.606014 l
286.314851 81.656105 l
286.691942 81.149733 l
286.842904 80.816846 l
287.445875 76.458054 l
287.521168 76.58794 l
287.898259 78.68018 l
288.501355 83.857922 l
288.652066 85.250692 l
288.727484 85.187168 l
289.104325 83.127347 l
289.858258 78.600317 l
290.084512 80.799196 l
290.989532 91.774924 l
291.06495 92.220001 l
291.215661 91.195143 l
291.894301 83.118492 l
292.572689 76.414058 l
293.628545 69.873705 l
294.458021 66.224159 l
294.985824 64.636283 l
296.418521 60.728083 l
297.172453 58.555757 l
297.926385 57.227305 l
298.906823 55.964316 l
299.509794 55.425006 l
299.735798 55.989631 l
299.811216 55.041937 l
299.886634 59.393619 l
299.961927 54.36243 l
300.037346 55.456288 l
300.414688 55.83033 l
301.620629 55.780332 l
302.2241 55.88678 l
303.581128 56.204603 l
304.486148 56.230767 l
305.768133 56.684509 l
306.52169 57.143531 l
307.049367 57.456985 l
307.426458 57.68506 l
307.652713 57.799906 l
307.954386 59.149195 l
308.255934 57.219826 l
308.482189 60.378534 l
308.633026 62.012043 l
308.859531 62.355649 l
309.161079 62.997314 l
309.462627 63.462489 l
309.688756 63.203865 l
309.839593 63.091479 l
310.065973 63.064147 l
310.292228 62.692732 l
310.669069 61.733961 l
310.970742 58.829942 l
311.04616 58.884797 l
311.423001 60.591187 l
311.573838 61.932797 l
311.799967 60.279089 l
312.176933 58.221781 l
312.403314 58.087885 l
313.308208 58.364994 l
313.760592 58.930092 l
314.137558 59.288935 l
315.193414 59.442767 l
315.871803 59.187524 l
316.701154 58.892457 l
319.114038 58.647581 l
319.792552 59.130958 l
320.546359 60.793887 l
320.621777 61.204207 l
320.847907 71.188229 l
321.074036 65.370883 l
321.149454 68.009781 l
321.224747 66.004574 l
321.300166 66.057773 l
321.375459 67.422571 l
321.601714 63.014296 l
321.75255 62.840198 l
321.827968 62.343849 l
322.054223 59.405839 l
322.129767 59.196872 l
322.280478 60.311819 l
322.506482 56.937805 l
322.581775 57.175292 l
322.657194 57.132025 l
322.807905 57.193981 l
323.260289 57.546018 l
323.411126 57.615845 l
323.712799 57.852511 l
324.31602 57.857714 l
324.843823 58.139824 l
325.748968 59.744712 l
326.126059 60.314341 l
326.427607 60.044569 l
326.653862 59.561374 l
326.804824 60.339533 l
326.95566 62.88802 l
327.031078 60.347595 l
327.111007 50.11202 l
327.190559 51.414262 l
327.270488 64.998479 l
327.509396 50.112017 l
327.589199 52.834246 l
327.669002 50.112 l
327.749181 50.210807 l
327.828859 52.098048 l
327.97982 62.406918 l
328.055113 63.034775 l
328.206075 61.244327 l
328.281494 61.470627 l
328.356912 61.465452 l
328.507623 61.221242 l
328.583041 61.302943 l
328.809171 61.902435 l
329.110969 64.172629 l
329.865152 69.957109 l
330.015864 67.696167 l
330.166575 81.929509 l
330.467997 66.781736 l
330.543416 71.204497 l
330.618834 82.239055 l
330.694252 80.801649 l
330.769545 76.707674 l
330.844964 77.420506 l
330.920382 78.062758 l
331.071093 73.988258 l
331.22193 72.048289 l
331.297348 68.881665 l
331.44831 74.134537 l
331.523853 77.414812 l
331.674815 69.551089 l
331.750234 70.87284 l
331.900945 62.799402 l
332.051907 64.415339 l
332.127325 62.777927 l
332.278162 64.115598 l
332.730546 88.344664 l
332.881257 68.574482 l
333.032094 72.441342 l
333.182805 66.524142 l
333.258349 66.642245 l
333.484478 68.43248 l
333.560022 66.346038 l
333.635315 66.576975 l
333.786151 68.614959 l
334.08795 72.588121 l
334.314205 73.627122 l
334.54046 74.989293 l
334.917551 67.445782 l
335.143806 62.466157 l
335.294768 65.135918 l
335.370186 64.637331 l
335.445604 64.052468 l
335.671734 65.798256 l
335.897989 67.154414 l
336.350373 69.382331 l
336.576628 68.366058 l
336.953719 66.246955 l
337.179849 66.774987 l
337.255142 66.764801 l
337.632108 67.55789 l
337.933907 67.862689 l
338.160036 68.634438 l
338.461584 66.312975 l
338.688089 68.809669 l
338.763508 69.701733 l
338.838926 69.672736 l
339.065181 68.981077 l
339.29131 69.178477 l
339.366729 69.304692 l
339.668277 71.134583 l
340.045117 73.666949 l
340.195703 73.584246 l
341.251184 71.621255 l
341.854279 70.124233 l
342.231245 70.014458 l
342.457375 69.952002 l
342.834341 69.352834 l
342.985178 69.049525 l
343.286726 72.044199 l
343.437437 71.696016 l
343.588273 71.36562 l
343.889821 69.937929 l
344.040783 73.094996 l
344.191745 78.868396 l
344.267163 77.904447 l
344.568586 72.06817 l
345.172183 68.233744 l
345.549024 66.814034 l
346.680047 64.41816 l
347.056888 64.841937 l
347.509523 65.406777 l
347.886489 65.981419 l
348.263455 67.275872 l
348.414167 68.040435 l
348.565003 67.423819 l
348.71584 65.873573 l
348.866676 70.454034 l
349.017638 66.279953 l
349.092931 66.868686 l
349.243893 68.096492 l
349.394604 68.293007 l
349.620859 68.07665 l
350.073244 68.528567 l
350.222827 68.478392 l
350.599919 67.14346 l
351.20339 64.718801 l
351.429645 63.469828 l
351.580482 64.639521 l
351.806737 66.671172 l
351.882155 66.619189 l
351.957448 66.779803 l
352.032992 66.733772 l
352.334539 63.779093 l
352.485376 66.547918 l
352.636213 70.481914 l
352.711631 70.365913 l
353.013429 68.187266 l
353.390395 67.770361 l
353.61665 68.073216 l
353.843156 68.70252 l
353.918574 68.521614 l
354.144704 68.052959 l
354.370958 71.476638 l
354.521795 73.499454 l
354.74805 74.12329 l
355.426689 78.944621 l
355.652944 79.819637 l
355.879324 80.35769 l
356.030035 80.351975 l
356.180997 79.986262 l
356.331834 78.606168 l
356.859511 71.665798 l
356.93493 71.668961 l
357.462858 73.122842 l
357.839949 70.938421 l
358.292333 68.310738 l
358.669425 66.571989 l
358.970973 66.714294 l
359.725281 70.206393 l
359.875992 70.726389 l
360.026829 70.453874 l
360.328377 69.516027 l
360.479338 68.972519 l
360.781137 69.466123 l
361.082685 68.346688 l
361.158103 68.394865 l
361.761324 69.522988 l
362.439838 72.105972 l
362.665968 71.966869 l
363.495694 70.879722 l
363.721949 72.763137 l
364.174333 78.297247 l
364.249752 78.271648 l
364.400588 77.935427 l
364.55155 77.611544 l
364.702387 76.376182 l
364.853348 77.940773 l
365.682699 61.587456 l
365.757992 61.356689 l
365.83341 61.503775 l
365.908954 61.336638 l
366.135209 56.908552 l
366.210502 56.511614 l
366.436757 60.49583 l
366.587468 62.705904 l
366.813723 62.163556 l
367.190689 64.443426 l
367.492487 64.501877 l
367.718742 64.287498 l
367.944997 64.851598 l
368.321838 65.716033 l
368.472549 65.51241 l
368.924934 64.085788 l
369.603448 59.496205 l
370.433049 52.061085 l
370.960851 50.115555 l
371.03627 50.114586 l
371.187106 51.046119 l
371.413236 52.469297 l
371.563947 52.949103 l
371.790077 54.711237 l
372.016206 57.386935 l
372.544635 65.292329 l
372.695472 65.490278 l
372.846309 65.143332 l
373.147856 63.733904 l
373.223275 63.854869 l
373.977332 66.784166 l
374.354424 68.912569 l
374.580679 66.92879 l
375.033314 62.985099 l
375.560991 60.238592 l
375.636409 63.314796 l
375.711828 60.303662 l
375.787121 61.172904 l
376.013375 61.892996 l
376.69214 64.399824 l
376.993938 65.287186 l
377.220444 65.541422 l
377.371155 65.662038 l
377.597285 68.050169 l
377.82354 70.034209 l
378.049669 70.998017 l
378.200506 70.867834 l
378.502179 69.846259 l
378.577597 69.644481 l
378.803727 70.275049 l
379.030107 71.279692 l
379.105525 71.149546 l
379.180943 71.074827 l
379.331905 73.063609 l
379.407324 72.870104 l
379.482742 72.532379 l
379.859708 74.391107 l
380.085838 77.618272 l
380.236799 75.535541 l
380.387636 80.041199 l
380.463054 78.596955 l
380.764727 72.256757 l
381.066401 68.764914 l
381.141694 68.661686 l
381.368074 68.057058 l
381.443617 67.722738 l
381.519036 67.761311 l
381.669872 67.371544 l
381.745165 65.406658 l
381.820709 66.438454 l
381.896127 66.180941 l
382.122382 68.492414 l
382.273218 74.014018 l
382.348637 73.898193 l
382.725728 80.562325 l
382.801146 84.143797 l
382.876565 83.930506 l
383.10282 81.64449 l
383.630748 78.903011 l
383.706166 78.797434 l
383.857002 78.110146 l
384.007839 78.642154 l
384.158675 76.599871 l
384.460098 83.470214 l
384.535516 83.400285 l
384.610935 82.458267 l
384.912483 71.598019 l
385.063319 76.785071 l
385.289574 85.831349 l
385.364867 85.950745 l
385.515704 73.880079 l
385.591247 77.607299 l
385.666665 90.418385 l
385.817377 76.638886 l
385.968213 72.112364 l
386.11905 65.449397 l
386.269886 66.860388 l
386.34543 66.62295 l
386.420848 66.497957 l
386.57156 68.44225 l
386.646978 71.338756 l
386.722396 91.570603 l
386.797814 69.657913 l
386.873358 70.513767 l
386.948776 70.184987 l
387.024194 70.439797 l
387.099613 71.332445 l
387.175031 70.956627 l
387.325868 61.893303 l
387.401286 61.752054 l
387.476579 61.864258 l
388.004256 60.350951 l
388.909526 59.007943 l
389.965132 56.761287 l
390.191387 56.589076 l
390.643896 56.648092 l
391.322661 56.82317 l
392.604521 57.250852 l
393.811464 56.205988 l
395.018157 56.894874 l
396.526523 57.511252 l
396.903489 57.675584 l
396.978907 57.796866 l
397.205037 57.44894 l
397.280455 60.343857 l
397.355998 57.57695 l
397.431417 57.676751 l
397.50696 57.678259 l
397.582253 58.030995 l
397.657672 57.975628 l
397.73309 57.88991 l
397.959345 58.07154 l
398.336436 57.916487 l
398.487273 57.608494 l
398.487273 57.608494 l
stroke
grestore
0.800 setlinewidth
0 setlinejoin
[] 0 setdash
0.000 setgray
gsave
57.6 38.016 m
57.6 304.128 l
stroke
grestore
gsave
414.72 38.016 m
414.72 304.128 l
stroke
grestore
gsave
57.6 38.016 m
414.72 38.016 l
stroke
grestore
gsave
57.6 304.128 m
414.72 304.128 l
stroke
grestore
1.000 setlinewidth
0 setlinecap
0.800 setgray
gsave
349.860625 266.78425 m
407.72 266.78425 l
409.053333 266.78425 409.72 267.450917 409.72 268.78425 c
409.72 297.128 l
409.72 298.461333 409.053333 299.128 407.72 299.128 c
349.860625 299.128 l
348.527292 299.128 347.860625 298.461333 347.860625 297.128 c
347.860625 268.78425 l
347.860625 267.450917 348.527292 266.78425 349.860625 266.78425 c
cl
gsave
1.000 setgray
fill
grestore
stroke
grestore
1.500 setlinewidth
1 setlinejoin
2 setlinecap
[] 0 setdash
0.000 0.750 0.750 setrgbcolor
gsave
351.860625 291.03425 m
371.860625 291.03425 l
stroke
grestore
0.000 setgray
gsave
379.860625 287.534250 translate
0.000000 rotate
0.000000 0.000000 m /three glyphshow
6.362305 0.000000 m /m glyphshow
16.103516 0.000000 m /m glyphshow
grestore
0.627 0.314 0.314 setrgbcolor
gsave
351.860625 276.362375 m
371.860625 276.362375 l
stroke
grestore
0.000 setgray
gsave
379.860625 272.862375 translate
0.000000 rotate
0.000000 0.000000 m /two glyphshow
6.362305 0.000000 m /m glyphshow
16.103516 0.000000 m /m glyphshow
grestore

end
showpage
