%!PS-Adobe-3.0 EPSF-3.0
%%Title: spb/07_RAW_tau.eps
%%Creator: matplotlib version 2.2.2, http://matplotlib.org/
%%CreationDate: Wed Aug 29 15:20:18 2018
%%Orientation: portrait
%%BoundingBox: 75 223 536 568
%%EndComments
%%BeginProlog
/mpldict 9 dict def
mpldict begin
/m { moveto } bind def
/l { lineto } bind def
/r { rlineto } bind def
/c { curveto } bind def
/cl { closepath } bind def
/box {
m
1 index 0 r
0 exch r
neg 0 r
cl
} bind def
/clipbox {
box
clip
newpath
} bind def
%!PS-Adobe-3.0 Resource-Font
%%Title: DejaVu Sans
%%Copyright: Copyright (c) 2003 by Bitstream, Inc. All Rights Reserved. Copyright (c) 2006 by Tavmjong Bah. All Rights Reserved. DejaVu changes are in public domain 
%%Creator: Converted from TrueType to type 3 by PPR
25 dict begin
/_d{bind def}bind def
/_m{moveto}_d
/_l{lineto}_d
/_cl{closepath eofill}_d
/_c{curveto}_d
/_sc{7 -1 roll{setcachedevice}{pop pop pop pop pop pop}ifelse}_d
/_e{exec}_d
/FontName /DejaVuSans def
/PaintType 0 def
/FontMatrix[.001 0 0 .001 0 0]def
/FontBBox[-1021 -463 1793 1232]def
/FontType 3 def
/Encoding [ /space /comma /period /zero /one /two /three /four /five /six /eight /a /d /e /i /m /s /t /y ] def
/FontInfo 10 dict dup begin
/FamilyName (DejaVu Sans) def
/FullName (DejaVu Sans) def
/Notice (Copyright (c) 2003 by Bitstream, Inc. All Rights Reserved. Copyright (c) 2006 by Tavmjong Bah. All Rights Reserved. DejaVu changes are in public domain ) def
/Weight (Book) def
/Version (Version 2.35) def
/ItalicAngle 0.0 def
/isFixedPitch false def
/UnderlinePosition -130 def
/UnderlineThickness 90 def
end readonly def
/CharStrings 20 dict dup begin
/.notdef 0 def
/space{318 0 0 0 0 0 _sc
}_d
/comma{318 0 77 -115 220 124 _sc
117 124 _m
220 124 _l
220 40 _l
140 -115 _l
77 -115 _l
117 40 _l
117 124 _l
_cl}_d
/period{318 0 107 0 210 124 _sc
107 124 _m
210 124 _l
210 0 _l
107 0 _l
107 124 _l
_cl}_d
/zero{636 0 66 -13 570 742 _sc
318 664 _m
267 664 229 639 203 589 _c
177 539 165 464 165 364 _c
165 264 177 189 203 139 _c
229 89 267 64 318 64 _c
369 64 407 89 433 139 _c
458 189 471 264 471 364 _c
471 464 458 539 433 589 _c
407 639 369 664 318 664 _c
318 742 _m
399 742 461 709 505 645 _c
548 580 570 486 570 364 _c
570 241 548 147 505 83 _c
461 19 399 -13 318 -13 _c
236 -13 173 19 130 83 _c
87 147 66 241 66 364 _c
66 486 87 580 130 645 _c
173 709 236 742 318 742 _c
_cl}_d
/one{636 0 110 0 544 729 _sc
124 83 _m
285 83 _l
285 639 _l
110 604 _l
110 694 _l
284 729 _l
383 729 _l
383 83 _l
544 83 _l
544 0 _l
124 0 _l
124 83 _l
_cl}_d
/two{{636 0 73 0 536 742 _sc
192 83 _m
536 83 _l
536 0 _l
73 0 _l
73 83 _l
110 121 161 173 226 239 _c
290 304 331 346 348 365 _c
380 400 402 430 414 455 _c
426 479 433 504 433 528 _c
433 566 419 598 392 622 _c
365 646 330 659 286 659 _c
255 659 222 653 188 643 _c
154 632 117 616 78 594 _c
78 694 _l
118 710 155 722 189 730 _c
223 738 255 742 284 742 _c
}_e{359 742 419 723 464 685 _c
509 647 532 597 532 534 _c
532 504 526 475 515 449 _c
504 422 484 390 454 354 _c
446 344 420 317 376 272 _c
332 227 271 164 192 83 _c
_cl}_e}_d
/three{{636 0 76 -13 556 742 _sc
406 393 _m
453 383 490 362 516 330 _c
542 298 556 258 556 212 _c
556 140 531 84 482 45 _c
432 6 362 -13 271 -13 _c
240 -13 208 -10 176 -4 _c
144 1 110 10 76 22 _c
76 117 _l
103 101 133 89 166 81 _c
198 73 232 69 268 69 _c
330 69 377 81 409 105 _c
441 129 458 165 458 212 _c
458 254 443 288 413 312 _c
383 336 341 349 287 349 _c
}_e{202 349 _l
202 430 _l
291 430 _l
339 430 376 439 402 459 _c
428 478 441 506 441 543 _c
441 580 427 609 401 629 _c
374 649 336 659 287 659 _c
260 659 231 656 200 650 _c
169 644 135 635 98 623 _c
98 711 _l
135 721 170 729 203 734 _c
235 739 266 742 296 742 _c
370 742 429 725 473 691 _c
517 657 539 611 539 553 _c
539 513 527 479 504 451 _c
481 423 448 403 406 393 _c
_cl}_e}_d
/four{636 0 49 0 580 729 _sc
378 643 _m
129 254 _l
378 254 _l
378 643 _l
352 729 _m
476 729 _l
476 254 _l
580 254 _l
580 172 _l
476 172 _l
476 0 _l
378 0 _l
378 172 _l
49 172 _l
49 267 _l
352 729 _l
_cl}_d
/five{{636 0 77 -13 549 729 _sc
108 729 _m
495 729 _l
495 646 _l
198 646 _l
198 467 _l
212 472 227 476 241 478 _c
255 480 270 482 284 482 _c
365 482 429 459 477 415 _c
525 370 549 310 549 234 _c
549 155 524 94 475 51 _c
426 8 357 -13 269 -13 _c
238 -13 207 -10 175 -6 _c
143 -1 111 6 77 17 _c
77 116 _l
106 100 136 88 168 80 _c
199 72 232 69 267 69 _c
}_e{323 69 368 83 401 113 _c
433 143 450 183 450 234 _c
450 284 433 324 401 354 _c
368 384 323 399 267 399 _c
241 399 214 396 188 390 _c
162 384 135 375 108 363 _c
108 729 _l
_cl}_e}_d
/six{{636 0 70 -13 573 742 _sc
330 404 _m
286 404 251 388 225 358 _c
199 328 186 286 186 234 _c
186 181 199 139 225 109 _c
251 79 286 64 330 64 _c
374 64 409 79 435 109 _c
461 139 474 181 474 234 _c
474 286 461 328 435 358 _c
409 388 374 404 330 404 _c
526 713 _m
526 623 _l
501 635 476 644 451 650 _c
425 656 400 659 376 659 _c
310 659 260 637 226 593 _c
}_e{192 549 172 482 168 394 _c
187 422 211 444 240 459 _c
269 474 301 482 336 482 _c
409 482 467 459 509 415 _c
551 371 573 310 573 234 _c
573 159 550 99 506 54 _c
462 9 403 -13 330 -13 _c
246 -13 181 19 137 83 _c
92 147 70 241 70 364 _c
70 479 97 571 152 639 _c
206 707 280 742 372 742 _c
396 742 421 739 447 735 _c
472 730 498 723 526 713 _c
_cl}_e}_d
/eight{{636 0 68 -13 568 742 _sc
318 346 _m
271 346 234 333 207 308 _c
180 283 167 249 167 205 _c
167 161 180 126 207 101 _c
234 76 271 64 318 64 _c
364 64 401 76 428 102 _c
455 127 469 161 469 205 _c
469 249 455 283 429 308 _c
402 333 365 346 318 346 _c
219 388 _m
177 398 144 418 120 447 _c
96 476 85 511 85 553 _c
85 611 105 657 147 691 _c
188 725 245 742 318 742 _c
}_e{390 742 447 725 489 691 _c
530 657 551 611 551 553 _c
551 511 539 476 515 447 _c
491 418 459 398 417 388 _c
464 377 501 355 528 323 _c
554 291 568 251 568 205 _c
568 134 546 80 503 43 _c
459 5 398 -13 318 -13 _c
237 -13 175 5 132 43 _c
89 80 68 134 68 205 _c
68 251 81 291 108 323 _c
134 355 171 377 219 388 _c
183 544 _m
183 506 194 476 218 455 _c
}_e{242 434 275 424 318 424 _c
360 424 393 434 417 455 _c
441 476 453 506 453 544 _c
453 582 441 611 417 632 _c
393 653 360 664 318 664 _c
275 664 242 653 218 632 _c
194 611 183 582 183 544 _c
_cl}_e}_d
/a{{613 0 60 -13 522 560 _sc
343 275 _m
270 275 220 266 192 250 _c
164 233 150 205 150 165 _c
150 133 160 107 181 89 _c
202 70 231 61 267 61 _c
317 61 357 78 387 114 _c
417 149 432 196 432 255 _c
432 275 _l
343 275 _l
522 312 _m
522 0 _l
432 0 _l
432 83 _l
411 49 385 25 355 10 _c
325 -5 287 -13 243 -13 _c
187 -13 142 2 109 33 _c
76 64 60 106 60 159 _c
}_e{60 220 80 266 122 298 _c
163 329 224 345 306 345 _c
432 345 _l
432 354 _l
432 395 418 427 391 450 _c
364 472 326 484 277 484 _c
245 484 215 480 185 472 _c
155 464 127 453 100 439 _c
100 522 _l
132 534 164 544 195 550 _c
226 556 256 560 286 560 _c
365 560 424 539 463 498 _c
502 457 522 395 522 312 _c
_cl}_e}_d
/d{{635 0 55 -13 544 760 _sc
454 464 _m
454 760 _l
544 760 _l
544 0 _l
454 0 _l
454 82 _l
435 49 411 25 382 10 _c
353 -5 319 -13 279 -13 _c
213 -13 159 13 117 65 _c
75 117 55 187 55 273 _c
55 359 75 428 117 481 _c
159 533 213 560 279 560 _c
319 560 353 552 382 536 _c
411 520 435 496 454 464 _c
148 273 _m
148 207 161 155 188 117 _c
215 79 253 61 301 61 _c
}_e{348 61 385 79 413 117 _c
440 155 454 207 454 273 _c
454 339 440 390 413 428 _c
385 466 348 485 301 485 _c
253 485 215 466 188 428 _c
161 390 148 339 148 273 _c
_cl}_e}_d
/e{{615 0 55 -13 562 560 _sc
562 296 _m
562 252 _l
149 252 _l
153 190 171 142 205 110 _c
238 78 284 62 344 62 _c
378 62 412 66 444 74 _c
476 82 509 95 541 113 _c
541 28 _l
509 14 476 3 442 -3 _c
408 -9 373 -13 339 -13 _c
251 -13 182 12 131 62 _c
80 112 55 181 55 268 _c
55 357 79 428 127 481 _c
175 533 241 560 323 560 _c
397 560 455 536 498 489 _c
}_e{540 441 562 377 562 296 _c
472 322 _m
471 371 457 410 431 440 _c
404 469 368 484 324 484 _c
274 484 234 469 204 441 _c
174 413 156 373 152 322 _c
472 322 _l
_cl}_e}_d
/i{278 0 94 0 184 760 _sc
94 547 _m
184 547 _l
184 0 _l
94 0 _l
94 547 _l
94 760 _m
184 760 _l
184 646 _l
94 646 _l
94 760 _l
_cl}_d
/m{{974 0 91 0 889 560 _sc
520 442 _m
542 482 569 511 600 531 _c
631 550 668 560 711 560 _c
767 560 811 540 842 500 _c
873 460 889 403 889 330 _c
889 0 _l
799 0 _l
799 327 _l
799 379 789 418 771 444 _c
752 469 724 482 686 482 _c
639 482 602 466 575 435 _c
548 404 535 362 535 309 _c
535 0 _l
445 0 _l
445 327 _l
445 379 435 418 417 444 _c
398 469 369 482 331 482 _c
}_e{285 482 248 466 221 435 _c
194 404 181 362 181 309 _c
181 0 _l
91 0 _l
91 547 _l
181 547 _l
181 462 _l
201 495 226 520 255 536 _c
283 552 317 560 357 560 _c
397 560 430 550 458 530 _c
486 510 506 480 520 442 _c
_cl}_e}_d
/s{{521 0 54 -13 472 560 _sc
443 531 _m
443 446 _l
417 458 391 468 364 475 _c
336 481 308 485 279 485 _c
234 485 200 478 178 464 _c
156 450 145 430 145 403 _c
145 382 153 366 169 354 _c
185 342 217 330 265 320 _c
296 313 _l
360 299 405 279 432 255 _c
458 230 472 195 472 151 _c
472 100 452 60 412 31 _c
372 1 316 -13 246 -13 _c
216 -13 186 -10 154 -5 _c
}_e{122 0 89 8 54 20 _c
54 113 _l
87 95 120 82 152 74 _c
184 65 216 61 248 61 _c
290 61 323 68 346 82 _c
368 96 380 117 380 144 _c
380 168 371 187 355 200 _c
339 213 303 226 247 238 _c
216 245 _l
160 257 119 275 95 299 _c
70 323 58 356 58 399 _c
58 450 76 490 112 518 _c
148 546 200 560 268 560 _c
301 560 332 557 362 552 _c
391 547 418 540 443 531 _c
}_e{_cl}_e}_d
/t{392 0 27 0 368 702 _sc
183 702 _m
183 547 _l
368 547 _l
368 477 _l
183 477 _l
183 180 _l
183 135 189 106 201 94 _c
213 81 238 75 276 75 _c
368 75 _l
368 0 _l
276 0 _l
206 0 158 13 132 39 _c
106 65 93 112 93 180 _c
93 477 _l
27 477 _l
27 547 _l
93 547 _l
93 702 _l
183 702 _l
_cl}_d
/y{592 0 30 -207 562 547 _sc
322 -50 _m
296 -114 271 -157 247 -177 _c
223 -197 191 -207 151 -207 _c
79 -207 _l
79 -132 _l
132 -132 _l
156 -132 175 -126 189 -114 _c
203 -102 218 -75 235 -31 _c
251 9 _l
30 547 _l
125 547 _l
296 119 _l
467 547 _l
562 547 _l
322 -50 _l
_cl}_d
end readonly def

/BuildGlyph
 {exch begin
 CharStrings exch
 2 copy known not{pop /.notdef}if
 true 3 1 roll get exec
 end}_d

/BuildChar {
 1 index /Encoding get exch get
 1 index /BuildGlyph get exec
}_d

FontName currentdict end definefont pop
%!PS-Adobe-3.0 Resource-Font
%%Title: DejaVu Sans Oblique
%%Copyright: Copyright (c) 2003 by Bitstream, Inc. All Rights Reserved. Copyright (c) 2006 by Tavmjong Bah. All Rights Reserved. DejaVu changes are in public domain 
%%Creator: Converted from TrueType to type 3 by PPR
25 dict begin
/_d{bind def}bind def
/_m{moveto}_d
/_l{lineto}_d
/_cl{closepath eofill}_d
/_c{curveto}_d
/_sc{7 -1 roll{setcachedevice}{pop pop pop pop pop pop}ifelse}_d
/_e{exec}_d
/FontName /DejaVuSans-Oblique def
/PaintType 0 def
/FontMatrix[.001 0 0 .001 0 0]def
/FontBBox[-1016 -350 1659 1068]def
/FontType 3 def
/Encoding [ /tau ] def
/FontInfo 10 dict dup begin
/FamilyName (DejaVu Sans) def
/FullName (DejaVu Sans Oblique) def
/Notice (Copyright (c) 2003 by Bitstream, Inc. All Rights Reserved. Copyright (c) 2006 by Tavmjong Bah. All Rights Reserved. DejaVu changes are in public domain ) def
/Weight (Oblique) def
/Version (Version 2.35) def
/ItalicAngle -11.0 def
/isFixedPitch false def
/UnderlinePosition -130 def
/UnderlineThickness 90 def
end readonly def
/CharStrings 2 dict dup begin
/.notdef 0 def
/tau{602 0 84 0 606 547 _sc
329 100 _m
337 84 359 76 395 76 _c
438 76 _l
423 0 _l
369 0 _l
310 0 270 15 250 47 _c
229 79 226 129 240 198 _c
290 457 _l
84 457 _l
102 547 _l
606 547 _l
589 457 _l
382 457 _l
330 193 _l
320 145 320 114 329 100 _c
_cl}_d
end readonly def

/BuildGlyph
 {exch begin
 CharStrings exch
 2 copy known not{pop /.notdef}if
 true 3 1 roll get exec
 end}_d

/BuildChar {
 1 index /Encoding get exch get
 1 index /BuildGlyph get exec
}_d

FontName currentdict end definefont pop
end
%%EndProlog
mpldict begin
75.6 223.2 translate
460.8 345.6 0 0 clipbox
gsave
0 0 m
460.8 0 l
460.8 345.6 l
0 345.6 l
cl
1.000 setgray
fill
grestore
gsave
57.6 38.016 m
414.72 38.016 l
414.72 304.128 l
57.6 304.128 l
cl
1.000 setgray
fill
grestore
0.800 setlinewidth
1 setlinejoin
0 setlinecap
[] 0 setdash
0.000 setgray
gsave
/o {
gsave
newpath
translate
0.8 setlinewidth
1 setlinejoin
0 setlinecap
0 0 m
0 -3.5 l

gsave
0.000 setgray
fill
grestore
stroke
grestore
} bind def
63.3058 38.016 o
grestore
/DejaVuSans findfont
10.000 scalefont
setfont
gsave
60.126114 23.422250 translate
0.000000 rotate
0.000000 0.000000 m /zero glyphshow
grestore
gsave
/o {
gsave
newpath
translate
0.8 setlinewidth
1 setlinejoin
0 setlinecap
0 0 m
0 -3.5 l

gsave
0.000 setgray
fill
grestore
stroke
grestore
} bind def
115.682 38.016 o
grestore
gsave
112.502500 23.422250 translate
0.000000 rotate
0.000000 0.000000 m /five glyphshow
grestore
gsave
/o {
gsave
newpath
translate
0.8 setlinewidth
1 setlinejoin
0 setlinecap
0 0 m
0 -3.5 l

gsave
0.000 setgray
fill
grestore
stroke
grestore
} bind def
168.059 38.016 o
grestore
gsave
161.699199 23.422250 translate
0.000000 rotate
0.000000 0.000000 m /one glyphshow
6.362305 0.000000 m /zero glyphshow
grestore
gsave
/o {
gsave
newpath
translate
0.8 setlinewidth
1 setlinejoin
0 setlinecap
0 0 m
0 -3.5 l

gsave
0.000 setgray
fill
grestore
stroke
grestore
} bind def
220.435 38.016 o
grestore
gsave
214.075585 23.422250 translate
0.000000 rotate
0.000000 0.000000 m /one glyphshow
6.362305 0.000000 m /five glyphshow
grestore
gsave
/o {
gsave
newpath
translate
0.8 setlinewidth
1 setlinejoin
0 setlinecap
0 0 m
0 -3.5 l

gsave
0.000 setgray
fill
grestore
stroke
grestore
} bind def
272.811 38.016 o
grestore
gsave
266.451971 23.422250 translate
0.000000 rotate
0.000000 0.000000 m /two glyphshow
6.362305 0.000000 m /zero glyphshow
grestore
gsave
/o {
gsave
newpath
translate
0.8 setlinewidth
1 setlinejoin
0 setlinecap
0 0 m
0 -3.5 l

gsave
0.000 setgray
fill
grestore
stroke
grestore
} bind def
325.188 38.016 o
grestore
gsave
318.828358 23.422250 translate
0.000000 rotate
0.000000 0.000000 m /two glyphshow
6.362305 0.000000 m /five glyphshow
grestore
gsave
/o {
gsave
newpath
translate
0.8 setlinewidth
1 setlinejoin
0 setlinecap
0 0 m
0 -3.5 l

gsave
0.000 setgray
fill
grestore
stroke
grestore
} bind def
377.564 38.016 o
grestore
gsave
371.204744 23.422250 translate
0.000000 rotate
0.000000 0.000000 m /three glyphshow
6.362305 0.000000 m /zero glyphshow
grestore
gsave
209.863125 9.750375 translate
0.000000 rotate
0.000000 0.000000 m /t glyphshow
3.920898 0.000000 m /i glyphshow
6.699219 0.000000 m /m glyphshow
16.440430 0.000000 m /e glyphshow
22.592773 0.000000 m /comma glyphshow
25.771484 0.000000 m /space glyphshow
28.950195 0.000000 m /d glyphshow
35.297852 0.000000 m /a glyphshow
41.425781 0.000000 m /y glyphshow
47.343750 0.000000 m /s glyphshow
grestore
gsave
/o {
gsave
newpath
translate
0.8 setlinewidth
1 setlinejoin
0 setlinecap
0 0 m
-3.5 0 l

gsave
0.000 setgray
fill
grestore
stroke
grestore
} bind def
57.6 66.8822 o
grestore
gsave
34.693750 63.085356 translate
0.000000 rotate
0.000000 0.000000 m /zero glyphshow
6.362305 0.000000 m /period glyphshow
9.541016 0.000000 m /two glyphshow
grestore
gsave
/o {
gsave
newpath
translate
0.8 setlinewidth
1 setlinejoin
0 setlinecap
0 0 m
-3.5 0 l

gsave
0.000 setgray
fill
grestore
stroke
grestore
} bind def
57.6 101.788 o
grestore
gsave
34.693750 97.990779 translate
0.000000 rotate
0.000000 0.000000 m /zero glyphshow
6.362305 0.000000 m /period glyphshow
9.541016 0.000000 m /four glyphshow
grestore
gsave
/o {
gsave
newpath
translate
0.8 setlinewidth
1 setlinejoin
0 setlinecap
0 0 m
-3.5 0 l

gsave
0.000 setgray
fill
grestore
stroke
grestore
} bind def
57.6 136.693 o
grestore
gsave
34.693750 132.896201 translate
0.000000 rotate
0.000000 0.000000 m /zero glyphshow
6.362305 0.000000 m /period glyphshow
9.541016 0.000000 m /six glyphshow
grestore
gsave
/o {
gsave
newpath
translate
0.8 setlinewidth
1 setlinejoin
0 setlinecap
0 0 m
-3.5 0 l

gsave
0.000 setgray
fill
grestore
stroke
grestore
} bind def
57.6 171.598 o
grestore
gsave
34.693750 167.801624 translate
0.000000 rotate
0.000000 0.000000 m /zero glyphshow
6.362305 0.000000 m /period glyphshow
9.541016 0.000000 m /eight glyphshow
grestore
gsave
/o {
gsave
newpath
translate
0.8 setlinewidth
1 setlinejoin
0 setlinecap
0 0 m
-3.5 0 l

gsave
0.000 setgray
fill
grestore
stroke
grestore
} bind def
57.6 206.504 o
grestore
gsave
34.693750 202.707047 translate
0.000000 rotate
0.000000 0.000000 m /one glyphshow
6.362305 0.000000 m /period glyphshow
9.541016 0.000000 m /zero glyphshow
grestore
gsave
/o {
gsave
newpath
translate
0.8 setlinewidth
1 setlinejoin
0 setlinecap
0 0 m
-3.5 0 l

gsave
0.000 setgray
fill
grestore
stroke
grestore
} bind def
57.6 241.409 o
grestore
gsave
34.693750 237.612469 translate
0.000000 rotate
0.000000 0.000000 m /one glyphshow
6.362305 0.000000 m /period glyphshow
9.541016 0.000000 m /two glyphshow
grestore
gsave
/o {
gsave
newpath
translate
0.8 setlinewidth
1 setlinejoin
0 setlinecap
0 0 m
-3.5 0 l

gsave
0.000 setgray
fill
grestore
stroke
grestore
} bind def
57.6 276.315 o
grestore
gsave
34.693750 272.517892 translate
0.000000 rotate
0.000000 0.000000 m /one glyphshow
6.362305 0.000000 m /period glyphshow
9.541016 0.000000 m /four glyphshow
grestore
gsave
28.615625 167.572000 translate
90.000000 rotate
/DejaVuSans-Oblique findfont
10.0 scalefont
setfont
0.000000 0.531250 moveto
/tau glyphshow


grestore
1.500 setlinewidth
2 setlinecap
0.000 0.750 0.750 setrgbcolor
gsave
357.1 266.1 57.6 38.02 clipbox
73.832727 56.543436 m
74.196937 56.65457 l
74.269682 56.781221 l
74.560905 58.731811 l
75.070362 63.261506 l
75.507438 67.225316 l
75.653049 66.991925 l
76.891169 63.35638 l
77.765078 62.091514 l
77.837823 62.204079 l
78.274778 63.504007 l
78.638867 64.37986 l
78.930089 65.122077 l
79.294299 68.414502 l
79.731012 72.138959 l
79.949489 72.859094 l
80.095221 72.346974 l
80.240954 78.087434 l
80.31382 77.234851 l
80.386565 75.92572 l
81.041755 93.74979 l
81.332977 103.41241 l
81.47871 102.85304 l
81.697187 99.379713 l
81.842798 96.525767 l
81.915665 96.613792 l
81.98841 96.975436 l
82.061276 96.85608 l
82.134021 96.701651 l
82.206766 96.875765 l
82.352619 96.416831 l
82.425364 95.212336 l
82.934943 71.61777 l
83.080675 69.590041 l
83.226408 69.674229 l
83.590739 70.375724 l
84.028058 67.654508 l
84.173669 66.863207 l
84.246535 66.97371 l
84.683611 68.28748 l
84.756477 68.148907 l
85.411788 58.31042 l
85.5574 58.229426 l
85.703011 58.477257 l
86.504176 61.086747 l
86.57692 60.873777 l
87.013875 59.144165 l
87.086863 59.134729 l
87.305219 62.642666 l
87.669429 70.777168 l
87.742174 70.447904 l
88.324861 63.584763 l
88.470472 63.677837 l
88.616205 64.297566 l
88.980293 66.330501 l
89.125905 66.505083 l
89.417127 64.748587 l
89.489993 64.795049 l
89.781216 65.335508 l
89.999814 65.29446 l
90.509757 65.382693 l
90.582502 65.324587 l
91.747755 62.060234 l
91.966111 62.54203 l
92.767033 64.760251 l
92.912645 65.153514 l
93.640579 69.38745 l
93.713324 69.430902 l
93.786191 69.290155 l
94.223145 65.992503 l
94.441623 65.487544 l
94.878578 63.344467 l
95.315411 61.347023 l
95.606755 61.394212 l
96.262187 61.718905 l
96.480665 61.743499 l
99.02977 59.418959 l
101.505403 57.829199 l
102.233459 57.621807 l
102.670656 57.906859 l
103.617675 58.892403 l
104.928661 60.605726 l
106.021048 62.132088 l
107.332033 64.470273 l
109.371318 68.481141 l
110.900902 75.06006 l
111.556577 78.5595 l
111.629443 78.423844 l
112.430365 75.55357 l
112.648843 75.308249 l
112.721709 75.116564 l
113.304518 71.032144 l
113.377263 71.049578 l
113.450129 71.224239 l
113.59574 73.272832 l
113.887084 68.754725 l
113.95995 68.836659 l
114.323917 71.129566 l
114.469407 72.391214 l
114.760872 83.655385 l
114.906605 91.523969 l
115.125325 72.531975 l
115.343681 68.127623 l
115.416426 69.7654 l
115.707648 77.894194 l
115.853502 77.41333 l
115.926368 77.377797 l
117.018513 96.262797 l
117.382601 106.353458 l
117.455468 105.95548 l
117.819435 99.138192 l
117.965046 96.170835 l
118.110779 98.087064 l
118.256511 100.670995 l
118.329256 100.617133 l
118.547733 99.289531 l
118.839077 88.617441 l
119.057676 98.517362 l
119.130421 102.338631 l
119.203287 100.689998 l
119.421886 95.787549 l
119.640363 93.716956 l
119.713108 93.647538 l
119.931585 100.486325 l
120.368298 114.943094 l
120.51403 113.410753 l
121.169826 101.01247 l
121.461049 89.291966 l
121.606781 100.70043 l
121.679526 93.567597 l
121.752392 114.817012 l
122.043372 84.93514 l
122.334837 75.751012 l
122.626181 65.280517 l
122.771792 70.163089 l
123.063014 81.020001 l
123.281613 82.54069 l
123.427224 81.418919 l
123.864179 74.6784 l
124.082657 65.85679 l
124.155523 66.497295 l
124.374 70.404417 l
124.592478 68.667833 l
124.665344 68.173509 l
124.956809 70.847 l
125.248274 65.119839 l
125.539617 71.742801 l
125.976572 60.648167 l
126.19505 58.330002 l
126.413648 57.920712 l
126.704992 57.62404 l
127.141825 54.432535 l
127.287437 54.466669 l
127.505914 51.513617 l
127.578659 51.558504 l
127.870003 50.153041 l
128.015735 50.150865 l
128.234334 50.512862 l
128.744155 52.054362 l
129.399951 54.505134 l
129.836663 55.7662 l
130.128249 56.38585 l
130.419714 56.520664 l
130.492459 56.430353 l
131.002402 54.14887 l
131.439478 53.552873 l
131.512223 53.640934 l
131.949178 54.739595 l
132.313266 58.877186 l
132.604489 61.801139 l
132.7501 61.564033 l
133.260042 60.077297 l
133.478641 59.946699 l
133.697118 59.702707 l
133.915474 59.957004 l
135.080728 62.03152 l
135.736039 64.15109 l
136.245739 65.79224 l
136.537203 66.577769 l
136.682572 66.779488 l
136.828183 66.808071 l
136.973795 66.795044 l
137.119527 66.808043 l
137.192272 67.028829 l
137.483373 72.020238 l
137.847704 79.098152 l
137.920571 79.194877 l
138.211914 78.039316 l
138.357647 77.67564 l
138.576124 78.677099 l
138.79448 79.453598 l
138.940334 80.178905 l
139.231556 87.960296 l
139.523021 98.727441 l
139.595766 98.096739 l
140.68876 74.347594 l
140.761505 74.22344 l
140.907237 74.618536 l
141.344434 77.301057 l
141.854013 81.870422 l
142.509445 72.628436 l
142.728044 73.41531 l
142.946521 74.555974 l
143.456464 79.384377 l
143.747807 84.421093 l
144.403482 96.803291 l
144.767571 98.289974 l
145.059036 93.317812 l
145.277513 98.95182 l
145.350379 100.894735 l
145.423245 99.857409 l
145.641723 88.304895 l
145.787576 88.740304 l
145.93343 88.144321 l
146.006296 88.263716 l
146.225016 89.532406 l
146.51636 98.323103 l
146.589226 96.201449 l
146.807825 86.678655 l
146.953436 107.751485 l
147.099169 140.524665 l
147.171913 138.16782 l
147.60899 99.121127 l
147.75448 95.633951 l
148.045823 98.057408 l
148.118689 97.969209 l
148.191434 98.111928 l
148.264301 98.050027 l
148.555766 95.48945 l
148.701498 88.163376 l
148.774364 89.263258 l
148.920097 91.78708 l
148.992963 92.229245 l
149.211562 98.021056 l
149.284306 101.882877 l
149.357173 98.145166 l
149.430039 114.64134 l
149.502905 108.055215 l
149.575771 104.5342 l
149.721504 111.513836 l
149.794249 109.070683 l
150.012969 103.295783 l
150.085714 103.628085 l
150.52279 110.299415 l
150.887 120.448633 l
151.251088 132.943609 l
151.469566 132.993901 l
151.688043 136.73406 l
151.833776 142.12106 l
152.197864 172.276555 l
152.343597 189.037125 l
152.489329 174.2102 l
152.562317 179.982066 l
152.635183 189.309778 l
152.707928 138.056729 l
152.780673 158.413537 l
152.999271 115.305925 l
153.217749 110.234713 l
153.36336 110.981868 l
153.508971 107.525919 l
153.654704 94.325972 l
153.72757 95.326346 l
153.800436 96.863105 l
154.164525 84.451287 l
154.674346 76.571994 l
155.257154 74.265066 l
155.548741 77.302692 l
155.621486 77.046152 l
155.839963 74.651417 l
155.985574 74.935864 l
156.276797 75.265428 l
156.422529 75.442352 l
156.859605 72.111644 l
156.93235 72.142208 l
157.005216 72.643498 l
157.223694 79.447776 l
157.442414 93.639684 l
157.733636 115.937756 l
157.87949 114.49257 l
158.170712 118.716665 l
158.826387 89.393983 l
158.971998 87.650999 l
159.044864 87.98593 l
159.263342 112.256516 l
159.336087 123.934702 l
159.554443 109.053868 l
159.77292 102.879631 l
159.918532 101.288379 l
160.064143 102.371964 l
160.28262 106.229307 l
160.64683 119.303632 l
160.719696 118.464024 l
161.083785 142.029596 l
161.156772 143.823149 l
161.375129 136.286175 l
161.520982 154.456703 l
161.666593 186.795998 l
161.957937 127.045357 l
162.030803 127.445238 l
162.249281 131.978649 l
162.322147 131.651063 l
162.540503 122.143011 l
162.758981 87.530753 l
162.977579 81.32454 l
163.414534 77.072167 l
163.4874 76.821915 l
163.560267 76.865806 l
163.633133 76.865393 l
163.705756 77.418832 l
163.997343 89.836882 l
164.070209 98.672039 l
164.142954 91.020808 l
164.21582 93.301891 l
164.288686 94.03327 l
164.361431 93.909368 l
164.434419 93.969156 l
164.580151 92.571208 l
164.871495 110.176479 l
164.944482 111.258572 l
165.017227 111.189966 l
165.163081 107.589556 l
165.235826 107.862512 l
165.308692 108.502966 l
165.454303 106.693022 l
165.600036 113.318361 l
165.672902 111.983144 l
165.745768 109.706047 l
165.964367 96.967524 l
166.037233 93.92339 l
166.474309 101.336314 l
166.620042 101.96012 l
166.98413 111.214791 l
167.275231 121.43198 l
167.639441 134.718779 l
167.712308 123.795454 l
167.785174 130.199741 l
167.857919 128.032542 l
167.930785 127.984071 l
168.076396 128.66679 l
168.513472 120.711319 l
168.659205 117.93956 l
168.950548 126.35206 l
169.023293 124.997964 l
169.24165 118.953371 l
169.314516 119.023909 l
169.533114 120.477862 l
169.824216 119.362434 l
170.115438 121.217307 l
170.406903 133.331099 l
170.698125 111.847251 l
170.77087 117.92855 l
170.916603 113.296068 l
171.13508 112.407033 l
171.499169 111.440645 l
171.717646 102.354741 l
171.863257 113.193455 l
171.936124 100.500264 l
172.008869 107.872742 l
172.081614 107.084859 l
172.300212 115.037582 l
172.591313 132.252028 l
172.66418 153.367506 l
172.736925 146.300642 l
172.882536 134.343097 l
172.955523 139.979768 l
173.028268 147.226787 l
173.101256 143.700074 l
173.611198 109.931238 l
173.756931 113.300988 l
173.902542 96.763612 l
173.975287 98.205558 l
174.120898 101.625506 l
174.193885 102.436868 l
174.339497 115.55063 l
174.412242 113.853376 l
174.485229 111.109706 l
175.21377 133.171463 l
175.286636 132.660127 l
175.359624 131.31657 l
175.578222 166.342672 l
175.651089 173.673471 l
175.94219 97.824062 l
176.087801 163.835241 l
176.233533 193.12511 l
176.379145 168.198758 l
176.52512 132.278344 l
176.597986 136.920941 l
176.670852 143.142193 l
176.743718 143.066608 l
176.816463 141.017589 l
177.034941 114.337588 l
177.326042 85.095895 l
177.399029 84.94657 l
177.54464 76.012848 l
177.617507 85.695167 l
177.690373 120.40037 l
177.763118 104.694468 l
177.908729 83.767106 l
178.054461 80.79371 l
178.127206 82.225346 l
178.491538 122.854834 l
178.637149 120.192902 l
178.855626 127.401383 l
179.14697 134.474382 l
180.093867 237.807856 l
180.166612 237.339583 l
180.239478 236.426444 l
180.312223 232.493153 l
181.186739 115.481087 l
182.206745 73.56362 l
182.644185 65.701867 l
182.717051 65.953106 l
183.008395 69.38469 l
183.299738 74.692844 l
183.809802 87.581695 l
183.882547 86.481716 l
184.392489 72.258187 l
184.465477 73.076994 l
184.756699 82.056791 l
185.12103 100.377782 l
185.194018 76.44853 l
185.266763 90.548058 l
185.33975 85.883564 l
185.412495 81.655725 l
185.485483 82.828103 l
185.558228 83.04076 l
185.70396 71.115284 l
185.776826 72.149952 l
185.849692 73.997795 l
185.922437 73.918422 l
186.140915 68.710784 l
186.577748 73.126674 l
186.796347 76.589244 l
187.160557 83.49553 l
187.961843 90.120119 l
188.107454 92.586848 l
188.18032 94.810758 l
188.253187 92.708753 l
188.398919 98.692138 l
188.544773 100.120979 l
188.76325 99.024694 l
188.908983 101.615664 l
188.981849 98.223939 l
189.127339 103.204951 l
189.345695 108.185918 l
189.418561 107.903314 l
189.783014 104.968262 l
189.928867 104.926979 l
190.219968 102.084738 l
190.657166 118.148603 l
190.730032 106.059808 l
190.802777 112.518182 l
191.239732 88.659743 l
191.531318 82.542149 l
191.895528 80.385101 l
191.968394 80.425006 l
192.114005 83.252791 l
192.18675 82.996898 l
193.206271 135.08122 l
193.279016 134.594731 l
193.716092 127.998837 l
194.080181 110.12449 l
194.298901 105.924134 l
194.444876 107.50254 l
194.590608 109.516031 l
194.88183 117.659302 l
195.027805 108.330538 l
195.31927 82.111899 l
195.465124 76.129164 l
195.610735 88.745082 l
195.756468 114.525772 l
196.047811 82.520363 l
196.193422 87.867575 l
196.411779 95.821246 l
196.630377 93.794529 l
196.921963 94.739535 l
197.286052 99.829062 l
197.358918 99.796442 l
197.577517 100.212547 l
197.796116 101.399329 l
198.305694 111.398874 l
198.524293 116.779375 l
198.74277 127.172962 l
198.961248 122.365214 l
199.544056 91.732683 l
199.616923 92.231997 l
199.981132 96.656742 l
200.272597 99.93375 l
200.418209 100.880171 l
200.709673 105.536743 l
200.855406 101.787999 l
200.928393 104.520528 l
201.146992 96.529856 l
201.219979 95.650476 l
201.292846 96.853088 l
201.365833 91.498477 l
201.584553 113.298611 l
201.730285 116.791801 l
201.80303 116.902941 l
201.875897 116.853045 l
202.094617 118.001876 l
202.531814 96.302745 l
202.895903 68.688964 l
203.114744 61.846851 l
203.260597 61.651185 l
203.333342 61.821843 l
203.478954 61.476076 l
203.55182 61.563652 l
203.915908 62.470843 l
203.988775 62.315185 l
204.207252 61.871406 l
204.280118 62.197907 l
204.352985 60.998896 l
204.42573 61.232316 l
204.571462 64.018529 l
205.008538 65.80095 l
205.227015 66.380024 l
205.372748 66.595558 l
205.809824 62.897509 l
205.955678 61.799619 l
206.028665 61.884008 l
206.611474 64.033221 l
206.68434 63.96141 l
207.12178 63.273366 l
207.485868 61.484842 l
207.922944 59.412462 l
208.141301 58.290544 l
208.578377 56.253244 l
209.379905 53.663199 l
209.45265 53.58907 l
209.671128 54.219761 l
210.253815 57.163666 l
211.638031 65.979728 l
212.002241 68.941132 l
212.730539 75.117926 l
212.94938 76.327797 l
213.095113 75.96508 l
213.459444 73.88713 l
214.187985 68.369953 l
214.260851 68.44408 l
214.406462 68.670471 l
214.698048 69.487878 l
214.989513 69.475305 l
215.280857 68.564705 l
215.5722 72.701458 l
215.645067 72.693956 l
215.863665 71.401614 l
216.22836 67.517588 l
216.37385 67.368779 l
216.446716 67.45671 l
216.665315 68.737001 l
217.175257 73.523154 l
217.32099 76.023866 l
217.466722 72.133965 l
217.539588 72.504777 l
217.903677 77.332923 l
217.976665 76.787549 l
218.195142 74.652828 l
218.340996 77.9807 l
218.559594 82.200023 l
218.850817 80.223075 l
219.433504 75.297839 l
221.109185 62.621161 l
221.254917 63.660335 l
222.056324 70.587995 l
222.274923 71.400597 l
222.493522 69.305238 l
223.368159 59.64404 l
223.586757 58.530148 l
224.096821 57.51025 l
224.752253 56.14977 l
225.335304 54.020548 l
225.699635 53.23014 l
225.772502 53.216948 l
225.990858 54.206006 l
226.646411 59.007435 l
227.59343 68.567967 l
228.467824 79.555434 l
228.832156 85.048622 l
228.905143 84.883716 l
228.977888 84.970485 l
229.269232 94.857215 l
229.342219 94.733585 l
229.560697 92.355311 l
229.779538 99.476951 l
229.92527 102.998406 l
230.14399 102.737884 l
230.726799 106.030103 l
230.872531 106.127552 l
231.018142 105.693369 l
231.382595 101.183015 l
231.746683 96.936548 l
232.183881 92.355135 l
232.839919 79.574571 l
233.859804 66.128524 l
234.588466 59.154788 l
235.171153 56.488981 l
235.826949 54.569382 l
236.264147 53.4178 l
236.482745 53.893134 l
236.847198 54.855186 l
237.138541 53.665699 l
237.502751 52.483162 l
238.231413 53.090561 l
239.761119 53.187413 l
240.125814 53.951443 l
241.073196 55.940271 l
241.51003 55.855863 l
241.801616 55.789861 l
241.947348 56.602669 l
242.093081 56.614372 l
242.165947 55.679169 l
242.238813 55.705276 l
243.113208 55.928273 l
243.550405 55.854689 l
245.808894 55.176744 l
247.48409 55.059149 l
248.795318 54.95088 l
249.888554 55.055876 l
250.981547 55.353687 l
252.876433 56.173701 l
254.187782 57.185034 l
254.479369 57.343801 l
255.208031 57.812905 l
255.717852 58.229686 l
256.082425 58.878063 l
256.446757 61.341526 l
257.321272 69.571327 l
257.539992 74.856344 l
257.904445 83.408433 l
258.123043 82.658875 l
258.924329 97.037973 l
259.653113 108.734907 l
259.725979 108.687548 l
259.798724 108.80134 l
259.87159 108.722547 l
260.162934 106.275269 l
260.673119 122.823489 l
260.745985 123.554627 l
260.891839 121.695268 l
262.057941 99.879395 l
262.349284 99.217876 l
262.567762 98.364777 l
262.932093 95.506984 l
263.15057 92.253431 l
264.608016 59.184832 l
265.191188 52.875869 l
265.409666 51.737613 l
265.555519 52.307889 l
265.91985 55.279761 l
266.502538 62.859028 l
267.304187 77.771226 l
268.03285 98.945236 l
268.178582 106.204569 l
268.25157 97.405695 l
268.324315 101.988167 l
268.397302 121.124673 l
268.470047 114.181238 l
268.615658 101.445916 l
268.688403 102.147154 l
268.761391 104.022908 l
268.834257 103.476709 l
268.907123 103.143386 l
269.052856 105.667856 l
269.489932 117.761019 l
270.14597 140.987627 l
270.583289 162.516685 l
270.7289 163.787006 l
270.801645 163.211848 l
271.165976 153.421288 l
271.311708 144.46996 l
271.821893 108.568181 l
272.040492 105.945437 l
272.113237 105.477923 l
272.331836 106.248905 l
272.404702 105.667437 l
272.769275 90.853108 l
272.915008 85.103697 l
272.987995 86.729978 l
273.133728 97.775988 l
273.206473 131.241747 l
273.279339 122.863232 l
273.352205 127.516535 l
273.425193 125.498155 l
273.570925 131.193414 l
273.716536 104.780419 l
274.153976 186.389492 l
274.518307 102.993856 l
274.591052 105.078933 l
274.736906 101.651933 l
274.955626 123.699577 l
275.174103 144.653465 l
275.246969 147.411541 l
275.319714 146.759322 l
275.465326 136.4311 l
275.683803 111.726712 l
275.756669 110.929442 l
275.902402 103.277978 l
276.048255 126.007508 l
276.193988 96.124734 l
276.55844 145.910921 l
276.631306 133.641948 l
276.704051 137.558545 l
276.776918 138.653243 l
277.068383 156.234055 l
277.359847 118.221137 l
277.651434 128.282246 l
278.161497 111.739013 l
278.234242 111.424949 l
278.45272 120.060194 l
278.744306 142.615973 l
279.108758 178.950038 l
279.400223 211.988193 l
279.546198 180.105065 l
279.837663 118.122661 l
280.056383 104.288099 l
280.129249 103.905599 l
280.202115 101.271033 l
280.274981 102.559202 l
280.566446 97.706085 l
280.85779 100.613963 l
281.222 86.291449 l
281.440598 87.754593 l
281.513465 87.614923 l
281.65944 87.311676 l
281.805172 87.104535 l
282.023771 86.642453 l
282.096516 86.753404 l
282.169382 86.923454 l
282.315114 88.5593 l
282.460725 84.644964 l
282.824935 94.485953 l
282.970668 89.285481 l
283.043534 89.02391 l
283.262133 94.902545 l
283.33512 92.124898 l
283.407865 93.055967 l
283.480731 93.387658 l
283.772075 87.622628 l
283.917929 96.46395 l
284.355005 127.015177 l
284.792323 100.157995 l
284.938056 99.161541 l
285.083667 102.028397 l
285.229399 110.805248 l
285.302144 109.149846 l
285.375011 107.882316 l
285.666597 142.242976 l
285.812208 158.119631 l
285.885195 155.278654 l
285.958183 150.236461 l
286.031049 150.459254 l
286.103794 150.428058 l
286.905565 109.652097 l
287.051298 107.317518 l
287.124164 107.529166 l
287.196909 101.022996 l
287.269654 104.076979 l
287.488252 96.95727 l
287.56124 98.803174 l
287.779596 89.590725 l
287.998195 86.147889 l
288.216793 83.083503 l
288.653869 75.012739 l
288.726736 74.694009 l
288.872468 75.815374 l
289.163812 80.705438 l
289.382532 84.703459 l
289.455398 83.876787 l
289.528143 83.94786 l
289.892474 83.105121 l
290.475283 91.450245 l
290.54827 90.651748 l
291.495773 76.073358 l
292.078824 72.604389 l
292.224436 72.871712 l
292.370168 71.096787 l
292.734499 75.072548 l
292.807365 74.820736 l
293.244441 68.426865 l
293.46304 66.598794 l
293.608651 66.688997 l
293.973104 67.138629 l
294.55567 66.878913 l
294.847013 66.906312 l
295.211102 67.309174 l
295.356956 67.27233 l
295.648421 67.395555 l
295.721287 67.674199 l
296.012752 72.720811 l
296.522815 81.926881 l
296.668669 83.222711 l
296.741535 84.257496 l
296.814523 83.76368 l
296.887389 83.497707 l
297.324707 97.181903 l
297.47044 90.178926 l
297.907758 100.113401 l
298.053612 101.251527 l
298.199345 99.697294 l
298.417943 94.624763 l
298.782638 84.33982 l
299.146848 83.765629 l
299.219835 83.698559 l
299.875753 79.456916 l
300.31295 79.583823 l
300.385816 79.463253 l
300.750147 75.768161 l
301.041612 73.781054 l
301.551797 66.622961 l
301.697651 74.509547 l
301.916371 88.528505 l
301.989237 87.727814 l
302.062103 88.589717 l
302.134969 88.544023 l
302.572167 76.515747 l
302.790765 75.171797 l
302.936498 75.418689 l
303.155096 76.507174 l
304.030097 82.064453 l
304.102964 81.791946 l
304.467416 82.617623 l
304.685893 81.543251 l
304.75876 81.12135 l
304.831505 81.251331 l
305.050224 81.881877 l
305.341932 75.581938 l
305.56053 81.435497 l
305.633275 83.839779 l
305.706142 83.763223 l
305.924862 81.967012 l
306.143339 82.562793 l
306.289071 83.419094 l
306.580779 85.954347 l
306.799499 85.690846 l
307.091085 88.869415 l
307.674378 94.367284 l
307.965964 95.583551 l
308.403162 105.458683 l
308.476028 105.519498 l
308.549016 105.803098 l
309.278041 127.833136 l
309.715118 140.025151 l
310.662621 93.114207 l
311.100061 83.608925 l
311.609639 77.582116 l
312.047079 74.184544 l
312.192812 74.080552 l
312.338544 74.20497 l
312.921474 75.152388 l
313.212939 73.927669 l
313.504404 80.144658 l
313.577512 91.126582 l
313.650257 83.235845 l
313.796111 94.680486 l
313.941965 76.165717 l
314.01471 77.984734 l
314.23343 86.644335 l
314.452149 94.796787 l
314.670748 95.376593 l
314.962092 101.719615 l
315.034958 101.670363 l
315.545022 97.430302 l
315.763499 103.402774 l
316.273684 120.510987 l
316.346671 120.417164 l
316.419537 120.938556 l
316.711124 141.088026 l
316.783869 138.337092 l
317.002346 123.517328 l
317.075212 125.175949 l
317.294175 132.506814 l
317.585882 116.460493 l
317.658627 106.027318 l
317.731736 117.738157 l
317.877468 102.09971 l
318.023201 120.412147 l
318.169054 100.073588 l
318.241799 100.63113 l
318.314665 102.030953 l
318.387532 101.402808 l
318.533264 98.984909 l
318.897474 90.906189 l
318.97034 90.915603 l
319.043085 90.493784 l
319.33455 81.632971 l
319.480161 83.9569 l
319.625894 83.85433 l
319.771626 102.701597 l
319.844492 99.930325 l
319.917359 96.288496 l
320.063091 112.015163 l
320.208702 137.590736 l
320.500167 92.664411 l
320.6459 98.767343 l
320.718766 96.566624 l
320.791632 92.218374 l
320.937365 72.036667 l
321.010352 73.154943 l
321.374562 89.091516 l
321.593282 81.478761 l
321.666027 76.813481 l
321.811759 87.968314 l
321.957492 78.345064 l
322.030358 78.280373 l
322.103224 80.025864 l
322.249078 94.156051 l
322.39481 82.896538 l
322.540543 68.291997 l
322.759505 78.189648 l
322.83225 74.096193 l
322.905116 74.201681 l
322.977982 82.166088 l
323.05097 81.200956 l
323.196702 86.48985 l
323.415544 75.98275 l
323.561397 75.466304 l
323.70713 81.818754 l
323.852862 56.96033 l
323.998595 71.697482 l
324.071582 69.332586 l
324.217314 60.62412 l
324.290059 59.94886 l
324.435913 62.107953 l
325.091588 72.66092 l
325.310187 74.03478 l
325.383053 79.426009 l
325.60153 71.772505 l
326.038606 63.125003 l
326.184218 64.592609 l
326.402937 67.287204 l
326.475804 67.259635 l
326.694402 67.913716 l
326.91288 67.871366 l
327.204587 67.414125 l
327.423428 67.870861 l
327.496295 67.727626 l
327.569161 67.794884 l
327.787759 68.078573 l
328.152091 69.113876 l
328.516664 70.205036 l
328.662397 70.522348 l
328.735384 70.442132 l
328.881116 70.272213 l
328.953983 70.410374 l
329.318435 77.305343 l
329.391422 76.983384 l
329.537276 76.745577 l
329.828741 83.983484 l
329.974474 96.511263 l
330.04734 92.278347 l
330.120206 92.406762 l
330.338805 95.96733 l
330.557403 96.33082 l
330.994479 95.525994 l
331.285944 91.62575 l
331.358811 91.991103 l
331.577288 104.948433 l
331.72302 98.251151 l
331.868753 90.016559 l
332.087351 85.116421 l
332.160218 84.868755 l
332.378574 99.116706 l
332.451561 104.783315 l
332.67016 91.022211 l
332.815892 85.558716 l
333.034612 86.219952 l
333.107357 85.834916 l
333.180224 83.079459 l
333.398943 92.651678 l
333.617542 102.220464 l
333.982116 82.043508 l
334.054982 82.438858 l
334.127848 84.097243 l
334.200714 88.944253 l
334.492301 128.967733 l
334.637912 119.913753 l
334.856632 99.517172 l
334.929377 100.68209 l
335.07523 86.205242 l
335.220963 88.975837 l
335.585415 95.446966 l
335.731148 99.832976 l
336.022734 110.758487 l
336.605542 102.126301 l
336.678408 100.038228 l
336.751153 110.975859 l
336.82402 100.137201 l
336.896886 102.776637 l
336.969873 103.660654 l
337.115727 110.757721 l
337.26146 91.281394 l
337.407313 114.191736 l
337.480301 111.810843 l
337.553046 107.65186 l
337.626033 109.478477 l
337.771887 111.34084 l
337.844874 111.789575 l
337.917862 110.866134 l
337.990607 112.164268 l
338.136218 153.64019 l
338.282193 216.645977 l
338.427925 178.245857 l
338.646645 129.971215 l
338.865123 125.813771 l
338.937989 126.484163 l
339.15683 131.385513 l
339.302684 160.416489 l
339.448295 214.139632 l
339.667136 103.039361 l
339.740123 95.846561 l
339.81299 99.038921 l
340.03171 120.264625 l
340.323538 111.876305 l
340.615003 120.909753 l
341.12543 131.999275 l
341.198297 132.310752 l
341.34415 130.303317 l
341.489883 121.070617 l
341.562628 123.153493 l
341.635615 124.43255 l
341.708481 127.690109 l
342.145921 74.707948 l
342.218787 75.639363 l
342.36452 77.327814 l
342.728972 70.339772 l
343.530743 65.899532 l
343.749342 69.727763 l
344.186539 81.115709 l
344.478247 98.365049 l
344.551113 96.440923 l
344.696966 91.726858 l
344.769833 92.369605 l
344.915565 96.064361 l
344.988431 98.008228 l
345.134285 85.886027 l
345.57124 104.785906 l
345.78996 98.957455 l
345.935692 96.821792 l
346.00868 96.819917 l
346.154412 96.466632 l
346.446241 100.621171 l
346.519107 99.667208 l
346.737584 96.521707 l
346.883438 97.537735 l
347.029292 98.82592 l
347.102158 98.768089 l
347.247769 98.625112 l
347.320635 98.873317 l
347.539234 104.464662 l
348.122043 125.865182 l
348.19503 125.558541 l
348.413871 115.315658 l
348.996922 86.253037 l
349.069789 86.214912 l
349.361253 81.371522 l
349.871802 77.043823 l
350.673452 67.481895 l
351.183394 65.088417 l
351.693942 59.097275 l
351.912541 58.665999 l
352.058395 58.756792 l
352.277115 59.173843 l
352.787178 57.14081 l
352.860045 57.342523 l
353.151388 65.723338 l
353.515841 77.34271 l
353.952795 99.942638 l
354.317248 109.350396 l
354.389993 106.10517 l
354.462859 109.798589 l
354.535846 108.896124 l
354.6817 106.8672 l
354.900056 101.520782 l
355.04591 115.931793 l
355.118776 112.851363 l
355.191642 109.516453 l
356.06628 163.606784 l
356.284878 165.17397 l
356.357744 165.492045 l
356.794942 179.296981 l
357.086528 191.05936 l
357.305127 200.862293 l
357.377993 201.221473 l
357.45098 201.160836 l
357.596591 198.563643 l
357.887935 184.858836 l
358.106534 171.227907 l
358.325132 189.175597 l
358.689464 216.905044 l
359.272393 187.109143 l
359.345138 192.13409 l
359.563737 212.332487 l
359.854959 183.220722 l
360.000692 191.683748 l
360.219533 218.625315 l
360.438253 272.801351 l
360.511119 263.782131 l
360.72996 190.865727 l
360.802948 201.62558 l
361.021546 231.106273 l
361.167279 226.634418 l
361.313011 222.539801 l
361.385878 222.653568 l
361.531852 224.770035 l
361.604719 226.170652 l
361.750451 222.476733 l
361.896184 229.753972 l
362.042037 242.799782 l
362.114903 241.499436 l
362.260636 228.928595 l
362.552343 181.356267 l
362.625331 185.507342 l
362.916917 194.281991 l
363.062649 198.172145 l
363.354235 214.455615 l
363.572834 201.440241 l
364.082898 169.235202 l
364.228751 165.655375 l
364.593083 139.041542 l
364.884547 142.973957 l
364.957414 143.006616 l
365.030522 143.424132 l
365.103389 142.990349 l
365.759306 118.331093 l
365.977904 111.355498 l
366.123637 113.207026 l
366.269369 116.083579 l
366.342236 115.796075 l
366.560834 113.671108 l
366.852299 114.682568 l
367.43535 107.946121 l
367.65407 113.857704 l
368.09151 130.455073 l
368.237242 127.300589 l
368.601816 107.76795 l
369.185109 65.316467 l
369.549562 59.631922 l
370.132734 54.533187 l
370.424441 53.580257 l
370.64304 53.977194 l
371.00725 55.141685 l
371.444447 57.030576 l
372.683779 63.425476 l
372.756646 63.372961 l
373.120977 62.218886 l
373.922505 59.529169 l
374.2872 59.822506 l
374.724761 60.194114 l
375.162322 60.494978 l
375.891106 60.464395 l
376.182813 60.257844 l
376.328545 60.756305 l
376.474399 61.482388 l
376.693119 61.857317 l
376.838973 62.104772 l
377.13068 62.962613 l
377.349521 63.990471 l
377.640986 60.664546 l
378.223795 55.635838 l
378.515623 54.326895 l
378.661477 54.362814 l
379.025929 55.516538 l
379.171662 57.361317 l
379.536235 67.393938 l
379.755076 73.137921 l
379.900809 73.544144 l
380.119408 73.263839 l
380.265261 72.613389 l
380.775446 75.397745 l
380.848191 75.005769 l
381.504108 57.982976 l
381.649841 58.102309 l
382.014414 58.824321 l
382.670453 56.4788 l
382.74344 56.540801 l
383.18088 56.997326 l
383.253868 56.889453 l
383.909785 55.68765 l
384.347346 55.398317 l
384.565944 55.913713 l
385.149359 58.119069 l
386.388327 63.236106 l
386.679914 64.685711 l
386.825767 65.84176 l
386.898634 68.584995 l
386.971621 68.035146 l
387.919367 89.796823 l
387.992233 89.463572 l
388.283698 86.914022 l
388.939494 80.137124 l
389.01236 79.661496 l
389.085226 79.842534 l
389.522303 83.055102 l
389.813767 84.812987 l
390.615417 88.123967 l
390.833895 88.625458 l
391.198347 89.550803 l
391.344079 89.635595 l
391.562678 88.617726 l
392.145608 84.474211 l
392.51006 80.930676 l
392.583048 81.200063 l
392.874512 83.084002 l
392.947379 83.053232 l
393.020245 83.530045 l
393.093111 82.294074 l
393.165977 83.333042 l
393.384697 78.771604 l
393.676405 75.080657 l
393.749392 74.966607 l
393.822137 75.057388 l
394.186468 75.90374 l
394.624029 76.982639 l
394.769762 79.525837 l
394.842507 79.614554 l
395.133972 78.254945 l
395.279825 76.719486 l
395.498545 76.513655 l
395.644278 76.389492 l
395.862998 76.57756 l
396.00873 77.135254 l
396.22745 80.838972 l
396.664768 92.355252 l
396.810622 113.38674 l
396.956355 139.72438 l
397.248183 119.52503 l
397.321049 118.77917 l
397.393916 119.095292 l
397.466903 118.680152 l
397.758368 100.349831 l
397.831234 100.138642 l
398.049833 103.45634 l
398.414407 113.086551 l
398.487273 112.882689 l
stroke
grestore
0.627 0.314 0.314 setrgbcolor
gsave
357.1 266.1 57.6 38.02 clipbox
73.832727 71.533245 m
74.196937 70.625987 l
74.269682 70.7014 l
74.48816 73.161187 l
74.924751 81.759222 l
75.580183 99.640477 l
75.653049 99.48962 l
75.871527 97.522745 l
76.162991 94.461857 l
76.381348 92.71796 l
76.672813 90.124015 l
77.109767 89.219334 l
77.255257 88.880346 l
77.692212 87.741261 l
77.837823 87.680743 l
78.129167 88.091182 l
78.930089 90.032684 l
79.221312 93.880716 l
79.658267 103.683101 l
79.876744 108.218662 l
80.022355 103.9596 l
80.095221 105.192332 l
80.240954 131.160442 l
80.31382 127.105559 l
80.386565 119.905003 l
80.604921 136.571267 l
80.677666 133.278711 l
80.823277 156.721921 l
81.915665 153.654774 m
82.134021 171.066398 l
82.643842 132.70344 l
83.007688 124.654147 l
83.153542 114.162579 l
83.226408 113.774785 l
83.299274 114.236029 l
83.590739 131.468828 l
83.736471 129.082329 l
83.882325 126.316203 l
84.392146 154.317455 l
84.683611 159.123488 l
84.902089 154.513151 l
85.0477 148.940416 l
85.994354 80.772267 l
86.358564 77.711781 l
86.504176 77.047801 l
87.086863 70.961179 l
87.305219 75.064519 l
87.814919 85.484229 l
87.887664 86.119555 l
87.960651 86.053871 l
88.179129 79.343864 l
88.252116 78.868247 l
88.397727 79.994907 l
88.907427 86.398232 l
89.271395 89.655408 l
89.417127 90.68151 l
89.708349 84.4654 l
89.781216 84.967253 l
89.999814 88.072532 l
90.582502 83.381071 l
90.800737 83.259263 l
91.019456 83.492812 l
91.383545 83.965291 l
91.674889 84.496415 l
91.893366 85.461144 l
92.402945 89.067936 l
93.058256 94.813291 l
93.203867 94.735806 l
93.494847 94.049285 l
93.786191 96.941897 l
93.858936 96.379201 l
94.223145 93.03797 l
94.441623 91.874928 l
94.878578 89.063757 l
95.533889 86.369471 l
95.897977 85.242433 l
96.407798 82.894266 l
96.553531 83.274627 l
96.990486 84.779028 l
97.281708 82.305632 l
97.791772 78.998015 l
98.374217 76.982914 l
98.884159 75.872513 l
99.539712 73.953595 l
99.976546 73.158227 l
100.340635 73.088714 l
100.995824 73.313549 l
101.942358 73.991994 l
103.909018 76.262085 l
104.710183 77.756749 l
105.729825 80.409033 l
107.550511 86.285776 l
108.133441 87.668026 l
108.716128 90.869953 l
108.788873 90.810579 l
109.225707 90.588293 l
109.517293 92.673185 l
110.027478 96.22534 l
110.391445 98.237165 l
110.682425 101.410854 l
111.192246 109.688253 l
111.556577 114.604632 l
111.629443 113.684332 l
112.139143 103.613516 l
112.211888 103.902461 l
112.284754 105.126269 l
112.35762 102.300596 l
112.503232 105.87636 l
112.721709 109.123745 l
113.013295 94.580336 l
113.158906 97.370256 l
113.231651 96.556552 l
113.304518 95.133837 l
113.377263 95.858888 l
113.450129 89.558664 l
113.59574 111.628651 l
113.887084 88.421971 l
114.032695 90.788761 l
114.178185 94.696758 l
114.251051 94.462306 l
114.323917 94.035501 l
114.469407 95.590198 l
114.542274 96.587122 l
114.61514 99.691739 l
114.906605 160.023691 l
114.979471 142.247222 l
115.125325 105.24295 l
115.343681 93.250179 l
115.416426 94.856796 l
115.780514 109.590898 l
115.926368 110.797655 l
116.508934 149.340866 l
116.72729 141.690159 l
116.800035 139.673043 l
117.382601 167.485637 l
117.455468 167.020629 l
117.673824 160.258144 l
117.819435 150.53357 l
117.965046 116.890799 l
118.183645 157.049389 l
118.256511 170.462406 l
118.329256 164.900283 l
118.6206 135.7685 l
118.693466 137.209742 l
118.839077 132.939208 l
118.911943 134.505461 l
119.130421 148.803311 l
119.276032 125.393388 l
119.421886 145.254862 l
119.494631 143.1614 l
119.567497 140.109344 l
119.640363 141.107432 l
119.785974 146.151677 l
120.077197 167.798373 l
120.222808 179.837959 l
120.295553 180.037592 l
120.441164 186.405355 l
120.51403 185.172631 l
120.586896 181.490461 l
120.659641 194.064432 l
120.805495 173.804765 l
120.878604 186.694637 l
121.09696 169.884275 l
121.169826 173.14568 l
121.315437 165.420499 l
121.388182 148.932443 l
121.461049 153.623557 l
121.606781 199.264344 l
121.679526 170.100941 l
121.897882 199.813046 m
122.043372 165.549964 l
122.189105 193.263228 l
122.553436 119.827205 l
122.626181 111.226712 l
123.208626 176.971916 l
123.281613 176.80138 l
123.50009 161.728647 l
123.64558 164.098006 l
123.791434 120.613681 l
123.864179 160.037567 l
124.155523 81.905972 m
124.228268 83.628861 l
124.301134 174.94072 l
124.374 161.788967 l
124.446745 184.857196 l
124.519611 127.981808 l
124.592478 131.10285 l
124.665344 131.589937 l
124.883942 170.854751 l
124.956809 184.242673 l
125.029675 177.296463 l
125.102541 169.164235 l
125.175407 116.651811 l
125.248274 133.664649 l
125.539617 166.975459 l
125.612362 163.349167 l
125.903827 140.063494 l
125.976572 150.999308 l
126.122183 129.094873 l
126.19505 129.141558 l
126.267916 130.594721 l
126.340661 130.400973 l
126.413648 130.410104 l
126.632004 131.519252 l
126.704992 130.913351 l
126.996093 103.301171 l
127.141825 116.086371 l
127.287437 136.522342 l
127.433048 72.437384 l
127.505914 74.217791 l
127.72427 85.379591 l
127.797136 85.095935 l
127.870003 83.919782 l
127.94299 84.26869 l
128.015735 84.475426 l
128.161468 82.692137 l
128.234334 83.045523 l
128.452811 85.445873 l
128.671289 92.035519 l
128.8169 102.481628 l
128.962632 115.8874 l
129.035499 158.395219 l
129.108486 151.185038 l
129.25434 94.477602 l
129.399951 87.034186 l
129.545562 88.288582 l
129.618307 88.294421 l
130.128249 76.880634 l
130.273982 75.894503 l
130.492459 75.972248 l
130.929657 70.707656 l
131.075268 70.542226 l
131.293866 69.072638 l
131.366611 68.459828 l
131.512223 71.17701 l
131.657834 67.878179 l
131.7307 68.180242 l
132.167534 73.229797 l
132.386011 80.470238 l
132.531744 85.875035 l
132.604489 85.722627 l
133.260042 77.691508 l
133.478641 77.307512 l
133.769863 76.621748 l
133.988219 76.698345 l
134.86225 77.845168 l
135.226218 79.782303 l
136.027261 85.411167 l
136.391471 90.783937 l
136.682572 95.073286 l
136.828183 95.088633 l
137.119527 94.49366 l
137.265138 96.778396 l
137.847704 113.387801 l
137.920571 118.111227 l
137.993316 117.601473 l
138.357647 106.393938 l
138.430392 107.084331 l
138.79448 112.831728 l
138.940334 114.649316 l
139.231556 128.53601 l
139.450155 149.277714 l
139.595766 154.177763 l
139.668875 152.970193 l
139.814607 137.104612 l
139.960461 159.785474 l
140.033327 155.114216 l
140.106072 160.366141 l
140.397537 112.105255 l
140.470282 111.560848 l
140.761505 114.936545 l
140.834371 114.900318 l
140.907237 113.684293 l
141.052969 115.738939 l
141.635535 127.110578 l
141.781268 128.692074 l
141.854013 128.610307 l
142.07249 121.239261 l
142.509445 105.156611 l
142.800789 103.814621 l
142.873655 103.770892 l
143.019266 105.343692 l
143.16512 101.402022 l
143.310731 106.797993 l
143.383597 106.677995 l
143.456464 106.365173 l
143.601954 108.126245 l
143.820552 118.111175 l
144.112017 144.706466 l
144.184883 154.849128 l
144.330495 133.525125 l
144.403482 154.852736 l
144.476348 148.415448 l
144.621959 154.494891 l
144.694826 142.942885 l
144.767571 154.483572 l
144.986169 126.566739 l
145.059036 123.685454 l
145.204647 134.93353 l
145.277513 158.48383 l
145.350379 156.460683 l
145.423245 161.05699 l
145.496112 153.169703 l
145.71471 107.458473 l
145.860564 122.545417 l
146.079405 129.878585 l
146.443615 104.366187 l
146.88057 171.457918 l
147.099169 223.158173 l
147.24478 204.640876 l
147.60899 120.489942 l
147.681856 97.661024 l
147.75448 109.836995 l
147.827346 106.607647 l
147.973078 121.42188 l
148.045823 121.31662 l
148.264301 119.031631 l
148.410033 119.676404 l
148.555766 124.28667 l
148.628753 123.947778 l
148.701498 111.520515 l
148.774364 114.224799 l
148.847109 128.305477 l
148.920097 122.298006 l
148.992963 116.369237 l
149.211562 87.313823 l
149.284306 86.237383 l
149.575771 79.247055 m
149.794249 140.802817 l
149.939981 124.686008 l
150.012969 115.181283 l
150.085714 115.713054 l
150.231325 125.237304 l
150.304191 122.920958 l
150.377057 136.365749 l
150.449924 118.567846 l
150.52279 119.913437 l
150.595535 120.232892 l
150.959745 154.569762 l
151.032611 154.462372 l
151.178222 154.766326 l
151.542432 167.00359 l
151.906642 184.444682 l
152.999271 134.684253 m
153.072138 140.461593 l
153.144883 140.357249 l
153.217749 141.387235 l
153.36336 149.217125 l
153.508971 142.512944 l
153.654704 102.612694 l
153.800436 128.490726 l
153.873181 122.096525 l
154.091659 109.309055 l
154.164525 113.071838 l
154.23727 111.177936 l
154.674346 102.798514 l
154.747212 102.806905 l
154.892945 103.695286 l
154.965811 104.356577 l
155.038677 104.311042 l
155.111543 104.312101 l
155.330142 106.881815 l
155.403129 106.957027 l
155.548741 104.676295 l
155.694352 119.141844 l
155.767218 115.500523 l
155.839963 107.03215 l
155.912708 108.286938 l
155.985574 109.836145 l
156.131185 106.650293 l
156.276797 109.398763 l
156.422529 106.282034 l
156.786739 90.077222 l
156.859605 91.068771 l
157.077961 99.684225 l
157.29656 115.094713 l
157.442414 161.601422 l
157.660649 230.595617 l
157.806381 199.804932 l
158.097967 152.668583 l
158.170712 148.694342 l
158.316566 110.649649 l
158.535043 147.332548 l
158.607788 145.906594 l
158.753521 122.720613 l
158.899132 135.13335 l
159.044864 160.323245 l
159.117609 124.852666 l
159.190476 145.284145 l
159.263342 136.268716 l
159.336087 134.116519 l
159.408953 137.00549 l
159.481698 148.181186 l
159.627309 133.103601 l
159.700054 135.125004 l
159.845665 139.186468 l
159.918532 137.875722 l
159.991277 142.370442 l
160.064143 137.893136 l
160.136888 139.991107 l
160.501098 157.638758 l
160.64683 175.352431 l
160.719696 135.953437 l
160.865429 190.121586 l
160.938174 169.450848 l
161.156772 198.597341 l
161.302384 164.732279 l
161.375129 164.874899 l
161.593727 231.065239 l
161.739581 240.701426 m
161.957937 147.066107 l
162.030803 148.533884 l
162.249281 173.77241 l
162.322147 165.835814 l
162.540503 221.935244 l
162.758981 109.457964 l
162.904713 99.778051 l
163.123312 103.198439 l
163.196178 103.085936 l
163.268923 103.026517 l
163.414534 106.840422 l
163.560267 95.358324 l
163.633133 102.186376 l
163.705756 89.205984 l
163.997343 124.986818 l
164.070209 176.839352 l
164.142954 120.855723 l
164.21582 152.776717 l
164.288686 141.63518 l
164.361431 145.506698 l
164.434419 143.228168 l
164.580151 134.750398 l
164.725762 206.372995 l
164.798629 203.642044 l
164.871495 194.602881 l
165.017227 214.717511 l
165.308692 169.530947 l
165.454303 145.931321 l
165.600036 167.499362 l
165.745768 139.363811 l
165.818513 97.136809 l
165.891501 117.292718 l
165.964367 98.797857 l
166.110099 107.056114 m
166.328577 158.685253 l
166.401443 159.100395 l
166.547054 150.948417 l
166.692908 144.094324 l
166.765653 145.19011 l
166.911385 140.792389 l
167.056875 163.129049 l
167.129741 160.685379 l
167.202486 155.841858 l
168.367861 163.843 m
168.659205 151.24815 l
168.950548 170.732323 l
169.023293 168.431482 l
169.24165 157.171057 l
169.314516 157.749801 l
169.533114 161.757693 l
169.751471 160.863318 l
169.969827 161.799474 l
170.115438 168.715156 l
170.26117 163.581281 l
170.406903 189.328228 l
170.698125 139.702523 l
170.843736 164.144058 l
170.989348 209.059 l
171.13508 181.190548 l
171.353436 128.456756 l
171.717646 81.7632 l
171.790391 88.888655 l
171.863257 108.608062 l
172.008869 113.642603 m
172.372957 164.330489 l
172.445702 182.857322 l
172.518568 145.189386 l
172.66418 226.914002 l
172.882536 167.734633 l
173.028268 222.206986 l
173.101256 210.921202 l
173.392599 154.080778 l
173.538332 131.076881 l
174.26663 122.015294 m
174.412242 138.913973 l
174.558095 129.901774 l
174.630961 124.852768 l
174.776573 147.615663 l
174.849318 145.700996 l
174.922305 141.974556 l
174.995171 142.421068 l
175.068038 143.886322 l
175.140904 149.515803 l
176.014935 215.884536 m
176.087801 211.123622 l
176.160667 226.478132 l
176.597986 135.897243 m
176.670852 163.785768 l
176.743718 150.936771 l
176.816463 136.824475 l
176.962074 152.847382 l
177.107686 105.234867 l
177.326042 166.641682 m
177.471895 108.052021 l
177.617507 113.10517 l
180.603688 243.5837 m
181.477962 121.274001 l
181.550949 127.318836 l
182.133879 95.163513 l
182.570955 80.568588 l
182.644185 79.426698 l
182.717051 79.714859 l
182.93565 82.790006 l
183.372605 90.948636 l
183.736936 98.18605 l
183.809802 101.436822 l
183.882547 100.336572 l
183.955413 97.531322 l
184.028279 140.901785 l
184.101146 135.415677 l
184.174012 135.069665 l
184.246878 133.559469 l
184.465477 91.192778 l
184.538222 94.966715 l
184.611088 89.275013 l
184.683833 91.587582 l
184.756699 93.872181 l
184.829687 155.819592 l
184.902432 101.994673 l
184.975298 106.060054 l
185.048164 100.839326 l
185.12103 111.723848 l
185.194018 84.527375 l
185.266763 105.779537 l
185.33975 104.098452 l
185.412495 95.499783 l
185.485483 165.396296 l
185.558228 154.658156 l
185.70396 75.539997 l
185.776826 81.320472 l
185.849692 106.435961 l
185.922437 97.980338 l
186.140915 80.644451 l
186.21366 99.055804 l
186.286526 90.065627 l
186.359271 83.036933 l
186.577748 91.354242 l
186.650615 91.967844 l
186.723481 87.928174 l
187.014825 103.767731 l
187.306168 109.976859 l
187.524888 107.713287 l
187.597633 107.185595 l
187.81611 114.33524 l
188.398919 145.051904 l
188.471906 156.289086 l
188.544773 151.515868 l
188.76325 140.203591 l
188.836116 141.823632 l
188.908983 150.992213 l
188.981849 132.026105 l
189.054594 172.095781 l
189.127339 165.074589 l
189.200205 163.953427 l
189.418561 175.068872 l
189.491427 176.308076 l
189.783014 139.527074 l
189.928867 138.748412 l
190.074357 105.837133 l
190.147223 132.586876 l
190.219968 121.553871 l
190.511312 191.402316 l
190.584178 169.661979 l
190.657166 181.15886 l
190.730032 133.547143 l
190.802777 177.881614 l
191.021376 92.104511 l
191.094121 139.528664 l
191.166866 125.12107 l
191.385464 109.722283 l
191.604305 111.028469 l
192.041139 120.686881 l
192.114005 126.433523 l
192.18675 113.094055 l
192.259616 127.207867 l
192.332361 120.038943 l
192.405228 117.034129 l
192.477973 120.271756 l
192.550839 129.24387 l
192.623584 129.116961 l
192.69645 127.589323 l
193.206271 155.329167 l
193.351761 154.476312 l
193.93457 147.110438 l
194.371767 143.878356 l
194.444876 143.989259 l
194.590608 144.605157 l
194.88183 148.570057 l
195.027805 154.392711 l
195.173659 148.311734 l
195.31927 159.797337 l
195.392137 151.366379 l
195.465124 155.198315 l
195.68348 193.364241 l
195.756468 198.185908 l
196.047811 151.822626 l
196.120678 155.578632 l
196.339034 176.717382 l
196.484645 163.668549 l
197.067696 98.728116 l
197.213186 118.810455 l
197.286052 114.232139 l
197.50453 101.641145 l
197.577517 101.488219 l
197.650383 101.845096 l
197.796116 93.961215 l
197.941727 101.692853 l
198.160083 122.883223 l
198.232828 119.827054 l
198.305694 150.45385 l
198.37856 141.577601 l
198.451427 142.414578 l
198.524293 139.269305 l
198.669904 197.305072 l
198.74277 196.094018 l
199.47119 93.049116 l
199.544056 111.98545 l
199.616923 92.737127 l
199.689789 104.982602 l
199.908387 69.38742 l
199.981132 64.892173 l
200.418209 99.759482 l
200.855406 142.588241 l
200.928393 142.466099 l
201.00126 100.597979 l
201.074247 125.926594 l
201.146992 119.509849 l
201.219979 98.967086 l
201.292846 122.629993 l
201.365833 78.099438 l
201.511687 162.780351 l
201.584553 148.118021 l
201.657419 172.877465 l
201.730285 164.606032 l
201.80303 158.511201 l
201.875897 161.260209 l
201.948763 160.654748 l
202.021629 158.923994 l
202.094617 184.776569 l
202.240349 160.643052 l
202.313215 158.709083 l
202.386203 99.369532 l
202.459069 129.945371 l
202.531814 103.578057 l
202.604801 110.24444 l
202.895903 83.302318 l
203.114744 74.245149 l
203.406209 79.4413 l
203.478954 83.622721 l
203.69731 74.370029 l
203.770176 72.558287 l
203.915908 94.071339 l
204.280118 80.419289 l
204.498596 79.609411 l
204.717194 81.825624 l
204.935672 83.761355 l
205.081404 84.633215 l
205.372748 88.49277 l
205.591225 84.758742 l
205.955678 77.679685 l
206.101653 78.991355 l
206.538607 85.473665 l
206.611474 85.032076 l
207.12178 79.049667 l
207.194646 79.443049 l
207.267512 79.920402 l
207.413002 78.709016 l
207.704346 73.16373 l
207.777212 73.763354 l
207.995689 77.294968 l
208.360021 70.207329 l
208.578377 69.761724 l
209.379905 65.833734 l
209.45265 65.712497 l
209.598261 66.121559 l
209.962471 68.118338 l
210.617904 73.51015 l
211.346445 81.472642 l
212.293463 95.183323 l
212.512062 97.271959 l
212.657673 98.00212 l
213.1681 106.357666 l
213.240966 106.350695 l
213.532431 109.356586 l
213.678042 107.197812 l
213.823654 103.283077 l
213.969507 102.700487 l
214.11524 98.611261 l
214.260851 126.272391 l
214.333717 119.413148 l
214.406462 111.256272 l
214.698048 135.061811 l
214.843781 130.471927 l
215.280857 106.950549 l
215.426468 109.945902 l
215.5722 114.349732 l
215.863665 131.29053 l
216.155373 96.645673 l
216.22836 101.447035 l
216.446716 127.438691 l
216.519704 123.824312 l
216.738181 104.000861 l
216.811047 106.318524 l
216.883914 109.103817 l
217.029646 119.61291 l
217.102391 90.55094 l
217.175257 117.735356 l
217.32099 95.283693 l
217.393856 115.461983 l
217.466722 108.644396 l
217.539588 81.260213 l
217.612333 89.710566 l
217.757945 95.778679 l
217.903677 90.798126 l
217.976665 91.173551 l
218.049531 93.047981 l
218.122276 90.862599 l
218.413862 99.590446 l
218.559594 104.663639 l
218.632461 104.604954 l
218.777951 111.19544 l
218.850817 107.436357 l
218.996428 87.967924 l
219.069294 108.068508 l
219.214905 89.821404 l
219.287772 90.354508 l
219.433504 89.4165 l
219.50637 89.535221 l
220.0893 84.568026 l
220.526376 78.19348 l
220.599242 78.33517 l
220.744975 79.192285 l
220.81772 79.850445 l
220.963573 78.62273 l
221.254917 82.351559 l
222.129069 89.088307 l
222.274923 89.254775 l
222.493522 87.136286 l
223.003464 78.710301 l
223.513891 70.223693 l
224.169687 67.136399 l
224.679508 65.183709 l
225.116706 64.101545 l
225.553903 63.653946 l
225.699635 63.712387 l
225.845247 64.187001 l
226.209457 66.97316 l
226.792023 73.638765 l
227.229099 81.506261 l
227.957761 98.743784 l
228.467824 112.637646 l
228.686544 123.223491 l
228.759411 122.208332 l
228.977888 115.179549 l
229.196244 124.542862 l
229.48783 141.577554 l
229.633563 153.120638 l
229.706671 153.044206 l
229.92527 162.557231 l
230.289601 188.057345 l
230.945276 185.072317 m
231.23662 174.055858 l
232.256747 141.547564 l
232.839919 100.390385 l
233.349983 88.886006 l
233.422728 100.129468 l
233.495594 98.277285 l
233.714192 93.311137 l
233.786937 106.149028 l
233.859804 104.384649 l
234.151147 100.273862 l
234.5156 94.860184 l
234.661211 90.527879 l
234.87981 88.123976 l
235.899815 72.430229 l
236.337013 69.543835 l
236.628478 68.602294 l
236.701465 65.525455 l
236.77421 65.780557 l
236.992809 66.18775 l
237.211286 66.320284 l
237.357019 66.449598 l
237.429885 66.388335 l
237.867082 63.383207 l
238.085681 62.36633 l
238.377267 62.520926 l
238.741356 62.637421 l
239.032699 62.601224 l
239.324043 62.782088 l
239.761119 63.43971 l
240.271668 65.553585 l
240.927464 68.746093 l
241.00033 68.637315 l
241.437285 66.817559 l
242.093081 63.78529 l
242.238813 63.971904 l
243.331806 66.255336 l
243.914615 66.423946 l
244.643156 66.659865 l
245.371697 67.14394 l
246.828779 67.796534 l
247.411345 67.502817 l
247.994032 67.074594 l
248.649586 66.324079 l
249.159649 65.679478 l
249.596968 65.964745 l
250.398496 66.549593 l
250.54435 66.428446 l
250.690082 67.54012 l
250.835694 66.752736 l
250.908681 66.981668 l
251.127159 67.5323 l
251.418745 67.847177 l
251.637343 67.549753 l
252.438993 66.275169 l
252.657834 66.098431 l
252.949299 66.193193 l
253.313509 66.364768 l
253.67784 66.451641 l
253.750706 66.566681 l
254.042171 68.388323 l
254.479369 71.0586 l
255.062298 72.478642 l
256.228279 77.566899 l
256.7381 83.375656 l
256.883833 86.019895 l
256.95682 87.684686 l
257.102553 84.467404 l
257.321272 92.97105 l
257.39426 92.849925 l
257.831457 118.510621 l
257.904445 116.714466 l
258.123043 114.659847 l
258.924329 141.293713 l
258.997196 141.050108 l
259.070062 148.894429 l
259.143049 146.512734 l
259.50738 158.653376 l
259.580247 159.882801 l
259.798724 154.462351 l
260.017323 144.839622 l
260.162934 137.854859 l
260.600252 162.12599 l
260.818972 163.913493 l
260.891839 163.700445 l
261.110437 161.125272 l
261.547877 155.329427 l
261.911966 151.80444 l
262.057941 152.272078 l
262.276418 153.273645 l
262.495017 154.186981 l
263.369169 138.592227 l
263.733379 120.655834 l
264.024844 97.638189 l
264.681003 89.64174 m
265.191188 78.386936 l
265.409666 76.494297 l
265.628386 79.719512 l
266.138328 92.478012 l
266.211194 87.045219 l
266.283939 89.5208 l
266.721015 107.889124 l
266.79376 107.838964 l
266.866626 107.882606 l
267.012601 117.541429 l
267.304187 133.293564 l
267.522665 140.685785 l
267.668397 151.059751 l
267.741264 157.550634 l
267.887117 141.561424 l
268.105716 179.155743 l
268.178582 181.778982 l
268.324315 153.926041 l
268.470047 223.29515 l
268.615658 149.689749 l
268.688403 170.327551 l
268.761391 187.619572 l
268.834257 187.559202 l
268.907123 185.006476 l
269.052856 190.402462 l
272.769275 168.683701 m
272.915008 128.332545 l
273.060862 131.800416 l
273.133728 127.35528 l
273.206473 180.203428 l
273.279339 150.442198 l
273.352205 153.596971 l
273.425193 148.459404 l
273.498059 148.727649 l
273.570925 148.528741 l
273.716536 107.087604 l
274.153976 232.173877 l
274.226842 214.12541 l
274.518307 119.42025 l
274.591052 122.046702 l
274.736906 116.720482 l
274.955626 155.948367 l
275.683803 108.275182 m
275.902402 146.811929 l
275.975268 146.479164 l
276.266854 142.002643 m
276.339842 172.497468 l
276.412587 168.741161 l
276.485453 160.076014 l
276.55844 164.236277 l
276.631306 171.232903 l
276.704051 168.716242 l
276.776918 166.59145 l
276.849784 172.627659 l
277.141249 165.176067 m
277.359847 115.586222 l
277.578446 152.642651 l
277.870153 135.305083 l
278.161497 118.345173 l
278.234242 117.322508 l
279.108758 245.982435 l
279.181745 260.811854 l
279.546198 216.484765 m
279.764554 113.993979 l
279.837663 95.99069 l
280.784924 137.798181 m
280.85779 135.739134 l
280.930535 100.36823 l
281.003401 100.390313 l
281.149133 102.470651 l
281.294866 100.392859 l
281.440598 106.702926 l
281.513465 106.582656 l
281.586452 106.05004 l
281.65944 106.331127 l
281.805172 107.347598 l
282.315114 112.411929 l
282.387859 112.206988 l
282.460725 112.249834 l
282.533592 112.520541 l
282.606458 112.384713 l
282.752069 143.564324 l
282.897802 97.099032 l
283.043534 134.921917 l
283.1164 106.529685 l
283.189266 117.22743 l
283.262133 135.289155 l
283.33512 118.579327 l
283.407865 122.869095 l
283.480731 124.136767 l
283.772075 112.988909 l
283.917929 124.544431 l
284.136406 152.540047 l
284.282139 130.137461 l
284.500737 119.981369 m
284.573725 123.233708 l
284.646712 122.090271 l
284.719457 100.95097 l
285.447998 133.863853 m
285.812208 212.373805 l
285.958183 187.172661 l
286.103794 212.938167 l
286.176539 211.055756 l
286.249527 204.266849 l
286.322514 180.6738 l
286.395259 192.666076 l
286.759711 137.774317 l
286.978431 112.107138 l
287.124164 146.715791 l
287.196909 95.191543 l
287.269654 115.622387 l
287.34252 96.143476 l
287.415265 105.916473 l
287.706851 101.993296 m
287.779596 91.800756 l
287.852583 107.398921 l
287.925328 107.252608 l
288.289538 99.414868 l
288.362405 99.33261 l
288.435271 97.618655 l
288.653869 87.321783 l
288.726736 88.592792 l
288.799481 109.512864 l
288.872468 89.447109 l
288.945213 90.63576 l
289.309665 103.319312 l
289.382532 119.281467 l
289.455398 109.118703 l
289.746863 128.934117 l
289.892474 137.702246 l
289.96534 130.757385 l
290.038085 144.29832 l
290.111073 137.706695 l
290.183818 141.638641 l
290.402538 135.910669 l
290.475283 139.10519 l
290.54827 136.577203 l
290.766869 125.97818 l
290.98571 118.017153 l
291.058576 119.106511 l
291.131442 103.527796 l
291.20443 113.139979 l
291.350041 101.3245 l
291.495773 103.318561 l
291.568518 108.297196 l
291.641506 105.286266 l
291.714251 110.924568 l
291.859983 103.231331 l
291.932849 102.003812 l
292.151569 106.843149 l
292.224436 105.717662 l
292.443034 98.376528 l
292.515779 98.50471 l
292.807365 108.456813 l
293.025964 101.856984 l
293.317429 94.834961 l
293.535906 92.918011 l
294.118715 91.049901 l
294.482682 89.49304 l
294.55567 89.365649 l
294.701281 89.719795 l
294.992625 91.106059 l
295.794032 96.69387 l
296.595803 114.213049 l
296.741535 125.329017 l
296.814523 124.418793 l
296.887389 122.625465 l
296.960134 122.813616 l
297.033 123.595429 l
297.25172 136.604659 l
297.324707 144.432376 l
297.47044 119.180717 l
297.543306 122.396473 l
297.761905 130.932275 l
297.834892 130.850306 l
298.053612 129.773832 l
298.490931 153.306218 l
298.563797 162.358081 l
298.928371 157.653856 m
299.073982 163.742369 l
299.219835 147.116188 l
299.29258 148.407443 l
299.5113 152.854618 l
299.802765 151.176966 l
300.31295 156.066806 l
300.385816 155.411172 l
301.041612 113.994752 l
301.551797 123.54976 l
302.062103 150.616688 l
302.134969 159.324897 l
302.717899 104.383974 l
302.790765 105.180516 l
303.30095 119.830002 l
303.374059 120.158124 l
303.446925 120.086137 l
303.665645 119.997872 l
303.811499 120.274771 l
303.957231 123.895366 l
304.540282 129.077081 l
304.613148 128.927856 l
304.75876 127.927744 l
305.050224 134.113439 l
305.341932 114.97444 l
305.487664 122.790802 l
305.633275 134.292981 l
305.706142 133.022928 l
305.997728 129.053914 l
306.070473 129.327844 l
306.143339 124.338248 l
306.216205 124.456042 l
306.507791 151.992269 l
306.580779 148.553585 l
306.872365 133.594102 l
307.091085 151.294789 l
307.455658 165.221675 l
307.528525 165.709687 l
307.674378 163.58349 l
307.965964 154.533152 l
308.257429 193.427048 l
308.330296 192.738013 l
308.403162 191.137229 l
308.476028 172.467441 l
308.549016 181.378812 l
308.622003 182.001947 l
309.350908 230.157953 l
309.423774 234.794957 l
309.86085 227.188747 m
310.29829 174.067379 l
310.808475 153.50737 l
310.88122 150.737645 l
311.100061 134.651737 l
311.245551 130.397887 l
311.318417 131.304669 l
311.391283 118.791163 l
311.464028 126.873516 l
311.682627 118.512541 l
312.119945 112.993947 l
312.192812 113.064775 l
312.338544 113.598712 l
312.41141 113.573404 l
312.5569 113.53484 l
312.630009 113.78031 l
312.848608 120.114244 l
312.921474 123.65785 l
312.99434 117.243506 l
313.067085 117.648113 l
313.140073 116.359562 l
313.212939 116.458276 l
313.504404 124.011355 l
313.723124 140.965435 l
313.796111 158.952728 l
313.868977 117.432541 l
313.941965 117.868951 l
314.087576 176.971771 l
314.160563 174.048707 l
314.23343 165.807693 l
314.306417 166.386261 l
314.379283 167.065675 l
314.524894 178.88401 l
314.597761 177.232977 l
314.670748 173.852747 l
314.889104 178.071783 l
314.962092 177.769685 l
315.253557 172.163988 l
315.399168 167.243246 l
319.261684 137.052819 m
319.33455 127.474613 l
319.625894 144.239228 l
319.771626 151.151014 l
319.917359 98.034261 l
320.135836 200.112353 l
320.208702 239.46461 l
320.500167 123.019728 l
320.6459 182.701384 l
320.718766 165.155624 l
320.937365 89.66312 l
321.010352 89.930891 l
321.083218 93.611873 l
321.156084 93.037137 l
321.228951 93.792818 l
321.301817 101.614826 l
321.374562 121.977184 l
321.447428 103.258904 l
321.520416 123.407949 l
321.593282 98.804642 l
321.666027 104.267856 l
321.738893 108.179873 l
321.811759 106.541915 l
321.957492 102.146073 m
322.030358 91.621533 l
322.249078 117.009891 l
322.321944 120.736499 l
322.540543 75.301301 l
322.61353 81.865585 l
322.686518 111.018655 l
322.759505 91.811123 l
322.83225 123.045938 l
322.905116 115.386128 l
322.977982 94.793758 l
323.05097 117.433452 l
323.342677 133.579912 m
323.415544 127.460759 l
323.634263 146.879597 l
323.70713 158.483864 l
323.852862 82.001848 l
323.998595 124.969436 l
324.071582 118.786244 l
324.217314 76.23539 l
324.290059 76.399386 l
324.435913 78.305025 l
325.164575 91.378163 l
325.310187 86.646335 l
325.383053 99.721067 l
325.455798 97.00708 l
325.60153 85.849969 l
325.674396 103.72411 l
325.747263 102.630981 l
325.892874 97.676616 l
325.96574 82.404941 l
326.038606 93.178542 l
326.111473 90.141006 l
326.184218 85.809138 l
326.32995 99.065881 l
326.402937 91.450547 l
326.475804 107.649345 l
326.548549 88.777465 l
326.621415 93.746086 l
326.694402 90.441455 l
326.767269 91.45888 l
326.840014 91.498621 l
326.91288 91.868659 l
327.058612 90.604366 l
327.1316 90.824042 l
327.204587 91.158862 l
327.277453 91.131467 l
327.496295 91.004826 l
327.641906 92.795129 l
327.787759 91.297548 l
327.860626 91.51108 l
327.933492 92.079559 l
328.370689 99.11535 l
328.443677 98.988851 l
328.953983 96.215732 l
329.172824 101.404186 l
329.537276 112.557832 l
329.610142 112.219345 l
329.68313 113.630784 l
329.755875 113.479756 l
329.828741 112.922896 l
329.974474 132.81175 l
330.120206 119.748289 l
330.338805 126.948333 l
330.484416 127.798023 l
330.703136 127.187555 l
330.848747 128.261312 l
330.994479 130.304696 l
331.140212 125.3775 l
331.213078 125.630977 l
331.285944 132.037531 l
331.358811 115.034787 l
331.504543 151.350817 l
331.650154 160.821277 l
331.941619 131.91798 l
332.160218 114.981725 l
332.305829 151.445399 l
332.378574 147.062281 l
332.451561 150.290045 l
332.597294 141.36642 l
332.743147 120.7856 l
332.88888 139.801373 l
334.637912 99.481987 m
334.710899 86.235519 l
334.929377 134.101107 m
335.293708 154.551703 l
335.366695 102.337528 l
335.439561 107.551669 l
335.65816 127.051936 l
335.949867 87.047859 l
336.241211 104.204556 l
336.678408 85.808313 l
336.751153 154.401448 l
336.82402 99.633619 l
336.896886 116.16889 l
337.115727 128.044156 l
337.26146 84.12859 l
337.407313 138.153951 l
337.480301 132.815345 l
337.553046 123.336172 l
337.626033 126.498793 l
337.699021 129.64478 l
337.771887 129.199486 l
337.844874 129.795346 l
337.917862 127.891861 l
337.990607 131.545302 l
338.500913 235.183445 m
338.937989 137.260976 l
339.010976 141.4982 l
339.229696 220.493964 l
339.521161 235.406511 m
339.667136 106.037447 l
339.81299 87.874106 m
339.885856 124.043173 l
339.958722 92.315406 l
340.03171 131.95031 l
340.104576 127.30443 l
340.177442 127.244634 l
340.323538 127.469531 l
340.469392 158.790394 l
340.542137 146.097173 l
340.615003 183.342837 l
340.687991 176.281707 l
340.90671 166.618518 l
340.979577 171.184152 l
341.052443 166.024325 l
341.271163 196.067276 l
341.34415 194.2524 l
341.562628 169.829184 l
341.708481 203.30774 l
341.854335 164.393087 l
341.927201 165.325716 l
342.145921 104.052829 l
342.218787 105.847914 l
342.36452 103.889492 l
342.58324 91.956543 l
342.656106 95.6881 l
342.874705 89.769748 l
343.312145 85.209678 l
343.457877 84.602542 l
343.530743 84.65102 l
343.749342 88.197832 l
344.113673 97.367434 l
344.332393 125.921769 l
344.478247 146.77432 l
344.769833 131.848715 l
344.842699 132.491029 l
344.988431 133.805752 l
345.134285 122.931731 l
345.20703 126.947274 l
345.279896 123.515446 l
345.57124 182.288918 l
345.644227 170.440831 l
345.862826 142.473485 l
346.154412 119.969033 l
346.2274 120.774518 l
346.300387 119.671209 l
346.373253 143.185075 l
346.664718 105.5776 l
346.737584 97.733142 l
346.883438 119.200009 l
347.029292 124.525735 l
347.175024 120.960856 l
347.320635 99.85214 l
347.466368 113.106554 l
347.903444 182.892919 l
347.976189 147.529337 l
348.049176 199.801267 l
348.340884 177.054458 m
348.486738 144.286897 l
348.559725 145.390546 l
348.632591 146.211928 l
348.705457 151.961792 l
348.778324 150.919345 l
348.851311 110.949463 l
348.924056 147.621932 l
348.996922 106.846296 l
349.069789 112.003178 l
349.361253 101.42145 l
349.43412 102.698658 l
349.653082 112.084522 l
349.725948 112.020103 l
349.871802 108.322378 l
349.944668 105.595483 l
350.017534 106.165119 l
350.090401 106.913033 l
350.308999 92.718206 l
350.381866 92.427937 l
350.600585 88.591 l
350.819063 88.234838 l
350.891929 88.400493 l
351.037662 88.708097 l
351.110528 88.522238 l
351.25626 85.793276 l
351.402235 82.10848 l
351.693942 78.416686 l
352.058395 74.956253 l
352.34986 73.431703 l
352.641567 71.170679 l
352.787178 70.805579 l
352.860045 71.042101 l
353.078522 75.431004 l
353.297121 81.681451 l
353.369987 78.956304 l
353.442853 80.8739 l
353.661573 107.189317 l
353.734318 84.976981 l
353.952795 156.967332 l
354.025662 186.810563 l
354.098649 181.945568 l
354.389993 102.946521 l
354.462859 122.222947 l
354.6817 81.21911 l
354.754445 94.076107 l
354.82719 81.71719 l
354.973044 81.938649 m
355.04591 118.443 l
355.118776 94.406223 l
355.264509 100.482615 m
355.483229 158.085032 l
355.556095 159.502462 l
355.628961 156.30364 l
355.774815 138.452476 l
356.357744 241.126835 l
356.576586 252.35147 l
359.782214 292.032 m
359.927947 272.592666 l
364.010031 238.991465 m
364.228751 248.23734 l
364.520216 196.265148 l
364.593083 199.779148 l
364.884547 223.136675 l
365.103389 229.7403 l
365.759306 176.421845 l
365.977904 150.369755 l
366.050771 152.49268 l
366.415102 176.982422 l
366.560834 154.406769 l
366.6337 155.963855 l
366.779312 160.581422 l
366.925287 161.818797 l
366.998153 161.807018 l
367.143885 167.522995 l
367.289739 149.852123 l
367.65407 173.120707 l
367.726936 174.64569 l
368.018522 200.987644 l
369.549562 88.189032 m
369.841148 78.44165 l
369.914014 78.887471 l
370.132734 76.280341 l
370.278466 76.126904 l
370.351454 76.447254 l
370.64304 82.900736 l
371.080116 93.858576 l
371.735912 99.02815 l
371.808778 87.548175 l
371.881645 91.537339 l
372.683779 128.956754 l
372.829512 125.10131 l
373.849639 90.996588 l
374.214212 87.786107 l
375.089456 83.022658 l
375.380921 82.834235 l
375.745373 82.646521 l
376.328545 82.151342 l
376.474399 82.108033 l
376.765985 82.429022 l
377.13068 79.911499 l
377.203546 80.081826 l
377.349521 82.889324 l
378.078183 68.739699 l
378.442757 65.949671 l
378.588611 65.592317 l
378.661477 65.637234 l
379.025929 66.944404 l
379.098795 67.651881 l
379.317758 74.739724 l
379.973675 100.093624 l
380.119408 101.008269 l
380.192395 100.876431 l
380.265261 100.704016 l
380.483981 101.987857 l
380.629714 101.987562 l
380.775446 101.086708 l
380.848191 99.781514 l
381.504108 73.245683 l
381.649841 73.126544 l
382.014414 73.610804 l
382.597587 71.235104 l
382.74344 71.520166 l
383.18088 72.819565 l
383.253868 72.728712 l
383.836797 71.507507 l
384.201492 71.223989 l
384.347346 71.283564 l
384.638932 72.774701 l
385.076493 76.097374 l
386.53406 90.016218 l
386.679914 91.916025 l
386.898634 99.198946 l
387.409061 124.660411 l
387.481927 125.519374 l
387.700647 139.289963 l
387.846501 154.040927 l
387.919367 154.874556 l
388.065099 153.684278 l
388.283698 148.576892 l
388.356685 145.933364 l
388.42943 138.902115 l
388.502297 139.182084 l
388.721017 140.94166 l
389.01236 127.240605 l
389.085226 127.62384 l
389.595169 135.747923 l
389.740901 134.943801 l
389.886634 133.941889 l
390.251086 138.06077 l
390.323952 137.918601 l
390.542551 137.830371 l
390.833895 138.383286 l
391.271213 140.005503 l
391.344079 140.039014 l
391.635544 137.814596 l
391.927009 133.151285 l
392.218474 138.31505 l
392.51006 124.059145 l
392.728901 134.850324 l
392.874512 140.417967 l
392.947379 139.334447 l
393.020245 142.095807 l
393.093111 123.583156 l
393.165977 145.158179 l
393.238844 130.22044 l
393.31171 134.360415 l
393.384697 135.060488 l
393.530551 129.618848 l
393.603538 129.818579 l
393.676405 130.306525 l
393.967748 127.921943 l
394.332443 126.497716 l
394.769762 126.354341 l
394.842507 126.125473 l
395.352813 119.387458 l
395.425679 120.043732 l
395.498545 114.444739 l
395.571533 119.133272 l
395.790131 107.586315 l
395.862998 104.879083 l
395.935864 105.665233 l
396.00873 107.144786 l
396.081596 106.635823 l
396.154584 106.150188 l
396.519036 110.377614 l
396.591902 111.976414 l
397.10233 179.274882 l
397.175075 198.312645 l
397.248183 196.407042 l
397.321049 191.890758 l
397.393916 192.797705 l
397.466903 190.283168 l
397.758368 147.500464 l
397.831234 149.354367 l
398.122699 173.185538 l
398.34154 208.502156 l
398.487273 160.163316 l
398.487273 160.163316 l
stroke
grestore
0.800 setlinewidth
0 setlinejoin
[] 0 setdash
0.000 setgray
gsave
57.6 38.016 m
57.6 304.128 l
stroke
grestore
gsave
414.72 38.016 m
414.72 304.128 l
stroke
grestore
gsave
57.6 38.016 m
414.72 38.016 l
stroke
grestore
gsave
57.6 304.128 m
414.72 304.128 l
stroke
grestore
1.000 setlinewidth
0 setlinecap
0.800 setgray
gsave
64.6 266.78425 m
122.459375 266.78425 l
123.792708 266.78425 124.459375 267.450917 124.459375 268.78425 c
124.459375 297.128 l
124.459375 298.461333 123.792708 299.128 122.459375 299.128 c
64.6 299.128 l
63.266667 299.128 62.6 298.461333 62.6 297.128 c
62.6 268.78425 l
62.6 267.450917 63.266667 266.78425 64.6 266.78425 c
cl
gsave
1.000 setgray
fill
grestore
stroke
grestore
1.500 setlinewidth
1 setlinejoin
2 setlinecap
[] 0 setdash
0.000 0.750 0.750 setrgbcolor
gsave
66.6 291.03425 m
86.6 291.03425 l
stroke
grestore
0.000 setgray
gsave
94.600000 287.534250 translate
0.000000 rotate
0.000000 0.000000 m /three glyphshow
6.362305 0.000000 m /m glyphshow
16.103516 0.000000 m /m glyphshow
grestore
0.627 0.314 0.314 setrgbcolor
gsave
66.6 276.362375 m
86.6 276.362375 l
stroke
grestore
0.000 setgray
gsave
94.600000 272.862375 translate
0.000000 rotate
0.000000 0.000000 m /two glyphshow
6.362305 0.000000 m /m glyphshow
16.103516 0.000000 m /m glyphshow
grestore

end
showpage
